FIPS,HR_UID,nameid,province,region,analysisTime,dates,pointprevalence_025,pointprevalence_50,pointprevalence_975,pointinfections_025,pointinfections_50,pointinfections_975,pointinfectious_025,pointinfectious_50,pointinfectious_975,pointinfectiousprevalence_05,pointinfectiousprevalence_50,pointinfectiousprevalence_95,infectrate_025,infectrate_50,infectrate_975
26065,0,USMichiganIngham,Michigan,Ingham,2020-07-16 14:52:56.416774,2020-03-09 00:00:00.000000,0.00315002,0.01032967,0.04462080,9,30,130,3,13,69,0.00120047,0.00472870,0.02383499,0.56972171,0.79552331,1.02664820
26065,0,USMichiganIngham,Michigan,Ingham,2020-07-16 14:52:56.416774,2020-03-10 00:00:00.000000,0.00348479,0.01143535,0.04640642,10,33,135,4,15,61,0.00161644,0.00525013,0.02103744,0.56972278,0.79552326,1.02664789
26065,0,USMichiganIngham,Michigan,Ingham,2020-07-16 14:52:56.416774,2020-03-11 00:00:00.000000,0.00393417,0.01283035,0.04909039,11,37,143,6,18,69,0.00207899,0.00618882,0.02391594,0.56972576,0.79552315,1.02664710
26065,0,USMichiganIngham,Michigan,Ingham,2020-07-16 14:52:56.416774,2020-03-12 00:00:00.000000,0.00447868,0.01464134,0.05246079,13,42,153,6,20,73,0.00230053,0.00685430,0.02517725,0.56973417,0.79552293,1.02664510
26065,0,USMichiganIngham,Michigan,Ingham,2020-07-16 14:52:56.416774,2020-03-13 00:00:00.000000,0.00516922,0.01632779,0.05638021,15,47,164,8,24,80,0.00278493,0.00822074,0.02747363,0.56975779,0.79552249,1.02664011
26065,0,USMichiganIngham,Michigan,Ingham,2020-07-16 14:52:56.416774,2020-03-14 00:00:00.000000,0.00581733,0.01788772,0.06088996,17,52,178,9,27,91,0.00311758,0.00933572,0.03134432,0.56982418,0.79552159,1.02662822
26065,0,USMichiganIngham,Michigan,Ingham,2020-07-16 14:52:56.416774,2020-03-15 00:00:00.000000,0.00649156,0.02054817,0.06761870,18,60,197,10,30,101,0.00347917,0.01027955,0.03466757,0.57001060,0.79551974,1.02660254
26065,0,USMichiganIngham,Michigan,Ingham,2020-07-16 14:52:56.416774,2020-03-16 00:00:00.000000,0.00725292,0.02375713,0.07521215,21,69,219,11,33,112,0.00387547,0.01157426,0.03849077,0.57053252,0.79759676,1.02656045
26065,0,USMichiganIngham,Michigan,Ingham,2020-07-16 14:52:56.416774,2020-03-17 00:00:00.000000,0.00810741,0.02675940,0.08353839,23,78,244,12,37,125,0.00431202,0.01295324,0.04276762,0.57198106,0.79933168,1.02656543
26065,0,USMichiganIngham,Michigan,Ingham,2020-07-16 14:52:56.416774,2020-03-18 00:00:00.000000,0.00905993,0.03012016,0.09252647,26,88,270,14,43,137,0.00479564,0.01492348,0.04691389,0.57590134,0.80255858,1.03586560
26065,0,USMichiganIngham,Michigan,Ingham,2020-07-16 14:52:56.416774,2020-03-19 00:00:00.000000,0.01010896,0.03416608,0.10336575,29,99,302,15,49,153,0.00539172,0.01690892,0.05259555,0.57701354,0.80375102,1.03503564
26065,0,USMichiganIngham,Michigan,Ingham,2020-07-16 14:52:56.416774,2020-03-20 00:00:00.000000,0.01123770,0.03863579,0.11658790,32,112,340,17,56,174,0.00606033,0.01933592,0.05962551,0.57739061,0.79470345,1.06387429
26065,0,USMichiganIngham,Michigan,Ingham,2020-07-16 14:52:56.416774,2020-03-21 00:00:00.000000,0.01231760,0.04419287,0.12910103,36,129,377,19,64,189,0.00680753,0.02210336,0.06495996,0.56844784,0.78919876,1.10968889
26065,0,USMichiganIngham,Michigan,Ingham,2020-07-16 14:52:56.416774,2020-03-22 00:00:00.000000,0.01366348,0.05029560,0.14053529,39,147,410,22,73,204,0.00764411,0.02518351,0.07001753,0.54258912,0.78946230,1.14453685
26065,0,USMichiganIngham,Michigan,Ingham,2020-07-16 14:52:56.416774,2020-03-23 00:00:00.000000,0.01526783,0.05753048,0.15481741,44,168,452,24,83,233,0.00832086,0.02860408,0.07988555,0.52843665,0.78813383,1.15840791
26065,0,USMichiganIngham,Michigan,Ingham,2020-07-16 14:52:56.416774,2020-03-24 00:00:00.000000,0.01695065,0.06483052,0.16977243,49,189,496,26,96,259,0.00899992,0.03314767,0.08871384,0.52043897,0.78765697,1.16270802
26065,0,USMichiganIngham,Michigan,Ingham,2020-07-16 14:52:56.416774,2020-03-25 00:00:00.000000,0.01835352,0.07368126,0.19020702,53,215,556,28,116,289,0.00971188,0.03972645,0.09898024,0.51166247,0.77611794,1.16383116
26065,0,USMichiganIngham,Michigan,Ingham,2020-07-16 14:52:56.416774,2020-03-26 00:00:00.000000,0.01966714,0.08485062,0.21053461,57,248,615,30,131,328,0.01041160,0.04497305,0.11237086,0.50482009,0.77084540,1.15578000
26065,0,USMichiganIngham,Michigan,Ingham,2020-07-16 14:52:56.416774,2020-03-27 00:00:00.000000,0.02107361,0.09719379,0.22549536,61,284,659,32,146,366,0.01107297,0.05008511,0.12537684,0.49605954,0.75062407,1.13433639
26065,0,USMichiganIngham,Michigan,Ingham,2020-07-16 14:52:56.416774,2020-03-28 00:00:00.000000,0.02258136,0.11036753,0.24543743,66,322,717,34,168,404,0.01174041,0.05767208,0.13820325,0.47627405,0.72135386,1.10827417
26065,0,USMichiganIngham,Michigan,Ingham,2020-07-16 14:52:56.416774,2020-03-29 00:00:00.000000,0.02419877,0.12512147,0.27258555,70,365,797,36,187,443,0.01244592,0.06427156,0.15183935,0.44877833,0.70214552,1.08534491
26065,0,USMichiganIngham,Michigan,Ingham,2020-07-16 14:52:56.416774,2020-03-30 00:00:00.000000,0.02603988,0.13786459,0.29274676,76,403,856,38,209,497,0.01319872,0.07151244,0.17026979,0.42009337,0.66795480,0.97547534
26065,0,USMichiganIngham,Michigan,Ingham,2020-07-16 14:52:56.416774,2020-03-31 00:00:00.000000,0.02813111,0.15208876,0.31665099,82,444,925,40,231,537,0.01399973,0.07916971,0.18386368,0.41767369,0.61587792,0.95108278
26065,0,USMichiganIngham,Michigan,Ingham,2020-07-16 14:52:56.416774,2020-04-01 00:00:00.000000,0.03040982,0.16317088,0.35156349,88,477,1027,43,251,592,0.01484070,0.08600015,0.20250484,0.40680791,0.57651875,0.95044270
26065,0,USMichiganIngham,Michigan,Ingham,2020-07-16 14:52:56.416774,2020-04-02 00:00:00.000000,0.03285123,0.17291425,0.38347150,96,505,1121,45,268,645,0.01568207,0.09184089,0.22075494,0.36551996,0.53848628,0.88535032
26065,0,USMichiganIngham,Michigan,Ingham,2020-07-16 14:52:56.416774,2020-04-03 00:00:00.000000,0.03552686,0.18618054,0.40575526,103,544,1186,48,287,703,0.01642397,0.09840988,0.24065545,0.33666618,0.52132151,0.83421896
26065,0,USMichiganIngham,Michigan,Ingham,2020-07-16 14:52:56.416774,2020-04-04 00:00:00.000000,0.03799965,0.19419255,0.41281834,111,567,1207,49,299,735,0.01702353,0.10242356,0.25168816,0.31985174,0.50359401,0.74175735
26065,0,USMichiganIngham,Michigan,Ingham,2020-07-16 14:52:56.416774,2020-04-05 00:00:00.000000,0.04063251,0.19315496,0.41509446,118,564,1213,51,314,737,0.01757138,0.10748083,0.25226793,0.31283536,0.47782320,0.70901739
26065,0,USMichiganIngham,Michigan,Ingham,2020-07-16 14:52:56.416774,2020-04-06 00:00:00.000000,0.04339628,0.20050891,0.41717959,126,586,1219,54,328,736,0.01873001,0.11221177,0.25199931,0.30384849,0.45799247,0.61728097
26065,0,USMichiganIngham,Michigan,Ingham,2020-07-16 14:52:56.416774,2020-04-07 00:00:00.000000,0.04623584,0.20730039,0.41939218,135,606,1226,58,333,737,0.02005836,0.11396259,0.25231511,0.30039138,0.44944162,0.60773011
26065,0,USMichiganIngham,Michigan,Ingham,2020-07-16 14:52:56.416774,2020-04-08 00:00:00.000000,0.04858293,0.21513996,0.42219356,142,629,1234,62,339,750,0.02145881,0.11596751,0.25651172,0.29872804,0.44734981,0.60296635
26065,0,USMichiganIngham,Michigan,Ingham,2020-07-16 14:52:56.416774,2020-04-09 00:00:00.000000,0.04977545,0.21811569,0.43269733,145,637,1265,67,349,766,0.02295504,0.11938815,0.26226843,0.28410318,0.43756460,0.58674572
26065,0,USMichiganIngham,Michigan,Ingham,2020-07-16 14:52:56.416774,2020-04-10 00:00:00.000000,0.05073915,0.21856285,0.44246072,148,639,1293,71,363,779,0.02458100,0.12419583,0.26668375,0.28233653,0.43113443,0.57865777
26065,0,USMichiganIngham,Michigan,Ingham,2020-07-16 14:52:56.416774,2020-04-11 00:00:00.000000,0.05199147,0.22001472,0.44661737,152,643,1305,76,370,798,0.02625624,0.12677652,0.27303021,0.26378992,0.42939132,0.58870710
26065,0,USMichiganIngham,Michigan,Ingham,2020-07-16 14:52:56.416774,2020-04-12 00:00:00.000000,0.05227976,0.21999643,0.45564850,152,643,1332,81,378,815,0.02793020,0.12935073,0.27879392,0.24996594,0.42432634,0.60770037
26065,0,USMichiganIngham,Michigan,Ingham,2020-07-16 14:52:56.416774,2020-04-13 00:00:00.000000,0.05240131,0.21951925,0.45912004,153,641,1342,86,384,831,0.02955849,0.13147041,0.28447813,0.24252121,0.41914431,0.63009350
26065,0,USMichiganIngham,Michigan,Ingham,2020-07-16 14:52:56.416774,2020-04-14 00:00:00.000000,0.05242374,0.21963272,0.47108537,153,642,1377,90,385,838,0.03097319,0.13180378,0.28663373,0.24179883,0.41667507,0.64065546
26065,0,USMichiganIngham,Michigan,Ingham,2020-07-16 14:52:56.416774,2020-04-15 00:00:00.000000,0.05239335,0.21944680,0.47578404,153,641,1391,92,387,844,0.03169638,0.13243296,0.28882792,0.24541223,0.40515937,0.64781929
26065,0,USMichiganIngham,Michigan,Ingham,2020-07-16 14:52:56.416774,2020-04-16 00:00:00.000000,0.05254269,0.21979806,0.47840488,153,642,1398,93,389,850,0.03207520,0.13305522,0.29103055,0.25052377,0.40350414,0.64689352
26065,0,USMichiganIngham,Michigan,Ingham,2020-07-16 14:52:56.416774,2020-04-17 00:00:00.000000,0.05274620,0.22688091,0.48054646,154,663,1405,94,395,857,0.03242639,0.13530036,0.29322613,0.24227585,0.41165405,0.64323630
26065,0,USMichiganIngham,Michigan,Ingham,2020-07-16 14:52:56.416774,2020-04-18 00:00:00.000000,0.05330032,0.22969305,0.48060487,155,671,1405,96,404,871,0.03306444,0.13836840,0.29819239,0.23106425,0.41522410,0.62423410
26065,0,USMichiganIngham,Michigan,Ingham,2020-07-16 14:52:56.416774,2020-04-19 00:00:00.000000,0.05381865,0.23379525,0.48131630,157,683,1407,97,416,893,0.03330063,0.14250962,0.30567377,0.22825365,0.40799323,0.59783657
26065,0,USMichiganIngham,Michigan,Ingham,2020-07-16 14:52:56.416774,2020-04-20 00:00:00.000000,0.05418169,0.23931285,0.48256410,158,699,1411,98,424,907,0.03360240,0.14500464,0.31031617,0.22650301,0.39824481,0.58848496
26065,0,USMichiganIngham,Michigan,Ingham,2020-07-16 14:52:56.416774,2020-04-21 00:00:00.000000,0.05441521,0.24163170,0.48164885,159,706,1408,99,428,913,0.03394957,0.14652595,0.31243758,0.22515261,0.40598497,0.60274430
26065,0,USMichiganIngham,Michigan,Ingham,2020-07-16 14:52:56.416774,2020-04-22 00:00:00.000000,0.05454783,0.24101649,0.48152846,159,704,1408,99,432,915,0.03400403,0.14798561,0.31305514,0.22387404,0.41140334,0.60040797
26065,0,USMichiganIngham,Michigan,Ingham,2020-07-16 14:52:56.416774,2020-04-23 00:00:00.000000,0.05460012,0.24792723,0.48302085,159,724,1412,96,437,914,0.03295994,0.14970679,0.31290723,0.22006184,0.40331419,0.59892078
26065,0,USMichiganIngham,Michigan,Ingham,2020-07-16 14:52:56.416774,2020-04-24 00:00:00.000000,0.05457596,0.24801406,0.48558686,159,725,1419,92,440,913,0.03166665,0.15077174,0.31228057,0.21105799,0.39778648,0.59548084
26065,0,USMichiganIngham,Michigan,Ingham,2020-07-16 14:52:56.416774,2020-04-25 00:00:00.000000,0.05447051,0.24635111,0.49007912,159,720,1433,89,440,909,0.03061085,0.15070244,0.31119489,0.20686652,0.38944705,0.58698355
26065,0,USMichiganIngham,Michigan,Ingham,2020-07-16 14:52:56.416774,2020-04-26 00:00:00.000000,0.05424730,0.24448607,0.49629060,158,714,1451,87,442,905,0.02978451,0.15141648,0.30955688,0.20503914,0.38675813,0.58023771
26065,0,USMichiganIngham,Michigan,Ingham,2020-07-16 14:52:56.416774,2020-04-27 00:00:00.000000,0.05381131,0.24074404,0.50104087,157,703,1465,84,442,907,0.02893689,0.15134621,0.31040254,0.20415154,0.37999658,0.56633288
26065,0,USMichiganIngham,Michigan,Ingham,2020-07-16 14:52:56.416774,2020-04-28 00:00:00.000000,0.05301947,0.23953284,0.50285711,155,700,1470,82,442,916,0.02829344,0.15142089,0.31330558,0.20341704,0.37256399,0.56627301
26065,0,USMichiganIngham,Michigan,Ingham,2020-07-16 14:52:56.416774,2020-04-29 00:00:00.000000,0.05179267,0.23942080,0.50588227,151,700,1479,80,441,919,0.02763317,0.15093495,0.31439328,0.20157603,0.36514793,0.56602646
26065,0,USMichiganIngham,Michigan,Ingham,2020-07-16 14:52:56.416774,2020-04-30 00:00:00.000000,0.05022270,0.23929565,0.50864683,146,699,1487,79,437,924,0.02723495,0.14952026,0.31617022,0.20032807,0.35561645,0.56106426
26065,0,USMichiganIngham,Michigan,Ingham,2020-07-16 14:52:56.416774,2020-05-01 00:00:00.000000,0.04849161,0.23532720,0.50902156,141,688,1488,78,425,929,0.02697864,0.14564800,0.31776476,0.19601186,0.35386501,0.53043585
26065,0,USMichiganIngham,Michigan,Ingham,2020-07-16 14:52:56.416774,2020-05-02 00:00:00.000000,0.04674261,0.23263490,0.50812315,136,680,1485,78,419,934,0.02673480,0.14351930,0.31952050,0.17878890,0.34374466,0.51595798
26065,0,USMichiganIngham,Michigan,Ingham,2020-07-16 14:52:56.416774,2020-05-03 00:00:00.000000,0.04504270,0.22963959,0.50529983,131,671,1477,77,412,938,0.02651296,0.14102556,0.32094644,0.16009222,0.33011819,0.51067346
26065,0,USMichiganIngham,Michigan,Ingham,2020-07-16 14:52:56.416774,2020-05-04 00:00:00.000000,0.04341087,0.22583663,0.49797057,126,660,1456,76,401,936,0.02631464,0.13747696,0.32041376,0.14406951,0.32719952,0.50307806
26065,0,USMichiganIngham,Michigan,Ingham,2020-07-16 14:52:56.416774,2020-05-05 00:00:00.000000,0.04184904,0.22321303,0.49493146,122,652,1447,76,391,919,0.02613543,0.13399664,0.31429640,0.14251849,0.32795448,0.50704444
26065,0,USMichiganIngham,Michigan,Ingham,2020-07-16 14:52:56.416774,2020-05-06 00:00:00.000000,0.04035466,0.22003258,0.49145183,117,643,1437,75,381,917,0.02597024,0.13059250,0.31381246,0.14257081,0.32547956,0.50700721
26065,0,USMichiganIngham,Michigan,Ingham,2020-07-16 14:52:56.416774,2020-05-07 00:00:00.000000,0.03892442,0.21434524,0.48529511,113,626,1419,75,376,915,0.02581589,0.12864237,0.31293971,0.14295648,0.32229609,0.50598510
26065,0,USMichiganIngham,Michigan,Ingham,2020-07-16 14:52:56.416774,2020-05-08 00:00:00.000000,0.03755723,0.21015905,0.47632233,109,614,1392,75,371,905,0.02567225,0.12696659,0.30980184,0.14360049,0.31647522,0.49201259
26065,0,USMichiganIngham,Michigan,Ingham,2020-07-16 14:52:56.416774,2020-05-09 00:00:00.000000,0.03703211,0.20417160,0.46489289,108,597,1359,73,359,888,0.02510653,0.12302958,0.30386732,0.14439761,0.31691007,0.48061748
26065,0,USMichiganIngham,Michigan,Ingham,2020-07-16 14:52:56.416774,2020-05-10 00:00:00.000000,0.03651975,0.19609454,0.45159778,106,573,1320,70,354,867,0.02421612,0.12107983,0.29653934,0.14467299,0.31324935,0.47401886
26065,0,USMichiganIngham,Michigan,Ingham,2020-07-16 14:52:56.416774,2020-05-11 00:00:00.000000,0.03601218,0.19181259,0.43310154,105,560,1266,68,342,847,0.02336342,0.11720262,0.28971339,0.14470507,0.31027608,0.47276315
26065,0,USMichiganIngham,Michigan,Ingham,2020-07-16 14:52:56.416774,2020-05-12 00:00:00.000000,0.03549958,0.18640828,0.41297335,103,545,1207,66,331,824,0.02281632,0.11349909,0.28207845,0.14472477,0.30974840,0.47353783
26065,0,USMichiganIngham,Michigan,Ingham,2020-07-16 14:52:56.416774,2020-05-13 00:00:00.000000,0.03442614,0.18224441,0.39257588,100,532,1147,64,321,800,0.02194468,0.10994325,0.27392552,0.14474323,0.30806625,0.47232268
26065,0,USMichiganIngham,Michigan,Ingham,2020-07-16 14:52:56.416774,2020-05-14 00:00:00.000000,0.03312586,0.17335423,0.37243374,96,506,1089,61,311,776,0.02110690,0.10652038,0.26554395,0.14547213,0.30497281,0.47042462
26065,0,USMichiganIngham,Michigan,Ingham,2020-07-16 14:52:56.416774,2020-05-15 00:00:00.000000,0.03188347,0.16914513,0.35930359,93,494,1050,59,301,749,0.02030513,0.10324614,0.25642361,0.14833708,0.30523721,0.46141749
26065,0,USMichiganIngham,Michigan,Ingham,2020-07-16 14:52:56.416774,2020-05-16 00:00:00.000000,0.03069679,0.16163893,0.35035160,89,472,1024,57,293,722,0.01953932,0.10025162,0.24724558,0.15004358,0.30564440,0.45751062
26065,0,USMichiganIngham,Michigan,Ingham,2020-07-16 14:52:56.416774,2020-05-17 00:00:00.000000,0.02956871,0.15442550,0.33963954,86,451,993,54,286,695,0.01880790,0.09791813,0.23795982,0.15169369,0.30390547,0.45162803
26065,0,USMichiganIngham,Michigan,Ingham,2020-07-16 14:52:56.416774,2020-05-18 00:00:00.000000,0.02851575,0.14954630,0.32722732,83,437,956,52,279,668,0.01811064,0.09574415,0.22861908,0.15226988,0.30289338,0.45288788
26065,0,USMichiganIngham,Michigan,Ingham,2020-07-16 14:52:56.416774,2020-05-19 00:00:00.000000,0.02757414,0.14557592,0.31401090,80,425,918,51,270,641,0.01745260,0.09248584,0.21924851,0.15263586,0.31010485,0.45382648
26065,0,USMichiganIngham,Michigan,Ingham,2020-07-16 14:52:56.416774,2020-05-20 00:00:00.000000,0.02685329,0.14050678,0.30051836,78,410,878,49,259,614,0.01684739,0.08882920,0.21005606,0.15217466,0.30602402,0.45013123
26065,0,USMichiganIngham,Michigan,Ingham,2020-07-16 14:52:56.416774,2020-05-21 00:00:00.000000,0.02631469,0.13614511,0.28987686,76,398,847,47,250,588,0.01631972,0.08576889,0.20113472,0.15168821,0.30857603,0.44981471
26065,0,USMichiganIngham,Michigan,Ingham,2020-07-16 14:52:56.416774,2020-05-22 00:00:00.000000,0.02579992,0.13266266,0.27894796,75,387,815,46,238,562,0.01585832,0.08164924,0.19252101,0.15265435,0.30757919,0.44587181
26065,0,USMichiganIngham,Michigan,Ingham,2020-07-16 14:52:56.416774,2020-05-23 00:00:00.000000,0.02530363,0.12714899,0.26658996,73,371,779,45,233,538,0.01550379,0.07989649,0.18426963,0.15536770,0.31302127,0.45002209
26065,0,USMichiganIngham,Michigan,Ingham,2020-07-16 14:52:56.416774,2020-05-24 00:00:00.000000,0.02482660,0.12380429,0.25326018,72,362,740,44,229,516,0.01519096,0.07861306,0.17660880,0.15860549,0.32078656,0.44806919
26065,0,USMichiganIngham,Michigan,Ingham,2020-07-16 14:52:56.416774,2020-05-25 00:00:00.000000,0.02437096,0.11969975,0.24103695,71,350,704,43,222,498,0.01489532,0.07618575,0.17059800,0.16306021,0.32431783,0.45858517
26065,0,USMichiganIngham,Michigan,Ingham,2020-07-16 14:52:56.416774,2020-05-26 00:00:00.000000,0.02394128,0.11652816,0.23482678,70,340,686,42,215,485,0.01461468,0.07380301,0.16606773,0.16861864,0.32889256,0.47558402
26065,0,USMichiganIngham,Michigan,Ingham,2020-07-16 14:52:56.416774,2020-05-27 00:00:00.000000,0.02354500,0.11250053,0.22666355,68,328,662,41,209,471,0.01434930,0.07153032,0.16137009,0.17405928,0.32996296,0.48297772
26065,0,USMichiganIngham,Michigan,Ingham,2020-07-16 14:52:56.416774,2020-05-28 00:00:00.000000,0.02319143,0.11081760,0.21917373,67,324,640,41,203,453,0.01414760,0.06962479,0.15508325,0.17668789,0.33028753,0.49254655
26065,0,USMichiganIngham,Michigan,Ingham,2020-07-16 14:52:56.416774,2020-05-29 00:00:00.000000,0.02277432,0.10995259,0.21643789,66,321,632,41,198,439,0.01403388,0.06777172,0.15041648,0.18055898,0.33392954,0.49877252
26065,0,USMichiganIngham,Michigan,Ingham,2020-07-16 14:52:56.416774,2020-05-30 00:00:00.000000,0.02214508,0.10713806,0.21350391,64,313,624,40,196,426,0.01394879,0.06710261,0.14576027,0.18237952,0.33832059,0.50062253
26065,0,USMichiganIngham,Michigan,Ingham,2020-07-16 14:52:56.416774,2020-05-31 00:00:00.000000,0.02172856,0.10413814,0.20670313,63,304,604,40,190,409,0.01393093,0.06509476,0.14001381,0.18534582,0.33926324,0.51438828
26065,0,USMichiganIngham,Michigan,Ingham,2020-07-16 14:52:56.416774,2020-06-01 00:00:00.000000,0.02170018,0.10332880,0.20413489,63,302,596,40,191,394,0.01396653,0.06565361,0.13489134,0.19458624,0.34217601,0.51937133
26065,0,USMichiganIngham,Michigan,Ingham,2020-07-16 14:52:56.416774,2020-06-02 00:00:00.000000,0.02180485,0.10558713,0.20513455,63,308,599,41,190,386,0.01404947,0.06527664,0.13228972,0.20241483,0.34870528,0.53651455
26065,0,USMichiganIngham,Michigan,Ingham,2020-07-16 14:52:56.416774,2020-06-03 00:00:00.000000,0.02198101,0.10433333,0.20331840,64,305,594,41,190,379,0.01414799,0.06498588,0.12994177,0.20878608,0.35140451,0.55992549
26065,0,USMichiganIngham,Michigan,Ingham,2020-07-16 14:52:56.416774,2020-06-04 00:00:00.000000,0.02216448,0.10466452,0.20119948,64,306,588,41,188,378,0.01425226,0.06442646,0.12950825,0.21812375,0.35259582,0.58815216
26065,0,USMichiganIngham,Michigan,Ingham,2020-07-16 14:52:56.416774,2020-06-05 00:00:00.000000,0.02236622,0.10344574,0.19914784,65,302,582,41,184,382,0.01434304,0.06308780,0.13092182,0.22837095,0.36543372,0.62703841
26065,0,USMichiganIngham,Michigan,Ingham,2020-07-16 14:52:56.416774,2020-06-06 00:00:00.000000,0.02261315,0.10416853,0.19710888,66,304,576,42,181,383,0.01441854,0.06204556,0.13105171,0.23084054,0.39904203,0.65714427
26065,0,USMichiganIngham,Michigan,Ingham,2020-07-16 14:52:56.416774,2020-06-07 00:00:00.000000,0.02333323,0.10562437,0.19958656,68,308,583,42,179,383,0.01450056,0.06132152,0.13122376,0.23257643,0.42042227,0.67536962
26065,0,USMichiganIngham,Michigan,Ingham,2020-07-16 14:52:56.416774,2020-06-08 00:00:00.000000,0.02365148,0.10513971,0.19934521,69,307,582,42,180,385,0.01459069,0.06175439,0.13188465,0.23528136,0.43589357,0.67504982
26065,0,USMichiganIngham,Michigan,Ingham,2020-07-16 14:52:56.416774,2020-06-09 00:00:00.000000,0.02387401,0.10613486,0.19920659,69,310,582,42,183,382,0.01469566,0.06267901,0.13089409,0.23947577,0.44937180,0.68337544
26065,0,USMichiganIngham,Michigan,Ingham,2020-07-16 14:52:56.416774,2020-06-10 00:00:00.000000,0.02412026,0.10659501,0.19936969,70,311,582,43,188,387,0.01482992,0.06438270,0.13244213,0.24670821,0.46830418,0.69292558
26065,0,USMichiganIngham,Michigan,Ingham,2020-07-16 14:52:56.416774,2020-06-11 00:00:00.000000,0.02440103,0.10941669,0.20489149,71,319,599,43,193,397,0.01500856,0.06625845,0.13600303,0.26113869,0.47696649,0.71803254
26065,0,USMichiganIngham,Michigan,Ingham,2020-07-16 14:52:56.416774,2020-06-12 00:00:00.000000,0.02472426,0.11360570,0.21474400,72,332,627,44,199,409,0.01526861,0.06834383,0.14017520,0.26507173,0.48125402,0.74483945
26065,0,USMichiganIngham,Michigan,Ingham,2020-07-16 14:52:56.416774,2020-06-13 00:00:00.000000,0.02509698,0.11862135,0.22929677,73,346,670,47,201,419,0.01625753,0.06901572,0.14334981,0.26814429,0.49718851,0.78175191
26065,0,USMichiganIngham,Michigan,Ingham,2020-07-16 14:52:56.416774,2020-06-14 00:00:00.000000,0.02552406,0.12583765,0.24510462,74,367,716,50,207,428,0.01732132,0.07087024,0.14658617,0.27004097,0.51627366,0.80296904
26065,0,USMichiganIngham,Michigan,Ingham,2020-07-16 14:52:56.416774,2020-06-15 00:00:00.000000,0.02638258,0.13279516,0.26131929,77,388,764,52,220,438,0.01809095,0.07549977,0.14990967,0.27220355,0.53559129,0.81256276
26065,0,USMichiganIngham,Michigan,Ingham,2020-07-16 14:52:56.416774,2020-06-16 00:00:00.000000,0.02787888,0.14037899,0.27836036,81,410,813,54,236,461,0.01862509,0.08081002,0.15776503,0.27517234,0.55036070,0.81447537
26065,0,USMichiganIngham,Michigan,Ingham,2020-07-16 14:52:56.416774,2020-06-17 00:00:00.000000,0.02945825,0.14901880,0.30207914,86,435,883,56,249,489,0.01924957,0.08539797,0.16748886,0.27732205,0.56354064,0.81830072
26065,0,USMichiganIngham,Michigan,Ingham,2020-07-16 14:52:56.416774,2020-06-18 00:00:00.000000,0.03116247,0.16180286,0.32715835,91,473,956,58,258,519,0.02010963,0.08843881,0.17777638,0.27182784,0.57154670,0.83623438
26065,0,USMichiganIngham,Michigan,Ingham,2020-07-16 14:52:56.416774,2020-06-19 00:00:00.000000,0.03300995,0.16822322,0.35226309,96,491,1030,61,273,551,0.02118031,0.09337899,0.18857128,0.27653328,0.58805282,0.83532090
26065,0,USMichiganIngham,Michigan,Ingham,2020-07-16 14:52:56.416774,2020-06-20 00:00:00.000000,0.03500244,0.18509211,0.37818405,102,541,1105,65,292,587,0.02236709,0.09993907,0.20094304,0.27903527,0.57901835,0.82985449
26065,0,USMichiganIngham,Michigan,Ingham,2020-07-16 14:52:56.416774,2020-06-21 00:00:00.000000,0.03714560,0.19555266,0.40359203,108,571,1180,69,318,623,0.02370689,0.10893075,0.21336056,0.27813891,0.57936785,0.81227950
26065,0,USMichiganIngham,Michigan,Ingham,2020-07-16 14:52:56.416774,2020-06-22 00:00:00.000000,0.03945419,0.20960482,0.42641569,115,612,1246,72,335,666,0.02478331,0.11471624,0.22784536,0.27894056,0.57132003,0.80161654
26065,0,USMichiganIngham,Michigan,Ingham,2020-07-16 14:52:56.416774,2020-06-23 00:00:00.000000,0.04196004,0.22226162,0.44502163,122,649,1301,73,349,714,0.02525939,0.11964367,0.24428922,0.28194528,0.55228853,0.79451770
26065,0,USMichiganIngham,Michigan,Ingham,2020-07-16 14:52:56.416774,2020-06-24 00:00:00.000000,0.04470189,0.23270540,0.46434178,130,680,1357,75,377,766,0.02578050,0.12916894,0.26210633,0.28695266,0.53632912,0.77015312
26065,0,USMichiganIngham,Michigan,Ingham,2020-07-16 14:52:56.416774,2020-06-25 00:00:00.000000,0.04728637,0.24639897,0.49946732,138,720,1460,78,399,816,0.02686434,0.13651374,0.27919264,0.29421752,0.52924725,0.76013264
26065,0,USMichiganIngham,Michigan,Ingham,2020-07-16 14:52:56.416774,2020-06-26 00:00:00.000000,0.04954068,0.25010548,0.52639250,144,731,1539,81,421,860,0.02802185,0.14403222,0.29432016,0.29990587,0.50507802,0.74412532
26065,0,USMichiganIngham,Michigan,Ingham,2020-07-16 14:52:56.416774,2020-06-27 00:00:00.000000,0.05205297,0.25981527,0.54597037,152,759,1596,85,439,895,0.02926382,0.15043131,0.30616148,0.29289385,0.48551360,0.71190370
26065,0,USMichiganIngham,Michigan,Ingham,2020-07-16 14:52:56.416774,2020-06-28 00:00:00.000000,0.05480490,0.26744877,0.55959068,160,782,1636,89,442,917,0.03059236,0.15125764,0.31373951,0.27471521,0.45612654,0.65656994
26065,0,USMichiganIngham,Michigan,Ingham,2020-07-16 14:52:56.416774,2020-06-29 00:00:00.000000,0.05921887,0.26927318,0.55638919,173,787,1626,93,454,927,0.03200498,0.15559134,0.31728631,0.27382743,0.43348086,0.61530897
26065,0,USMichiganIngham,Michigan,Ingham,2020-07-16 14:52:56.416774,2020-06-30 00:00:00.000000,0.06157703,0.27035961,0.54120685,180,790,1582,97,455,928,0.03350050,0.15578886,0.31747201,0.27002199,0.41490740,0.58394298
26065,0,USMichiganIngham,Michigan,Ingham,2020-07-16 14:52:56.416774,2020-07-01 00:00:00.000000,0.06376160,0.26786361,0.54096121,186,783,1581,102,472,931,0.03508130,0.16166367,0.31843186,0.26865673,0.41446670,0.57153924
26065,0,USMichiganIngham,Michigan,Ingham,2020-07-16 14:52:56.416774,2020-07-02 00:00:00.000000,0.06566973,0.26497345,0.54283605,192,774,1587,107,472,930,0.03665878,0.16165360,0.31832547,0.26681698,0.41157209,0.56557788
26065,0,USMichiganIngham,Michigan,Ingham,2020-07-16 14:52:56.416774,2020-07-03 00:00:00.000000,0.06596922,0.26394026,0.54204953,192,771,1584,109,463,933,0.03750657,0.15841933,0.31928095,0.26272874,0.40767862,0.55522331
26065,0,USMichiganIngham,Michigan,Ingham,2020-07-16 14:52:56.416774,2020-07-04 00:00:00.000000,0.06646855,0.26387924,0.53151182,194,771,1554,112,459,928,0.03842761,0.15698535,0.31756165,0.25604693,0.40768989,0.54582640
26065,0,USMichiganIngham,Michigan,Ingham,2020-07-16 14:52:56.416774,2020-07-05 00:00:00.000000,0.06749556,0.26356230,0.51533702,197,770,1506,115,452,932,0.03941908,0.15471980,0.31882853,0.25186083,0.40344308,0.55263167
26065,0,USMichiganIngham,Michigan,Ingham,2020-07-16 14:52:56.416774,2020-07-06 00:00:00.000000,0.06849568,0.26385954,0.52012028,200,771,1520,118,457,941,0.04063143,0.15663011,0.32197968,0.24734773,0.40294898,0.56701686
26065,0,USMichiganIngham,Michigan,Ingham,2020-07-16 14:52:56.416774,2020-07-07 00:00:00.000000,0.06938417,0.26356742,0.52444211,202,770,1533,118,458,950,0.04048070,0.15668125,0.32498201,0.24133033,0.40409916,0.57468129
26065,0,USMichiganIngham,Michigan,Ingham,2020-07-16 14:52:56.416774,2020-07-08 00:00:00.000000,0.06925860,0.26237643,0.52724639,202,767,1541,117,458,958,0.04030255,0.15691164,0.32765961,0.23738507,0.40361798,0.58008843
26065,0,USMichiganIngham,Michigan,Ingham,2020-07-16 14:52:56.416774,2020-07-09 00:00:00.000000,0.06846558,0.25877402,0.52802222,200,756,1543,117,466,962,0.04011638,0.15960813,0.32929636,0.23518263,0.40281150,0.58283694
26065,0,USMichiganIngham,Michigan,Ingham,2020-07-16 14:52:56.416774,2020-07-10 00:00:00.000000,0.06744199,0.25752440,0.52778464,197,753,1543,116,457,963,0.03993374,0.15634529,0.32963490,0.23407561,0.40243385,0.58388066
26065,0,USMichiganIngham,Michigan,Ingham,2020-07-16 14:52:56.416774,2020-07-11 00:00:00.000000,0.06669589,0.25359695,0.52720184,195,741,1541,116,454,963,0.03976165,0.15559622,0.32944940,0.23354824,0.40272711,0.58428149
26065,0,USMichiganIngham,Michigan,Ingham,2020-07-16 14:52:56.416774,2020-07-12 00:00:00.000000,0.06656677,0.24804409,0.53391353,194,725,1561,117,452,962,0.04009825,0.15458807,0.32910798,0.23330332,0.40271761,0.58444742
26065,0,USMichiganIngham,Michigan,Ingham,2020-07-16 14:52:56.416774,2020-07-13 00:00:00.000000,0.06873830,0.24453426,0.53472368,200,715,1563,121,441,961,0.04141519,0.15082179,0.32869262,0.23319086,0.40271527,0.58451936
26065,0,USMichiganIngham,Michigan,Ingham,2020-07-16 14:52:56.416774,2020-07-14 00:00:00.000000,0.06898275,0.24197164,0.54262558,201,707,1586,124,430,971,0.04250357,0.14716060,0.33217635,0.23313947,0.40271469,0.58455123
26065,0,USMichiganIngham,Michigan,Ingham,2020-07-16 14:52:56.416774,2020-07-15 00:00:00.000000,0.06872782,0.24223427,0.55744499,200,708,1630,122,419,973,0.04201020,0.14356348,0.33303983,0.23311602,0.40271455,0.58456548
26065,0,USMichiganIngham,Michigan,Ingham,2020-07-16 14:52:56.416774,2020-07-16 00:00:00.000000,0.06847565,0.23959248,0.57050973,200,700,1668,121,410,976,0.04152120,0.14053103,0.33390375,0.23310532,0.40271451,0.58457188
26065,0,USMichiganIngham,Michigan,Ingham,2020-07-16 14:52:56.416774,2020-07-17 00:00:00.000000,0.06822612,0.23640343,0.58381942,199,691,1707,119,413,978,0.04103702,0.14125820,0.33476894,0.23310044,0.40271450,0.58457475
26065,0,USMichiganIngham,Michigan,Ingham,2020-07-16 14:52:56.416774,2020-07-18 00:00:00.000000,0.06797928,0.23223991,0.60105842,198,679,1757,118,410,1003,0.04055788,0.14041189,0.34327852,0.23309821,0.40271450,0.58457604
26065,0,USMichiganIngham,Michigan,Ingham,2020-07-16 14:52:56.416774,2020-07-19 00:00:00.000000,0.06773502,0.22815886,0.63597816,198,667,1859,117,406,1075,0.04024698,0.13893628,0.36784387,0.23309718,0.40271450,0.58457661
26065,0,USMichiganIngham,Michigan,Ingham,2020-07-16 14:52:56.416774,2020-07-20 00:00:00.000000,0.06762584,0.22463932,0.65669482,197,656,1920,116,401,1130,0.03999714,0.13715390,0.38649289,0.23309671,0.40271450,0.58457687
26065,0,USMichiganIngham,Michigan,Ingham,2020-07-16 14:52:56.416774,2020-07-21 00:00:00.000000,0.06795705,0.22159533,0.67382976,198,647,1970,116,402,1170,0.03975240,0.13755074,0.40014610,0.23309649,0.40271450,0.58457699
26065,0,USMichiganIngham,Michigan,Ingham,2020-07-16 14:52:56.416774,2020-07-22 00:00:00.000000,0.06829996,0.21839805,0.70460373,199,638,2060,115,399,1196,0.03951277,0.13651369,0.40922833,0.23309639,0.40271450,0.58457704
26065,0,USMichiganIngham,Michigan,Ingham,2020-07-16 14:52:56.416774,2020-07-23 00:00:00.000000,0.06865492,0.21662048,0.73873207,200,633,2160,114,396,1221,0.03927825,0.13544532,0.41770647,0.23309635,0.40271450,0.58457706
26065,0,USMichiganIngham,Michigan,Ingham,2020-07-16 14:52:56.416774,2020-07-24 00:00:00.000000,0.06902235,0.21214917,0.76417973,201,620,2234,114,388,1246,0.03907869,0.13282344,0.42631663,0.23309632,0.40271450,0.58457707
26065,0,USMichiganIngham,Michigan,Ingham,2020-07-16 14:52:56.416774,2020-07-25 00:00:00.000000,0.06940264,0.20909168,0.78560520,202,611,2297,116,382,1272,0.03998203,0.13087320,0.43505806,0.23309631,0.40271450,0.58457708
26065,0,USMichiganIngham,Michigan,Ingham,2020-07-16 14:52:56.416774,2020-07-26 00:00:00.000000,0.06899428,0.20730297,0.81258052,201,606,2376,116,385,1285,0.04000430,0.13187651,0.43976321,0.23309631,0.40271450,0.58457708
26065,0,USMichiganIngham,Michigan,Ingham,2020-07-16 14:52:56.416774,2020-07-27 00:00:00.000000,0.06835704,0.20697177,0.84690319,199,605,2476,113,382,1299,0.03887721,0.13095411,0.44438005,0.23309631,0.40271450,0.58457708
