FIPS,HR_UID,nameid,province,region,analysisTime,dates,pointprevalence_025,pointprevalence_50,pointprevalence_975,pointinfections_025,pointinfections_50,pointinfections_975,pointinfectious_025,pointinfectious_50,pointinfectious_975,pointinfectiousprevalence_05,pointinfectiousprevalence_50,pointinfectiousprevalence_95,infectrate_025,infectrate_50,infectrate_975
48215,0,USTexasHidalgo,Texas,Hidalgo,2020-07-15 04:46:12.784923,2020-03-09 00:00:00.000000,0.00117020,0.00319976,0.01509362,10,27,131,3,10,47,0.00043530,0.00123966,0.00546102,0.60531393,0.83914555,1.11477974
48215,0,USTexasHidalgo,Texas,Hidalgo,2020-07-15 04:46:12.784923,2020-03-10 00:00:00.000000,0.00121521,0.00347001,0.01624865,10,30,141,4,12,50,0.00055918,0.00140184,0.00586315,0.60529866,0.83914555,1.11478089
48215,0,USTexasHidalgo,Texas,Hidalgo,2020-07-15 04:46:12.784923,2020-03-11 00:00:00.000000,0.00133786,0.00377254,0.01742216,11,32,151,5,13,55,0.00057895,0.00155655,0.00636061,0.60525861,0.83914555,1.11478363
48215,0,USTexasHidalgo,Texas,Hidalgo,2020-07-15 04:46:12.784923,2020-03-12 00:00:00.000000,0.00137416,0.00407723,0.01777485,11,35,154,6,15,60,0.00070247,0.00173783,0.00690915,0.60515365,0.83914556,1.11479012
48215,0,USTexasHidalgo,Texas,Hidalgo,2020-07-15 04:46:12.784923,2020-03-13 00:00:00.000000,0.00159841,0.00449578,0.01869697,13,39,162,5,16,65,0.00067283,0.00194882,0.00751845,0.60487882,0.83914557,1.11480554
48215,0,USTexasHidalgo,Texas,Hidalgo,2020-07-15 04:46:12.784923,2020-03-14 00:00:00.000000,0.00176482,0.00488270,0.01995652,15,42,173,7,19,71,0.00086463,0.00220334,0.00819501,0.60416135,0.83914562,1.11484207
48215,0,USTexasHidalgo,Texas,Hidalgo,2020-07-15 04:46:12.784923,2020-03-15 00:00:00.000000,0.00195231,0.00556123,0.02169246,16,48,188,7,21,77,0.00081785,0.00243773,0.00894303,0.60230368,0.83914585,1.11492781
48215,0,USTexasHidalgo,Texas,Hidalgo,2020-07-15 04:46:12.784923,2020-03-16 00:00:00.000000,0.00216186,0.00605490,0.02356932,18,52,204,8,23,84,0.00094849,0.00270240,0.00969718,0.59759572,0.83914687,1.11512169
48215,0,USTexasHidalgo,Texas,Hidalgo,2020-07-15 04:46:12.784923,2020-03-17 00:00:00.000000,0.00239518,0.00671630,0.02550789,20,58,221,8,26,89,0.00101127,0.00299335,0.01029802,0.58705295,0.84358786,1.11549208
48215,0,USTexasHidalgo,Texas,Hidalgo,2020-07-15 04:46:12.784923,2020-03-18 00:00:00.000000,0.00258802,0.00732262,0.02737449,22,63,237,9,28,94,0.00111914,0.00329830,0.01092385,0.60531250,0.83917158,1.11570034
48215,0,USTexasHidalgo,Texas,Hidalgo,2020-07-15 04:46:12.784923,2020-03-19 00:00:00.000000,0.00276963,0.00816252,0.02827926,24,70,245,10,31,100,0.00115264,0.00362210,0.01157249,0.58291802,0.84802664,1.13327829
48215,0,USTexasHidalgo,Texas,Hidalgo,2020-07-15 04:46:12.784923,2020-03-20 00:00:00.000000,0.00293250,0.00852339,0.02934734,25,74,254,10,34,106,0.00122433,0.00394556,0.01223818,0.57693888,0.85459853,1.14595481
48215,0,USTexasHidalgo,Texas,Hidalgo,2020-07-15 04:46:12.784923,2020-03-21 00:00:00.000000,0.00321134,0.00950274,0.03153712,27,82,273,11,36,112,0.00126771,0.00420930,0.01291476,0.57552828,0.84801858,1.16054833
48215,0,USTexasHidalgo,Texas,Hidalgo,2020-07-15 04:46:12.784923,2020-03-22 00:00:00.000000,0.00340623,0.01030469,0.03252996,29,89,282,11,39,118,0.00135994,0.00450578,0.01362092,0.56122699,0.84806978,1.23709392
48215,0,USTexasHidalgo,Texas,Hidalgo,2020-07-15 04:46:12.784923,2020-03-23 00:00:00.000000,0.00365133,0.01130238,0.03499577,31,98,304,12,44,129,0.00142486,0.00511300,0.01492337,0.55940078,0.85610238,1.26341541
48215,0,USTexasHidalgo,Texas,Hidalgo,2020-07-15 04:46:12.784923,2020-03-24 00:00:00.000000,0.00389500,0.01239645,0.03758853,33,107,326,13,50,139,0.00153940,0.00579746,0.01605192,0.55757362,0.85501156,1.32408683
48215,0,USTexasHidalgo,Texas,Hidalgo,2020-07-15 04:46:12.784923,2020-03-25 00:00:00.000000,0.00415944,0.01376051,0.03887276,36,119,337,14,58,157,0.00161846,0.00669977,0.01811443,0.55683224,0.85509362,1.36547131
48215,0,USTexasHidalgo,Texas,Hidalgo,2020-07-15 04:46:12.784923,2020-03-26 00:00:00.000000,0.00446156,0.01519701,0.04122007,38,132,358,15,63,177,0.00175186,0.00734977,0.02044528,0.57395899,0.84901669,1.38382753
48215,0,USTexasHidalgo,Texas,Hidalgo,2020-07-15 04:46:12.784923,2020-03-27 00:00:00.000000,0.00487589,0.01642537,0.04571963,42,142,397,16,70,193,0.00185532,0.00813823,0.02224330,0.55123020,0.84247845,1.40153642
48215,0,USTexasHidalgo,Texas,Hidalgo,2020-07-15 04:46:12.784923,2020-03-28 00:00:00.000000,0.00556425,0.01920816,0.05012426,48,166,435,17,77,214,0.00205644,0.00896041,0.02467536,0.54581210,0.83301911,1.40019862
48215,0,USTexasHidalgo,Texas,Hidalgo,2020-07-15 04:46:12.784923,2020-03-29 00:00:00.000000,0.00656118,0.02124148,0.05375934,56,184,467,19,85,234,0.00219749,0.00984230,0.02703667,0.53291896,0.81147648,1.41814377
48215,0,USTexasHidalgo,Texas,Hidalgo,2020-07-15 04:46:12.784923,2020-03-30 00:00:00.000000,0.00771918,0.02274464,0.05702907,67,197,495,23,93,250,0.00275334,0.01078487,0.02884036,0.48593249,0.79989842,1.46189338
48215,0,USTexasHidalgo,Texas,Hidalgo,2020-07-15 04:46:12.784923,2020-03-31 00:00:00.000000,0.00902808,0.02488930,0.05949113,78,216,516,20,103,270,0.00237098,0.01192314,0.03118326,0.46068667,0.73897200,1.47094636
48215,0,USTexasHidalgo,Texas,Hidalgo,2020-07-15 04:46:12.784923,2020-04-01 00:00:00.000000,0.00937847,0.02648597,0.06147935,81,230,534,26,112,292,0.00309223,0.01293243,0.03369781,0.43400438,0.70383194,1.46367398
48215,0,USTexasHidalgo,Texas,Hidalgo,2020-07-15 04:46:12.784923,2020-04-02 00:00:00.000000,0.00976385,0.02778482,0.06646930,84,241,577,22,119,305,0.00255298,0.01380339,0.03515378,0.40517270,0.68505725,1.45286875
48215,0,USTexasHidalgo,Texas,Hidalgo,2020-07-15 04:46:12.784923,2020-04-03 00:00:00.000000,0.01017228,0.02938904,0.07158566,88,255,621,30,128,334,0.00348144,0.01474681,0.03855162,0.39579790,0.67723830,1.38503484
48215,0,USTexasHidalgo,Texas,Hidalgo,2020-07-15 04:46:12.784923,2020-04-04 00:00:00.000000,0.01064018,0.03126247,0.07583959,92,271,658,25,134,364,0.00297374,0.01553241,0.04192230,0.39048591,0.65277834,1.32851332
48215,0,USTexasHidalgo,Texas,Hidalgo,2020-07-15 04:46:12.784923,2020-04-05 00:00:00.000000,0.01111537,0.03184969,0.08031194,96,276,697,31,138,389,0.00366184,0.01598556,0.04485519,0.38727690,0.62762182,1.31041046
48215,0,USTexasHidalgo,Texas,Hidalgo,2020-07-15 04:46:12.784923,2020-04-06 00:00:00.000000,0.01267779,0.03212502,0.08492135,110,279,737,27,143,393,0.00315313,0.01650713,0.04526958,0.38050821,0.60428686,1.30640721
48215,0,USTexasHidalgo,Texas,Hidalgo,2020-07-15 04:46:12.784923,2020-04-07 00:00:00.000000,0.01193972,0.03265993,0.08903092,103,283,773,33,148,391,0.00384309,0.01706274,0.04507643,0.35828378,0.57987989,1.30519963
48215,0,USTexasHidalgo,Texas,Hidalgo,2020-07-15 04:46:12.784923,2020-04-08 00:00:00.000000,0.01364504,0.03342336,0.08839792,118,290,767,32,155,401,0.00378138,0.01793038,0.04622859,0.35841757,0.55430600,1.30411495
48215,0,USTexasHidalgo,Texas,Hidalgo,2020-07-15 04:46:12.784923,2020-04-09 00:00:00.000000,0.01281097,0.03463848,0.08925405,111,300,775,36,162,423,0.00422049,0.01866793,0.04869467,0.34336369,0.53843225,1.30237062
48215,0,USTexasHidalgo,Texas,Hidalgo,2020-07-15 04:46:12.784923,2020-04-10 00:00:00.000000,0.01423777,0.03432046,0.09003289,123,298,782,37,159,412,0.00436741,0.01830985,0.04745194,0.33027492,0.51321643,1.29931191
48215,0,USTexasHidalgo,Texas,Hidalgo,2020-07-15 04:46:12.784923,2020-04-11 00:00:00.000000,0.01358161,0.03573954,0.08895285,117,310,772,39,155,426,0.00453069,0.01785023,0.04909284,0.32484020,0.49833363,1.29371346
48215,0,USTexasHidalgo,Texas,Hidalgo,2020-07-15 04:46:12.784923,2020-04-12 00:00:00.000000,0.01480917,0.03626835,0.08702894,128,315,756,40,153,440,0.00465004,0.01766362,0.05068577,0.32281705,0.49289548,1.28215361
48215,0,USTexasHidalgo,Texas,Hidalgo,2020-07-15 04:46:12.784923,2020-04-13 00:00:00.000000,0.01303195,0.03712787,0.08488322,113,322,737,42,155,439,0.00491405,0.01785974,0.05057026,0.31689604,0.47238570,1.25239990
48215,0,USTexasHidalgo,Texas,Hidalgo,2020-07-15 04:46:12.784923,2020-04-14 00:00:00.000000,0.01494661,0.03703855,0.08271350,129,321,718,46,153,429,0.00538135,0.01772583,0.04947768,0.29658451,0.46738506,1.16569267
48215,0,USTexasHidalgo,Texas,Hidalgo,2020-07-15 04:46:12.784923,2020-04-15 00:00:00.000000,0.01304688,0.03700630,0.08058746,113,321,700,47,152,419,0.00549737,0.01755001,0.04832616,0.28833986,0.45969279,0.99004396
48215,0,USTexasHidalgo,Texas,Hidalgo,2020-07-15 04:46:12.784923,2020-04-16 00:00:00.000000,0.01504708,0.03689835,0.07879223,130,320,684,48,151,409,0.00561042,0.01740667,0.04717185,0.28317845,0.45463504,0.84105737
48215,0,USTexasHidalgo,Texas,Hidalgo,2020-07-15 04:46:12.784923,2020-04-17 00:00:00.000000,0.01313082,0.03642119,0.07740926,114,316,672,49,151,406,0.00572158,0.01741353,0.04680646,0.28205206,0.43779917,0.77997900
48215,0,USTexasHidalgo,Texas,Hidalgo,2020-07-15 04:46:12.784923,2020-04-18 00:00:00.000000,0.01515043,0.03548412,0.07651206,131,308,664,50,147,400,0.00583108,0.01696710,0.04615567,0.28141537,0.42234743,0.76009806
48215,0,USTexasHidalgo,Texas,Hidalgo,2020-07-15 04:46:12.784923,2020-04-19 00:00:00.000000,0.01323433,0.03448162,0.07558976,114,299,656,51,147,393,0.00594046,0.01701388,0.04529251,0.27822910,0.42109008,0.76298112
48215,0,USTexasHidalgo,Texas,Hidalgo,2020-07-15 04:46:12.784923,2020-04-20 00:00:00.000000,0.01526350,0.03372946,0.07461549,132,293,648,52,148,385,0.00604862,0.01706545,0.04434841,0.27399845,0.42378179,0.80201933
48215,0,USTexasHidalgo,Texas,Hidalgo,2020-07-15 04:46:12.784923,2020-04-21 00:00:00.000000,0.01334525,0.03326674,0.07355519,115,288,638,50,147,376,0.00584830,0.01697699,0.04338588,0.27122376,0.42478210,0.84796954
48215,0,USTexasHidalgo,Texas,Hidalgo,2020-07-15 04:46:12.784923,2020-04-22 00:00:00.000000,0.01374611,0.03210805,0.07293999,119,278,633,48,144,368,0.00563334,0.01666139,0.04243621,0.27113317,0.42526095,0.87453272
48215,0,USTexasHidalgo,Texas,Hidalgo,2020-07-15 04:46:12.784923,2020-04-23 00:00:00.000000,0.01273318,0.03142363,0.07226694,110,272,627,47,142,360,0.00551189,0.01635319,0.04152731,0.27122407,0.42255671,0.85810667
48215,0,USTexasHidalgo,Texas,Hidalgo,2020-07-15 04:46:12.784923,2020-04-24 00:00:00.000000,0.01266138,0.03084416,0.07156497,109,267,621,47,138,353,0.00550249,0.01597010,0.04070719,0.27387020,0.42787918,0.85307727
48215,0,USTexasHidalgo,Texas,Hidalgo,2020-07-15 04:46:12.784923,2020-04-25 00:00:00.000000,0.01263034,0.03024741,0.07084809,109,262,615,45,135,347,0.00523873,0.01559762,0.04004025,0.27848273,0.43424166,0.87053119
48215,0,USTexasHidalgo,Texas,Hidalgo,2020-07-15 04:46:12.784923,2020-04-26 00:00:00.000000,0.01244976,0.03017545,0.07025869,108,262,610,44,135,343,0.00511898,0.01555490,0.03954102,0.28481283,0.43372987,0.85387489
48215,0,USTexasHidalgo,Texas,Hidalgo,2020-07-15 04:46:12.784923,2020-04-27 00:00:00.000000,0.01228419,0.02970948,0.07107588,106,258,617,43,133,340,0.00504133,0.01535319,0.03916082,0.27544795,0.43458450,0.83601503
48215,0,USTexasHidalgo,Texas,Hidalgo,2020-07-15 04:46:12.784923,2020-04-28 00:00:00.000000,0.01213744,0.02957350,0.07177109,105,256,623,43,131,337,0.00498222,0.01509714,0.03884882,0.28746009,0.43775439,0.82422906
48215,0,USTexasHidalgo,Texas,Hidalgo,2020-07-15 04:46:12.784923,2020-04-29 00:00:00.000000,0.01199715,0.02893409,0.07234726,104,251,628,42,129,335,0.00492829,0.01488827,0.03857600,0.28690342,0.44261513,0.82425428
48215,0,USTexasHidalgo,Texas,Hidalgo,2020-07-15 04:46:12.784923,2020-04-30 00:00:00.000000,0.01186303,0.02886200,0.07200110,103,250,625,42,127,332,0.00487668,0.01467025,0.03832671,0.29844954,0.44327071,0.83976010
48215,0,USTexasHidalgo,Texas,Hidalgo,2020-07-15 04:46:12.784923,2020-05-01 00:00:00.000000,0.01174304,0.02861425,0.07076872,102,248,614,41,125,330,0.00482705,0.01447005,0.03809154,0.29538472,0.44766261,0.86983529
48215,0,USTexasHidalgo,Texas,Hidalgo,2020-07-15 04:46:12.784923,2020-05-02 00:00:00.000000,0.01165414,0.02847433,0.06954216,101,247,604,41,125,328,0.00478080,0.01445643,0.03786628,0.29215255,0.45383023,0.90259283
48215,0,USTexasHidalgo,Texas,Hidalgo,2020-07-15 04:46:12.784923,2020-05-03 00:00:00.000000,0.01160322,0.02852350,0.06839078,100,247,594,41,126,322,0.00474132,0.01452800,0.03709063,0.29126576,0.45692028,0.92722437
48215,0,USTexasHidalgo,Texas,Hidalgo,2020-07-15 04:46:12.784923,2020-05-04 00:00:00.000000,0.01159393,0.02819656,0.06739843,100,244,585,40,125,314,0.00471036,0.01445342,0.03625602,0.29262661,0.46165055,0.94332835
48215,0,USTexasHidalgo,Texas,Hidalgo,2020-07-15 04:46:12.784923,2020-05-05 00:00:00.000000,0.01160046,0.02849867,0.06790047,100,247,589,40,127,309,0.00468512,0.01463884,0.03563867,0.29745155,0.47038446,0.95578780
48215,0,USTexasHidalgo,Texas,Hidalgo,2020-07-15 04:46:12.784923,2020-05-06 00:00:00.000000,0.01161149,0.02813846,0.06876318,100,244,597,40,126,305,0.00466284,0.01459581,0.03518468,0.30992132,0.47933354,0.95441776
48215,0,USTexasHidalgo,Texas,Hidalgo,2020-07-15 04:46:12.784923,2020-05-07 00:00:00.000000,0.01162069,0.02811142,0.06969218,100,244,605,40,128,302,0.00464315,0.01479159,0.03483806,0.31369859,0.48218453,0.94995443
48215,0,USTexasHidalgo,Texas,Hidalgo,2020-07-15 04:46:12.784923,2020-05-08 00:00:00.000000,0.01166463,0.02805446,0.07185443,101,243,624,40,128,300,0.00462864,0.01480302,0.03457351,0.31775341,0.47972866,0.99055551
48215,0,USTexasHidalgo,Texas,Hidalgo,2020-07-15 04:46:12.784923,2020-05-09 00:00:00.000000,0.01179933,0.02788625,0.07418378,102,242,644,40,131,298,0.00462797,0.01516667,0.03440974,0.32480957,0.48757444,1.00925594
48215,0,USTexasHidalgo,Texas,Hidalgo,2020-07-15 04:46:12.784923,2020-05-10 00:00:00.000000,0.01213346,0.02854151,0.07671450,105,247,666,40,130,298,0.00466387,0.01503694,0.03441422,0.33751595,0.49351880,1.04909888
48215,0,USTexasHidalgo,Texas,Hidalgo,2020-07-15 04:46:12.784923,2020-05-11 00:00:00.000000,0.01277640,0.02889817,0.07938725,110,251,689,41,130,301,0.00478220,0.01507079,0.03466489,0.35598102,0.51020361,1.06850995
48215,0,USTexasHidalgo,Texas,Hidalgo,2020-07-15 04:46:12.784923,2020-05-12 00:00:00.000000,0.01370167,0.02908903,0.08226698,119,252,714,43,131,305,0.00503296,0.01518285,0.03517369,0.36613600,0.51981270,1.09961775
48215,0,USTexasHidalgo,Texas,Hidalgo,2020-07-15 04:46:12.784923,2020-05-13 00:00:00.000000,0.01436036,0.02966942,0.08551490,124,257,742,47,130,311,0.00542651,0.01505002,0.03588589,0.36627890,0.52816118,1.20124412
48215,0,USTexasHidalgo,Texas,Hidalgo,2020-07-15 04:46:12.784923,2020-05-14 00:00:00.000000,0.01575650,0.02989986,0.08923228,136,259,775,50,131,310,0.00582484,0.01509657,0.03576245,0.36662068,0.53538895,1.25440681
48215,0,USTexasHidalgo,Texas,Hidalgo,2020-07-15 04:46:12.784923,2020-05-15 00:00:00.000000,0.01595328,0.03032543,0.09353354,138,263,812,56,134,309,0.00644793,0.01549443,0.03561574,0.36802881,0.54330526,1.28582813
48215,0,USTexasHidalgo,Texas,Hidalgo,2020-07-15 04:46:12.784923,2020-05-16 00:00:00.000000,0.01758801,0.03209399,0.09854216,152,278,856,56,139,310,0.00653803,0.01606547,0.03569599,0.37441738,0.55333415,1.32646687
48215,0,USTexasHidalgo,Texas,Hidalgo,2020-07-15 04:46:12.784923,2020-05-17 00:00:00.000000,0.01720405,0.03291001,0.10223294,149,285,888,61,145,313,0.00705689,0.01669236,0.03609357,0.39505145,0.56305774,1.34909977
48215,0,USTexasHidalgo,Texas,Hidalgo,2020-07-15 04:46:12.784923,2020-05-18 00:00:00.000000,0.02033874,0.03378920,0.10449553,176,293,907,64,149,318,0.00743392,0.01722736,0.03669621,0.40535430,0.57938620,1.35387425
48215,0,USTexasHidalgo,Texas,Hidalgo,2020-07-15 04:46:12.784923,2020-05-19 00:00:00.000000,0.01907978,0.03577268,0.10693273,165,310,928,69,154,324,0.00802417,0.01775979,0.03736325,0.40796338,0.58817431,1.35353853
48215,0,USTexasHidalgo,Texas,Hidalgo,2020-07-15 04:46:12.784923,2020-05-20 00:00:00.000000,0.02230524,0.03697337,0.11384182,193,321,988,74,164,330,0.00857078,0.01891080,0.03808693,0.41297075,0.59677832,1.24606124
48215,0,USTexasHidalgo,Texas,Hidalgo,2020-07-15 04:46:12.784923,2020-05-21 00:00:00.000000,0.02123414,0.03869375,0.12121686,184,336,1053,82,173,354,0.00953871,0.01998441,0.04082632,0.42916456,0.60487636,1.28210078
48215,0,USTexasHidalgo,Texas,Hidalgo,2020-07-15 04:46:12.784923,2020-05-22 00:00:00.000000,0.02455294,0.04107841,0.12654475,213,356,1099,85,182,382,0.00983325,0.02104299,0.04406862,0.46226837,0.62435135,1.35913094
48215,0,USTexasHidalgo,Texas,Hidalgo,2020-07-15 04:46:12.784923,2020-05-23 00:00:00.000000,0.02376122,0.04263536,0.13219982,206,370,1148,98,191,413,0.01132989,0.02203362,0.04762017,0.48858366,0.64210550,1.36616272
48215,0,USTexasHidalgo,Texas,Hidalgo,2020-07-15 04:46:12.784923,2020-05-24 00:00:00.000000,0.02677461,0.04538670,0.13860298,232,394,1204,98,200,440,0.01130273,0.02306348,0.05068478,0.50459209,0.65388314,1.37829657
48215,0,USTexasHidalgo,Texas,Hidalgo,2020-07-15 04:46:12.784923,2020-05-25 00:00:00.000000,0.02708608,0.04897026,0.14762773,235,425,1282,109,217,475,0.01265301,0.02500439,0.05474914,0.51546962,0.67950648,1.40842180
48215,0,USTexasHidalgo,Texas,Hidalgo,2020-07-15 04:46:12.784923,2020-05-26 00:00:00.000000,0.03018884,0.05376350,0.16083724,262,467,1397,115,236,517,0.01325349,0.02719393,0.05952995,0.52080253,0.69933715,1.45902886
48215,0,USTexasHidalgo,Texas,Hidalgo,2020-07-15 04:46:12.784923,2020-05-27 00:00:00.000000,0.03222398,0.05874416,0.17690633,279,510,1536,123,251,566,0.01422747,0.02891987,0.06517111,0.52522716,0.72456474,1.47329944
48215,0,USTexasHidalgo,Texas,Hidalgo,2020-07-15 04:46:12.784923,2020-05-28 00:00:00.000000,0.03581748,0.06380130,0.19568409,311,554,1699,132,270,618,0.01524195,0.03117809,0.07121718,0.52836801,0.75523795,1.46436619
48215,0,USTexasHidalgo,Texas,Hidalgo,2020-07-15 04:46:12.784923,2020-05-29 00:00:00.000000,0.03895881,0.06962116,0.21601529,338,604,1876,145,294,676,0.01675456,0.03384596,0.07785553,0.53538252,0.77411775,1.50856501
48215,0,USTexasHidalgo,Texas,Hidalgo,2020-07-15 04:46:12.784923,2020-05-30 00:00:00.000000,0.04394649,0.07610153,0.23191198,381,661,2014,156,315,730,0.01796218,0.03633905,0.08406784,0.54975099,0.78222775,1.56628746
48215,0,USTexasHidalgo,Texas,Hidalgo,2020-07-15 04:46:12.784923,2020-05-31 00:00:00.000000,0.04827292,0.08239770,0.24902690,419,715,2163,169,345,804,0.01947020,0.03974675,0.09260495,0.56552277,0.80121255,1.54270405
48215,0,USTexasHidalgo,Texas,Hidalgo,2020-07-15 04:46:12.784923,2020-06-01 00:00:00.000000,0.05219385,0.09129493,0.26743997,453,793,2323,182,371,866,0.02106015,0.04277770,0.09975118,0.56852931,0.83729852,1.60482800
48215,0,USTexasHidalgo,Texas,Hidalgo,2020-07-15 04:46:12.784923,2020-06-02 00:00:00.000000,0.05564801,0.09943094,0.28920522,483,863,2512,198,409,931,0.02288360,0.04714930,0.10717958,0.57654569,0.85398827,1.62144991
48215,0,USTexasHidalgo,Texas,Hidalgo,2020-07-15 04:46:12.784923,2020-06-03 00:00:00.000000,0.06186899,0.10937782,0.31536535,537,950,2739,217,452,1002,0.02499911,0.05212123,0.11537574,0.59704209,0.86688448,1.63400490
48215,0,USTexasHidalgo,Texas,Hidalgo,2020-07-15 04:46:12.784923,2020-06-04 00:00:00.000000,0.07140840,0.11949075,0.34329382,620,1038,2982,238,498,1090,0.02742762,0.05742326,0.12549303,0.62700010,0.88216892,1.65542977
48215,0,USTexasHidalgo,Texas,Hidalgo,2020-07-15 04:46:12.784923,2020-06-05 00:00:00.000000,0.07955476,0.13347857,0.37239466,691,1159,3235,262,547,1210,0.03019694,0.06306036,0.13935096,0.62885211,0.88316572,1.67207577
48215,0,USTexasHidalgo,Texas,Hidalgo,2020-07-15 04:46:12.784923,2020-06-06 00:00:00.000000,0.08472668,0.14910454,0.41274596,736,1295,3585,291,607,1340,0.03351226,0.06987688,0.15425530,0.63930719,0.89383568,1.72639561
48215,0,USTexasHidalgo,Texas,Hidalgo,2020-07-15 04:46:12.784923,2020-06-07 00:00:00.000000,0.09027309,0.17078341,0.46228427,784,1483,4015,323,669,1485,0.03720408,0.07703799,0.17101544,0.65211071,0.90067922,1.80768536
48215,0,USTexasHidalgo,Texas,Hidalgo,2020-07-15 04:46:12.784923,2020-06-08 00:00:00.000000,0.09924811,0.19005300,0.51606011,862,1651,4483,358,748,1623,0.04124949,0.08612114,0.18685845,0.68391276,0.90466182,1.80787912
48215,0,USTexasHidalgo,Texas,Hidalgo,2020-07-15 04:46:12.784923,2020-06-09 00:00:00.000000,0.11123649,0.21564589,0.57297985,966,1873,4977,396,837,1762,0.04568802,0.09635756,0.20289295,0.69415843,0.90087800,1.81878453
48215,0,USTexasHidalgo,Texas,Hidalgo,2020-07-15 04:46:12.784923,2020-06-10 00:00:00.000000,0.12490719,0.24193509,0.63162815,1085,2101,5486,472,935,1966,0.05435646,0.10764772,0.22636824,0.68894488,0.89744622,1.82523492
48215,0,USTexasHidalgo,Texas,Hidalgo,2020-07-15 04:46:12.784923,2020-06-11 00:00:00.000000,0.14129418,0.27406706,0.69168065,1227,2380,6008,505,1041,2219,0.05815134,0.11992588,0.25546960,0.67839042,0.90690050,1.81221576
48215,0,USTexasHidalgo,Texas,Hidalgo,2020-07-15 04:46:12.784923,2020-06-12 00:00:00.000000,0.16143870,0.30668852,0.76260206,1402,2664,6624,620,1191,2470,0.07138973,0.13716694,0.28436936,0.67847350,0.92315169,1.80101364
48215,0,USTexasHidalgo,Texas,Hidalgo,2020-07-15 04:46:12.784923,2020-06-13 00:00:00.000000,0.18466148,0.34488138,0.83842277,1604,2996,7283,657,1350,2732,0.07570253,0.15542328,0.31451895,0.69041359,0.93064943,1.79019313
48215,0,USTexasHidalgo,Texas,Hidalgo,2020-07-15 04:46:12.784923,2020-06-14 00:00:00.000000,0.20790485,0.38400221,0.92669463,1806,3335,8050,810,1532,3035,0.09335662,0.17640419,0.34948247,0.69133550,0.93414599,1.78572109
48215,0,USTexasHidalgo,Texas,Hidalgo,2020-07-15 04:46:12.784923,2020-06-15 00:00:00.000000,0.23238308,0.43039430,1.02551142,2018,3738,8908,862,1736,3388,0.09933875,0.19994550,0.39006636,0.69061503,0.93301367,1.79291715
48215,0,USTexasHidalgo,Texas,Hidalgo,2020-07-15 04:46:12.784923,2020-06-16 00:00:00.000000,0.26384828,0.48401016,1.13468704,2292,4204,9857,1010,1986,3793,0.11637435,0.22866760,0.43670389,0.69082109,0.92926046,1.82361527
48215,0,USTexasHidalgo,Texas,Hidalgo,2020-07-15 04:46:12.784923,2020-06-17 00:00:00.000000,0.29983939,0.54240942,1.25490253,2604,4711,10901,1121,2222,4278,0.12907763,0.25579496,0.49253694,0.69140324,0.92450200,1.78909008
48215,0,USTexasHidalgo,Texas,Hidalgo,2020-07-15 04:46:12.784923,2020-06-18 00:00:00.000000,0.34061570,0.61247285,1.38698343,2958,5320,12048,1285,2540,4837,0.14797368,0.29248874,0.55683545,0.66988182,0.91683187,1.78967799
48215,0,USTexasHidalgo,Texas,Hidalgo,2020-07-15 04:46:12.784923,2020-06-19 00:00:00.000000,0.38665319,0.68805657,1.53060364,3358,5977,13296,1455,2902,5440,0.16757349,0.33415844,0.62631017,0.64269243,0.91097520,1.73833175
48215,0,USTexasHidalgo,Texas,Hidalgo,2020-07-15 04:46:12.784923,2020-06-20 00:00:00.000000,0.43441013,0.76113164,1.68273350,3773,6612,14618,1639,3244,6093,0.18868216,0.37343058,0.70148480,0.63807504,0.88456830,1.71062956
48215,0,USTexasHidalgo,Texas,Hidalgo,2020-07-15 04:46:12.784923,2020-06-21 00:00:00.000000,0.48031396,0.84617634,1.86203494,4172,7350,16175,1792,3578,6768,0.20633164,0.41194115,0.77913601,0.60009988,0.84830830,1.66820610
48215,0,USTexasHidalgo,Texas,Hidalgo,2020-07-15 04:46:12.784923,2020-06-22 00:00:00.000000,0.53019323,0.93462533,2.07874823,4605,8119,18058,2039,3955,7381,0.23477149,0.45533564,0.84975559,0.58171649,0.83409480,1.64602959
48215,0,USTexasHidalgo,Texas,Hidalgo,2020-07-15 04:46:12.784923,2020-06-23 00:00:00.000000,0.58452213,1.02582618,2.30185491,5077,8911,19996,2165,4360,8347,0.24931170,0.50194043,0.96087286,0.55862733,0.79891905,1.56647590
48215,0,USTexasHidalgo,Texas,Hidalgo,2020-07-15 04:46:12.784923,2020-06-24 00:00:00.000000,0.64353682,1.10499665,2.52608631,5590,9599,21944,2485,4619,9194,0.28611289,0.53177947,1.05846931,0.54112494,0.76986418,1.51253655
48215,0,USTexasHidalgo,Texas,Hidalgo,2020-07-15 04:46:12.784923,2020-06-25 00:00:00.000000,0.70702718,1.21329073,2.74344489,6141,10539,23832,2680,4996,9967,0.30853550,0.57513028,1.14741929,0.51809709,0.75841608,1.48779339
48215,0,USTexasHidalgo,Texas,Hidalgo,2020-07-15 04:46:12.784923,2020-06-26 00:00:00.000000,0.77401649,1.25208222,2.94583368,6723,10876,25590,2988,5305,11098,0.34403270,0.61078182,1.27761219,0.50216111,0.72441884,1.45949385
48215,0,USTexasHidalgo,Texas,Hidalgo,2020-07-15 04:46:12.784923,2020-06-27 00:00:00.000000,0.83603565,1.35200213,3.14969545,7262,11744,27361,3219,5649,12254,0.37058757,0.65036050,1.41064247,0.48987349,0.69283269,1.40908392
48215,0,USTexasHidalgo,Texas,Hidalgo,2020-07-15 04:46:12.784923,2020-06-28 00:00:00.000000,0.86710417,1.39363014,3.47558589,7532,12106,30192,3484,5961,13218,0.40113221,0.68621778,1.52166144,0.48192071,0.66543061,1.31419129
48215,0,USTexasHidalgo,Texas,Hidalgo,2020-07-15 04:46:12.784923,2020-06-29 00:00:00.000000,0.90195601,1.49073747,3.76366678,7835,12950,32695,3608,6132,13770,0.41538353,0.70599104,1.58519757,0.47493346,0.64234269,1.27087946
48215,0,USTexasHidalgo,Texas,Hidalgo,2020-07-15 04:46:12.784923,2020-06-30 00:00:00.000000,0.94995459,1.51487851,4.04263784,8252,13159,35118,3844,6370,14272,0.44251264,0.73335305,1.64296928,0.47336685,0.63407402,1.24147933
48215,0,USTexasHidalgo,Texas,Hidalgo,2020-07-15 04:46:12.784923,2020-07-01 00:00:00.000000,0.99714404,1.59006183,4.33221668,8662,13812,37634,4002,6674,14769,0.46079683,0.76837432,1.70022536,0.46817167,0.63144396,1.22109339
48215,0,USTexasHidalgo,Texas,Hidalgo,2020-07-15 04:46:12.784923,2020-07-02 00:00:00.000000,1.03138334,1.66133010,4.63305980,8959,14432,40247,4255,6977,15338,0.48982091,0.80320946,1.76567483,0.45952208,0.62054003,1.21083599
48215,0,USTexasHidalgo,Texas,Hidalgo,2020-07-15 04:46:12.784923,2020-07-03 00:00:00.000000,1.08603756,1.73163504,4.94319423,9434,15042,42941,4345,7143,15727,0.50025441,0.82233415,1.81044824,0.44281682,0.60163281,1.19649033
48215,0,USTexasHidalgo,Texas,Hidalgo,2020-07-15 04:46:12.784923,2020-07-04 00:00:00.000000,1.11126344,1.78193263,5.09437142,9653,15479,44255,4439,7308,16090,0.51101406,0.84125241,1.85228267,0.43012054,0.59022703,1.17600181
48215,0,USTexasHidalgo,Texas,Hidalgo,2020-07-15 04:46:12.784923,2020-07-05 00:00:00.000000,1.16594539,1.82405500,5.18925982,10128,15845,45079,4508,7533,16416,0.51895230,0.86718198,1.88970664,0.42747782,0.58196164,1.14593473
48215,0,USTexasHidalgo,Texas,Hidalgo,2020-07-15 04:46:12.784923,2020-07-06 00:00:00.000000,1.15918456,1.87118381,5.24616674,10069,16255,45573,4500,7817,16723,0.51807896,0.89986449,1.92512763,0.40931886,0.57355369,1.02474045
48215,0,USTexasHidalgo,Texas,Hidalgo,2020-07-15 04:46:12.784923,2020-07-07 00:00:00.000000,1.16548862,1.91841661,5.28233885,10124,16665,45888,4542,8074,17021,0.52284608,0.92953333,1.95939422,0.40583818,0.57340429,0.99287996
48215,0,USTexasHidalgo,Texas,Hidalgo,2020-07-15 04:46:12.784923,2020-07-08 00:00:00.000000,1.14944575,1.94301659,5.30732971,9985,16879,46105,4505,8105,17310,0.51862043,0.93304183,1.99271922,0.40419222,0.57422577,0.98136511
48215,0,USTexasHidalgo,Texas,Hidalgo,2020-07-15 04:46:12.784923,2020-07-09 00:00:00.000000,1.14376841,1.96759089,5.32564645,9935,17092,46264,4440,8338,17592,0.51114551,0.95987846,2.02510245,0.40108573,0.57834775,0.97756761
48215,0,USTexasHidalgo,Texas,Hidalgo,2020-07-15 04:46:12.784923,2020-07-10 00:00:00.000000,1.11766848,2.03033466,5.33936608,9709,17637,46383,4511,8572,18232,0.51928850,0.98679083,2.09885776,0.39831955,0.57833644,0.97641550
48215,0,USTexasHidalgo,Texas,Hidalgo,2020-07-15 04:46:12.784923,2020-07-11 00:00:00.000000,1.12108681,2.07073434,5.34946617,9738,17988,46471,4315,8670,19178,0.49677786,0.99812400,2.20775236,0.39822478,0.57785547,0.97606957
48215,0,USTexasHidalgo,Texas,Hidalgo,2020-07-15 04:46:12.784923,2020-07-12 00:00:00.000000,1.08431730,2.10758787,5.35642599,9419,18308,46531,4454,8755,20148,0.51281649,1.00790792,2.31933181,0.39819020,0.57759993,0.97596250
48215,0,USTexasHidalgo,Texas,Hidalgo,2020-07-15 04:46:12.784923,2020-07-13 00:00:00.000000,1.09920569,2.15649503,5.36049418,9548,18733,46566,4187,8980,21138,0.48208654,1.03380991,2.43329740,0.39817743,0.57747604,0.97592681
48215,0,USTexasHidalgo,Texas,Hidalgo,2020-07-15 04:46:12.784923,2020-07-14 00:00:00.000000,1.05118274,2.20046698,5.36181020,9131,19115,46578,4323,9100,22145,0.49774654,1.04756642,2.54923230,0.39817268,0.57741606,0.97591328
48215,0,USTexasHidalgo,Texas,Hidalgo,2020-07-15 04:46:12.784923,2020-07-15 00:00:00.000000,1.07706952,2.23744080,5.36046113,9356,19436,46566,4133,9340,23165,0.47584433,1.07518130,2.66668538,0.39817090,0.57738703,0.97590721
48215,0,USTexasHidalgo,Texas,Hidalgo,2020-07-15 04:46:12.784923,2020-07-16 00:00:00.000000,1.02966428,2.21259820,5.52642422,8944,19220,48008,4138,9629,23701,0.47641559,1.10850811,2.72839204,0.39817024,0.57737299,0.97590400
48215,0,USTexasHidalgo,Texas,Hidalgo,2020-07-15 04:46:12.784923,2020-07-17 00:00:00.000000,1.05396818,2.25719970,5.73006092,9155,19608,49777,4038,9858,24000,0.46493681,1.13479231,2.76276810,0.39816998,0.57736620,0.97590210
48215,0,USTexasHidalgo,Texas,Hidalgo,2020-07-15 04:46:12.784923,2020-07-18 00:00:00.000000,1.00786095,2.30267393,5.94964627,8755,20003,51684,3949,10045,24262,0.45467461,1.15635024,2.79290392,0.39816989,0.57736292,0.97590090
48215,0,USTexasHidalgo,Texas,Hidalgo,2020-07-15 04:46:12.784923,2020-07-19 00:00:00.000000,1.00438481,2.35285234,6.17128332,8725,20439,53610,3855,10282,24613,0.44379294,1.18364729,2.83331616,0.39816985,0.57736133,0.97590012
48215,0,USTexasHidalgo,Texas,Hidalgo,2020-07-15 04:46:12.784923,2020-07-20 00:00:00.000000,0.97993127,2.34742046,6.39434879,8512,20392,55548,3761,10462,25342,0.43300855,1.20440282,2.91731571,0.39816984,0.57736056,0.97589960
48215,0,USTexasHidalgo,Texas,Hidalgo,2020-07-15 04:46:12.784923,2020-07-21 00:00:00.000000,0.94984855,2.33122099,6.61816396,8251,20251,57492,3668,10577,26055,0.42233099,1.21759307,2.99937271,0.39816983,0.57736019,0.97589925
48215,0,USTexasHidalgo,Texas,Hidalgo,2020-07-15 04:46:12.784923,2020-07-22 00:00:00.000000,0.91363773,2.36842476,6.84199666,7936,20574,59436,3578,10763,26747,0.41198929,1.23902249,3.07905866,0.39816983,0.57736001,0.97589902
48215,0,USTexasHidalgo,Texas,Hidalgo,2020-07-15 04:46:12.784923,2020-07-23 00:00:00.000000,0.89119685,2.41652630,7.06506393,7741,20992,61374,3508,10851,27415,0.40393221,1.24910531,3.15593760,0.39816983,0.57735992,0.97589887
48215,0,USTexasHidalgo,Texas,Hidalgo,2020-07-15 04:46:12.784923,2020-07-24 00:00:00.000000,0.87348404,2.43097688,7.28653544,7588,21118,63298,3439,10971,27916,0.39596101,1.26297216,3.21352351,0.39816983,0.57735988,0.97589877
48215,0,USTexasHidalgo,Texas,Hidalgo,2020-07-15 04:46:12.784923,2020-07-25 00:00:00.000000,0.85582834,2.47071361,7.50553780,7434,21463,65201,3371,11034,29037,0.38808041,1.27026471,3.34262877,0.39816983,0.57735986,0.97589870
48215,0,USTexasHidalgo,Texas,Hidalgo,2020-07-15 04:46:12.784923,2020-07-26 00:00:00.000000,0.83824639,2.50200795,7.70388557,7281,21735,66924,3277,11063,30340,0.37725426,1.27353805,3.49258948,0.39816983,0.57735985,0.97589865
48215,0,USTexasHidalgo,Texas,Hidalgo,2020-07-15 04:46:12.784923,2020-07-27 00:00:00.000000,0.81661012,2.50544555,7.89103123,7093,21764,68549,3210,10928,30988,0.36958541,1.25797380,3.56723560,0.39816983,0.57735985,0.97589862
