49 Divergences 
Computed from 160 by 124 log-likelihood matrix

         Estimate       SE
elpd_loo -13619.73  3371.07
p_loo    38502.00        -

There has been a warning during the calculation. Please check the results.
------

Pareto k diagnostic values:
                         Count   Pct.
(-Inf, 0.5]   (good)        3    2.4%
 (0.5, 0.7]   (ok)          0    0.0%
   (0.7, 1]   (bad)         0    0.0%
   (1, Inf)   (very bad)  121   97.6%


The scale is now log by default. Use 'scale' argument or 'stats.ic_scale' rcParam if
you rely on a specific value.
A higher log-score (or a lower deviance) indicates a model with better predictive
accuracy.