FIPS,HR_UID,nameid,province,region,analysisTime,dates,pointprevalence_025,pointprevalence_50,pointprevalence_975,pointinfections_025,pointinfections_50,pointinfections_975,pointinfectious_025,pointinfectious_50,pointinfectious_975,pointinfectiousprevalence_05,pointinfectiousprevalence_50,pointinfectiousprevalence_95,infectrate_025,infectrate_50,infectrate_975
29213,0,USMissouriTaney,Missouri,Taney,2020-07-18 09:58:58.093112,2020-03-09 00:00:00.000000,0.00043680,0.01424875,0.06721355,0,7,37,0,1,7,0.00000000,0.00305544,0.01406648,0.46307463,0.62763977,0.90816553
29213,0,USMissouriTaney,Missouri,Taney,2020-07-18 09:58:58.093112,2020-03-10 00:00:00.000000,0.00333612,0.01776960,0.07999703,1,9,44,0,3,10,0.00083292,0.00614949,0.01917092,0.46307447,0.62764017,0.90816439
29213,0,USMissouriTaney,Missouri,Taney,2020-07-18 09:58:58.093112,2020-03-11 00:00:00.000000,0.00000000,0.01327498,0.06060806,0,7,33,0,1,8,0.00000000,0.00303368,0.01443834,0.46307407,0.62764093,0.90816216
29213,0,USMissouriTaney,Missouri,Taney,2020-07-18 09:58:58.093112,2020-03-12 00:00:00.000000,0.00307398,0.01786405,0.05981297,1,9,33,0,3,8,0.00085242,0.00623778,0.01475904,0.46307319,0.62764234,0.90815766
29213,0,USMissouriTaney,Missouri,Taney,2020-07-18 09:58:58.093112,2020-03-13 00:00:00.000000,0.00000000,0.01261648,0.05239922,0,7,29,0,1,8,0.00000000,0.00332065,0.01497132,0.46307160,0.62760920,0.90814829
29213,0,USMissouriTaney,Missouri,Taney,2020-07-18 09:58:58.093112,2020-03-14 00:00:00.000000,0.00316929,0.01553416,0.06078639,1,8,33,0,3,8,0.00093173,0.00587752,0.01471603,0.46307050,0.62711795,0.90392273
29213,0,USMissouriTaney,Missouri,Taney,2020-07-18 09:58:58.093112,2020-03-15 00:00:00.000000,0.00000000,0.01218543,0.04820550,0,6,26,0,2,8,0.00000000,0.00381617,0.01591282,0.46308077,0.62765901,0.88825321
29213,0,USMissouriTaney,Missouri,Taney,2020-07-18 09:58:58.093112,2020-03-16 00:00:00.000000,0.00350418,0.01666819,0.06202730,1,9,34,0,2,9,0.00110402,0.00534921,0.01617266,0.46295875,0.62767604,0.86365415
29213,0,USMissouriTaney,Missouri,Taney,2020-07-18 09:58:58.093112,2020-03-17 00:00:00.000000,0.00000000,0.01365925,0.04947440,0,7,27,0,2,9,0.00000000,0.00445993,0.01728129,0.46038997,0.62770774,0.86312915
29213,0,USMissouriTaney,Missouri,Taney,2020-07-18 09:58:58.093112,2020-03-18 00:00:00.000000,0.00413235,0.01886312,0.06319013,2,10,35,0,3,9,0.00132994,0.00582772,0.01756757,0.45916111,0.62723006,0.86196518
29213,0,USMissouriTaney,Missouri,Taney,2020-07-18 09:58:58.093112,2020-03-19 00:00:00.000000,0.00000000,0.01618671,0.05479813,0,9,30,0,2,10,0.00000000,0.00514571,0.01926256,0.45875248,0.61986727,0.87353717
29213,0,USMissouriTaney,Missouri,Taney,2020-07-18 09:58:58.093112,2020-03-20 00:00:00.000000,0.00494290,0.02140608,0.06336314,2,11,35,0,3,10,0.00159834,0.00613745,0.01909728,0.45481066,0.60734066,0.85660697
29213,0,USMissouriTaney,Missouri,Taney,2020-07-18 09:58:58.093112,2020-03-21 00:00:00.000000,0.00000000,0.01850924,0.06036691,0,10,33,0,3,11,0.00000000,0.00583039,0.02135270,0.44555927,0.57892676,0.87319393
29213,0,USMissouriTaney,Missouri,Taney,2020-07-18 09:58:58.093112,2020-03-22 00:00:00.000000,0.00585973,0.02386622,0.06532225,3,13,36,1,3,11,0.00189110,0.00635441,0.02106477,0.43826587,0.56724487,0.88321355
29213,0,USMissouriTaney,Missouri,Taney,2020-07-18 09:58:58.093112,2020-03-23 00:00:00.000000,0.00000000,0.02090798,0.06594858,0,11,36,0,3,12,0.00000000,0.00576949,0.02312978,0.42409500,0.54711884,0.89821945
29213,0,USMissouriTaney,Missouri,Taney,2020-07-18 09:58:58.093112,2020-03-24 00:00:00.000000,0.00647961,0.02602141,0.06656139,3,14,37,1,3,13,0.00220529,0.00604729,0.02478435,0.40030252,0.53415246,0.90592583
29213,0,USMissouriTaney,Missouri,Taney,2020-07-18 09:58:58.093112,2020-03-25 00:00:00.000000,0.00000000,0.02373233,0.07249656,0,13,40,0,3,14,0.00000000,0.00539615,0.02647880,0.38571482,0.52752287,0.90748383
29213,0,USMissouriTaney,Missouri,Taney,2020-07-18 09:58:58.093112,2020-03-26 00:00:00.000000,0.00607428,0.02910254,0.07205115,3,16,40,1,3,15,0.00248362,0.00682584,0.02761585,0.35557798,0.52270058,0.90298158
29213,0,USMissouriTaney,Missouri,Taney,2020-07-18 09:58:58.093112,2020-03-27 00:00:00.000000,0.00000000,0.02670932,0.08072668,0,14,45,0,3,15,0.00000000,0.00605394,0.02846136,0.34231617,0.51993622,0.90215629
29213,0,USMissouriTaney,Missouri,Taney,2020-07-18 09:58:58.093112,2020-03-28 00:00:00.000000,0.00483598,0.03145507,0.08274288,2,17,46,1,4,16,0.00274373,0.00772928,0.02949179,0.33989633,0.52656340,0.90693072
29213,0,USMissouriTaney,Missouri,Taney,2020-07-18 09:58:58.093112,2020-03-29 00:00:00.000000,0.00000000,0.03027069,0.09032480,0,16,50,0,3,16,0.00000000,0.00678265,0.03026267,0.33968237,0.52118809,0.90824904
29213,0,USMissouriTaney,Missouri,Taney,2020-07-18 09:58:58.093112,2020-03-30 00:00:00.000000,0.00380736,0.03477023,0.09406177,2,19,52,1,4,17,0.00259129,0.00827622,0.03143113,0.33994979,0.50709113,0.90555224
29213,0,USMissouriTaney,Missouri,Taney,2020-07-18 09:58:58.093112,2020-03-31 00:00:00.000000,0.00000000,0.03358570,0.09904900,0,18,55,0,4,18,0.00000000,0.00764158,0.03275850,0.34043128,0.50100669,0.90165518
29213,0,USMissouriTaney,Missouri,Taney,2020-07-18 09:58:58.093112,2020-04-01 00:00:00.000000,0.00300325,0.03872871,0.10125309,1,21,56,1,4,19,0.00206400,0.00875500,0.03413858,0.34200211,0.49842549,0.90007486
29213,0,USMissouriTaney,Missouri,Taney,2020-07-18 09:58:58.093112,2020-04-02 00:00:00.000000,0.00000000,0.03647402,0.10966460,0,20,61,0,4,19,0.00000000,0.00847693,0.03560950,0.34561061,0.49915663,0.89441327
29213,0,USMissouriTaney,Missouri,Taney,2020-07-18 09:58:58.093112,2020-04-03 00:00:00.000000,0.00238840,0.04174065,0.10495013,1,23,58,0,5,20,0.00163608,0.00975646,0.03729054,0.35269445,0.49587076,0.89492053
29213,0,USMissouriTaney,Missouri,Taney,2020-07-18 09:58:58.093112,2020-04-04 00:00:00.000000,0.00000000,0.03954558,0.12107568,0,22,67,0,5,21,0.00000000,0.00973466,0.03888490,0.36612227,0.49048513,0.85977257
29213,0,USMissouriTaney,Missouri,Taney,2020-07-18 09:58:58.093112,2020-04-05 00:00:00.000000,0.00195711,0.04461076,0.11315613,1,24,63,0,5,22,0.00132778,0.01066198,0.04058990,0.38133471,0.48446490,0.85305341
29213,0,USMissouriTaney,Missouri,Taney,2020-07-18 09:58:58.093112,2020-04-06 00:00:00.000000,0.00000000,0.04364926,0.12754862,0,24,71,0,6,24,0.00000000,0.01099303,0.04295740,0.37931494,0.47979475,0.86421073
29213,0,USMissouriTaney,Missouri,Taney,2020-07-18 09:58:58.093112,2020-04-07 00:00:00.000000,0.00170000,0.04817794,0.12174586,0,26,68,0,6,25,0.00114055,0.01195038,0.04515922,0.37371698,0.48316121,0.88571468
29213,0,USMissouriTaney,Missouri,Taney,2020-07-18 09:58:58.093112,2020-04-08 00:00:00.000000,0.00000000,0.04862819,0.13330383,0,27,74,0,6,26,0.00000000,0.01227646,0.04684840,0.34083189,0.48080335,0.90693914
29213,0,USMissouriTaney,Missouri,Taney,2020-07-18 09:58:58.093112,2020-04-09 00:00:00.000000,0.00153700,0.05173374,0.12983725,0,28,72,0,7,27,0.00102771,0.01311379,0.04875679,0.31465281,0.47214350,0.92707773
29213,0,USMissouriTaney,Missouri,Taney,2020-07-18 09:58:58.093112,2020-04-10 00:00:00.000000,0.00000000,0.05357673,0.13767004,0,29,76,0,7,28,0.00000000,0.01355197,0.05008422,0.30622585,0.47344884,0.97238893
29213,0,USMissouriTaney,Missouri,Taney,2020-07-18 09:58:58.093112,2020-04-11 00:00:00.000000,0.00139258,0.05819855,0.14252835,0,32,79,0,8,29,0.00093218,0.01464763,0.05271458,0.27800191,0.47163388,1.03123734
29213,0,USMissouriTaney,Missouri,Taney,2020-07-18 09:58:58.093112,2020-04-12 00:00:00.000000,0.00000000,0.06084130,0.15027899,0,34,84,0,8,30,0.00000000,0.01538426,0.05381950,0.26772334,0.46900950,1.06138053
29213,0,USMissouriTaney,Missouri,Taney,2020-07-18 09:58:58.093112,2020-04-13 00:00:00.000000,0.00124826,0.06413375,0.16042163,0,35,89,0,9,32,0.00083667,0.01633399,0.05755320,0.25680600,0.46669685,1.07398109
29213,0,USMissouriTaney,Missouri,Taney,2020-07-18 09:58:58.093112,2020-04-14 00:00:00.000000,0.00000000,0.06595590,0.17135882,0,36,95,0,9,32,0.00000000,0.01717384,0.05877492,0.25567879,0.46526286,1.07886141
29213,0,USMissouriTaney,Missouri,Taney,2020-07-18 09:58:58.093112,2020-04-15 00:00:00.000000,0.00111167,0.06900755,0.17996090,0,38,100,0,10,35,0.00074532,0.01814255,0.06313015,0.25580172,0.46491229,1.08390323
29213,0,USMissouriTaney,Missouri,Taney,2020-07-18 09:58:58.093112,2020-04-16 00:00:00.000000,0.00000000,0.07173104,0.18915194,0,40,105,0,10,36,0.00000000,0.01901149,0.06526072,0.25612489,0.46656810,1.08887513
29213,0,USMissouriTaney,Missouri,Taney,2020-07-18 09:58:58.093112,2020-04-17 00:00:00.000000,0.00099390,0.07451357,0.20204009,0,41,112,0,11,38,0.00066432,0.02027905,0.06891259,0.25632815,0.47130802,1.07931305
29213,0,USMissouriTaney,Missouri,Taney,2020-07-18 09:58:58.093112,2020-04-18 00:00:00.000000,0.00000000,0.07925995,0.21714668,0,44,121,0,11,39,0.00000000,0.02113001,0.07123926,0.25679529,0.48363524,1.07484891
29213,0,USMissouriTaney,Missouri,Taney,2020-07-18 09:58:58.093112,2020-04-19 00:00:00.000000,0.00092836,0.08277857,0.23470910,0,46,131,0,12,41,0.00060991,0.02282613,0.07452167,0.25955895,0.49799191,1.05091165
29213,0,USMissouriTaney,Missouri,Taney,2020-07-18 09:58:58.093112,2020-04-20 00:00:00.000000,0.00000000,0.08549052,0.25427140,0,47,142,0,13,43,0.00000000,0.02429694,0.07769612,0.26076935,0.50034320,1.01907735
29213,0,USMissouriTaney,Missouri,Taney,2020-07-18 09:58:58.093112,2020-04-21 00:00:00.000000,0.00094129,0.08925307,0.27533703,0,49,153,0,14,45,0.00061518,0.02631057,0.08090926,0.25698578,0.51311347,1.01918099
29213,0,USMissouriTaney,Missouri,Taney,2020-07-18 09:58:58.093112,2020-04-22 00:00:00.000000,0.00000000,0.09434002,0.29537804,0,52,165,0,15,47,0.00000000,0.02763674,0.08473023,0.24201871,0.51794252,1.01661433
29213,0,USMissouriTaney,Missouri,Taney,2020-07-18 09:58:58.093112,2020-04-23 00:00:00.000000,0.00090280,0.09894184,0.31664658,0,55,177,0,16,49,0.00059733,0.02923412,0.08894001,0.24468196,0.48967141,1.02060487
29213,0,USMissouriTaney,Missouri,Taney,2020-07-18 09:58:58.093112,2020-04-24 00:00:00.000000,0.00000000,0.10457777,0.33859834,0,58,189,0,17,51,0.00000000,0.03050555,0.09270919,0.25035158,0.48405879,1.00586082
29213,0,USMissouriTaney,Missouri,Taney,2020-07-18 09:58:58.093112,2020-04-25 00:00:00.000000,0.00084109,0.10735679,0.35736004,0,60,199,0,17,53,0.00055705,0.03189039,0.09570478,0.25209654,0.48407439,1.02590182
29213,0,USMissouriTaney,Missouri,Taney,2020-07-18 09:58:58.093112,2020-04-26 00:00:00.000000,0.00000000,0.11404154,0.37728101,0,63,211,0,18,55,0.00000000,0.03338937,0.09898671,0.23459109,0.48481994,1.05704381
29213,0,USMissouriTaney,Missouri,Taney,2020-07-18 09:58:58.093112,2020-04-27 00:00:00.000000,0.00078483,0.12245106,0.39842068,0,68,222,0,19,57,0.00051992,0.03505604,0.10267527,0.22372077,0.48606485,1.08249801
29213,0,USMissouriTaney,Missouri,Taney,2020-07-18 09:58:58.093112,2020-04-28 00:00:00.000000,0.00000000,0.13523990,0.42084320,0,75,235,0,20,59,0.00000000,0.03681619,0.10681142,0.21625758,0.48823342,1.09078325
29213,0,USMissouriTaney,Missouri,Taney,2020-07-18 09:58:58.093112,2020-04-29 00:00:00.000000,0.00073553,0.13915778,0.44464590,0,77,248,0,21,62,0.00048689,0.03869439,0.11146932,0.21341817,0.49192911,1.05756789
29213,0,USMissouriTaney,Missouri,Taney,2020-07-18 09:58:58.093112,2020-04-30 00:00:00.000000,0.00000000,0.15083404,0.47011400,0,84,262,0,22,65,0.00000000,0.04101393,0.11664774,0.20318045,0.49640374,1.03531947
29213,0,USMissouriTaney,Missouri,Taney,2020-07-18 09:58:58.093112,2020-05-01 00:00:00.000000,0.00069534,0.15425723,0.49947512,0,86,279,0,24,68,0.00045942,0.04363711,0.12213803,0.19881587,0.50183871,1.07008101
29213,0,USMissouriTaney,Missouri,Taney,2020-07-18 09:58:58.093112,2020-05-02 00:00:00.000000,0.00000000,0.16215194,0.53212624,0,90,297,0,25,71,0.00000000,0.04637304,0.12865780,0.19810699,0.50931128,1.10632974
29213,0,USMissouriTaney,Missouri,Taney,2020-07-18 09:58:58.093112,2020-05-03 00:00:00.000000,0.00066621,0.16416184,0.56712603,0,91,317,0,27,76,0.00043895,0.04883029,0.13729817,0.19786848,0.51674713,1.14610715
29213,0,USMissouriTaney,Missouri,Taney,2020-07-18 09:58:58.093112,2020-05-04 00:00:00.000000,0.00000000,0.18383213,0.60437728,0,102,338,0,28,81,0.00000000,0.05131401,0.14658614,0.19780307,0.52536293,1.17264195
29213,0,USMissouriTaney,Missouri,Taney,2020-07-18 09:58:58.093112,2020-05-05 00:00:00.000000,0.00064915,0.19375607,0.64443870,0,108,360,0,30,85,0.00042622,0.05438807,0.15331640,0.19782462,0.53455621,1.18235688
29213,0,USMissouriTaney,Missouri,Taney,2020-07-18 09:58:58.093112,2020-05-06 00:00:00.000000,0.00000000,0.20472476,0.68924140,0,114,385,0,32,88,0.00000000,0.05843156,0.15769223,0.19798234,0.54453204,1.16904068
29213,0,USMissouriTaney,Missouri,Taney,2020-07-18 09:58:58.093112,2020-05-07 00:00:00.000000,0.00064523,0.21578237,0.73859498,0,120,413,0,34,90,0.00042192,0.06131601,0.16243461,0.19855422,0.55483147,1.14407263
29213,0,USMissouriTaney,Missouri,Taney,2020-07-18 09:58:58.093112,2020-05-08 00:00:00.000000,0.00000000,0.22587795,0.79148780,0,126,442,0,36,93,0.00000000,0.06613076,0.16757800,0.20035455,0.56183451,1.13548801
29213,0,USMissouriTaney,Missouri,Taney,2020-07-18 09:58:58.093112,2020-05-09 00:00:00.000000,0.00065473,0.24240286,0.85110102,0,135,476,0,38,97,0.00042649,0.06903765,0.17346840,0.20457831,0.56522314,1.13785061
29213,0,USMissouriTaney,Missouri,Taney,2020-07-18 09:58:58.093112,2020-05-10 00:00:00.000000,0.00000000,0.25696787,0.92002846,0,143,514,0,41,103,0.00000000,0.07465268,0.18496026,0.21038901,0.57508431,1.14947459
29213,0,USMissouriTaney,Missouri,Taney,2020-07-18 09:58:58.093112,2020-05-11 00:00:00.000000,0.00067651,0.26960964,0.99592281,0,150,556,0,43,110,0.00043923,0.07843283,0.19741615,0.20795380,0.58683521,1.16158810
29213,0,USMissouriTaney,Missouri,Taney,2020-07-18 09:58:58.093112,2020-05-12 00:00:00.000000,0.00000000,0.28331175,1.06734527,0,158,596,0,47,117,0.00000000,0.08548540,0.21077306,0.20793305,0.60293874,1.20727628
29213,0,USMissouriTaney,Missouri,Taney,2020-07-18 09:58:58.093112,2020-05-13 00:00:00.000000,0.00071078,0.30175180,1.14015636,0,168,637,0,50,125,0.00045984,0.08964618,0.22509159,0.21555672,0.60749346,1.24228838
29213,0,USMissouriTaney,Missouri,Taney,2020-07-18 09:58:58.093112,2020-05-14 00:00:00.000000,0.00000000,0.32848873,1.22130741,0,183,683,0,54,134,0.00000000,0.09795847,0.24052198,0.21960588,0.62083106,1.30384442
29213,0,USMissouriTaney,Missouri,Taney,2020-07-18 09:58:58.093112,2020-05-15 00:00:00.000000,0.00076114,0.35556307,1.31181459,0,198,733,0,57,143,0.00049038,0.10347495,0.25731622,0.22428205,0.63677827,1.33376210
29213,0,USMissouriTaney,Missouri,Taney,2020-07-18 09:58:58.093112,2020-05-16 00:00:00.000000,0.00000000,0.38368417,1.41098677,0,214,789,0,63,154,0.00000000,0.11285653,0.27582723,0.23497273,0.64944883,1.34489464
29213,0,USMissouriTaney,Missouri,Taney,2020-07-18 09:58:58.093112,2020-05-17 00:00:00.000000,0.00083088,0.41147787,1.52255976,0,230,851,0,67,164,0.00053353,0.12022543,0.29460058,0.24363769,0.65866581,1.36020771
29213,0,USMissouriTaney,Missouri,Taney,2020-07-18 09:58:58.093112,2020-05-18 00:00:00.000000,0.00000000,0.44829283,1.64862109,0,250,922,0,73,174,0.00000000,0.13181270,0.31278114,0.24990538,0.66504542,1.40294903
29213,0,USMissouriTaney,Missouri,Taney,2020-07-18 09:58:58.093112,2020-05-19 00:00:00.000000,0.00091894,0.48199693,1.81004148,0,269,1012,0,78,186,0.00058900,0.14097371,0.33363403,0.25393521,0.66975884,1.48199696
29213,0,USMissouriTaney,Missouri,Taney,2020-07-18 09:58:58.093112,2020-05-20 00:00:00.000000,0.00000000,0.52683073,2.01888803,0,294,1129,0,87,199,0.00000000,0.15713942,0.35600034,0.25577860,0.67288452,1.60147281
29213,0,USMissouriTaney,Missouri,Taney,2020-07-18 09:58:58.093112,2020-05-21 00:00:00.000000,0.00102311,0.58467503,2.25813081,0,326,1262,0,98,212,0.00065508,0.17541567,0.38024935,0.25731558,0.67571731,1.67202972
29213,0,USMissouriTaney,Missouri,Taney,2020-07-18 09:58:58.093112,2020-05-22 00:00:00.000000,0.00000000,0.64677337,2.52360326,0,361,1411,0,109,227,0.00000000,0.19663557,0.40701797,0.26002071,0.68003441,1.67796822
29213,0,USMissouriTaney,Missouri,Taney,2020-07-18 09:58:58.093112,2020-05-23 00:00:00.000000,0.00114808,0.70588256,2.84636231,0,394,1591,0,120,249,0.00073273,0.21483033,0.44550700,0.27006226,0.69566784,1.71695055
29213,0,USMissouriTaney,Missouri,Taney,2020-07-18 09:58:58.093112,2020-05-24 00:00:00.000000,0.00000000,0.77894425,3.22252176,0,435,1802,0,131,275,0.00000000,0.23464865,0.49294529,0.28517357,0.74311544,1.73536668
29213,0,USMissouriTaney,Missouri,Taney,2020-07-18 09:58:58.093112,2020-05-25 00:00:00.000000,0.00134741,0.86603559,3.64117171,0,484,2036,0,140,305,0.00084291,0.25179050,0.54579679,0.30336326,0.79256887,1.76898051
29213,0,USMissouriTaney,Missouri,Taney,2020-07-18 09:58:58.093112,2020-05-26 00:00:00.000000,0.00000000,0.98107897,4.05836860,0,548,2269,0,150,338,0.00000000,0.26931939,0.60471898,0.31653856,0.85901958,1.79140481
29213,0,USMissouriTaney,Missouri,Taney,2020-07-18 09:58:58.093112,2020-05-27 00:00:00.000000,0.00177353,1.07636196,4.47678140,0,601,2503,0,167,372,0.00108760,0.29952646,0.66624043,0.32966161,0.92589109,1.83912640
29213,0,USMissouriTaney,Missouri,Taney,2020-07-18 09:58:58.093112,2020-05-28 00:00:00.000000,0.00000000,1.22892848,5.02404311,0,687,2809,0,182,410,0.00000000,0.32646967,0.73324829,0.34709794,0.94588946,1.87055773
29213,0,USMissouriTaney,Missouri,Taney,2020-07-18 09:58:58.093112,2020-05-29 00:00:00.000000,0.00240568,1.33164142,5.66367365,1,744,3167,0,204,446,0.00148632,0.36570880,0.79900818,0.36452917,0.92599154,1.96826022
29213,0,USMissouriTaney,Missouri,Taney,2020-07-18 09:58:58.093112,2020-05-30 00:00:00.000000,0.00000000,1.51368352,6.37712814,0,846,3566,0,224,489,0.00000000,0.40196935,0.87486019,0.37363678,0.90225300,2.04375102
29213,0,USMissouriTaney,Missouri,Taney,2020-07-18 09:58:58.093112,2020-05-31 00:00:00.000000,0.00314816,1.66809861,7.28045516,1,932,4071,1,249,540,0.00195463,0.44658007,0.96607320,0.38508734,0.89773145,2.14727432
29213,0,USMissouriTaney,Missouri,Taney,2020-07-18 09:58:58.093112,2020-06-01 00:00:00.000000,0.00000000,1.94527094,8.17273255,0,1087,4570,0,276,599,0.00000000,0.49433223,1.07164494,0.39644332,0.90864179,2.23222812
29213,0,USMissouriTaney,Missouri,Taney,2020-07-18 09:58:58.093112,2020-06-02 00:00:00.000000,0.00406944,2.16836680,8.98819715,2,1212,5026,1,311,666,0.00252460,0.55782102,1.19154183,0.44559553,0.92956231,2.30132938
29213,0,USMissouriTaney,Missouri,Taney,2020-07-18 09:58:58.093112,2020-06-03 00:00:00.000000,0.00000000,2.44943868,10.05287855,0,1369,5622,0,343,742,0.00000000,0.61390429,1.32682948,0.46644388,0.93638759,2.24844281
29213,0,USMissouriTaney,Missouri,Taney,2020-07-18 09:58:58.093112,2020-06-04 00:00:00.000000,0.00537997,2.75549190,11.32289776,3,1541,6332,1,387,832,0.00329483,0.69234275,1.48880993,0.48011396,0.98807355,2.39847768
29213,0,USMissouriTaney,Missouri,Taney,2020-07-18 09:58:58.093112,2020-06-05 00:00:00.000000,0.00000000,3.10678056,12.43647273,0,1737,6955,0,418,944,0.00000000,0.74781368,1.68805762,0.50553274,1.06911384,2.56606272
29213,0,USMissouriTaney,Missouri,Taney,2020-07-18 09:58:58.093112,2020-06-06 00:00:00.000000,0.00742476,3.52652624,13.70405018,4,1972,7664,2,481,1070,0.00447385,0.86104191,1.91430330,0.53811314,1.08164595,2.64335962
29213,0,USMissouriTaney,Missouri,Taney,2020-07-18 09:58:58.093112,2020-06-07 00:00:00.000000,0.00000000,4.03769112,15.15206391,0,2258,8474,0,529,1187,0.00000000,0.94665386,2.12360268,0.56792638,1.09841609,2.75990006
29213,0,USMissouriTaney,Missouri,Taney,2020-07-18 09:58:58.093112,2020-06-08 00:00:00.000000,0.01031735,4.51201970,16.72580505,5,2523,9354,3,619,1316,0.00615464,1.10735234,2.35463557,0.59065313,1.10137325,2.78377139
29213,0,USMissouriTaney,Missouri,Taney,2020-07-18 09:58:58.093112,2020-06-09 00:00:00.000000,0.00018006,5.12993971,18.70787912,0,2869,10462,0,683,1470,0.00000000,1.22270433,2.62889120,0.64277452,1.16255835,2.81884643
29213,0,USMissouriTaney,Missouri,Taney,2020-07-18 09:58:58.093112,2020-06-10 00:00:00.000000,0.01426389,5.81227085,20.87602847,7,3250,11675,4,785,1693,0.00826919,1.40361781,3.02721504,0.72477447,1.24760180,2.88596910
29213,0,USMissouriTaney,Missouri,Taney,2020-07-18 09:58:58.093112,2020-06-11 00:00:00.000000,0.00273192,6.86483970,23.19346933,1,3839,12971,0,874,1900,0.00000000,1.56326228,3.39856643,0.81265010,1.32245556,2.96972191
29213,0,USMissouriTaney,Missouri,Taney,2020-07-18 09:58:58.093112,2020-06-12 00:00:00.000000,0.01968213,7.67745286,25.63784904,11,4293,14338,5,992,2183,0.01048510,1.77508197,3.90412456,0.80029957,1.33970366,3.02846331
29213,0,USMissouriTaney,Missouri,Taney,2020-07-18 09:58:58.093112,2020-06-13 00:00:00.000000,0.00579345,8.97822473,28.58774733,3,5021,15988,0,1115,2545,0.00000000,1.99376968,4.55128805,0.78953684,1.36537913,3.03008310
29213,0,USMissouriTaney,Missouri,Taney,2020-07-18 09:58:58.093112,2020-06-14 00:00:00.000000,0.02788482,10.08237260,31.66212153,15,5638,17707,8,1289,2847,0.01441615,2.30625356,5.09081751,0.78212939,1.33775376,3.10475732
29213,0,USMissouriTaney,Missouri,Taney,2020-07-18 09:58:58.093112,2020-06-15 00:00:00.000000,0.00980117,11.41967620,34.99841571,5,6386,19573,0,1431,3185,0.00000000,2.56037746,5.69545978,0.77698633,1.33710758,3.50921473
29213,0,USMissouriTaney,Missouri,Taney,2020-07-18 09:58:58.093112,2020-06-16 00:00:00.000000,0.04468037,12.84293021,38.21857129,24,7182,21374,10,1616,3556,0.01918952,2.89075470,6.35976912,0.77437599,1.35931777,3.59246014
29213,0,USMissouriTaney,Missouri,Taney,2020-07-18 09:58:58.093112,2020-06-17 00:00:00.000000,0.01450076,13.88766575,41.36953329,8,7767,23137,0,1832,3950,0.00000000,3.27708870,7.06422411,0.78277082,1.37200701,3.67943953
29213,0,USMissouriTaney,Missouri,Taney,2020-07-18 09:58:58.093112,2020-06-18 00:00:00.000000,0.06799864,15.21241599,45.10449710,38,8508,25226,14,2017,4444,0.02567206,3.60782465,7.94764214,0.78920278,1.37021640,3.75341232
29213,0,USMissouriTaney,Missouri,Taney,2020-07-18 09:58:58.093112,2020-06-19 00:00:00.000000,0.01830352,16.12143406,48.40105343,10,9016,27069,0,2220,5049,0.00000000,3.97021208,9.02856138,0.80223741,1.45479083,3.90378192
29213,0,USMissouriTaney,Missouri,Taney,2020-07-18 09:58:58.093112,2020-06-20 00:00:00.000000,0.08900719,17.69525327,50.97004623,49,9896,28506,18,2497,5641,0.03393052,4.46528338,10.08720281,0.82555361,1.46925385,3.92408627
29213,0,USMissouriTaney,Missouri,Taney,2020-07-18 09:58:58.093112,2020-06-21 00:00:00.000000,0.02354302,19.08963432,55.57567219,13,10676,31082,0,2748,6177,0.00000000,4.91482723,11.04572316,0.82917241,1.45618614,3.98537089
29213,0,USMissouriTaney,Missouri,Taney,2020-07-18 09:58:58.093112,2020-06-22 00:00:00.000000,0.11822229,20.70370911,59.48296658,66,11579,33267,23,3050,6748,0.04270885,5.45461070,12.06653108,0.81319781,1.44648524,4.07310173
29213,0,USMissouriTaney,Missouri,Taney,2020-07-18 09:58:58.093112,2020-06-23 00:00:00.000000,0.02694842,21.94573572,62.25794410,15,12273,34819,0,3330,7278,0.00000000,5.95507349,13.01344935,0.77344062,1.45246057,4.14869655
29213,0,USMissouriTaney,Missouri,Taney,2020-07-18 09:58:58.093112,2020-06-24 00:00:00.000000,0.15393193,23.74912618,63.81486802,86,13282,35690,26,3611,7731,0.04695427,6.45726011,13.82468764,0.72991016,1.45178583,4.27727401
29213,0,USMissouriTaney,Missouri,Taney,2020-07-18 09:58:58.093112,2020-06-25 00:00:00.000000,0.03052433,25.23902952,65.20020406,17,14115,36465,0,3967,8203,0.00000000,7.09361369,14.66771888,0.69969945,1.45809898,4.51913287
29213,0,USMissouriTaney,Missouri,Taney,2020-07-18 09:58:58.093112,2020-06-26 00:00:00.000000,0.17336453,27.68640767,66.37820465,96,15484,37124,29,4226,8559,0.05233660,7.55738678,15.30531830,0.68448148,1.47831541,4.92885809
29213,0,USMissouriTaney,Missouri,Taney,2020-07-18 09:58:58.093112,2020-06-27 00:00:00.000000,0.03698400,28.06840371,67.38054249,20,15698,37684,0,4559,8855,0.00000000,8.15188141,15.83393059,0.67820120,1.52353882,5.09585630
29213,0,USMissouriTaney,Missouri,Taney,2020-07-18 09:58:58.093112,2020-06-28 00:00:00.000000,0.19114343,29.01170888,67.55044294,106,16225,37779,34,4742,9154,0.06096623,8.48040222,16.36798685,0.67582668,1.53760295,5.17206199
29213,0,USMissouriTaney,Missouri,Taney,2020-07-18 09:58:58.093112,2020-06-29 00:00:00.000000,0.04822059,29.41560901,67.94198256,26,16451,37998,0,5003,9348,0.00000000,8.94545755,16.71577175,0.67490060,1.55123349,5.18930948
29213,0,USMissouriTaney,Missouri,Taney,2020-07-18 09:58:58.093112,2020-06-30 00:00:00.000000,0.21013386,29.18857213,67.15545004,117,16324,37558,41,5142,9755,0.07427227,9.19548291,17.44300404,0.67451579,1.55253541,5.19842766
29213,0,USMissouriTaney,Missouri,Taney,2020-07-18 09:58:58.093112,2020-07-01 00:00:00.000000,0.06166678,29.06523814,66.83528225,34,16255,37379,0,5403,10088,0.00000000,9.66149598,18.03839439,0.67419222,1.54623816,5.22730995
29213,0,USMissouriTaney,Missouri,Taney,2020-07-18 09:58:58.093112,2020-07-02 00:00:00.000000,0.23121730,28.02861394,67.36864454,129,15675,37677,49,5540,10489,0.08822776,9.90728714,18.75539830,0.67347217,1.53981229,5.09557947
29213,0,USMissouriTaney,Missouri,Taney,2020-07-18 09:58:58.093112,2020-07-03 00:00:00.000000,0.07165483,27.64739407,66.90471828,40,15462,37418,0,5703,10867,0.00000000,10.19747002,19.43069850,0.67122684,1.52988385,4.92124803
29213,0,USMissouriTaney,Missouri,Taney,2020-07-18 09:58:58.093112,2020-07-04 00:00:00.000000,0.25269725,25.79435973,66.17169236,141,14426,37008,54,5714,11172,0.09790005,10.21715635,19.97629480,0.66298287,1.44163667,4.81322110
29213,0,USMissouriTaney,Missouri,Taney,2020-07-18 09:58:58.093112,2020-07-05 00:00:00.000000,0.07766245,24.44723143,66.49210886,43,13672,37187,0,5719,11398,0.00000000,10.22634592,20.38056601,0.64420922,1.39263488,4.98921544
29213,0,USMissouriTaney,Missouri,Taney,2020-07-18 09:58:58.093112,2020-07-06 00:00:00.000000,0.26964111,23.09414443,66.68619386,150,12916,37296,56,5719,11543,0.10075629,10.22691971,20.64034207,0.61942152,1.35722658,5.15992143
29213,0,USMissouriTaney,Missouri,Taney,2020-07-18 09:58:58.093112,2020-07-07 00:00:00.000000,0.07730463,21.65334989,68.12467566,43,12110,38100,0,5732,11611,0.00000000,10.25032480,20.76193597,0.60270798,1.35760756,5.15879930
29213,0,USMissouriTaney,Missouri,Taney,2020-07-18 09:58:58.093112,2020-07-08 00:00:00.000000,0.27908005,20.28616218,69.42198729,156,11345,38826,57,5764,11591,0.10334946,10.30688590,20.72657827,0.59586073,1.34371813,5.16092872
29213,0,USMissouriTaney,Missouri,Taney,2020-07-18 09:58:58.093112,2020-07-09 00:00:00.000000,0.07909692,19.18388286,70.54187907,44,10729,39452,0,5876,11327,0.00000000,10.50646370,20.25319594,0.59364206,1.33120634,5.16261428
29213,0,USMissouriTaney,Missouri,Taney,2020-07-18 09:58:58.093112,2020-07-10 00:00:00.000000,0.28558322,18.70711272,71.39730343,159,10462,39931,58,5815,11179,0.10408981,10.39896544,19.98893673,0.59297985,1.32903471,5.17033144
29213,0,USMissouriTaney,Missouri,Taney,2020-07-18 09:58:58.093112,2020-07-11 00:00:00.000000,0.07480371,18.54817634,70.89836683,41,10373,39652,0,5744,11341,0.00000000,10.27187110,20.27907808,0.59278712,1.32747809,5.17971659
29213,0,USMissouriTaney,Missouri,Taney,2020-07-18 09:58:58.093112,2020-07-12 00:00:00.000000,0.29241676,17.39102180,69.77699755,163,9726,39024,57,5755,11647,0.10290399,10.29151834,20.82586943,0.59273144,1.32641410,5.18240864
29213,0,USMissouriTaney,Missouri,Taney,2020-07-18 09:58:58.093112,2020-07-13 00:00:00.000000,0.06896902,17.47948511,68.54941395,38,9775,38338,0,5725,11667,0.00000000,10.23709741,20.86129500,0.59271539,1.32576117,5.18315218
29213,0,USMissouriTaney,Missouri,Taney,2020-07-18 09:58:58.093112,2020-07-14 00:00:00.000000,0.29918800,16.50160796,67.24116409,167,9229,37606,54,5644,11597,0.09700484,10.09233493,20.73624949,0.59271077,1.32535631,5.18335538
29213,0,USMissouriTaney,Missouri,Taney,2020-07-18 09:58:58.093112,2020-07-15 00:00:00.000000,0.06396964,15.81036279,65.87395598,35,8842,36841,0,5663,11596,0.00000000,10.12635245,20.73538803,0.59270943,1.32510338,5.18341075
29213,0,USMissouriTaney,Missouri,Taney,2020-07-18 09:58:58.093112,2020-07-16 00:00:00.000000,0.30533768,15.01904112,64.52540885,170,8399,36087,50,5642,11587,0.09101937,10.08863964,20.71794473,0.59270905,1.32494454,5.18342583
29213,0,USMissouriTaney,Missouri,Taney,2020-07-18 09:58:58.093112,2020-07-17 00:00:00.000000,0.06162916,14.52424672,63.16771912,34,8123,35328,0,5567,11570,0.00000000,9.95472355,20.68744417,0.59270894,1.32484443,5.18342993
29213,0,USMissouriTaney,Missouri,Taney,2020-07-18 09:58:58.093112,2020-07-18 00:00:00.000000,0.31093972,13.69420018,61.79736263,173,7658,34562,48,5479,11564,0.08677732,9.79743237,20.67690058,0.59270891,1.32478116,5.18343105
29213,0,USMissouriTaney,Missouri,Taney,2020-07-18 09:58:58.093112,2020-07-19 00:00:00.000000,0.05953338,13.56045855,60.42231984,33,7584,33792,0,5413,11605,0.00000000,9.67874592,20.75033401,0.59270890,1.32474112,5.18343135
29213,0,USMissouriTaney,Missouri,Taney,2020-07-18 09:58:58.093112,2020-07-20 00:00:00.000000,0.30906518,12.82815849,59.08405704,172,7174,33044,47,5368,11641,0.08427305,9.59914355,20.81502746,0.59270890,1.32471575,5.18343143
29213,0,USMissouriTaney,Missouri,Taney,2020-07-18 09:58:58.093112,2020-07-21 00:00:00.000000,0.05789112,12.72522078,57.90178170,32,7116,32383,0,5326,11673,0.00000000,9.52299664,20.87197525,0.59270890,1.32469965,5.18343146
29213,0,USMissouriTaney,Missouri,Taney,2020-07-18 09:58:58.093112,2020-07-22 00:00:00.000000,0.31475107,12.14458068,56.70358037,176,6792,31713,46,5297,11701,0.08239156,9.47131160,20.92204207,0.59270890,1.32468944,5.18343146
29213,0,USMissouriTaney,Missouri,Taney,2020-07-18 09:58:58.093112,2020-07-23 00:00:00.000000,0.05689064,11.89621304,55.49471460,31,6653,31037,0,5288,11725,0.00000000,9.45655352,20.96598208,0.59270890,1.32468296,5.18343146
29213,0,USMissouriTaney,Missouri,Taney,2020-07-18 09:58:58.093112,2020-07-24 00:00:00.000000,0.32007938,11.63304313,54.27997754,179,6506,30357,45,5257,11747,0.08115131,9.39997173,21.00445505,0.59270890,1.32467884,5.18343146
29213,0,USMissouriTaney,Missouri,Taney,2020-07-18 09:58:58.093112,2020-07-25 00:00:00.000000,0.05597219,11.42427528,53.06374188,31,6389,29677,0,5228,11766,0.00000000,9.34946603,21.03803983,0.59270890,1.32467623,5.18343146
29213,0,USMissouriTaney,Missouri,Taney,2020-07-18 09:58:58.093112,2020-07-26 00:00:00.000000,0.30449126,11.10382077,51.84999217,170,6210,28998,44,5197,11782,0.08001375,9.29396407,21.06724568,0.59270890,1.32467457,5.18343146
29213,0,USMissouriTaney,Missouri,Taney,2020-07-18 09:58:58.093112,2020-07-27 00:00:00.000000,0.05512649,10.97122687,50.64234699,30,6135,28323,0,5188,11796,0.00000000,9.27705052,21.09252177,0.59270890,1.32467351,5.18343146
29213,0,USMissouriTaney,Missouri,Taney,2020-07-18 09:58:58.093112,2020-07-28 00:00:00.000000,0.28282646,10.72575415,49.44407467,158,5998,27653,44,5156,11808,0.07896729,9.21944574,21.11426525,0.59270890,1.32467284,5.18343146
29213,0,USMissouriTaney,Missouri,Taney,2020-07-18 09:58:58.093112,2020-07-29 00:00:00.000000,0.05363371,10.58726677,48.25810601,29,5921,26989,0,5168,11819,0.00000000,9.24083296,21.13282804,0.59270890,1.32467242,5.18343146
29213,0,USMissouriTaney,Missouri,Taney,2020-07-18 09:58:58.093112,2020-07-30 00:00:00.000000,0.26289531,10.46072701,47.08704593,147,5850,26334,43,5143,11827,0.07800149,9.19695413,21.14852265,0.59270890,1.32467215,5.18343146
