FIPS,HR_UID,nameid,province,region,analysisTime,dates,pointprevalence_025,pointprevalence_50,pointprevalence_975,pointinfections_025,pointinfections_50,pointinfections_975,pointinfectious_025,pointinfectious_50,pointinfectious_975,pointinfectiousprevalence_05,pointinfectiousprevalence_50,pointinfectiousprevalence_95,infectrate_025,infectrate_50,infectrate_975
17075,0,USIllinoisIroquois,Illinois,Iroquois,2020-07-18 17:31:17.370066,2020-03-09 00:00:00.000000,0.00925916,0.03903876,0.16180423,2,10,43,0,4,19,0.00329132,0.01735586,0.07090662,0.52966376,0.70944338,0.98586739
17075,0,USIllinoisIroquois,Illinois,Iroquois,2020-07-18 17:31:17.370066,2020-03-10 00:00:00.000000,0.00574903,0.03663437,0.13782651,1,9,37,0,5,17,0.00361421,0.01883651,0.06502200,0.52966836,0.70945802,0.98586698
17075,0,USIllinoisIroquois,Illinois,Iroquois,2020-07-18 17:31:17.370066,2020-03-11 00:00:00.000000,0.00609829,0.03631596,0.12823052,1,9,34,0,5,16,0.00284531,0.01852126,0.06263113,0.52967967,0.70948225,0.98586567
17075,0,USIllinoisIroquois,Illinois,Iroquois,2020-07-18 17:31:17.370066,2020-03-12 00:00:00.000000,0.00713823,0.03462807,0.11773313,1,9,31,1,5,17,0.00427824,0.01902868,0.06342991,0.52970755,0.70952241,0.98586154
17075,0,USIllinoisIroquois,Illinois,Iroquois,2020-07-18 17:31:17.370066,2020-03-13 00:00:00.000000,0.00638206,0.03600129,0.11358439,1,9,30,1,4,16,0.00379522,0.01805386,0.06007315,0.52977669,0.70958963,0.98584869
17075,0,USIllinoisIroquois,Illinois,Iroquois,2020-07-18 17:31:17.370066,2020-03-14 00:00:00.000000,0.00787535,0.03536693,0.11112945,2,9,30,1,5,16,0.00462611,0.01890493,0.06031714,0.52995016,0.70970760,0.98580924
17075,0,USIllinoisIroquois,Illinois,Iroquois,2020-07-18 17:31:17.370066,2020-03-15 00:00:00.000000,0.00938116,0.03572837,0.10792464,2,9,29,1,5,14,0.00475326,0.01852613,0.05428642,0.53045721,0.70995958,0.98569135
17075,0,USIllinoisIroquois,Illinois,Iroquois,2020-07-18 17:31:17.370066,2020-03-16 00:00:00.000000,0.00841515,0.03521301,0.10246191,2,9,27,1,5,15,0.00478405,0.01883564,0.05723688,0.53353801,0.70777012,0.98535934
17075,0,USIllinoisIroquois,Illinois,Iroquois,2020-07-18 17:31:17.370066,2020-03-17 00:00:00.000000,0.01117663,0.03540468,0.10290013,3,9,27,1,5,14,0.00494620,0.01911631,0.05312421,0.53613618,0.70729207,0.98565305
17075,0,USIllinoisIroquois,Illinois,Iroquois,2020-07-18 17:31:17.370066,2020-03-18 00:00:00.000000,0.00885022,0.03523635,0.10124526,2,9,27,1,5,15,0.00491828,0.01954703,0.05545021,0.53863926,0.70190480,0.99765132
17075,0,USIllinoisIroquois,Illinois,Iroquois,2020-07-18 17:31:17.370066,2020-03-19 00:00:00.000000,0.01144939,0.03662243,0.10146216,3,9,27,1,5,14,0.00526814,0.01884664,0.05256796,0.53940462,0.69669962,1.00555767
17075,0,USIllinoisIroquois,Illinois,Iroquois,2020-07-18 17:31:17.370066,2020-03-20 00:00:00.000000,0.00927935,0.03601275,0.09664238,2,9,26,1,5,14,0.00499405,0.01953774,0.05522761,0.53490696,0.70321915,1.05019899
17075,0,USIllinoisIroquois,Illinois,Iroquois,2020-07-18 17:31:17.370066,2020-03-21 00:00:00.000000,0.01173172,0.03544603,0.09341631,3,9,25,1,5,14,0.00543624,0.01854254,0.05303932,0.52101051,0.70111090,1.11192389
17075,0,USIllinoisIroquois,Illinois,Iroquois,2020-07-18 17:31:17.370066,2020-03-22 00:00:00.000000,0.00969253,0.03597030,0.09269970,2,9,25,1,5,13,0.00514295,0.01853208,0.05157644,0.50911710,0.70377603,1.12108694
17075,0,USIllinoisIroquois,Illinois,Iroquois,2020-07-18 17:31:17.370066,2020-03-23 00:00:00.000000,0.01206950,0.03588314,0.09981305,3,9,27,1,4,14,0.00579318,0.01828624,0.05473705,0.50620121,0.70999462,1.13240761
17075,0,USIllinoisIroquois,Illinois,Iroquois,2020-07-18 17:31:17.370066,2020-03-24 00:00:00.000000,0.01008447,0.03660322,0.11021243,2,9,29,1,4,16,0.00526622,0.01768567,0.05995536,0.50542535,0.70994266,1.14148715
17075,0,USIllinoisIroquois,Illinois,Iroquois,2020-07-18 17:31:17.370066,2020-03-25 00:00:00.000000,0.01232670,0.03718370,0.12385967,3,10,33,1,4,17,0.00612240,0.01841438,0.06318854,0.50608122,0.71048035,1.14309510
17075,0,USIllinoisIroquois,Illinois,Iroquois,2020-07-18 17:31:17.370066,2020-03-26 00:00:00.000000,0.01046330,0.03805830,0.13115872,2,10,35,1,5,18,0.00536228,0.01864299,0.06871948,0.50864611,0.72627558,1.15906191
17075,0,USIllinoisIroquois,Illinois,Iroquois,2020-07-18 17:31:17.370066,2020-03-27 00:00:00.000000,0.01256977,0.03852266,0.14000499,3,10,37,1,5,20,0.00639827,0.01930023,0.07674032,0.51900341,0.72515208,1.17810707
17075,0,USIllinoisIroquois,Illinois,Iroquois,2020-07-18 17:31:17.370066,2020-03-28 00:00:00.000000,0.01159462,0.04026997,0.14309993,3,10,38,1,5,21,0.00544881,0.01998302,0.08070841,0.52180433,0.72056505,1.18132387
17075,0,USIllinoisIroquois,Illinois,Iroquois,2020-07-18 17:31:17.370066,2020-03-29 00:00:00.000000,0.01474814,0.04129094,0.14490451,3,11,39,1,5,22,0.00669265,0.02023145,0.08148499,0.52201180,0.72433101,1.23092632
17075,0,USIllinoisIroquois,Illinois,Iroquois,2020-07-18 17:31:17.370066,2020-03-30 00:00:00.000000,0.01294853,0.04252505,0.14606508,3,11,39,1,5,22,0.00648427,0.02062806,0.08261916,0.51147833,0.73461147,1.30484013
17075,0,USIllinoisIroquois,Illinois,Iroquois,2020-07-18 17:31:17.370066,2020-03-31 00:00:00.000000,0.01748174,0.04361226,0.14742783,4,11,39,2,6,22,0.00753430,0.02215118,0.08312085,0.50951050,0.74397946,1.32794831
17075,0,USIllinoisIroquois,Illinois,Iroquois,2020-07-18 17:31:17.370066,2020-04-01 00:00:00.000000,0.01486016,0.04348921,0.14866142,4,11,40,2,6,22,0.00745147,0.02291405,0.08412908,0.50941657,0.74155470,1.32817408
17075,0,USIllinoisIroquois,Illinois,Iroquois,2020-07-18 17:31:17.370066,2020-04-02 00:00:00.000000,0.01821488,0.04499699,0.14886215,4,12,40,2,6,22,0.00922419,0.02350570,0.08474805,0.50589281,0.75438690,1.33249343
17075,0,USIllinoisIroquois,Illinois,Iroquois,2020-07-18 17:31:17.370066,2020-04-03 00:00:00.000000,0.01689341,0.04542899,0.15095652,4,12,40,2,6,23,0.00828487,0.02345858,0.08574002,0.50269629,0.78032766,1.33755001
17075,0,USIllinoisIroquois,Illinois,Iroquois,2020-07-18 17:31:17.370066,2020-04-04 00:00:00.000000,0.01897981,0.04781249,0.15445514,5,12,41,2,6,23,0.00905367,0.02446971,0.08603231,0.51039940,0.79224825,1.34344108
17075,0,USIllinoisIroquois,Illinois,Iroquois,2020-07-18 17:31:17.370066,2020-04-05 00:00:00.000000,0.01925773,0.04862214,0.16116039,5,13,43,2,7,23,0.00875617,0.02585436,0.08579933,0.51893492,0.80224972,1.34229468
17075,0,USIllinoisIroquois,Illinois,Iroquois,2020-07-18 17:31:17.370066,2020-04-06 00:00:00.000000,0.02052881,0.05205237,0.16385245,5,14,44,2,7,23,0.00981434,0.02738617,0.08749497,0.52184506,0.80036654,1.35011801
17075,0,USIllinoisIroquois,Illinois,Iroquois,2020-07-18 17:31:17.370066,2020-04-07 00:00:00.000000,0.02000860,0.05328274,0.16662348,5,14,45,2,7,24,0.00891112,0.02803591,0.08905923,0.52839834,0.81858959,1.33132681
17075,0,USIllinoisIroquois,Illinois,Iroquois,2020-07-18 17:31:17.370066,2020-04-08 00:00:00.000000,0.02078564,0.05511220,0.16889219,5,14,45,2,8,25,0.01043888,0.03014977,0.09262533,0.53771315,0.84018756,1.32137877
17075,0,USIllinoisIroquois,Illinois,Iroquois,2020-07-18 17:31:17.370066,2020-04-09 00:00:00.000000,0.02078248,0.05869799,0.17149025,5,15,46,2,8,26,0.00983330,0.03139232,0.09598411,0.53813576,0.84560211,1.34826382
17075,0,USIllinoisIroquois,Illinois,Iroquois,2020-07-18 17:31:17.370066,2020-04-10 00:00:00.000000,0.02234846,0.06261611,0.17615795,6,16,47,3,8,27,0.01133577,0.03303785,0.10060476,0.58410140,0.84474491,1.37854066
17075,0,USIllinoisIroquois,Illinois,Iroquois,2020-07-18 17:31:17.370066,2020-04-11 00:00:00.000000,0.02307499,0.06720804,0.18773170,6,18,50,3,9,28,0.01199538,0.03460846,0.10421837,0.60758257,0.84756774,1.41005334
17075,0,USIllinoisIroquois,Illinois,Iroquois,2020-07-18 17:31:17.370066,2020-04-12 00:00:00.000000,0.02642680,0.07317177,0.20488604,7,19,55,3,9,29,0.01300229,0.03638885,0.10819817,0.62357199,0.88741582,1.42717642
17075,0,USIllinoisIroquois,Illinois,Iroquois,2020-07-18 17:31:17.370066,2020-04-13 00:00:00.000000,0.02767218,0.07656361,0.21976357,7,20,59,3,10,30,0.01322608,0.03938831,0.11333309,0.63626169,0.89901611,1.42812703
17075,0,USIllinoisIroquois,Illinois,Iroquois,2020-07-18 17:31:17.370066,2020-04-14 00:00:00.000000,0.03145146,0.08154730,0.23496591,8,22,63,3,11,33,0.01453810,0.04223239,0.12533347,0.64717029,0.89818298,1.43022411
17075,0,USIllinoisIroquois,Illinois,Iroquois,2020-07-18 17:31:17.370066,2020-04-15 00:00:00.000000,0.03250134,0.08571865,0.25225516,8,23,68,3,12,37,0.01464454,0.04578706,0.13674427,0.65906297,0.91299755,1.44183191
17075,0,USIllinoisIroquois,Illinois,Iroquois,2020-07-18 17:31:17.370066,2020-04-16 00:00:00.000000,0.03602014,0.09158536,0.28530400,9,24,77,4,13,39,0.01714576,0.04903839,0.14641845,0.66834208,0.93168968,1.45945280
17075,0,USIllinoisIroquois,Illinois,Iroquois,2020-07-18 17:31:17.370066,2020-04-17 00:00:00.000000,0.03806727,0.10058693,0.32384142,10,27,87,4,14,42,0.01705836,0.05338740,0.15699401,0.67614533,0.95164434,1.47799335
17075,0,USIllinoisIroquois,Illinois,Iroquois,2020-07-18 17:31:17.370066,2020-04-18 00:00:00.000000,0.04262898,0.11081399,0.36907785,11,30,100,5,15,45,0.01986483,0.05730642,0.16885261,0.69263730,0.97322135,1.51291645
17075,0,USIllinoisIroquois,Illinois,Iroquois,2020-07-18 17:31:17.370066,2020-04-19 00:00:00.000000,0.04562000,0.12029247,0.40936389,12,32,110,5,16,49,0.02116975,0.06192379,0.18358726,0.72059920,1.00420173,1.57539931
17075,0,USIllinoisIroquois,Illinois,Iroquois,2020-07-18 17:31:17.370066,2020-04-20 00:00:00.000000,0.05078626,0.13527953,0.45414197,13,36,123,6,18,55,0.02506144,0.06764582,0.20456764,0.72225128,1.03680518,1.64816639
17075,0,USIllinoisIroquois,Illinois,Iroquois,2020-07-18 17:31:17.370066,2020-04-21 00:00:00.000000,0.05512136,0.15525137,0.49850131,14,42,135,7,20,63,0.02615967,0.07513240,0.23302420,0.72225867,1.06163487,1.71561512
17075,0,USIllinoisIroquois,Illinois,Iroquois,2020-07-18 17:31:17.370066,2020-04-22 00:00:00.000000,0.06337852,0.17770272,0.54750892,17,48,148,8,23,72,0.03029357,0.08503734,0.26874556,0.73200380,1.09041770,1.72144022
17075,0,USIllinoisIroquois,Illinois,Iroquois,2020-07-18 17:31:17.370066,2020-04-23 00:00:00.000000,0.06956962,0.20356115,0.61795218,18,55,167,9,26,84,0.03375580,0.09635524,0.31036022,0.73193457,1.11049935,1.69576769
17075,0,USIllinoisIroquois,Illinois,Iroquois,2020-07-18 17:31:17.370066,2020-04-24 00:00:00.000000,0.08274808,0.23325212,0.71059546,22,63,192,10,29,91,0.03968606,0.10949352,0.33924615,0.75469967,1.12206928,1.70068989
17075,0,USIllinoisIroquois,Illinois,Iroquois,2020-07-18 17:31:17.370066,2020-04-25 00:00:00.000000,0.09303664,0.26731741,0.81210866,25,72,220,12,33,100,0.04477956,0.12414789,0.36989428,0.76066422,1.14491507,1.72739067
17075,0,USIllinoisIroquois,Illinois,Iroquois,2020-07-18 17:31:17.370066,2020-04-26 00:00:00.000000,0.11211283,0.30484900,0.90464726,30,82,245,14,38,110,0.05385501,0.14188766,0.40865180,0.76814256,1.15852637,1.71893903
17075,0,USIllinoisIroquois,Illinois,Iroquois,2020-07-18 17:31:17.370066,2020-04-27 00:00:00.000000,0.12955403,0.34771650,1.00320975,35,94,272,16,43,124,0.06222733,0.16120884,0.45744909,0.76634734,1.17011132,1.72270531
17075,0,USIllinoisIroquois,Illinois,Iroquois,2020-07-18 17:31:17.370066,2020-04-28 00:00:00.000000,0.15554930,0.39538409,1.11218523,42,107,301,20,50,143,0.07587311,0.18766209,0.53059598,0.77381299,1.17639116,1.72905242
17075,0,USIllinoisIroquois,Illinois,Iroquois,2020-07-18 17:31:17.370066,2020-04-29 00:00:00.000000,0.18191683,0.44915011,1.23843777,49,121,335,23,56,167,0.08848021,0.20950350,0.61787153,0.76792323,1.17095765,1.73633594
17075,0,USIllinoisIroquois,Illinois,Iroquois,2020-07-18 17:31:17.370066,2020-04-30 00:00:00.000000,0.21789625,0.50765145,1.34953398,59,137,365,29,65,190,0.10826123,0.24225838,0.70324708,0.75486141,1.16271146,1.74168129
17075,0,USIllinoisIroquois,Illinois,Iroquois,2020-07-18 17:31:17.370066,2020-05-01 00:00:00.000000,0.24970844,0.57104812,1.51172198,67,154,409,34,74,213,0.12650675,0.27379913,0.78711199,0.74680355,1.13670026,1.73266792
17075,0,USIllinoisIroquois,Illinois,Iroquois,2020-07-18 17:31:17.370066,2020-05-02 00:00:00.000000,0.29897460,0.63528589,1.73197053,81,172,469,40,83,247,0.15092716,0.30812930,0.91381638,0.72485114,1.07754074,1.71576734
17075,0,USIllinoisIroquois,Illinois,Iroquois,2020-07-18 17:31:17.370066,2020-05-03 00:00:00.000000,0.34260306,0.70927952,1.95370780,92,192,529,46,92,278,0.17124979,0.34250049,1.02555356,0.67689109,1.02461132,1.59357352
17075,0,USIllinoisIroquois,Illinois,Iroquois,2020-07-18 17:31:17.370066,2020-05-04 00:00:00.000000,0.38850585,0.76763344,2.14107035,105,208,580,52,105,310,0.19452467,0.38763037,1.14470924,0.64928099,0.93499374,1.53729203
17075,0,USIllinoisIroquois,Illinois,Iroquois,2020-07-18 17:31:17.370066,2020-05-05 00:00:00.000000,0.40829747,0.82662009,2.27790466,110,224,617,58,112,341,0.21447286,0.41613663,1.25976039,0.61052660,0.85039479,1.44245944
17075,0,USIllinoisIroquois,Illinois,Iroquois,2020-07-18 17:31:17.370066,2020-05-06 00:00:00.000000,0.44537973,0.86879959,2.26339905,120,235,613,60,118,361,0.22309196,0.43732081,1.33478931,0.52423313,0.77729341,1.31100705
17075,0,USIllinoisIroquois,Illinois,Iroquois,2020-07-18 17:31:17.370066,2020-05-07 00:00:00.000000,0.42174636,0.86838797,2.16432727,114,235,586,59,120,366,0.21963167,0.44440422,1.34987189,0.44832527,0.71258347,1.25804763
17075,0,USIllinoisIroquois,Illinois,Iroquois,2020-07-18 17:31:17.370066,2020-05-08 00:00:00.000000,0.45060447,0.85991563,2.18496453,122,233,592,61,121,364,0.22613804,0.44733914,1.34553187,0.39437006,0.67183071,1.23346439
17075,0,USIllinoisIroquois,Illinois,Iroquois,2020-07-18 17:31:17.370066,2020-05-09 00:00:00.000000,0.41799864,0.81569396,2.14915973,113,221,582,57,120,369,0.21299554,0.44360141,1.36202947,0.36704302,0.62090251,0.98217798
17075,0,USIllinoisIroquois,Illinois,Iroquois,2020-07-18 17:31:17.370066,2020-05-10 00:00:00.000000,0.40187698,0.76275559,2.10208804,108,206,569,57,117,365,0.21344461,0.43213759,1.34664993,0.35049127,0.57414322,0.85894372
17075,0,USIllinoisIroquois,Illinois,Iroquois,2020-07-18 17:31:17.370066,2020-05-11 00:00:00.000000,0.34678092,0.69195292,2.02228976,94,187,548,51,107,355,0.18864584,0.39752091,1.31174278,0.33930702,0.54850938,0.84462791
17075,0,USIllinoisIroquois,Illinois,Iroquois,2020-07-18 17:31:17.370066,2020-05-12 00:00:00.000000,0.33165025,0.63667622,1.91448057,89,172,519,48,101,343,0.17993810,0.37357444,1.26665045,0.30474613,0.52902577,0.83492372
17075,0,USIllinoisIroquois,Illinois,Iroquois,2020-07-18 17:31:17.370066,2020-05-13 00:00:00.000000,0.28142198,0.60229436,1.79899300,76,163,487,43,92,316,0.16140251,0.34244363,1.16779280,0.30090242,0.50894688,0.82744053
17075,0,USIllinoisIroquois,Illinois,Iroquois,2020-07-18 17:31:17.370066,2020-05-14 00:00:00.000000,0.26897048,0.54567081,1.67164583,72,147,453,40,84,290,0.15049803,0.31277763,1.07103721,0.27678848,0.50832106,0.81951459
17075,0,USIllinoisIroquois,Illinois,Iroquois,2020-07-18 17:31:17.370066,2020-05-15 00:00:00.000000,0.24123730,0.49894767,1.54044029,65,135,417,35,77,265,0.13077327,0.28639467,0.97944233,0.26300464,0.49928889,0.81049123
17075,0,USIllinoisIroquois,Illinois,Iroquois,2020-07-18 17:31:17.370066,2020-05-16 00:00:00.000000,0.21984576,0.45064704,1.40955265,59,122,382,32,70,245,0.11940182,0.26065031,0.90663229,0.25147471,0.48641660,0.80116245
17075,0,USIllinoisIroquois,Illinois,Iroquois,2020-07-18 17:31:17.370066,2020-05-17 00:00:00.000000,0.19297642,0.40935993,1.28984066,52,110,349,28,64,229,0.10474244,0.23795928,0.84694118,0.25057434,0.47672726,0.80025679
17075,0,USIllinoisIroquois,Illinois,Iroquois,2020-07-18 17:31:17.370066,2020-05-18 00:00:00.000000,0.17924110,0.37131063,1.18835894,48,100,322,25,60,215,0.09579429,0.22353319,0.79327069,0.24575016,0.47072381,0.81257975
17075,0,USIllinoisIroquois,Illinois,Iroquois,2020-07-18 17:31:17.370066,2020-05-19 00:00:00.000000,0.15322648,0.35226464,1.08070368,41,95,293,22,54,202,0.08374567,0.20046321,0.74864847,0.24119477,0.46879615,0.81425788
17075,0,USIllinoisIroquois,Illinois,Iroquois,2020-07-18 17:31:17.370066,2020-05-20 00:00:00.000000,0.14148240,0.31589654,0.99323792,38,85,269,21,48,187,0.07745087,0.17985222,0.69118756,0.24907343,0.46693854,0.81635116
17075,0,USIllinoisIroquois,Illinois,Iroquois,2020-07-18 17:31:17.370066,2020-05-21 00:00:00.000000,0.12039983,0.28911330,0.92193290,32,78,249,18,43,172,0.06947653,0.16132908,0.63642484,0.25766908,0.47055548,0.81440164
17075,0,USIllinoisIroquois,Illinois,Iroquois,2020-07-18 17:31:17.370066,2020-05-22 00:00:00.000000,0.11116739,0.26391974,0.84961873,30,71,230,17,39,161,0.06315827,0.14447233,0.59586971,0.25781545,0.46882225,0.82826899
17075,0,USIllinoisIroquois,Illinois,Iroquois,2020-07-18 17:31:17.370066,2020-05-23 00:00:00.000000,0.09248263,0.23840008,0.77505153,25,64,210,14,35,151,0.05490962,0.12977048,0.55743425,0.27044418,0.46619392,0.83577956
17075,0,USIllinoisIroquois,Illinois,Iroquois,2020-07-18 17:31:17.370066,2020-05-24 00:00:00.000000,0.08634158,0.21823325,0.70169938,23,59,190,12,32,138,0.04748439,0.11825474,0.51030423,0.26901781,0.45970937,0.82613606
17075,0,USIllinoisIroquois,Illinois,Iroquois,2020-07-18 17:31:17.370066,2020-05-25 00:00:00.000000,0.07094568,0.19647046,0.64073137,19,53,173,11,29,124,0.04175232,0.10737966,0.46026934,0.26876908,0.46035631,0.82158554
17075,0,USIllinoisIroquois,Illinois,Iroquois,2020-07-18 17:31:17.370066,2020-05-26 00:00:00.000000,0.06544298,0.18098856,0.58568863,17,49,158,9,26,112,0.03595436,0.09689967,0.41473281,0.26933883,0.46837034,0.82099391
17075,0,USIllinoisIroquois,Illinois,Iroquois,2020-07-18 17:31:17.370066,2020-05-27 00:00:00.000000,0.05439287,0.16311855,0.54307384,14,44,147,8,24,102,0.03170967,0.08852344,0.37886726,0.27076702,0.47039581,0.83049613
17075,0,USIllinoisIroquois,Illinois,Iroquois,2020-07-18 17:31:17.370066,2020-05-28 00:00:00.000000,0.05079367,0.14724306,0.50711255,13,39,137,7,21,94,0.02868470,0.07979796,0.34719296,0.27355265,0.49079287,0.86261179
17075,0,USIllinoisIroquois,Illinois,Iroquois,2020-07-18 17:31:17.370066,2020-05-29 00:00:00.000000,0.04138753,0.13735423,0.47859051,11,37,129,6,19,86,0.02419744,0.07272427,0.32052642,0.27293868,0.50993397,0.87336641
17075,0,USIllinoisIroquois,Illinois,Iroquois,2020-07-18 17:31:17.370066,2020-05-30 00:00:00.000000,0.04054843,0.12743868,0.45612054,10,34,123,6,18,81,0.02323561,0.06703845,0.29947190,0.27786045,0.52425789,0.90275577
17075,0,USIllinoisIroquois,Illinois,Iroquois,2020-07-18 17:31:17.370066,2020-05-31 00:00:00.000000,0.03315167,0.11678024,0.43029512,8,31,116,5,16,76,0.01901039,0.06108570,0.28315181,0.29411830,0.52481790,0.92768181
17075,0,USIllinoisIroquois,Illinois,Iroquois,2020-07-18 17:31:17.370066,2020-06-01 00:00:00.000000,0.03241964,0.10877188,0.40598595,8,29,110,4,15,73,0.01833756,0.05726253,0.26950576,0.30862864,0.53652005,0.94735798
17075,0,USIllinoisIroquois,Illinois,Iroquois,2020-07-18 17:31:17.370066,2020-06-02 00:00:00.000000,0.02830345,0.10225115,0.38310028,7,27,103,4,14,67,0.01576758,0.05281264,0.24840069,0.31167127,0.55346081,0.96302275
17075,0,USIllinoisIroquois,Illinois,Iroquois,2020-07-18 17:31:17.370066,2020-06-03 00:00:00.000000,0.02798095,0.09459697,0.35480669,7,25,96,4,13,61,0.01505010,0.05105800,0.22827881,0.31345201,0.56834403,0.97503854
17075,0,USIllinoisIroquois,Illinois,Iroquois,2020-07-18 17:31:17.370066,2020-06-04 00:00:00.000000,0.02526191,0.09030166,0.32907868,6,24,89,3,13,56,0.01332382,0.04798866,0.21019795,0.31459273,0.59242740,0.98500982
17075,0,USIllinoisIroquois,Illinois,Iroquois,2020-07-18 17:31:17.370066,2020-06-05 00:00:00.000000,0.02585877,0.08482144,0.30639793,7,22,83,3,12,52,0.01385977,0.04541648,0.19432682,0.31981498,0.60658827,0.99845281
17075,0,USIllinoisIroquois,Illinois,Iroquois,2020-07-18 17:31:17.370066,2020-06-06 00:00:00.000000,0.02435531,0.08089830,0.28895156,6,21,78,3,11,48,0.01262659,0.04265665,0.17987402,0.32664777,0.62414241,1.03977879
17075,0,USIllinoisIroquois,Illinois,Iroquois,2020-07-18 17:31:17.370066,2020-06-07 00:00:00.000000,0.02463832,0.07584696,0.27426372,6,20,74,3,11,45,0.01366380,0.04065642,0.16738015,0.34165839,0.63900230,1.08713708
17075,0,USIllinoisIroquois,Illinois,Iroquois,2020-07-18 17:31:17.370066,2020-06-08 00:00:00.000000,0.02474720,0.07442984,0.26133566,6,20,70,3,10,43,0.01269421,0.03880479,0.15906260,0.35787615,0.66560927,1.11619923
17075,0,USIllinoisIroquois,Illinois,Iroquois,2020-07-18 17:31:17.370066,2020-06-09 00:00:00.000000,0.02470755,0.07425802,0.25038333,6,20,67,3,10,42,0.01352002,0.03839916,0.15531907,0.36483287,0.67786584,1.14404657
17075,0,USIllinoisIroquois,Illinois,Iroquois,2020-07-18 17:31:17.370066,2020-06-10 00:00:00.000000,0.02486629,0.07251482,0.24005935,6,19,65,3,10,41,0.01293212,0.03837098,0.15254487,0.36910442,0.69609164,1.14503292
17075,0,USIllinoisIroquois,Illinois,Iroquois,2020-07-18 17:31:17.370066,2020-06-11 00:00:00.000000,0.02465217,0.07188773,0.23079907,6,19,62,3,10,40,0.01344976,0.03896141,0.14933770,0.38091430,0.71113778,1.12582916
17075,0,USIllinoisIroquois,Illinois,Iroquois,2020-07-18 17:31:17.370066,2020-06-12 00:00:00.000000,0.02620786,0.07302094,0.22716016,7,19,61,3,10,38,0.01217828,0.03835059,0.14362153,0.39537323,0.71057653,1.11053158
17075,0,USIllinoisIroquois,Illinois,Iroquois,2020-07-18 17:31:17.370066,2020-06-13 00:00:00.000000,0.02537770,0.07422820,0.22776661,6,20,61,3,10,38,0.01309074,0.03913522,0.14028532,0.42312031,0.75428381,1.13540783
17075,0,USIllinoisIroquois,Illinois,Iroquois,2020-07-18 17:31:17.370066,2020-06-14 00:00:00.000000,0.02555403,0.07551799,0.23237865,6,20,63,3,10,38,0.01172287,0.03937896,0.14125456,0.44195436,0.77163186,1.14284110
17075,0,USIllinoisIroquois,Illinois,Iroquois,2020-07-18 17:31:17.370066,2020-06-15 00:00:00.000000,0.02488649,0.07784586,0.23879388,6,21,64,3,11,38,0.01224703,0.04082307,0.14357066,0.45387412,0.77310194,1.22138757
17075,0,USIllinoisIroquois,Illinois,Iroquois,2020-07-18 17:31:17.370066,2020-06-16 00:00:00.000000,0.02458368,0.07811415,0.24572944,6,21,66,3,11,38,0.01174690,0.04094311,0.14246032,0.45815250,0.79486580,1.25803174
17075,0,USIllinoisIroquois,Illinois,Iroquois,2020-07-18 17:31:17.370066,2020-06-17 00:00:00.000000,0.02534990,0.08164700,0.24844008,6,22,67,3,11,37,0.01227534,0.04310930,0.13957826,0.46028979,0.79458500,1.26895004
17075,0,USIllinoisIroquois,Illinois,Iroquois,2020-07-18 17:31:17.370066,2020-06-18 00:00:00.000000,0.02566285,0.08376615,0.25219892,6,22,68,3,12,37,0.01208537,0.04448543,0.13826195,0.46276764,0.81492366,1.27456696
17075,0,USIllinoisIroquois,Illinois,Iroquois,2020-07-18 17:31:17.370066,2020-06-19 00:00:00.000000,0.02779719,0.08696886,0.25639259,7,23,69,3,12,38,0.01303699,0.04555522,0.14030145,0.47855384,0.81826758,1.41485121
17075,0,USIllinoisIroquois,Illinois,Iroquois,2020-07-18 17:31:17.370066,2020-06-20 00:00:00.000000,0.02777062,0.08976578,0.26559282,7,24,72,3,12,38,0.01259634,0.04688801,0.14207839,0.48330603,0.85913627,1.47038842
17075,0,USIllinoisIroquois,Illinois,Iroquois,2020-07-18 17:31:17.370066,2020-06-21 00:00:00.000000,0.03087880,0.09153354,0.28127272,8,24,76,4,13,39,0.01487363,0.04856868,0.14427149,0.49456575,0.84392771,1.47830587
17075,0,USIllinoisIroquois,Illinois,Iroquois,2020-07-18 17:31:17.370066,2020-06-22 00:00:00.000000,0.03321829,0.09415551,0.28376329,9,25,76,4,13,40,0.01494262,0.05052230,0.14807504,0.51034905,0.86608706,1.57322272
17075,0,USIllinoisIroquois,Illinois,Iroquois,2020-07-18 17:31:17.370066,2020-06-23 00:00:00.000000,0.03761152,0.09902266,0.28678081,10,26,77,4,14,41,0.01721333,0.05304912,0.15204549,0.51655300,0.84883556,1.60572195
17075,0,USIllinoisIroquois,Illinois,Iroquois,2020-07-18 17:31:17.370066,2020-06-24 00:00:00.000000,0.03883096,0.10298855,0.29285590,10,27,79,5,14,42,0.01863600,0.05482539,0.15613000,0.52211489,0.84200964,1.60694347
17075,0,USIllinoisIroquois,Illinois,Iroquois,2020-07-18 17:31:17.370066,2020-06-25 00:00:00.000000,0.04629922,0.10619422,0.30139171,12,28,81,5,15,43,0.02124672,0.05765887,0.15973374,0.52988556,0.84379686,1.61301578
17075,0,USIllinoisIroquois,Illinois,Iroquois,2020-07-18 17:31:17.370066,2020-06-26 00:00:00.000000,0.04449726,0.11131747,0.31135081,12,30,84,6,16,43,0.02317876,0.06110460,0.16216809,0.53456518,0.87153722,1.60935491
17075,0,USIllinoisIroquois,Illinois,Iroquois,2020-07-18 17:31:17.370066,2020-06-27 00:00:00.000000,0.04855692,0.11417180,0.32574814,13,30,88,6,16,44,0.02560054,0.06263669,0.16475534,0.53497216,0.87652260,1.55236624
17075,0,USIllinoisIroquois,Illinois,Iroquois,2020-07-18 17:31:17.370066,2020-06-28 00:00:00.000000,0.04992399,0.12589472,0.34340875,13,34,93,7,18,47,0.02609916,0.06641677,0.17359930,0.54303752,0.86377565,1.49554397
17075,0,USIllinoisIroquois,Illinois,Iroquois,2020-07-18 17:31:17.370066,2020-06-29 00:00:00.000000,0.05610797,0.12944434,0.36823851,15,35,99,7,19,50,0.02833293,0.07013378,0.18470709,0.55603583,0.87386151,1.46877572
17075,0,USIllinoisIroquois,Illinois,Iroquois,2020-07-18 17:31:17.370066,2020-06-30 00:00:00.000000,0.05671649,0.13507107,0.39441712,15,36,106,7,20,52,0.02890530,0.07559794,0.19367812,0.57387107,0.88262169,1.46082621
17075,0,USIllinoisIroquois,Illinois,Iroquois,2020-07-18 17:31:17.370066,2020-07-01 00:00:00.000000,0.06279824,0.14095348,0.42176028,17,38,114,8,21,54,0.03187103,0.07917216,0.20190842,0.58721151,0.89204021,1.46077466
17075,0,USIllinoisIroquois,Illinois,Iroquois,2020-07-18 17:31:17.370066,2020-07-02 00:00:00.000000,0.06532083,0.15211410,0.44014634,17,41,119,8,22,57,0.03265967,0.08254210,0.21091897,0.60224685,0.90349209,1.45596325
17075,0,USIllinoisIroquois,Illinois,Iroquois,2020-07-18 17:31:17.370066,2020-07-03 00:00:00.000000,0.07053816,0.16249023,0.45131237,19,44,122,9,23,63,0.03575050,0.08540349,0.23482817,0.60146041,0.91474766,1.48481417
17075,0,USIllinoisIroquois,Illinois,Iroquois,2020-07-18 17:31:17.370066,2020-07-04 00:00:00.000000,0.07122963,0.17492284,0.50191756,19,47,136,9,23,67,0.03682782,0.08736330,0.24977047,0.60387604,0.92563878,1.53461541
17075,0,USIllinoisIroquois,Illinois,Iroquois,2020-07-18 17:31:17.370066,2020-07-05 00:00:00.000000,0.07554905,0.18608910,0.53361200,20,50,144,10,24,70,0.03859689,0.09155812,0.26174477,0.61964087,0.93128066,1.54343681
17075,0,USIllinoisIroquois,Illinois,Iroquois,2020-07-18 17:31:17.370066,2020-07-06 00:00:00.000000,0.07882638,0.19939915,0.56105556,21,54,152,10,26,74,0.03951378,0.09689655,0.27483109,0.62311237,0.93247665,1.53374276
17075,0,USIllinoisIroquois,Illinois,Iroquois,2020-07-18 17:31:17.370066,2020-07-07 00:00:00.000000,0.08444305,0.20963693,0.58866775,22,56,159,11,27,76,0.04258630,0.10319301,0.28233013,0.61609312,0.93511305,1.53364413
17075,0,USIllinoisIroquois,Illinois,Iroquois,2020-07-18 17:31:17.370066,2020-07-08 00:00:00.000000,0.08773931,0.22434372,0.62147536,23,60,168,11,29,81,0.04413657,0.10989023,0.30067258,0.60792801,0.93931916,1.53674477
17075,0,USIllinoisIroquois,Illinois,Iroquois,2020-07-18 17:31:17.370066,2020-07-09 00:00:00.000000,0.10224617,0.24168522,0.69197308,27,65,187,13,32,87,0.04947751,0.12020169,0.32195766,0.60475366,0.94200157,1.53798478
17075,0,USIllinoisIroquois,Illinois,Iroquois,2020-07-18 17:31:17.370066,2020-07-10 00:00:00.000000,0.08916083,0.26013348,0.78256845,24,70,212,13,35,95,0.04951373,0.13174438,0.35042693,0.59576330,0.94271332,1.55000366
17075,0,USIllinoisIroquois,Illinois,Iroquois,2020-07-18 17:31:17.370066,2020-07-11 00:00:00.000000,0.10610302,0.27442182,0.83686024,28,74,226,16,37,107,0.05929710,0.13942568,0.39736108,0.59533524,0.94279817,1.57905207
17075,0,USIllinoisIroquois,Illinois,Iroquois,2020-07-18 17:31:17.370066,2020-07-12 00:00:00.000000,0.08570907,0.29278882,0.88597519,23,79,240,13,39,122,0.04842806,0.14653339,0.45047014,0.59532839,0.94283151,1.58779546
17075,0,USIllinoisIroquois,Illinois,Iroquois,2020-07-18 17:31:17.370066,2020-07-13 00:00:00.000000,0.10257564,0.31131276,0.94495796,27,84,256,15,42,135,0.05828544,0.15627646,0.50037873,0.59532861,0.94284461,1.58970362
17075,0,USIllinoisIroquois,Illinois,Iroquois,2020-07-18 17:31:17.370066,2020-07-14 00:00:00.000000,0.08237148,0.33789662,1.04499671,22,91,283,12,44,151,0.04654461,0.16333497,0.55804851,0.59532875,0.94284979,1.59085997
17075,0,USIllinoisIroquois,Illinois,Iroquois,2020-07-18 17:31:17.370066,2020-07-15 00:00:00.000000,0.09913452,0.37352532,1.18624448,26,101,321,15,47,168,0.05633315,0.17590948,0.62219160,0.59532881,0.94285183,1.59154836
17075,0,USIllinoisIroquois,Illinois,Iroquois,2020-07-18 17:31:17.370066,2020-07-16 00:00:00.000000,0.07914540,0.38494053,1.38808500,21,104,376,12,51,187,0.04472407,0.18924064,0.69329097,0.59532883,0.94285265,1.59195379
17075,0,USIllinoisIroquois,Illinois,Iroquois,2020-07-18 17:31:17.370066,2020-07-17 00:00:00.000000,0.09577971,0.40893293,1.64404093,25,110,445,14,54,211,0.05442937,0.20101022,0.78099444,0.59532884,0.94285298,1.59219102
17075,0,USIllinoisIroquois,Illinois,Iroquois,2020-07-18 17:31:17.370066,2020-07-18 00:00:00.000000,0.07631135,0.43411591,1.94551671,20,117,527,11,58,242,0.04296511,0.21705450,0.89437177,0.59532884,0.94285311,1.59232927
17075,0,USIllinoisIroquois,Illinois,Iroquois,2020-07-18 17:31:17.370066,2020-07-19 00:00:00.000000,0.09251124,0.47383433,2.29968119,25,128,623,14,63,286,0.05257426,0.23431643,1.05672877,0.59532884,0.94285317,1.59240964
17075,0,USIllinoisIroquois,Illinois,Iroquois,2020-07-18 17:31:17.370066,2020-07-20 00:00:00.000000,0.08179972,0.50079600,2.68027514,22,135,726,11,67,338,0.04126643,0.25002509,1.24717493,0.59532884,0.94285319,1.59245627
17075,0,USIllinoisIroquois,Illinois,Iroquois,2020-07-18 17:31:17.370066,2020-07-21 00:00:00.000000,0.08932898,0.53764418,2.96379259,24,145,803,13,73,387,0.05076782,0.27124513,1.43004708,0.59532884,0.94285320,1.59248330
17075,0,USIllinoisIroquois,Illinois,Iroquois,2020-07-18 17:31:17.370066,2020-07-22 00:00:00.000000,0.08721526,0.57969869,3.27044825,23,157,886,10,79,438,0.03962668,0.29206119,1.61595587,0.59532884,0.94285320,1.59249896
17075,0,USIllinoisIroquois,Illinois,Iroquois,2020-07-18 17:31:17.370066,2020-07-23 00:00:00.000000,0.08623261,0.64433418,3.60046968,23,174,976,13,85,494,0.04900990,0.31602385,1.82211549,0.59532884,0.94285321,1.59250802
17075,0,USIllinoisIroquois,Illinois,Iroquois,2020-07-18 17:31:17.370066,2020-07-24 00:00:00.000000,0.08841441,0.68571507,3.95363426,23,185,1071,10,91,555,0.03804449,0.33805930,2.04960082,0.59532884,0.94285321,1.59251326
17075,0,USIllinoisIroquois,Illinois,Iroquois,2020-07-18 17:31:17.370066,2020-07-25 00:00:00.000000,0.08322162,0.72487940,4.32916213,22,196,1173,12,96,623,0.04730026,0.35688443,2.29919880,0.59532884,0.94285321,1.59251629
17075,0,USIllinoisIroquois,Illinois,Iroquois,2020-07-18 17:31:17.370066,2020-07-26 00:00:00.000000,0.08796729,0.78022621,4.72560353,23,211,1281,9,103,683,0.03651849,0.38134699,2.52177587,0.59532884,0.94285321,1.59251804
17075,0,USIllinoisIroquois,Illinois,Iroquois,2020-07-18 17:31:17.370066,2020-07-27 00:00:00.000000,0.08133122,0.83936245,5.27205562,22,227,1429,12,110,744,0.04563856,0.40736852,2.74680015,0.59532884,0.94285321,1.59251905
17075,0,USIllinoisIroquois,Illinois,Iroquois,2020-07-18 17:31:17.370066,2020-07-28 00:00:00.000000,0.08642279,0.90324775,6.02801147,23,244,1634,9,116,808,0.03504727,0.42943258,2.98112400,0.59532884,0.94285321,1.59251964
17075,0,USIllinoisIroquois,Illinois,Iroquois,2020-07-18 17:31:17.370066,2020-07-29 00:00:00.000000,0.07985453,0.98541795,6.86921076,21,267,1862,11,124,873,0.04402436,0.45812763,3.22270405,0.59532884,0.94285321,1.59251998
17075,0,USIllinoisIroquois,Illinois,Iroquois,2020-07-18 17:31:17.370066,2020-07-30 00:00:00.000000,0.08315109,1.04945398,7.77590342,22,284,2108,9,132,940,0.03362941,0.48878222,3.46893781,0.59532884,0.94285321,1.59252017
