FIPS,HR_UID,nameid,province,region,analysisTime,dates,pointprevalence_025,pointprevalence_50,pointprevalence_975,pointinfections_025,pointinfections_50,pointinfections_975,pointinfectious_025,pointinfectious_50,pointinfectious_975,pointinfectiousprevalence_05,pointinfectiousprevalence_50,pointinfectiousprevalence_95,infectrate_025,infectrate_50,infectrate_975
26073,0,USMichiganIsabella,Michigan,Isabella,2020-07-18 12:23:13.550473,2020-03-09 00:00:00.000000,0.00654007,0.02444161,0.10311956,4,17,72,2,6,19,0.00298962,0.00941752,0.02782826,0.55142196,0.75615343,1.13437829
26073,0,USMichiganIsabella,Michigan,Isabella,2020-07-18 12:23:13.550473,2020-03-10 00:00:00.000000,0.00750472,0.02544869,0.10040119,5,17,70,2,7,23,0.00354477,0.01027112,0.03333851,0.55141247,0.75615343,1.13437751
26073,0,USMichiganIsabella,Michigan,Isabella,2020-07-18 12:23:13.550473,2020-03-11 00:00:00.000000,0.00858083,0.02668616,0.10421005,5,18,72,2,7,24,0.00411991,0.01123484,0.03509233,0.55139717,0.75615343,1.13437525
26073,0,USMichiganIsabella,Michigan,Isabella,2020-07-18 12:23:13.550473,2020-03-12 00:00:00.000000,0.00940513,0.02782515,0.10720634,6,19,74,3,8,25,0.00463987,0.01173625,0.03631937,0.55137251,0.75615343,1.13436875
26073,0,USMichiganIsabella,Michigan,Isabella,2020-07-18 12:23:13.550473,2020-03-13 00:00:00.000000,0.01048502,0.02992899,0.11071446,7,20,77,3,8,25,0.00493695,0.01237745,0.03593404,0.55133288,0.75615343,1.13434977
26073,0,USMichiganIsabella,Michigan,Isabella,2020-07-18 12:23:13.550473,2020-03-14 00:00:00.000000,0.01216244,0.03179446,0.11420175,8,22,79,3,9,25,0.00550490,0.01316748,0.03622852,0.55126938,0.75641389,1.13429396
26073,0,USMichiganIsabella,Michigan,Isabella,2020-07-18 12:23:13.550473,2020-03-15 00:00:00.000000,0.01375639,0.03364679,0.11785777,9,23,82,3,9,25,0.00565780,0.01388472,0.03633251,0.54693625,0.75745092,1.13412882
26073,0,USMichiganIsabella,Michigan,Isabella,2020-07-18 12:23:13.550473,2020-03-16 00:00:00.000000,0.01595005,0.03505163,0.12158529,11,24,84,4,10,25,0.00631684,0.01476788,0.03670792,0.52780571,0.75743836,1.13363838
26073,0,USMichiganIsabella,Michigan,Isabella,2020-07-18 12:23:13.550473,2020-03-17 00:00:00.000000,0.01741561,0.03726201,0.12545434,12,26,87,4,11,27,0.00645599,0.01578471,0.03891434,0.52466170,0.75641433,1.13218273
26073,0,USMichiganIsabella,Michigan,Isabella,2020-07-18 12:23:13.550473,2020-03-18 00:00:00.000000,0.01879965,0.03988451,0.12943989,13,27,90,5,11,29,0.00750178,0.01698240,0.04176692,0.52120224,0.75642011,1.12791091
26073,0,USMichiganIsabella,Michigan,Isabella,2020-07-18 12:23:13.550473,2020-03-19 00:00:00.000000,0.02025511,0.04184719,0.13897634,14,29,97,5,12,32,0.00763103,0.01784674,0.04643251,0.51976775,0.75652977,1.11587059
26073,0,USMichiganIsabella,Michigan,Isabella,2020-07-18 12:23:13.550473,2020-03-20 00:00:00.000000,0.02184597,0.04557401,0.14463610,15,31,101,5,13,35,0.00843125,0.01871684,0.05099573,0.51455163,0.76227348,1.13951593
26073,0,USMichiganIsabella,Michigan,Isabella,2020-07-18 12:23:13.550473,2020-03-21 00:00:00.000000,0.02290658,0.04985941,0.14777276,16,34,103,6,14,38,0.00886120,0.02005875,0.05536960,0.49277067,0.77776043,1.14196754
26073,0,USMichiganIsabella,Michigan,Isabella,2020-07-18 12:23:13.550473,2020-03-22 00:00:00.000000,0.02558416,0.05365931,0.15395689,17,37,107,6,15,41,0.00972443,0.02196704,0.05945476,0.48265104,0.78641496,1.11401301
26073,0,USMichiganIsabella,Michigan,Isabella,2020-07-18 12:23:13.550473,2020-03-23 00:00:00.000000,0.02726507,0.05797286,0.15979570,19,40,111,7,16,44,0.01050397,0.02325577,0.06298441,0.47951781,0.78384553,1.11012781
26073,0,USMichiganIsabella,Michigan,Isabella,2020-07-18 12:23:13.550473,2020-03-24 00:00:00.000000,0.02983575,0.06211903,0.16118063,20,43,112,8,17,46,0.01170008,0.02557192,0.06634955,0.47462357,0.77990299,1.12835160
26073,0,USMichiganIsabella,Michigan,Isabella,2020-07-18 12:23:13.550473,2020-03-25 00:00:00.000000,0.03181094,0.06716086,0.17274955,22,46,120,8,18,48,0.01168173,0.02712805,0.06960416,0.47079114,0.78513241,1.12604799
26073,0,USMichiganIsabella,Michigan,Isabella,2020-07-18 12:23:13.550473,2020-03-26 00:00:00.000000,0.03386722,0.07241973,0.18073952,23,50,126,8,20,52,0.01269684,0.02873569,0.07531483,0.46540396,0.78384203,1.11742378
26073,0,USMichiganIsabella,Michigan,Isabella,2020-07-18 12:23:13.550473,2020-03-27 00:00:00.000000,0.03571832,0.07733328,0.18799960,24,54,131,8,21,58,0.01243120,0.03045686,0.08358887,0.45691760,0.76963847,1.12904431
26073,0,USMichiganIsabella,Michigan,Isabella,2020-07-18 12:23:13.550473,2020-03-28 00:00:00.000000,0.03775418,0.08020960,0.19467954,26,56,136,10,22,60,0.01437752,0.03167720,0.08694297,0.44885010,0.76739616,1.15116714
26073,0,USMichiganIsabella,Michigan,Isabella,2020-07-18 12:23:13.550473,2020-03-29 00:00:00.000000,0.03821821,0.08576435,0.19919466,26,59,139,8,24,63,0.01234774,0.03529094,0.09022778,0.43723702,0.76049885,1.17141605
26073,0,USMichiganIsabella,Michigan,Isabella,2020-07-18 12:23:13.550473,2020-03-30 00:00:00.000000,0.04189733,0.09267131,0.20364730,29,64,142,11,26,65,0.01642932,0.03822664,0.09334570,0.41861205,0.74594454,1.18134804
26073,0,USMichiganIsabella,Michigan,Isabella,2020-07-18 12:23:13.550473,2020-03-31 00:00:00.000000,0.04275072,0.09883025,0.20625260,29,69,144,8,28,68,0.01233975,0.04018007,0.09765153,0.39694029,0.73421861,1.18138015
26073,0,USMichiganIsabella,Michigan,Isabella,2020-07-18 12:23:13.550473,2020-04-01 00:00:00.000000,0.04646564,0.10382946,0.21334490,32,72,149,12,30,70,0.01730635,0.04314679,0.10102983,0.38246867,0.71911390,1.16043389
26073,0,USMichiganIsabella,Michigan,Isabella,2020-07-18 12:23:13.550473,2020-04-02 00:00:00.000000,0.04452122,0.11167494,0.22193427,31,78,155,8,31,72,0.01267716,0.04523772,0.10323807,0.37654994,0.69831124,1.12692015
26073,0,USMichiganIsabella,Michigan,Isabella,2020-07-18 12:23:13.550473,2020-04-03 00:00:00.000000,0.04579408,0.11522540,0.22299450,31,80,155,12,34,77,0.01799088,0.04881245,0.11109950,0.36446218,0.67232832,1.08664539
26073,0,USMichiganIsabella,Michigan,Isabella,2020-07-18 12:23:13.550473,2020-04-04 00:00:00.000000,0.04580169,0.12089337,0.22057318,32,84,154,9,37,81,0.01324032,0.05299386,0.11701267,0.33368112,0.64580415,1.06850247
26073,0,USMichiganIsabella,Michigan,Isabella,2020-07-18 12:23:13.550473,2020-04-05 00:00:00.000000,0.04916326,0.12630006,0.22096524,34,88,154,12,39,86,0.01810060,0.05582510,0.12434387,0.29550894,0.60923967,1.05089727
26073,0,USMichiganIsabella,Michigan,Isabella,2020-07-18 12:23:13.550473,2020-04-06 00:00:00.000000,0.04534109,0.12859016,0.22004792,31,89,153,9,39,90,0.01382314,0.05722967,0.12972353,0.27639185,0.59031859,0.98118154
26073,0,USMichiganIsabella,Michigan,Isabella,2020-07-18 12:23:13.550473,2020-04-07 00:00:00.000000,0.04706805,0.12850748,0.21681405,32,89,151,12,39,90,0.01796900,0.05718486,0.12995502,0.26368217,0.56693450,0.90227087
26073,0,USMichiganIsabella,Michigan,Isabella,2020-07-18 12:23:13.550473,2020-04-08 00:00:00.000000,0.04378192,0.13017515,0.21587205,30,90,150,9,40,88,0.01417613,0.05758748,0.12647413,0.24748351,0.54498372,0.87380186
26073,0,USMichiganIsabella,Michigan,Isabella,2020-07-18 12:23:13.550473,2020-04-09 00:00:00.000000,0.04497637,0.12885339,0.21957082,31,90,153,12,40,88,0.01789498,0.05834701,0.12701695,0.22828925,0.52305258,0.81136089
26073,0,USMichiganIsabella,Michigan,Isabella,2020-07-18 12:23:13.550473,2020-04-10 00:00:00.000000,0.04201506,0.12586544,0.22018154,29,87,153,9,40,88,0.01421812,0.05730773,0.12670711,0.21504560,0.48746521,0.77700842
26073,0,USMichiganIsabella,Michigan,Isabella,2020-07-18 12:23:13.550473,2020-04-11 00:00:00.000000,0.04278567,0.12398018,0.21558963,29,86,150,12,39,90,0.01720932,0.05610546,0.12964294,0.21083364,0.46318615,0.72015473
26073,0,USMichiganIsabella,Michigan,Isabella,2020-07-18 12:23:13.550473,2020-04-12 00:00:00.000000,0.03996600,0.11878602,0.21139145,27,82,147,9,37,91,0.01413558,0.05365027,0.13061459,0.20890910,0.44783432,0.67842461
26073,0,USMichiganIsabella,Michigan,Isabella,2020-07-18 12:23:13.550473,2020-04-13 00:00:00.000000,0.03930279,0.11415876,0.20595931,27,79,143,11,36,89,0.01636693,0.05176181,0.12856253,0.20764118,0.42986303,0.64681001
26073,0,USMichiganIsabella,Michigan,Isabella,2020-07-18 12:23:13.550473,2020-04-14 00:00:00.000000,0.03793039,0.10934400,0.20173550,26,76,140,9,34,84,0.01392537,0.04992516,0.12141609,0.20625449,0.42020430,0.63946470
26073,0,USMichiganIsabella,Michigan,Isabella,2020-07-18 12:23:13.550473,2020-04-15 00:00:00.000000,0.03823804,0.10646974,0.20204041,26,74,141,10,33,79,0.01542546,0.04799342,0.11425461,0.19784825,0.40410463,0.63344990
26073,0,USMichiganIsabella,Michigan,Isabella,2020-07-18 12:23:13.550473,2020-04-16 00:00:00.000000,0.03698259,0.10136980,0.19941144,25,70,139,9,31,79,0.01354658,0.04572238,0.11326035,0.19202977,0.39744771,0.62682595
26073,0,USMichiganIsabella,Michigan,Isabella,2020-07-18 12:23:13.550473,2020-04-17 00:00:00.000000,0.03714388,0.09479708,0.19310995,25,66,134,10,30,78,0.01445913,0.04336731,0.11228339,0.18903975,0.39202367,0.61749534
26073,0,USMichiganIsabella,Michigan,Isabella,2020-07-18 12:23:13.550473,2020-04-18 00:00:00.000000,0.03452496,0.09064612,0.18391244,24,63,128,9,29,76,0.01302703,0.04206735,0.10986327,0.18833608,0.38702170,0.60215618
26073,0,USMichiganIsabella,Michigan,Isabella,2020-07-18 12:23:13.550473,2020-04-19 00:00:00.000000,0.03342177,0.08510195,0.17492231,23,59,122,9,27,73,0.01348767,0.03947234,0.10507103,0.18574734,0.37874880,0.60081729
26073,0,USMichiganIsabella,Michigan,Isabella,2020-07-18 12:23:13.550473,2020-04-20 00:00:00.000000,0.03013151,0.08011072,0.17108645,21,55,119,8,26,69,0.01250055,0.03752633,0.09884433,0.18421942,0.37955114,0.59448682
26073,0,USMichiganIsabella,Michigan,Isabella,2020-07-18 12:23:13.550473,2020-04-21 00:00:00.000000,0.02886325,0.07644787,0.15932876,20,53,111,8,24,66,0.01250437,0.03573255,0.09464509,0.18019423,0.37635386,0.57067429
26073,0,USMichiganIsabella,Michigan,Isabella,2020-07-18 12:23:13.550473,2020-04-22 00:00:00.000000,0.02505519,0.07262183,0.15014245,17,50,104,8,24,63,0.01189054,0.03458743,0.09106713,0.17953000,0.37453838,0.56586089
26073,0,USMichiganIsabella,Michigan,Isabella,2020-07-18 12:23:13.550473,2020-04-23 00:00:00.000000,0.02369294,0.06934925,0.14586793,16,48,101,7,23,61,0.01140204,0.03303106,0.08736568,0.17819136,0.37517695,0.55978349
26073,0,USMichiganIsabella,Michigan,Isabella,2020-07-18 12:23:13.550473,2020-04-24 00:00:00.000000,0.01933796,0.06575830,0.14164248,13,45,98,7,21,57,0.01026958,0.03128582,0.08234971,0.17677685,0.37793970,0.55098360
26073,0,USMichiganIsabella,Michigan,Isabella,2020-07-18 12:23:13.550473,2020-04-25 00:00:00.000000,0.01954284,0.06270916,0.13745201,13,43,96,6,20,55,0.00876429,0.02991005,0.07910619,0.17566396,0.37079580,0.56453373
26073,0,USMichiganIsabella,Michigan,Isabella,2020-07-18 12:23:13.550473,2020-04-26 00:00:00.000000,0.01609935,0.05967732,0.13330233,11,41,93,5,19,53,0.00752484,0.02801480,0.07685579,0.17067486,0.37337435,0.58266266
26073,0,USMichiganIsabella,Michigan,Isabella,2020-07-18 12:23:13.550473,2020-04-27 00:00:00.000000,0.01645251,0.05676836,0.12753612,11,39,89,4,18,52,0.00653900,0.02676385,0.07474547,0.16822208,0.37175562,0.59575717
26073,0,USMichiganIsabella,Michigan,Isabella,2020-07-18 12:23:13.550473,2020-04-28 00:00:00.000000,0.01490004,0.05313906,0.12124349,10,37,84,4,18,50,0.00574247,0.02629551,0.07218644,0.16970679,0.37429418,0.59547380
26073,0,USMichiganIsabella,Michigan,Isabella,2020-07-18 12:23:13.550473,2020-04-29 00:00:00.000000,0.01411386,0.05009058,0.11657509,9,34,81,3,16,48,0.00544927,0.02408053,0.06940996,0.16487133,0.37709744,0.59975952
26073,0,USMichiganIsabella,Michigan,Isabella,2020-07-18 12:23:13.550473,2020-04-30 00:00:00.000000,0.01302367,0.04723842,0.11158052,9,33,77,3,15,46,0.00519599,0.02269706,0.06693856,0.16597259,0.38007307,0.60018063
26073,0,USMichiganIsabella,Michigan,Isabella,2020-07-18 12:23:13.550473,2020-05-01 00:00:00.000000,0.01173295,0.04477608,0.10869769,8,31,75,3,15,45,0.00496293,0.02185191,0.06441223,0.16803361,0.38460332,0.61082870
26073,0,USMichiganIsabella,Michigan,Isabella,2020-07-18 12:23:13.550473,2020-05-02 00:00:00.000000,0.01106449,0.04256495,0.10633224,7,29,74,3,14,42,0.00464590,0.02117147,0.06114167,0.17263114,0.39245047,0.61092227
26073,0,USMichiganIsabella,Michigan,Isabella,2020-07-18 12:23:13.550473,2020-05-03 00:00:00.000000,0.01021330,0.04125789,0.10375517,7,28,72,2,14,41,0.00421466,0.02038839,0.05889078,0.16602016,0.39859824,0.60968566
26073,0,USMichiganIsabella,Michigan,Isabella,2020-07-18 12:23:13.550473,2020-05-04 00:00:00.000000,0.00956294,0.03981479,0.10103538,6,27,70,2,13,39,0.00387143,0.01943167,0.05657828,0.16737551,0.40045582,0.62075787
26073,0,USMichiganIsabella,Michigan,Isabella,2020-07-18 12:23:13.550473,2020-05-05 00:00:00.000000,0.00907506,0.03882657,0.09832898,6,27,68,2,12,37,0.00359206,0.01847672,0.05391980,0.16831013,0.40422413,0.64246071
26073,0,USMichiganIsabella,Michigan,Isabella,2020-07-18 12:23:13.550473,2020-05-06 00:00:00.000000,0.00862464,0.03738415,0.09721466,6,26,67,2,12,35,0.00335657,0.01786767,0.05139108,0.16877740,0.40786253,0.67613494
26073,0,USMichiganIsabella,Michigan,Isabella,2020-07-18 12:23:13.550473,2020-05-07 00:00:00.000000,0.00778710,0.03683670,0.09506642,5,25,66,2,11,34,0.00322219,0.01692539,0.04929492,0.16986526,0.41278583,0.77979292
26073,0,USMichiganIsabella,Michigan,Isabella,2020-07-18 12:23:13.550473,2020-05-08 00:00:00.000000,0.00767499,0.03516570,0.09268014,5,24,64,2,11,33,0.00314329,0.01601586,0.04802853,0.18078452,0.42239911,0.83910198
26073,0,USMichiganIsabella,Michigan,Isabella,2020-07-18 12:23:13.550473,2020-05-09 00:00:00.000000,0.00776102,0.03454462,0.09253251,5,24,64,2,10,32,0.00316920,0.01520558,0.04629231,0.18881910,0.43914250,0.85418014
26073,0,USMichiganIsabella,Michigan,Isabella,2020-07-18 12:23:13.550473,2020-05-10 00:00:00.000000,0.00787091,0.03351990,0.09239934,5,23,64,2,10,31,0.00321439,0.01470584,0.04551930,0.19025061,0.45460718,0.85747188
26073,0,USMichiganIsabella,Michigan,Isabella,2020-07-18 12:23:13.550473,2020-05-11 00:00:00.000000,0.00795094,0.03245298,0.09098641,5,22,63,2,10,31,0.00309395,0.01443213,0.04485409,0.19294717,0.45777936,0.86317090
26073,0,USMichiganIsabella,Michigan,Isabella,2020-07-18 12:23:13.550473,2020-05-12 00:00:00.000000,0.00759689,0.03142353,0.09008731,5,21,62,2,9,30,0.00301848,0.01396331,0.04417195,0.19685665,0.47247638,0.86341798
26073,0,USMichiganIsabella,Michigan,Isabella,2020-07-18 12:23:13.550473,2020-05-13 00:00:00.000000,0.00727771,0.03076678,0.08973461,5,21,62,2,9,30,0.00304780,0.01391582,0.04349403,0.21010762,0.47782367,0.86401729
26073,0,USMichiganIsabella,Michigan,Isabella,2020-07-18 12:23:13.550473,2020-05-14 00:00:00.000000,0.00699425,0.02943696,0.08941805,4,20,62,2,9,29,0.00315843,0.01370476,0.04283684,0.21112665,0.48252441,0.86649784
26073,0,USMichiganIsabella,Michigan,Isabella,2020-07-18 12:23:13.550473,2020-05-15 00:00:00.000000,0.00676056,0.02935848,0.08915130,4,20,62,2,9,29,0.00310040,0.01310599,0.04220561,0.21290242,0.49992319,0.87660366
26073,0,USMichiganIsabella,Michigan,Isabella,2020-07-18 12:23:13.550473,2020-05-16 00:00:00.000000,0.00686932,0.02865277,0.08896338,4,20,62,2,8,29,0.00310350,0.01261544,0.04160065,0.21594739,0.51835786,0.90310297
26073,0,USMichiganIsabella,Michigan,Isabella,2020-07-18 12:23:13.550473,2020-05-17 00:00:00.000000,0.00724601,0.02856363,0.08888441,5,19,62,2,8,28,0.00323105,0.01212954,0.04102536,0.21964684,0.53298757,0.89451668
26073,0,USMichiganIsabella,Michigan,Isabella,2020-07-18 12:23:13.550473,2020-05-18 00:00:00.000000,0.00734271,0.02772025,0.08943915,5,19,62,2,8,28,0.00325643,0.01241835,0.04048301,0.22041240,0.54366810,0.89700878
26073,0,USMichiganIsabella,Michigan,Isabella,2020-07-18 12:23:13.550473,2020-05-19 00:00:00.000000,0.00785986,0.02755079,0.08962980,5,19,62,2,8,27,0.00325779,0.01232005,0.04001568,0.22416050,0.55234272,0.90228475
26073,0,USMichiganIsabella,Michigan,Isabella,2020-07-18 12:23:13.550473,2020-05-20 00:00:00.000000,0.00832335,0.02738687,0.08953586,5,19,62,2,8,28,0.00348354,0.01227346,0.04013273,0.23007603,0.55048954,0.89067137
26073,0,USMichiganIsabella,Michigan,Isabella,2020-07-18 12:23:13.550473,2020-05-21 00:00:00.000000,0.00824724,0.02757835,0.09002037,5,19,62,2,8,28,0.00368208,0.01220676,0.04009052,0.23762291,0.55191613,0.88730551
26073,0,USMichiganIsabella,Michigan,Isabella,2020-07-18 12:23:13.550473,2020-05-22 00:00:00.000000,0.00817024,0.02773166,0.09185868,5,19,64,2,8,28,0.00379287,0.01219678,0.04033148,0.23920638,0.55550692,0.84487611
26073,0,USMichiganIsabella,Michigan,Isabella,2020-07-18 12:23:13.550473,2020-05-23 00:00:00.000000,0.00809489,0.02781423,0.09362574,5,19,65,2,8,28,0.00380989,0.01226337,0.04071369,0.24003942,0.57009813,0.83086925
26073,0,USMichiganIsabella,Michigan,Isabella,2020-07-18 12:23:13.550473,2020-05-24 00:00:00.000000,0.00800073,0.02829491,0.09420174,5,19,65,2,8,28,0.00379711,0.01239953,0.04042994,0.24212600,0.57338918,0.86092452
26073,0,USMichiganIsabella,Michigan,Isabella,2020-07-18 12:23:13.550473,2020-05-25 00:00:00.000000,0.00790860,0.02847032,0.09500211,5,19,66,2,8,27,0.00378494,0.01257957,0.03954741,0.24779783,0.58687320,0.89769964
26073,0,USMichiganIsabella,Michigan,Isabella,2020-07-18 12:23:13.550473,2020-05-26 00:00:00.000000,0.00798981,0.02867069,0.09622891,5,20,67,2,8,27,0.00378855,0.01278299,0.03907558,0.25861570,0.59391927,0.93630777
26073,0,USMichiganIsabella,Michigan,Isabella,2020-07-18 12:23:13.550473,2020-05-27 00:00:00.000000,0.00803146,0.02869929,0.09741977,5,20,68,2,9,27,0.00380400,0.01299876,0.03923679,0.26099727,0.59972937,1.02682394
26073,0,USMichiganIsabella,Michigan,Isabella,2020-07-18 12:23:13.550473,2020-05-28 00:00:00.000000,0.00833405,0.02856193,0.09820973,5,19,68,2,9,27,0.00386248,0.01289853,0.03966239,0.26939179,0.61165994,1.01831035
26073,0,USMichiganIsabella,Michigan,Isabella,2020-07-18 12:23:13.550473,2020-05-29 00:00:00.000000,0.00854236,0.02987666,0.09940617,5,20,69,2,8,27,0.00404020,0.01284005,0.03973747,0.26918457,0.62065847,1.01533588
26073,0,USMichiganIsabella,Michigan,Isabella,2020-07-18 12:23:13.550473,2020-05-30 00:00:00.000000,0.00864528,0.03032710,0.10129020,6,21,70,2,9,28,0.00422593,0.01316891,0.04064818,0.26833378,0.63005320,1.04236341
26073,0,USMichiganIsabella,Michigan,Isabella,2020-07-18 12:23:13.550473,2020-05-31 00:00:00.000000,0.00880938,0.03142963,0.10374297,6,21,72,2,9,29,0.00428268,0.01369012,0.04174708,0.26730468,0.64796670,1.04324359
26073,0,USMichiganIsabella,Michigan,Isabella,2020-07-18 12:23:13.550473,2020-06-01 00:00:00.000000,0.00913630,0.03135643,0.10643069,6,21,74,3,9,30,0.00439536,0.01414106,0.04304350,0.26619489,0.65117838,1.07161280
26073,0,USMichiganIsabella,Michigan,Isabella,2020-07-18 12:23:13.550473,2020-06-02 00:00:00.000000,0.00986612,0.03192166,0.10918697,6,22,76,3,10,31,0.00462760,0.01446241,0.04454717,0.26513946,0.67645893,1.09365179
26073,0,USMichiganIsabella,Michigan,Isabella,2020-07-18 12:23:13.550473,2020-06-03 00:00:00.000000,0.01028548,0.03240794,0.11156387,7,22,77,3,10,32,0.00476133,0.01494629,0.04625605,0.26425900,0.68433995,1.13139354
26073,0,USMichiganIsabella,Michigan,Isabella,2020-07-18 12:23:13.550473,2020-06-04 00:00:00.000000,0.01127441,0.03473525,0.11383126,7,24,79,3,11,33,0.00493469,0.01584041,0.04815374,0.26384112,0.68887319,1.13571069
26073,0,USMichiganIsabella,Michigan,Isabella,2020-07-18 12:23:13.550473,2020-06-05 00:00:00.000000,0.01186578,0.03652548,0.11796678,8,25,82,3,11,35,0.00516561,0.01662926,0.05021807,0.26463684,0.69732592,1.13665149
26073,0,USMichiganIsabella,Michigan,Isabella,2020-07-18 12:23:13.550473,2020-06-06 00:00:00.000000,0.01206107,0.03874007,0.12129808,8,27,84,3,11,36,0.00532376,0.01711657,0.05242858,0.28302431,0.70758499,1.13846147
26073,0,USMichiganIsabella,Michigan,Isabella,2020-07-18 12:23:13.550473,2020-06-07 00:00:00.000000,0.01263624,0.03997045,0.12535148,8,27,87,3,12,38,0.00549923,0.01758243,0.05476794,0.34021610,0.71556250,1.16077363
26073,0,USMichiganIsabella,Michigan,Isabella,2020-07-18 12:23:13.550473,2020-06-08 00:00:00.000000,0.01324704,0.04225354,0.12988661,9,29,90,4,12,39,0.00575657,0.01847538,0.05721623,0.36690144,0.71665548,1.18584053
26073,0,USMichiganIsabella,Michigan,Isabella,2020-07-18 12:23:13.550473,2020-06-09 00:00:00.000000,0.01398693,0.04455020,0.13277170,9,31,92,4,13,42,0.00606364,0.01947548,0.06022097,0.36865163,0.73012155,1.19147465
26073,0,USMichiganIsabella,Michigan,Isabella,2020-07-18 12:23:13.550473,2020-06-10 00:00:00.000000,0.01501523,0.04686610,0.13706629,10,32,95,4,14,45,0.00643590,0.02052079,0.06446294,0.36731401,0.74096533,1.22154786
26073,0,USMichiganIsabella,Michigan,Isabella,2020-07-18 12:23:13.550473,2020-06-11 00:00:00.000000,0.01615799,0.04944741,0.14210712,11,34,99,4,15,48,0.00683356,0.02168994,0.06870596,0.37486497,0.74354188,1.26501831
26073,0,USMichiganIsabella,Michigan,Isabella,2020-07-18 12:23:13.550473,2020-06-12 00:00:00.000000,0.01762390,0.05369702,0.14778494,12,37,103,5,15,49,0.00725746,0.02285524,0.07030779,0.41266418,0.74807012,1.24851080
26073,0,USMichiganIsabella,Michigan,Isabella,2020-07-18 12:23:13.550473,2020-06-13 00:00:00.000000,0.01931414,0.05658777,0.15441705,13,39,107,5,17,50,0.00770969,0.02437260,0.07206679,0.43897954,0.76979078,1.28315888
26073,0,USMichiganIsabella,Michigan,Isabella,2020-07-18 12:23:13.550473,2020-06-14 00:00:00.000000,0.02144864,0.06102536,0.15914093,14,42,111,5,17,51,0.00820734,0.02549069,0.07414345,0.44274839,0.79123339,1.31372821
26073,0,USMichiganIsabella,Michigan,Isabella,2020-07-18 12:23:13.550473,2020-06-15 00:00:00.000000,0.02398356,0.06748358,0.16364205,16,47,114,6,18,55,0.00901212,0.02697662,0.07876730,0.44288325,0.80879818,1.31611064
26073,0,USMichiganIsabella,Michigan,Isabella,2020-07-18 12:23:13.550473,2020-06-16 00:00:00.000000,0.02728024,0.07187026,0.16913867,19,50,118,7,20,59,0.01009075,0.02877897,0.08502919,0.44136152,0.78996599,1.30659037
26073,0,USMichiganIsabella,Michigan,Isabella,2020-07-18 12:23:13.550473,2020-06-17 00:00:00.000000,0.03122029,0.07496301,0.17645788,21,52,123,7,21,64,0.01092807,0.03061833,0.09179964,0.44071194,0.78149843,1.31794815
26073,0,USMichiganIsabella,Michigan,Isabella,2020-07-18 12:23:13.550473,2020-06-18 00:00:00.000000,0.03260268,0.07920504,0.18509501,22,55,129,8,22,68,0.01185620,0.03239701,0.09783800,0.43993770,0.77537909,1.32384678
26073,0,USMichiganIsabella,Michigan,Isabella,2020-07-18 12:23:13.550473,2020-06-19 00:00:00.000000,0.03379991,0.08311676,0.19355503,23,58,135,9,23,72,0.01289091,0.03390178,0.10345073,0.43903959,0.78125892,1.32408217
26073,0,USMichiganIsabella,Michigan,Isabella,2020-07-18 12:23:13.550473,2020-06-20 00:00:00.000000,0.03504219,0.08882215,0.20390714,24,62,142,9,25,74,0.01348758,0.03584298,0.10690262,0.44039395,0.78164184,1.32537727
26073,0,USMichiganIsabella,Michigan,Isabella,2020-07-18 12:23:13.550473,2020-06-21 00:00:00.000000,0.03722081,0.09413523,0.21718209,26,65,151,9,26,75,0.01430640,0.03761800,0.10760130,0.43256139,0.77640095,1.28386566
26073,0,USMichiganIsabella,Michigan,Isabella,2020-07-18 12:23:13.550473,2020-06-22 00:00:00.000000,0.03941630,0.10025845,0.23802448,27,70,166,10,27,75,0.01570473,0.03980782,0.10778349,0.42056308,0.76522207,1.32026374
26073,0,USMichiganIsabella,Michigan,Isabella,2020-07-18 12:23:13.550473,2020-06-23 00:00:00.000000,0.04155012,0.10697192,0.25433373,29,74,177,11,30,77,0.01716365,0.04318893,0.11156706,0.41292018,0.76087033,1.35658578
26073,0,USMichiganIsabella,Michigan,Isabella,2020-07-18 12:23:13.550473,2020-06-24 00:00:00.000000,0.04494517,0.11226405,0.27209217,31,78,190,12,31,80,0.01795077,0.04520855,0.11549944,0.41017855,0.75109081,1.36222387
26073,0,USMichiganIsabella,Michigan,Isabella,2020-07-18 12:23:13.550473,2020-06-25 00:00:00.000000,0.04885991,0.11839958,0.29100052,34,82,203,13,33,83,0.01873515,0.04810424,0.11968495,0.40977420,0.75567118,1.38992415
26073,0,USMichiganIsabella,Michigan,Isabella,2020-07-18 12:23:13.550473,2020-06-26 00:00:00.000000,0.05221810,0.12813710,0.31841353,36,89,222,13,35,87,0.01962733,0.05126703,0.12527405,0.41377491,0.76024667,1.36767923
26073,0,USMichiganIsabella,Michigan,Isabella,2020-07-18 12:23:13.550473,2020-06-27 00:00:00.000000,0.05561682,0.13104861,0.34984565,38,91,244,14,38,94,0.02063486,0.05452711,0.13475513,0.42531037,0.77575247,1.34953865
26073,0,USMichiganIsabella,Michigan,Isabella,2020-07-18 12:23:13.550473,2020-06-28 00:00:00.000000,0.05883296,0.13796487,0.38143198,41,96,266,15,40,98,0.02255796,0.05794070,0.14095736,0.42418210,0.79846853,1.36068281
26073,0,USMichiganIsabella,Michigan,Isabella,2020-07-18 12:23:13.550473,2020-06-29 00:00:00.000000,0.06267608,0.14716508,0.40935727,43,102,286,17,43,106,0.02512931,0.06182317,0.15182100,0.42422896,0.79295956,1.38584093
26073,0,USMichiganIsabella,Michigan,Isabella,2020-07-18 12:23:13.550473,2020-06-30 00:00:00.000000,0.06663357,0.15789804,0.43781947,46,110,305,19,45,113,0.02762474,0.06580198,0.16312070,0.42418579,0.80572437,1.46215346
26073,0,USMichiganIsabella,Michigan,Isabella,2020-07-18 12:23:13.550473,2020-07-01 00:00:00.000000,0.07057649,0.16836123,0.46822911,49,117,327,20,48,122,0.02968444,0.06922830,0.17488128,0.42371640,0.80431423,1.46416863
26073,0,USMichiganIsabella,Michigan,Isabella,2020-07-18 12:23:13.550473,2020-07-02 00:00:00.000000,0.07533534,0.18009330,0.50498956,52,125,352,22,52,130,0.03220569,0.07485833,0.18726047,0.42281649,0.80681514,1.46178969
26073,0,USMichiganIsabella,Michigan,Isabella,2020-07-18 12:23:13.550473,2020-07-03 00:00:00.000000,0.08105160,0.19552103,0.54979654,56,136,384,24,55,140,0.03435942,0.07916521,0.20090488,0.42654761,0.80595843,1.45774755
26073,0,USMichiganIsabella,Michigan,Isabella,2020-07-18 12:23:13.550473,2020-07-04 00:00:00.000000,0.08790945,0.21226205,0.59865611,61,148,418,25,58,150,0.03666601,0.08365074,0.21516473,0.44019987,0.81856292,1.44216481
26073,0,USMichiganIsabella,Michigan,Isabella,2020-07-18 12:23:13.550473,2020-07-05 00:00:00.000000,0.09687669,0.22496619,0.63100062,67,157,440,27,62,159,0.03915916,0.08998248,0.22839646,0.44861808,0.82218580,1.41258073
26073,0,USMichiganIsabella,Michigan,Isabella,2020-07-18 12:23:13.550473,2020-07-06 00:00:00.000000,0.10876339,0.24439079,0.65933265,75,170,460,29,67,169,0.04187295,0.09721072,0.24220157,0.45930516,0.82770156,1.42152648
26073,0,USMichiganIsabella,Michigan,Isabella,2020-07-18 12:23:13.550473,2020-07-07 00:00:00.000000,0.11659381,0.25644060,0.70437260,81,179,492,31,72,179,0.04524607,0.10365192,0.25655802,0.45994031,0.82858301,1.42510687
26073,0,USMichiganIsabella,Michigan,Isabella,2020-07-18 12:23:13.550473,2020-07-08 00:00:00.000000,0.12621311,0.27725287,0.75671429,88,193,528,36,78,195,0.05218702,0.11273708,0.27945877,0.44884880,0.83049507,1.42533482
26073,0,USMichiganIsabella,Michigan,Isabella,2020-07-18 12:23:13.550473,2020-07-09 00:00:00.000000,0.13870979,0.29072681,0.81324677,96,203,568,42,83,212,0.06044180,0.11935869,0.30438264,0.44346914,0.82724050,1.43166793
26073,0,USMichiganIsabella,Michigan,Isabella,2020-07-18 12:23:13.550473,2020-07-10 00:00:00.000000,0.15826650,0.31411307,0.87369492,110,219,610,45,89,222,0.06468737,0.12803964,0.31870254,0.44119610,0.82793162,1.43719757
26073,0,USMichiganIsabella,Michigan,Isabella,2020-07-18 12:23:13.550473,2020-07-11 00:00:00.000000,0.16551703,0.32875775,0.93755541,115,229,655,44,97,231,0.06335751,0.13907976,0.33083389,0.44053387,0.82903975,1.46112612
26073,0,USMichiganIsabella,Michigan,Isabella,2020-07-18 12:23:13.550473,2020-07-12 00:00:00.000000,0.18067700,0.36102496,1.00599017,126,252,702,47,106,241,0.06831769,0.15174037,0.34498328,0.44034315,0.82964953,1.47288284
26073,0,USMichiganIsabella,Michigan,Isabella,2020-07-18 12:23:13.550473,2020-07-13 00:00:00.000000,0.19339057,0.38956685,1.07928814,135,272,754,54,113,257,0.07797820,0.16233530,0.36803592,0.44028841,0.82998300,1.47590632
26073,0,USMichiganIsabella,Michigan,Isabella,2020-07-18 12:23:13.550473,2020-07-14 00:00:00.000000,0.20976318,0.41498730,1.18879010,146,289,830,59,122,275,0.08460202,0.17507179,0.39472959,0.44027271,0.83016473,1.47666912
26073,0,USMichiganIsabella,Michigan,Isabella,2020-07-18 12:23:13.550473,2020-07-15 00:00:00.000000,0.22361755,0.44065683,1.32445944,156,307,925,63,131,298,0.09020812,0.18818054,0.42714684,0.44026822,0.83026359,1.47686091
26073,0,USMichiganIsabella,Michigan,Isabella,2020-07-18 12:23:13.550473,2020-07-16 00:00:00.000000,0.23835010,0.47325566,1.52697916,166,330,1066,67,142,322,0.09619053,0.20342843,0.46207927,0.44026693,0.83031730,1.47690925
26073,0,USMichiganIsabella,Michigan,Isabella,2020-07-18 12:23:13.550473,2020-07-17 00:00:00.000000,0.25401239,0.51164418,1.69316675,177,357,1183,72,151,349,0.10350355,0.21711988,0.49969408,0.44026656,0.83034647,1.47692155
26073,0,USMichiganIsabella,Michigan,Isabella,2020-07-18 12:23:13.550473,2020-07-18 00:00:00.000000,0.27065812,0.56993423,1.83182503,189,398,1279,77,167,377,0.11146399,0.23920774,0.54002174,0.44026645,0.83036231,1.47692475
26073,0,USMichiganIsabella,Michigan,Isabella,2020-07-18 12:23:13.550473,2020-07-19 00:00:00.000000,0.28834316,0.61512619,2.03379591,201,429,1421,82,181,402,0.11846751,0.25958353,0.57539360,0.44026642,0.83037090,1.47692563
26073,0,USMichiganIsabella,Michigan,Isabella,2020-07-18 12:23:13.550473,2020-07-20 00:00:00.000000,0.30533050,0.67226306,2.25717168,213,469,1577,87,196,442,0.12561893,0.28175531,0.63293523,0.44026641,0.83037557,1.47692590
26073,0,USMichiganIsabella,Michigan,Isabella,2020-07-18 12:23:13.550473,2020-07-21 00:00:00.000000,0.31506047,0.72323497,2.50321366,220,505,1749,92,212,479,0.13279249,0.30451694,0.68619231,0.44026641,0.83037810,1.47692600
26073,0,USMichiganIsabella,Michigan,Isabella,2020-07-18 12:23:13.550473,2020-07-22 00:00:00.000000,0.33449785,0.79936611,2.77378387,233,558,1938,98,226,526,0.14036202,0.32468370,0.75299452,0.44026641,0.83037947,1.47692605
26073,0,USMichiganIsabella,Michigan,Isabella,2020-07-18 12:23:13.550473,2020-07-23 00:00:00.000000,0.35526295,0.84913482,3.06855418,248,593,2144,103,239,589,0.14834778,0.34266511,0.84329664,0.44026641,0.83038022,1.47692607
26073,0,USMichiganIsabella,Michigan,Isabella,2020-07-18 12:23:13.550473,2020-07-24 00:00:00.000000,0.37345522,0.92589346,3.33593776,260,646,2330,109,256,673,0.15619713,0.36744089,0.96375881,0.44026641,0.83038062,1.47692609
26073,0,USMichiganIsabella,Michigan,Isabella,2020-07-18 12:23:13.550473,2020-07-25 00:00:00.000000,0.39591027,0.97976905,3.62379992,276,684,2532,115,276,749,0.16508747,0.39517266,1.07216257,0.44026641,0.83038084,1.47692610
26073,0,USMichiganIsabella,Michigan,Isabella,2020-07-18 12:23:13.550473,2020-07-26 00:00:00.000000,0.41967511,1.05453608,3.97035160,293,736,2774,121,295,846,0.17395999,0.42249886,1.21208075,0.44026641,0.83038096,1.47692610
26073,0,USMichiganIsabella,Michigan,Isabella,2020-07-18 12:23:13.550473,2020-07-27 00:00:00.000000,0.43788493,1.11551452,4.45964286,305,779,3116,128,312,954,0.18329236,0.44741126,1.36565227,0.44026641,0.83038102,1.47692611
26073,0,USMichiganIsabella,Michigan,Isabella,2020-07-18 12:23:13.550473,2020-07-28 00:00:00.000000,0.44576136,1.20010691,5.00200125,311,838,3494,134,338,1063,0.19283829,0.48410058,1.52142680,0.44026641,0.83038106,1.47692611
26073,0,USMichiganIsabella,Michigan,Isabella,2020-07-18 12:23:13.550473,2020-07-29 00:00:00.000000,0.46080858,1.26881215,5.38099159,321,886,3759,137,355,1181,0.19740658,0.50919785,1.69096575,0.44026641,0.83038108,1.47692611
26073,0,USMichiganIsabella,Michigan,Isabella,2020-07-18 12:23:13.550473,2020-07-30 00:00:00.000000,0.46491207,1.36413524,6.00581664,324,953,4196,141,387,1342,0.20205122,0.55445301,1.92173481,0.44026641,0.83038109,1.47692611
