FIPS,HR_UID,nameid,province,region,analysisTime,dates,pointprevalence_025,pointprevalence_50,pointprevalence_975,pointinfections_025,pointinfections_50,pointinfections_975,pointinfectious_025,pointinfectious_50,pointinfectious_975,pointinfectiousprevalence_05,pointinfectiousprevalence_50,pointinfectiousprevalence_95,infectrate_025,infectrate_50,infectrate_975
41027,0,USOregonHoodRiver,Oregon,Hood River,2020-07-18 06:52:27.150662,2020-03-09 00:00:00.000000,0.01396801,0.09100839,0.65792698,3,21,153,0,4,61,0.00000000,0.01877108,0.26344151,0.56755388,0.73759836,0.97820300
41027,0,USOregonHoodRiver,Oregon,Hood River,2020-07-18 06:52:27.150662,2020-03-10 00:00:00.000000,0.01529946,0.09033444,0.58549595,3,21,136,0,4,40,0.00387149,0.01948170,0.17149709,0.56747690,0.73772610,0.97820094
41027,0,USOregonHoodRiver,Oregon,Hood River,2020-07-18 06:52:27.150662,2020-03-11 00:00:00.000000,0.01656095,0.09588917,0.58009370,3,22,135,0,4,25,0.00389790,0.01875415,0.10752145,0.56737771,0.73792717,0.97819394
41027,0,USOregonHoodRiver,Oregon,Hood River,2020-07-18 06:52:27.150662,2020-03-12 00:00:00.000000,0.01778722,0.09757760,0.58188756,4,22,136,0,4,22,0.00396745,0.01867658,0.09426538,0.56726730,0.73824231,0.97817008
41027,0,USOregonHoodRiver,Oregon,Hood River,2020-07-18 06:52:27.150662,2020-03-13 00:00:00.000000,0.01903073,0.10102219,0.58013308,4,23,135,0,4,23,0.00406794,0.01821448,0.09975445,0.56720469,0.73869461,0.97808886
41027,0,USOregonHoodRiver,Oregon,Hood River,2020-07-18 06:52:27.150662,2020-03-14 00:00:00.000000,0.02029870,0.10613212,0.58857752,4,24,137,1,4,27,0.00439000,0.01806479,0.11560056,0.56741132,0.73836089,0.97781273
41027,0,USOregonHoodRiver,Oregon,Hood River,2020-07-18 06:52:27.150662,2020-03-15 00:00:00.000000,0.02164657,0.11119871,0.59825844,5,26,139,1,4,31,0.00465719,0.01756470,0.13264258,0.56761808,0.73734375,0.97687771
41027,0,USOregonHoodRiver,Oregon,Hood River,2020-07-18 06:52:27.150662,2020-03-16 00:00:00.000000,0.02306437,0.11471187,0.60914488,5,26,142,1,4,35,0.00484417,0.01840639,0.15127947,0.56709560,0.73264021,0.97375668
41027,0,USOregonHoodRiver,Oregon,Hood River,2020-07-18 06:52:27.150662,2020-03-17 00:00:00.000000,0.02453051,0.11961956,0.62119290,5,27,145,1,4,40,0.00501322,0.01770222,0.17182729,0.56642226,0.72195300,0.96720556
41027,0,USOregonHoodRiver,Oregon,Hood River,2020-07-18 06:52:27.150662,2020-03-18 00:00:00.000000,0.02601808,0.12586970,0.65368314,6,29,152,1,4,45,0.00518924,0.01932402,0.19448379,0.56604099,0.71636036,0.96640805
41027,0,USOregonHoodRiver,Oregon,Hood River,2020-07-18 06:52:27.150662,2020-03-19 00:00:00.000000,0.02746621,0.13015861,0.69236017,6,30,161,1,4,50,0.00537175,0.01968660,0.21647563,0.56066266,0.69403742,0.94412492
41027,0,USOregonHoodRiver,Oregon,Hood River,2020-07-18 06:52:27.150662,2020-03-20 00:00:00.000000,0.02877409,0.13628263,0.76757943,6,31,179,1,5,54,0.00556027,0.02140559,0.23149868,0.54458969,0.69592754,0.90725362
41027,0,USOregonHoodRiver,Oregon,Hood River,2020-07-18 06:52:27.150662,2020-03-21 00:00:00.000000,0.02775752,0.13885484,0.82655324,6,32,193,1,5,57,0.00575423,0.02168777,0.24805064,0.53276030,0.69536801,0.90391386
41027,0,USOregonHoodRiver,Oregon,Hood River,2020-07-18 06:52:27.150662,2020-03-22 00:00:00.000000,0.02592100,0.14459639,0.86638174,6,33,202,1,5,64,0.00595301,0.02335210,0.27570057,0.53159166,0.69054985,0.90447555
41027,0,USOregonHoodRiver,Oregon,Hood River,2020-07-18 06:52:27.150662,2020-03-23 00:00:00.000000,0.02407483,0.14860076,0.92406086,5,34,216,1,5,71,0.00615606,0.02400875,0.30553708,0.50149883,0.68451579,0.90295707
41027,0,USOregonHoodRiver,Oregon,Hood River,2020-07-18 06:52:27.150662,2020-03-24 00:00:00.000000,0.02231785,0.15368729,0.99628189,5,35,232,1,6,79,0.00636304,0.02720791,0.33789073,0.47169486,0.67850723,0.90563800
41027,0,USOregonHoodRiver,Oregon,Hood River,2020-07-18 06:52:27.150662,2020-03-25 00:00:00.000000,0.02067619,0.16119567,1.10108920,4,37,257,1,6,87,0.00657382,0.02629504,0.37312769,0.45581497,0.67219872,0.89723777
41027,0,USOregonHoodRiver,Oregon,Hood River,2020-07-18 06:52:27.150662,2020-03-26 00:00:00.000000,0.01914948,0.17156279,1.21682837,4,40,284,1,7,96,0.00678846,0.03009071,0.41163421,0.44800800,0.65232127,0.87526365
41027,0,USOregonHoodRiver,Oregon,Hood River,2020-07-18 06:52:27.150662,2020-03-27 00:00:00.000000,0.01772991,0.18140104,1.34401019,4,42,314,1,6,106,0.00700716,0.02877006,0.45381273,0.44434913,0.62901191,0.87966331
41027,0,USOregonHoodRiver,Oregon,Hood River,2020-07-18 06:52:27.150662,2020-03-28 00:00:00.000000,0.01640785,0.19435267,1.48243046,3,45,346,1,7,116,0.00722971,0.03227932,0.50008449,0.44262675,0.61289821,0.87520951
41027,0,USOregonHoodRiver,Oregon,Hood River,2020-07-18 06:52:27.150662,2020-03-29 00:00:00.000000,0.01517592,0.20092897,1.63046053,3,46,381,1,7,128,0.00745642,0.03183647,0.55089657,0.44178801,0.60985471,0.90857521
41027,0,USOregonHoodRiver,Oregon,Hood River,2020-07-18 06:52:27.150662,2020-03-30 00:00:00.000000,0.01403333,0.21592414,1.78715455,3,50,417,1,8,142,0.00758073,0.03498014,0.60746465,0.43782371,0.60094415,0.89143407
41027,0,USOregonHoodRiver,Oregon,Hood River,2020-07-18 06:52:27.150662,2020-03-31 00:00:00.000000,0.01300223,0.21480796,1.95517841,3,50,457,1,8,156,0.00701354,0.03468277,0.66961325,0.42437372,0.59539380,0.89754571
41027,0,USOregonHoodRiver,Oregon,Hood River,2020-07-18 06:52:27.150662,2020-04-01 00:00:00.000000,0.01220662,0.23670358,2.13240384,2,55,498,1,8,172,0.00651223,0.03825561,0.73696300,0.41052239,0.59029281,0.89592703
41027,0,USOregonHoodRiver,Oregon,Hood River,2020-07-18 06:52:27.150662,2020-04-02 00:00:00.000000,0.01181211,0.23543420,2.31924881,2,55,542,1,8,189,0.00619072,0.03701334,0.80993569,0.40571417,0.58255705,0.88373399
41027,0,USOregonHoodRiver,Oregon,Hood River,2020-07-18 06:52:27.150662,2020-04-03 00:00:00.000000,0.01166105,0.25944811,2.51125137,2,60,587,1,9,208,0.00611574,0.04192665,0.89192675,0.40474678,0.57877966,0.84168130
41027,0,USOregonHoodRiver,Oregon,Hood River,2020-07-18 06:52:27.150662,2020-04-04 00:00:00.000000,0.01155091,0.26021341,2.76517593,2,60,646,1,9,229,0.00604696,0.03935996,0.98261431,0.40462486,0.57222050,0.84574446
41027,0,USOregonHoodRiver,Oregon,Hood River,2020-07-18 06:52:27.150662,2020-04-05 00:00:00.000000,0.01145286,0.28039973,3.03678994,2,65,710,1,10,253,0.00599913,0.04565933,1.08299265,0.40474691,0.57171751,0.84276415
41027,0,USOregonHoodRiver,Oregon,Hood River,2020-07-18 06:52:27.150662,2020-04-06 00:00:00.000000,0.01135431,0.28796892,3.32450668,2,67,777,1,9,278,0.00594469,0.04183156,1.19314921,0.39749259,0.56296555,0.84285853
41027,0,USOregonHoodRiver,Oregon,Hood River,2020-07-18 06:52:27.150662,2020-04-07 00:00:00.000000,0.01125790,0.30053573,3.62986840,2,70,848,1,11,307,0.00589533,0.04962150,1.31415147,0.39382621,0.57434980,0.84286972
41027,0,USOregonHoodRiver,Oregon,Hood River,2020-07-18 06:52:27.150662,2020-04-08 00:00:00.000000,0.01116162,0.31041232,3.85945551,2,72,902,1,10,338,0.00584416,0.04453221,1.44741476,0.38613085,0.58716144,0.84287179
41027,0,USOregonHoodRiver,Oregon,Hood River,2020-07-18 06:52:27.150662,2020-04-09 00:00:00.000000,0.01106644,0.32306844,4.10313268,2,75,959,1,12,372,0.00579467,0.05297000,1.59377181,0.37824807,0.59517354,0.84287662
41027,0,USOregonHoodRiver,Oregon,Hood River,2020-07-18 06:52:27.150662,2020-04-10 00:00:00.000000,0.01097188,0.33556702,4.44086154,2,78,1038,1,11,410,0.00574493,0.04780840,1.75354638,0.37447330,0.57713913,0.84289818
41027,0,USOregonHoodRiver,Oregon,Hood River,2020-07-18 06:52:27.150662,2020-04-11 00:00:00.000000,0.01087847,0.34653144,4.78848628,2,81,1119,1,13,450,0.00569600,0.05633486,1.92558722,0.37130202,0.56659587,0.84299276
41027,0,USOregonHoodRiver,Oregon,Hood River,2020-07-18 06:52:27.150662,2020-04-12 00:00:00.000000,0.01078705,0.35755971,5.10741903,2,83,1194,1,12,492,0.00564753,0.05135997,2.10661009,0.36913861,0.56211303,0.84338848
41027,0,USOregonHoodRiver,Oregon,Hood River,2020-07-18 06:52:27.150662,2020-04-13 00:00:00.000000,0.01070121,0.36744186,5.41490819,2,85,1266,1,13,536,0.00560070,0.05975542,2.29332576,0.36564106,0.55876393,0.84490545
41027,0,USOregonHoodRiver,Oregon,Hood River,2020-07-18 06:52:27.150662,2020-04-14 00:00:00.000000,0.01062733,0.38139734,5.71715277,2,89,1336,1,12,580,0.00555817,0.05516717,2.48211361,0.35963453,0.56373982,0.84794558
41027,0,USOregonHoodRiver,Oregon,Hood River,2020-07-18 06:52:27.150662,2020-04-15 00:00:00.000000,0.01056639,0.39309463,5.99768498,2,91,1402,1,14,623,0.00552405,0.06341507,2.66660243,0.35490759,0.56976681,0.85085671
41027,0,USOregonHoodRiver,Oregon,Hood River,2020-07-18 06:52:27.150662,2020-04-16 00:00:00.000000,0.01051091,0.40223712,6.35031709,2,94,1484,1,13,666,0.00549519,0.05902265,2.84902477,0.33986977,0.56195474,0.85167524
41027,0,USOregonHoodRiver,Oregon,Hood River,2020-07-18 06:52:27.150662,2020-04-17 00:00:00.000000,0.01045361,0.41066214,6.76424490,2,96,1581,1,15,708,0.00546643,0.06732780,3.02872058,0.31884272,0.56187402,0.85088301
41027,0,USOregonHoodRiver,Oregon,Hood River,2020-07-18 06:52:27.150662,2020-04-18 00:00:00.000000,0.01039039,0.42222700,7.20601384,2,98,1684,1,15,749,0.00543532,0.06422888,3.20729978,0.31317764,0.55981293,0.86061425
41027,0,USOregonHoodRiver,Oregon,Hood River,2020-07-18 06:52:27.150662,2020-04-19 00:00:00.000000,0.01033113,0.43371204,7.67740000,2,101,1795,1,16,791,0.00540023,0.07099692,3.38666588,0.31188036,0.55534952,0.89074100
41027,0,USOregonHoodRiver,Oregon,Hood River,2020-07-18 06:52:27.150662,2020-04-20 00:00:00.000000,0.01034126,0.44260170,8.06879289,2,103,1886,1,16,834,0.00537341,0.06960959,3.56851716,0.31171749,0.55416211,0.99182198
41027,0,USOregonHoodRiver,Oregon,Hood River,2020-07-18 06:52:27.150662,2020-04-21 00:00:00.000000,0.01050512,0.45545512,8.46957236,2,106,1980,1,17,877,0.00541258,0.07664929,3.75437885,0.31240597,0.55200857,1.15534542
41027,0,USOregonHoodRiver,Oregon,Hood River,2020-07-18 06:52:27.150662,2020-04-22 00:00:00.000000,0.01078529,0.47429525,8.89806843,2,110,2080,1,17,922,0.00555022,0.07359728,3.94577194,0.31533721,0.54276004,1.18515159
41027,0,USOregonHoodRiver,Oregon,Hood River,2020-07-18 06:52:27.150662,2020-04-23 00:00:00.000000,0.01110390,0.49132701,9.36119200,2,114,2188,1,19,969,0.00571087,0.08133302,4.14445270,0.32121438,0.54891533,1.16746659
41027,0,USOregonHoodRiver,Oregon,Hood River,2020-07-18 06:52:27.150662,2020-04-24 00:00:00.000000,0.01143767,0.50911374,9.86608837,2,119,2306,1,18,1017,0.00588326,0.07774446,4.35261743,0.32855894,0.54747580,1.18408968
41027,0,USOregonHoodRiver,Oregon,Hood River,2020-07-18 06:52:27.150662,2020-04-25 00:00:00.000000,0.01178090,0.52772773,10.41597892,2,123,2435,1,19,1084,0.00605923,0.08459890,4.63802970,0.32681775,0.53466973,1.19880669
41027,0,USOregonHoodRiver,Oregon,Hood River,2020-07-18 06:52:27.150662,2020-04-26 00:00:00.000000,0.01213417,0.54416997,11.00887230,2,127,2574,1,19,1157,0.00624125,0.08248058,4.95075423,0.31744763,0.51594165,1.20783613
41027,0,USOregonHoodRiver,Oregon,Hood River,2020-07-18 06:52:27.150662,2020-04-27 00:00:00.000000,0.01249753,0.55972310,11.64072084,2,130,2721,1,20,1236,0.00642799,0.08788625,5.28619340,0.30463424,0.51876009,1.21180688
41027,0,USOregonHoodRiver,Oregon,Hood River,2020-07-18 06:52:27.150662,2020-04-28 00:00:00.000000,0.01287161,0.57579693,12.31735142,3,134,2880,1,20,1320,0.00662054,0.08768080,5.64620495,0.29865198,0.52157536,1.21277132
41027,0,USOregonHoodRiver,Oregon,Hood River,2020-07-18 06:52:27.150662,2020-04-29 00:00:00.000000,0.01325599,0.58850638,13.12546630,3,137,3068,1,21,1410,0.00681854,0.09173516,6.03242903,0.29511142,0.51672881,1.21141907
41027,0,USOregonHoodRiver,Oregon,Hood River,2020-07-18 06:52:27.150662,2020-04-30 00:00:00.000000,0.01364383,0.60114343,13.96374583,3,140,3265,1,21,1494,0.00702183,0.09287485,6.39369435,0.29515400,0.52407360,1.20654689
41027,0,USOregonHoodRiver,Oregon,Hood River,2020-07-18 06:52:27.150662,2020-05-01 00:00:00.000000,0.01397153,0.61526363,14.84873968,3,143,3471,1,22,1578,0.00722329,0.09603599,6.75238694,0.29462357,0.54480620,1.19560169
41027,0,USOregonHoodRiver,Oregon,Hood River,2020-07-18 06:52:27.150662,2020-05-02 00:00:00.000000,0.01406384,0.63296198,15.77992433,3,147,3689,1,22,1667,0.00736228,0.09802557,7.13171338,0.29421318,0.54801945,1.17882573
41027,0,USOregonHoodRiver,Oregon,Hood River,2020-07-18 06:52:27.150662,2020-05-03 00:00:00.000000,0.01397173,0.65397813,16.75988947,3,152,3918,1,24,1761,0.00731214,0.10350225,7.53314940,0.29339756,0.55106969,1.14519091
41027,0,USOregonHoodRiver,Oregon,Hood River,2020-07-18 06:52:27.150662,2020-05-04 00:00:00.000000,0.01385855,0.67697078,17.79417263,3,158,4160,1,25,1861,0.00725474,0.10761276,7.95964590,0.29304505,0.54099953,1.10879837
41027,0,USOregonHoodRiver,Oregon,Hood River,2020-07-18 06:52:27.150662,2020-05-05 00:00:00.000000,0.01376500,0.70197296,18.88793146,3,164,4416,1,26,1967,0.00719517,0.11431748,8.41622047,0.29291296,0.52125618,1.09032087
41027,0,USOregonHoodRiver,Oregon,Hood River,2020-07-18 06:52:27.150662,2020-05-06 00:00:00.000000,0.01372822,0.72898996,20.04024125,3,170,4685,1,27,2083,0.00715820,0.11961557,8.90958222,0.29281542,0.51310680,1.07787373
41027,0,USOregonHoodRiver,Oregon,Hood River,2020-07-18 06:52:27.150662,2020-05-07 00:00:00.000000,0.01379943,0.75748757,21.23553833,3,177,4965,1,29,2208,0.00715928,0.12600543,9.44621034,0.29270936,0.50524601,1.06106371
41027,0,USOregonHoodRiver,Oregon,Hood River,2020-07-18 06:52:27.150662,2020-05-08 00:00:00.000000,0.01404250,0.78707991,22.42370915,3,184,5243,1,30,2345,0.00723626,0.13247087,10.03039059,0.29253271,0.51943030,1.03043578
41027,0,USOregonHoodRiver,Oregon,Hood River,2020-07-18 06:52:27.150662,2020-05-09 00:00:00.000000,0.01448773,0.81636379,23.54021399,3,190,5504,1,32,2493,0.00741924,0.13876519,10.66278077,0.29219298,0.51582138,0.97830702
41027,0,USOregonHoodRiver,Oregon,Hood River,2020-07-18 06:52:27.150662,2020-05-10 00:00:00.000000,0.01511082,0.84316485,24.61665974,3,197,5755,1,32,2651,0.00770857,0.14067760,11.33877796,0.29161012,0.48978730,0.98707283
41027,0,USOregonHoodRiver,Oregon,Hood River,2020-07-18 06:52:27.150662,2020-05-11 00:00:00.000000,0.01586604,0.87270650,25.70468311,3,204,6010,1,34,2818,0.00807616,0.14568899,12.05296079,0.29091816,0.48023254,1.00443093
41027,0,USOregonHoodRiver,Oregon,Hood River,2020-07-18 06:52:27.150662,2020-05-12 00:00:00.000000,0.01672816,0.88755923,26.82131198,3,207,6271,1,35,2993,0.00850099,0.15023489,12.80146898,0.29090423,0.47801392,1.01575409
41027,0,USOregonHoodRiver,Oregon,Hood River,2020-07-18 06:52:27.150662,2020-05-13 00:00:00.000000,0.01771228,0.91686493,28.14853441,4,214,6581,2,36,3175,0.00897883,0.15469941,13.58100634,0.29007342,0.47888953,1.02897996
41027,0,USOregonHoodRiver,Oregon,Hood River,2020-07-18 06:52:27.150662,2020-05-14 00:00:00.000000,0.01890006,0.91228503,29.52189836,4,213,6902,2,36,3364,0.00953126,0.15784232,14.38867235,0.28327145,0.48143761,1.05481303
41027,0,USOregonHoodRiver,Oregon,Hood River,2020-07-18 06:52:27.150662,2020-05-15 00:00:00.000000,0.02047745,0.93350167,31.01619309,4,218,7252,2,37,3552,0.01022421,0.16116753,15.19232840,0.28420557,0.48797562,1.10656573
41027,0,USOregonHoodRiver,Oregon,Hood River,2020-07-18 06:52:27.150662,2020-05-16 00:00:00.000000,0.02270835,0.94569308,32.77753270,5,221,7664,2,38,3740,0.01118950,0.16493158,15.99741264,0.28386928,0.52702116,1.18533722
41027,0,USOregonHoodRiver,Oregon,Hood River,2020-07-18 06:52:27.150662,2020-05-17 00:00:00.000000,0.02576955,0.96112974,34.77744803,6,224,8131,2,39,3942,0.01257451,0.16956427,16.85926014,0.27706666,0.55144110,1.26201561
41027,0,USOregonHoodRiver,Oregon,Hood River,2020-07-18 06:52:27.150662,2020-05-18 00:00:00.000000,0.02966183,0.98481618,36.83482385,6,230,8612,3,40,4160,0.01441451,0.17288417,17.79486898,0.27181819,0.57732175,1.30750560
41027,0,USOregonHoodRiver,Oregon,Hood River,2020-07-18 06:52:27.150662,2020-05-19 00:00:00.000000,0.03431840,1.02417249,38.84442670,8,239,9082,3,41,4395,0.01666617,0.17675940,18.79717371,0.27143639,0.58297474,1.32236732
41027,0,USOregonHoodRiver,Oregon,Hood River,2020-07-18 06:52:27.150662,2020-05-20 00:00:00.000000,0.03968797,1.06608812,40.75764123,9,249,9529,4,42,4640,0.01856895,0.18108052,19.84835873,0.27017450,0.57911257,1.31849313
41027,0,USOregonHoodRiver,Oregon,Hood River,2020-07-18 06:52:27.150662,2020-05-21 00:00:00.000000,0.04573482,1.11102166,42.54184261,10,259,9947,4,43,4893,0.01935637,0.18552149,20.92838360,0.27450969,0.56780264,1.30442861
41027,0,USOregonHoodRiver,Oregon,Hood River,2020-07-18 06:52:27.150662,2020-05-22 00:00:00.000000,0.05242999,1.15747627,44.19090320,12,270,10332,4,44,5148,0.02017673,0.19033267,22.01722629,0.28347294,0.56199470,1.28519477
41027,0,USOregonHoodRiver,Oregon,Hood River,2020-07-18 06:52:27.150662,2020-05-23 00:00:00.000000,0.05975168,1.18497593,45.69479532,13,277,10684,4,45,5400,0.02103774,0.19446504,23.09799536,0.28802532,0.55780632,1.26412574
41027,0,USOregonHoodRiver,Oregon,Hood River,2020-07-18 06:52:27.150662,2020-05-24 00:00:00.000000,0.06768577,1.22570841,47.03727764,15,286,10998,5,46,5648,0.02195186,0.19870215,24.15586819,0.28885192,0.56243957,1.24308864
41027,0,USOregonHoodRiver,Oregon,Hood River,2020-07-18 06:52:27.150662,2020-05-25 00:00:00.000000,0.07620819,1.30179484,48.20086205,17,304,11270,5,47,5886,0.02292073,0.20275476,25.17695959,0.27762604,0.55866328,1.22218831
41027,0,USOregonHoodRiver,Oregon,Hood River,2020-07-18 06:52:27.150662,2020-05-26 00:00:00.000000,0.08448018,1.37245899,49.16504711,19,320,11495,5,48,6113,0.02394183,0.20663474,26.14799357,0.27323060,0.55289652,1.20019521
41027,0,USOregonHoodRiver,Oregon,Hood River,2020-07-18 06:52:27.150662,2020-05-27 00:00:00.000000,0.08789654,1.42203333,50.25889471,20,332,11751,5,49,6326,0.02501389,0.21039622,27.05583784,0.27674667,0.54726854,1.17581955
41027,0,USOregonHoodRiver,Oregon,Hood River,2020-07-18 06:52:27.150662,2020-05-28 00:00:00.000000,0.09145042,1.44030296,51.36932072,21,336,12011,6,50,6520,0.02613697,0.21407040,27.88643363,0.27286660,0.53718415,1.14921337
41027,0,USOregonHoodRiver,Oregon,Hood River,2020-07-18 06:52:27.150662,2020-05-29 00:00:00.000000,0.09514601,1.47610314,52.30001403,22,345,12228,6,50,6692,0.02731192,0.21805172,28.62369012,0.26541896,0.50531102,1.12258624
41027,0,USOregonHoodRiver,Oregon,Hood River,2020-07-18 06:52:27.150662,2020-05-30 00:00:00.000000,0.09898217,1.49933069,52.24679134,23,350,12216,6,52,6839,0.02853953,0.22266994,29.25210165,0.25333525,0.47936911,1.09905843
41027,0,USOregonHoodRiver,Oregon,Hood River,2020-07-18 06:52:27.150662,2020-05-31 00:00:00.000000,0.10293648,1.51122389,51.93627547,24,353,12143,6,52,6959,0.02981872,0.22654392,29.76360607,0.24341793,0.46870499,1.08063678
41027,0,USOregonHoodRiver,Oregon,Hood River,2020-07-18 06:52:27.150662,2020-06-01 00:00:00.000000,0.10693484,1.52288971,51.44583018,25,356,12029,7,53,7051,0.03114141,0.22989353,30.15885880,0.23783172,0.46526316,1.06693093
41027,0,USOregonHoodRiver,Oregon,Hood River,2020-07-18 06:52:27.150662,2020-06-02 00:00:00.000000,0.11092813,1.54666364,52.23872292,25,361,12214,7,54,7118,0.03248535,0.23483783,30.44306733,0.23543334,0.46372635,1.05309459
41027,0,USOregonHoodRiver,Oregon,Hood River,2020-07-18 06:52:27.150662,2020-06-03 00:00:00.000000,0.11520484,1.57269917,52.66265723,26,367,12313,7,56,7160,0.03383270,0.24133182,30.62289517,0.23436056,0.46182791,1.01737896
41027,0,USOregonHoodRiver,Oregon,Hood River,2020-07-18 06:52:27.150662,2020-06-04 00:00:00.000000,0.12026232,1.59883526,52.01770038,28,373,12162,8,57,7179,0.03522557,0.24705901,30.70528341,0.23352850,0.45768361,0.89862587
41027,0,USOregonHoodRiver,Oregon,Hood River,2020-07-18 06:52:27.150662,2020-06-05 00:00:00.000000,0.12614023,1.62452092,51.31790840,29,379,11999,8,59,7177,0.03675982,0.25271007,30.69714461,0.23366810,0.44917213,0.73779456
41027,0,USOregonHoodRiver,Oregon,Hood River,2020-07-18 06:52:27.150662,2020-06-06 00:00:00.000000,0.13279376,1.65595702,50.57070578,31,387,11824,9,60,7156,0.03850559,0.25773324,30.60532484,0.22284000,0.44689114,0.73440442
41027,0,USOregonHoodRiver,Oregon,Hood River,2020-07-18 06:52:27.150662,2020-06-07 00:00:00.000000,0.13428915,1.68827987,49.78328835,31,394,11640,9,61,7138,0.04047378,0.26187994,30.52887978,0.20742007,0.45564605,0.74032831
41027,0,USOregonHoodRiver,Oregon,Hood River,2020-07-18 06:52:27.150662,2020-06-08 00:00:00.000000,0.12279932,1.72114240,48.81177861,28,402,11413,9,62,7103,0.04264543,0.26596438,30.38074533,0.19955050,0.45343690,0.74084720
41027,0,USOregonHoodRiver,Oregon,Hood River,2020-07-18 06:52:27.150662,2020-06-09 00:00:00.000000,0.11227764,1.75465993,47.60924754,26,410,11131,10,63,7053,0.04499818,0.26998191,30.16484414,0.19676549,0.45346731,0.73965988
41027,0,USOregonHoodRiver,Oregon,Hood River,2020-07-18 06:52:27.150662,2020-06-10 00:00:00.000000,0.10269717,1.78879253,46.40136489,24,418,10849,11,64,6988,0.04751347,0.27393059,29.88756249,0.19569472,0.44904082,0.73582218
41027,0,USOregonHoodRiver,Oregon,Hood River,2020-07-18 06:52:27.150662,2020-06-11 00:00:00.000000,0.09417232,1.82345585,45.21745724,22,426,10572,11,64,6956,0.05017306,0.27781490,29.75246368,0.19446780,0.45076664,0.72752971
41027,0,USOregonHoodRiver,Oregon,Hood River,2020-07-18 06:52:27.150662,2020-06-12 00:00:00.000000,0.08698334,1.85856784,44.06219749,20,434,10302,10,65,6983,0.04689761,0.28165398,29.86683281,0.18715344,0.45246656,0.71152130
41027,0,USOregonHoodRiver,Oregon,Hood River,2020-07-18 06:52:27.150662,2020-06-13 00:00:00.000000,0.08123112,1.89408876,43.56751675,18,442,10186,10,67,6931,0.04357754,0.28749640,29.64312141,0.17999082,0.45439109,0.71085452
41027,0,USOregonHoodRiver,Oregon,Hood River,2020-07-18 06:52:27.150662,2020-06-14 00:00:00.000000,0.07643758,1.93005873,43.64413493,17,451,10204,9,69,6819,0.04095477,0.29543950,29.16404307,0.17547283,0.45927332,0.72475313
41027,0,USOregonHoodRiver,Oregon,Hood River,2020-07-18 06:52:27.150662,2020-06-15 00:00:00.000000,0.07212022,1.96647099,43.69984815,16,459,10217,9,71,6702,0.03861758,0.30465047,28.66401726,0.17611809,0.45485180,0.72940528
41027,0,USOregonHoodRiver,Oregon,Hood River,2020-07-18 06:52:27.150662,2020-06-16 00:00:00.000000,0.06819936,2.00316229,43.76222368,15,468,10232,8,73,6580,0.03646375,0.31407670,28.14474023,0.17705788,0.44758685,0.73531394
41027,0,USOregonHoodRiver,Oregon,Hood River,2020-07-18 06:52:27.150662,2020-06-17 00:00:00.000000,0.06540458,2.03980692,43.82641851,15,476,10247,8,75,6449,0.03453747,0.32210934,27.58160064,0.17923344,0.43546580,0.77906345
41027,0,USOregonHoodRiver,Oregon,Hood River,2020-07-18 06:52:27.150662,2020-06-18 00:00:00.000000,0.06489665,2.07577122,43.86340140,15,485,10256,7,77,6294,0.03357676,0.32933320,26.92129140,0.18090164,0.44306918,0.87431404
41027,0,USOregonHoodRiver,Oregon,Hood River,2020-07-18 06:52:27.150662,2020-06-19 00:00:00.000000,0.06554949,2.11087836,43.59502981,15,493,10193,7,78,6161,0.03409183,0.33668304,26.35136242,0.18528846,0.44706416,0.90110735
41027,0,USOregonHoodRiver,Oregon,Hood River,2020-07-18 06:52:27.150662,2020-06-20 00:00:00.000000,0.06625177,2.14660377,42.70588539,15,501,9985,8,80,6027,0.03433599,0.34414059,25.77967176,0.18804371,0.45949951,0.90370792
41027,0,USOregonHoodRiver,Oregon,Hood River,2020-07-18 06:52:27.150662,2020-06-21 00:00:00.000000,0.06702732,2.18661448,41.68673859,15,511,9747,8,81,5891,0.03479705,0.35038567,25.19526552,0.18002781,0.45516859,0.90392573
41027,0,USOregonHoodRiver,Oregon,Hood River,2020-07-18 06:52:27.150662,2020-06-22 00:00:00.000000,0.06778012,2.23534282,40.65055344,15,522,9504,8,83,5752,0.03515189,0.35575042,24.60191314,0.17337973,0.46350283,0.90396019
41027,0,USOregonHoodRiver,Oregon,Hood River,2020-07-18 06:52:27.150662,2020-06-23 00:00:00.000000,0.06855631,2.28567796,39.64737011,16,534,9270,8,84,5612,0.03557327,0.36114592,24.00366173,0.16717945,0.47622572,0.90402658
41027,0,USOregonHoodRiver,Oregon,Hood River,2020-07-18 06:52:27.150662,2020-06-24 00:00:00.000000,0.06933340,2.33883507,38.67771100,16,546,9043,8,85,5472,0.03596420,0.36658004,23.40469786,0.16361040,0.47691861,0.90427192
41027,0,USOregonHoodRiver,Oregon,Hood River,2020-07-18 06:52:27.150662,2020-06-25 00:00:00.000000,0.07014032,2.39209112,37.74186282,16,559,8824,8,86,5333,0.03638155,0.37206316,22.80836454,0.16152310,0.47947024,0.90519421
41027,0,USOregonHoodRiver,Oregon,Hood River,2020-07-18 06:52:27.150662,2020-06-26 00:00:00.000000,0.07102421,2.44221763,36.83951362,16,571,8613,8,88,5194,0.03680750,0.37761293,22.21677563,0.16264843,0.48248585,0.90863058
41027,0,USOregonHoodRiver,Oregon,Hood River,2020-07-18 06:52:27.150662,2020-06-27 00:00:00.000000,0.07218941,2.48759558,35.97022890,16,581,8410,8,89,5057,0.03730509,0.38328845,21.63146533,0.16120030,0.47588432,0.92101641
41027,0,USOregonHoodRiver,Oregon,Hood River,2020-07-18 06:52:27.150662,2020-06-28 00:00:00.000000,0.07426649,2.50364700,35.13360623,17,585,8214,8,90,4922,0.03803141,0.38918443,21.05341097,0.15599629,0.46482684,0.96084106
41027,0,USOregonHoodRiver,Oregon,Hood River,2020-07-18 06:52:27.150662,2020-06-29 00:00:00.000000,0.07858875,2.51728791,34.32914633,18,588,8026,9,92,4789,0.03949906,0.39531271,20.48375918,0.15466846,0.46605674,1.05290715
41027,0,USOregonHoodRiver,Oregon,Hood River,2020-07-18 06:52:27.150662,2020-06-30 00:00:00.000000,0.08615546,2.53244511,33.55625488,20,592,7846,9,94,4658,0.04261473,0.40318221,19.92421992,0.15438665,0.47376405,1.16407002
41027,0,USOregonHoodRiver,Oregon,Hood River,2020-07-18 06:52:27.150662,2020-07-01 00:00:00.000000,0.09649455,2.55090215,32.81425987,22,596,7672,11,96,4609,0.04752132,0.41091771,19.71456746,0.15432650,0.48188446,1.22609627
41027,0,USOregonHoodRiver,Oregon,Hood River,2020-07-18 06:52:27.150662,2020-07-02 00:00:00.000000,0.10874195,2.57731359,32.10242801,25,602,7506,12,97,4616,0.05351605,0.41840470,19.74311197,0.15434070,0.48768410,1.24169047
41027,0,USOregonHoodRiver,Oregon,Hood River,2020-07-18 06:52:27.150662,2020-07-03 00:00:00.000000,0.12228463,2.61780857,31.41998021,28,612,7346,14,99,4621,0.06036008,0.42601665,19.76607270,0.15450543,0.49595460,1.23085967
41027,0,USOregonHoodRiver,Oregon,Hood River,2020-07-18 06:52:27.150662,2020-07-04 00:00:00.000000,0.13637782,2.67083510,31.45858080,31,624,7355,15,101,4571,0.06768704,0.43384424,19.55267471,0.15531988,0.51071781,1.19986079
41027,0,USOregonHoodRiver,Oregon,Hood River,2020-07-18 06:52:27.150662,2020-07-05 00:00:00.000000,0.15032063,2.71359023,30.13998424,35,634,7047,17,103,4478,0.07507767,0.44185415,19.15476896,0.15515167,0.52962488,1.15950539
41027,0,USOregonHoodRiver,Oregon,Hood River,2020-07-18 06:52:27.150662,2020-07-06 00:00:00.000000,0.16401821,2.75027822,31.64263399,38,643,7398,19,104,4388,0.08221985,0.44899216,18.77005372,0.15354809,0.53132565,1.12853349
41027,0,USOregonHoodRiver,Oregon,Hood River,2020-07-18 06:52:27.150662,2020-07-07 00:00:00.000000,0.17792892,2.81574619,30.28641515,41,658,7081,20,106,4301,0.08934440,0.45618879,18.39855889,0.15278573,0.53300356,1.11260143
41027,0,USOregonHoodRiver,Oregon,Hood River,2020-07-18 06:52:27.150662,2020-07-08 00:00:00.000000,0.19250810,2.88259792,30.34725229,45,674,7095,22,108,4303,0.09673293,0.46344841,18.40698395,0.15248960,0.53853172,1.10604270
41027,0,USOregonHoodRiver,Oregon,Hood River,2020-07-18 06:52:27.150662,2020-07-09 00:00:00.000000,0.20804480,2.95001413,29.91105134,48,689,6993,24,110,4335,0.10457614,0.47077453,18.54085736,0.15238433,0.54283124,1.10359337
41027,0,USOregonHoodRiver,Oregon,Hood River,2020-07-18 06:52:27.150662,2020-07-10 00:00:00.000000,0.22471119,3.01803282,29.97089135,52,705,7007,26,111,4364,0.11297529,0.47817018,18.66613066,0.15234841,0.54996195,1.10271233
41027,0,USOregonHoodRiver,Oregon,Hood River,2020-07-18 06:52:27.150662,2020-07-11 00:00:00.000000,0.24262975,3.08850851,30.28887844,56,722,7082,27,113,4391,0.11873110,0.48563810,18.78308912,0.15233650,0.55170983,1.10239971
41027,0,USOregonHoodRiver,Oregon,Hood River,2020-07-18 06:52:27.150662,2020-07-12 00:00:00.000000,0.26190384,3.16190932,30.72067788,61,739,7183,28,115,4417,0.12320965,0.49318087,18.89202951,0.15233268,0.55199655,1.10228932
41027,0,USOregonHoodRiver,Oregon,Hood River,2020-07-18 06:52:27.150662,2020-07-13 00:00:00.000000,0.28263306,3.24012714,31.07832639,66,757,7266,29,117,4441,0.12782135,0.50080094,18.99325798,0.15233152,0.55199656,1.10225041
41027,0,USOregonHoodRiver,Oregon,Hood River,2020-07-18 06:52:27.150662,2020-07-14 00:00:00.000000,0.30491787,3.30019268,31.38799070,71,771,7339,31,118,4462,0.13258178,0.50850064,19.08708768,0.15233120,0.55199656,1.10223671
41027,0,USOregonHoodRiver,Oregon,Hood River,2020-07-18 06:52:27.150662,2020-07-15 00:00:00.000000,0.32886220,3.36214496,31.62651341,76,786,7394,32,120,4483,0.13750354,0.51628226,19.17383645,0.15233114,0.55199656,1.10223188
41027,0,USOregonHoodRiver,Oregon,Hood River,2020-07-18 06:52:27.150662,2020-07-16 00:00:00.000000,0.35457378,3.39211205,31.81948820,82,793,7440,33,122,4501,0.14259695,0.52474720,19.25382461,0.15233114,0.55199656,1.10223018
41027,0,USOregonHoodRiver,Oregon,Hood River,2020-07-18 06:52:27.150662,2020-07-17 00:00:00.000000,0.38216443,3.41751885,31.94493478,89,799,7469,34,125,4519,0.14562027,0.53462916,19.32737284,0.15233116,0.55199656,1.10222958
41027,0,USOregonHoodRiver,Oregon,Hood River,2020-07-18 06:52:27.150662,2020-07-18 00:00:00.000000,0.41174970,3.46828962,32.02796595,96,810,7488,34,127,4534,0.14790137,0.54469924,19.39480022,0.15233117,0.55199656,1.10222937
41027,0,USOregonHoodRiver,Oregon,Hood River,2020-07-18 06:52:27.150662,2020-07-19 00:00:00.000000,0.44344856,3.53755283,32.04781816,103,827,7493,35,129,4549,0.15132085,0.55495853,19.45642248,0.15233118,0.55199656,1.10222930
41027,0,USOregonHoodRiver,Oregon,Hood River,2020-07-18 06:52:27.150662,2020-07-20 00:00:00.000000,0.47738279,3.60750520,32.02409551,111,843,7487,36,132,4562,0.15565899,0.56639780,19.51255042,0.15233118,0.55199656,1.10222927
41027,0,USOregonHoodRiver,Oregon,Hood River,2020-07-18 06:52:27.150662,2020-07-21 00:00:00.000000,0.51367623,3.66654383,31.88167759,120,857,7454,37,135,4574,0.16013906,0.57810019,19.56348852,0.15233119,0.55199656,1.10222926
41027,0,USOregonHoodRiver,Oregon,Hood River,2020-07-18 06:52:27.150662,2020-07-22 00:00:00.000000,0.55245385,3.72441982,31.71779637,129,870,7416,38,137,4584,0.16426637,0.59004483,19.60756730,0.15233119,0.55199656,1.10222926
41027,0,USOregonHoodRiver,Oregon,Hood River,2020-07-18 06:52:27.150662,2020-07-23 00:00:00.000000,0.59384069,3.78244074,31.33787795,138,884,7327,39,140,4586,0.16752971,0.60223583,19.61510610,0.15233119,0.55199656,1.10222926
41027,0,USOregonHoodRiver,Oregon,Hood River,2020-07-18 06:52:27.150662,2020-07-24 00:00:00.000000,0.63796042,3.84062852,31.27198026,149,898,7312,39,143,4587,0.17085297,0.61467738,19.62060816,0.15233119,0.55199656,1.10222926
41027,0,USOregonHoodRiver,Oregon,Hood River,2020-07-18 06:52:27.150662,2020-07-25 00:00:00.000000,0.68493385,3.89900230,30.64148454,160,911,7164,40,146,4588,0.17423784,0.62582407,19.62425447,0.15233119,0.55199656,1.10222926
41027,0,USOregonHoodRiver,Oregon,Hood River,2020-07-18 06:52:27.150662,2020-07-26 00:00:00.000000,0.73487701,3.96291154,30.70919227,171,926,7180,41,147,4589,0.17768591,0.63278988,19.62621446,0.15233119,0.55199656,1.10222926
41027,0,USOregonHoodRiver,Oregon,Hood River,2020-07-18 06:52:27.150662,2020-07-27 00:00:00.000000,0.78789902,4.09359910,29.86087567,184,957,6982,42,150,4589,0.18119875,0.64405977,19.62664631,0.15233119,0.55199656,1.10222926
41027,0,USOregonHoodRiver,Oregon,Hood River,2020-07-18 06:52:27.150662,2020-07-28 00:00:00.000000,0.84409965,4.17898360,30.05208182,197,977,7026,43,154,4588,0.18477786,0.66261396,19.62569726,0.15233119,0.55199656,1.10222926
41027,0,USOregonHoodRiver,Oregon,Hood River,2020-07-18 06:52:27.150662,2020-07-29 00:00:00.000000,0.90356653,4.22013767,29.02390008,211,986,6786,44,160,4588,0.18842473,0.68518311,19.62350402,0.15233119,0.55199656,1.10222926
41027,0,USOregonHoodRiver,Oregon,Hood River,2020-07-18 06:52:27.150662,2020-07-30 00:00:00.000000,0.96532451,4.33862788,29.32272007,225,1014,6856,44,163,4587,0.19214081,0.69894801,19.62019319,0.15233119,0.55199656,1.10222926
