FIPS,HR_UID,nameid,province,region,analysisTime,dates,pointprevalence_025,pointprevalence_50,pointprevalence_975,pointinfections_025,pointinfections_50,pointinfections_975,pointinfectious_025,pointinfectious_50,pointinfectious_975,pointinfectiousprevalence_05,pointinfectiousprevalence_50,pointinfectiousprevalence_95,infectrate_025,infectrate_50,infectrate_975
55085,0,USWisconsinOneida,Wisconsin,Oneida,2020-07-17 08:41:24.889911,2020-03-09 00:00:00.000000,0.00000000,0.00001471,0.00023179,0,0,0,0,0,0,0.00000000,0.00000324,0.00005664,0.43941702,0.44552035,0.45154816
55085,0,USWisconsinOneida,Wisconsin,Oneida,2020-07-17 08:41:24.889911,2020-03-10 00:00:00.000000,0.00000000,0.00000204,0.00001433,0,0,0,0,0,0,0.00000000,0.00000085,0.00000714,0.43930229,0.44552040,0.45159307
55085,0,USWisconsinOneida,Wisconsin,Oneida,2020-07-17 08:41:24.889911,2020-03-11 00:00:00.000000,0.00000000,0.00000136,0.00001392,0,0,0,0,0,0,0.00000000,0.00000031,0.00000259,0.43910685,0.44552058,0.45167038
55085,0,USWisconsinOneida,Wisconsin,Oneida,2020-07-17 08:41:24.889911,2020-03-12 00:00:00.000000,0.00000000,0.00000000,0.00000025,0,0,0,0,0,0,0.00000000,0.00000000,0.00000009,0.43877480,0.44552117,0.45180330
55085,0,USWisconsinOneida,Wisconsin,Oneida,2020-07-17 08:41:24.889911,2020-03-13 00:00:00.000000,0.00000000,0.00000013,0.00000138,0,0,0,0,0,0,0.00000000,0.00000003,0.00000016,0.43821299,0.44552303,0.45203142
55085,0,USWisconsinOneida,Wisconsin,Oneida,2020-07-17 08:41:24.889911,2020-03-14 00:00:00.000000,0.00000000,0.00000000,0.00000003,0,0,0,0,0,0,0.00000000,0.00000000,0.00000001,0.43726900,0.44552878,0.45242160
55085,0,USWisconsinOneida,Wisconsin,Oneida,2020-07-17 08:41:24.889911,2020-03-15 00:00:00.000000,0.00000000,0.00000001,0.00000013,0,0,0,0,0,0,0.00000000,0.00000000,0.00000000,0.43570095,0.44554773,0.45308509
55085,0,USWisconsinOneida,Wisconsin,Oneida,2020-07-17 08:41:24.889911,2020-03-16 00:00:00.000000,0.00000000,0.00000000,0.00000000,0,0,0,0,0,0,0.00000000,0.00000000,0.00000003,0.43314540,0.44560145,0.45420224
55085,0,USWisconsinOneida,Wisconsin,Oneida,2020-07-17 08:41:24.889911,2020-03-17 00:00:00.000000,0.00000000,0.00000000,0.00000000,0,0,0,0,0,0,0.00000000,0.00000000,0.00000000,0.42910840,0.44576730,0.45605212
55085,0,USWisconsinOneida,Wisconsin,Oneida,2020-07-17 08:41:24.889911,2020-03-18 00:00:00.000000,0.00000000,0.00000000,0.00000005,0,0,0,0,0,0,0.00000000,0.00000000,0.00000003,0.42304233,0.44630574,0.45903207
55085,0,USWisconsinOneida,Wisconsin,Oneida,2020-07-17 08:41:24.889911,2020-03-19 00:00:00.000000,0.00000000,0.00000000,0.00000000,0,0,0,0,0,0,0.00000000,0.00000000,0.00000000,0.41460839,0.44773456,0.46362469
55085,0,USWisconsinOneida,Wisconsin,Oneida,2020-07-17 08:41:24.889911,2020-03-20 00:00:00.000000,0.00000000,0.00000000,0.00000005,0,0,0,0,0,0,0.00000000,0.00000000,0.00000003,0.40416514,0.44779795,0.47023759
55085,0,USWisconsinOneida,Wisconsin,Oneida,2020-07-17 08:41:24.889911,2020-03-21 00:00:00.000000,0.00000000,0.00000000,0.00000000,0,0,0,0,0,0,0.00000000,0.00000000,0.00000000,0.39324224,0.44531988,0.47886592
55085,0,USWisconsinOneida,Wisconsin,Oneida,2020-07-17 08:41:24.889911,2020-03-22 00:00:00.000000,0.00000000,0.00000000,0.00000004,0,0,0,0,0,0,0.00000000,0.00000000,0.00000002,0.38445705,0.43691714,0.48936589
55085,0,USWisconsinOneida,Wisconsin,Oneida,2020-07-17 08:41:24.889911,2020-03-23 00:00:00.000000,0.00000000,0.00000000,0.00000000,0,0,0,0,0,0,0.00000000,0.00000000,0.00000000,0.38063085,0.42583049,0.52415948
55085,0,USWisconsinOneida,Wisconsin,Oneida,2020-07-17 08:41:24.889911,2020-03-24 00:00:00.000000,0.00000000,0.00000000,0.00000004,0,0,0,0,0,0,0.00000000,0.00000000,0.00000002,0.38356653,0.42148019,0.55540217
55085,0,USWisconsinOneida,Wisconsin,Oneida,2020-07-17 08:41:24.889911,2020-03-25 00:00:00.000000,0.00000000,0.00000000,0.00000000,0,0,0,0,0,0,0.00000000,0.00000000,0.00000000,0.39300719,0.42177644,0.57104576
55085,0,USWisconsinOneida,Wisconsin,Oneida,2020-07-17 08:41:24.889911,2020-03-26 00:00:00.000000,0.00000000,0.00000000,0.00000003,0,0,0,0,0,0,0.00000000,0.00000000,0.00000001,0.40628890,0.42298689,0.57483503
55085,0,USWisconsinOneida,Wisconsin,Oneida,2020-07-17 08:41:24.889911,2020-03-27 00:00:00.000000,0.00000000,0.00000000,0.00000000,0,0,0,0,0,0,0.00000000,0.00000000,0.00000000,0.41957973,0.42366563,0.57141500
55085,0,USWisconsinOneida,Wisconsin,Oneida,2020-07-17 08:41:24.889911,2020-03-28 00:00:00.000000,0.00000000,0.00000000,0.00000002,0,0,0,0,0,0,0.00000000,0.00000000,0.00000001,0.41566811,0.43012860,0.56251837
55085,0,USWisconsinOneida,Wisconsin,Oneida,2020-07-17 08:41:24.889911,2020-03-29 00:00:00.000000,0.00000000,0.00000000,0.00000000,0,0,0,0,0,0,0.00000000,0.00000000,0.00000000,0.41084822,0.43724622,0.54935281
55085,0,USWisconsinOneida,Wisconsin,Oneida,2020-07-17 08:41:24.889911,2020-03-30 00:00:00.000000,0.00000000,0.00000000,0.00000002,0,0,0,0,0,0,0.00000000,0.00000000,0.00000001,0.41494301,0.44156853,0.53478672
55085,0,USWisconsinOneida,Wisconsin,Oneida,2020-07-17 08:41:24.889911,2020-03-31 00:00:00.000000,0.00000000,0.00000000,0.00000000,0,0,0,0,0,0,0.00000000,0.00000000,0.00000000,0.41560133,0.44406518,0.52240757
55085,0,USWisconsinOneida,Wisconsin,Oneida,2020-07-17 08:41:24.889911,2020-04-01 00:00:00.000000,0.00000000,0.00000000,0.00000002,0,0,0,0,0,0,0.00000000,0.00000000,0.00000001,0.41059865,0.44571498,0.51391577
55085,0,USWisconsinOneida,Wisconsin,Oneida,2020-07-17 08:41:24.889911,2020-04-02 00:00:00.000000,0.00000000,0.00000000,0.00000000,0,0,0,0,0,0,0.00000000,0.00000000,0.00000000,0.40453639,0.44844639,0.50879595
55085,0,USWisconsinOneida,Wisconsin,Oneida,2020-07-17 08:41:24.889911,2020-04-03 00:00:00.000000,0.00000000,0.00000000,0.00000002,0,0,0,0,0,0,0.00000000,0.00000000,0.00000001,0.39794387,0.45912246,0.50574342
55085,0,USWisconsinOneida,Wisconsin,Oneida,2020-07-17 08:41:24.889911,2020-04-04 00:00:00.000000,0.00000000,0.00000000,0.00000000,0,0,0,0,0,0,0.00000000,0.00000000,0.00000000,0.39194119,0.48183176,0.50360484
55085,0,USWisconsinOneida,Wisconsin,Oneida,2020-07-17 08:41:24.889911,2020-04-05 00:00:00.000000,0.00000000,0.00000000,0.00000001,0,0,0,0,0,0,0.00000000,0.00000000,0.00000001,0.38851518,0.49390744,0.50153945
55085,0,USWisconsinOneida,Wisconsin,Oneida,2020-07-17 08:41:24.889911,2020-04-06 00:00:00.000000,0.00000000,0.00000000,0.00000000,0,0,0,0,0,0,0.00000000,0.00000000,0.00000000,0.39067692,0.49408534,0.49891631
55085,0,USWisconsinOneida,Wisconsin,Oneida,2020-07-17 08:41:24.889911,2020-04-07 00:00:00.000000,0.00000000,0.00000000,0.00000001,0,0,0,0,0,0,0.00000000,0.00000000,0.00000001,0.40042927,0.48753624,0.49527761
55085,0,USWisconsinOneida,Wisconsin,Oneida,2020-07-17 08:41:24.889911,2020-04-08 00:00:00.000000,0.00000000,0.00000000,0.00000000,0,0,0,0,0,0,0.00000000,0.00000000,0.00000000,0.41324413,0.47206092,0.49049415
55085,0,USWisconsinOneida,Wisconsin,Oneida,2020-07-17 08:41:24.889911,2020-04-09 00:00:00.000000,0.00000000,0.00000000,0.00000001,0,0,0,0,0,0,0.00000000,0.00000000,0.00000001,0.42165529,0.44799279,0.48520300
55085,0,USWisconsinOneida,Wisconsin,Oneida,2020-07-17 08:41:24.889911,2020-04-10 00:00:00.000000,0.00000000,0.00000000,0.00000000,0,0,0,0,0,0,0.00000000,0.00000000,0.00000000,0.42487781,0.42561828,0.48246195
55085,0,USWisconsinOneida,Wisconsin,Oneida,2020-07-17 08:41:24.889911,2020-04-11 00:00:00.000000,0.00000000,0.00000000,0.00000001,0,0,0,0,0,0,0.00000000,0.00000000,0.00000001,0.41264548,0.42568985,0.49692257
55085,0,USWisconsinOneida,Wisconsin,Oneida,2020-07-17 08:41:24.889911,2020-04-12 00:00:00.000000,0.00000000,0.00000000,0.00000000,0,0,0,0,0,0,0.00000000,0.00000000,0.00000000,0.40673850,0.42561350,0.54111879
55085,0,USWisconsinOneida,Wisconsin,Oneida,2020-07-17 08:41:24.889911,2020-04-13 00:00:00.000000,0.00000000,0.00000000,0.00000001,0,0,0,0,0,0,0.00000000,0.00000000,0.00000000,0.40362131,0.42549840,0.56134810
55085,0,USWisconsinOneida,Wisconsin,Oneida,2020-07-17 08:41:24.889911,2020-04-14 00:00:00.000000,0.00000000,0.00000000,0.00000000,0,0,0,0,0,0,0.00000000,0.00000000,0.00000000,0.40056033,0.42559816,0.56318805
55085,0,USWisconsinOneida,Wisconsin,Oneida,2020-07-17 08:41:24.889911,2020-04-15 00:00:00.000000,0.00000000,0.00000000,0.00000001,0,0,0,0,0,0,0.00000000,0.00000000,0.00000000,0.39568350,0.42602535,0.56249128
55085,0,USWisconsinOneida,Wisconsin,Oneida,2020-07-17 08:41:24.889911,2020-04-16 00:00:00.000000,0.00000000,0.00000000,0.00000000,0,0,0,0,0,0,0.00000000,0.00000000,0.00000000,0.38748719,0.42686664,0.56134328
55085,0,USWisconsinOneida,Wisconsin,Oneida,2020-07-17 08:41:24.889911,2020-04-17 00:00:00.000000,0.00000000,0.00000000,0.00000001,0,0,0,0,0,0,0.00000000,0.00000000,0.00000000,0.37569890,0.42819618,0.55669942
55085,0,USWisconsinOneida,Wisconsin,Oneida,2020-07-17 08:41:24.889911,2020-04-18 00:00:00.000000,0.00000000,0.00000000,0.00000000,0,0,0,0,0,0,0.00000000,0.00000000,0.00000000,0.36257290,0.43001240,0.53132170
55085,0,USWisconsinOneida,Wisconsin,Oneida,2020-07-17 08:41:24.889911,2020-04-19 00:00:00.000000,0.00000000,0.00000000,0.00000000,0,0,0,0,0,0,0.00000000,0.00000000,0.00000000,0.35158860,0.43208220,0.47015955
55085,0,USWisconsinOneida,Wisconsin,Oneida,2020-07-17 08:41:24.889911,2020-04-20 00:00:00.000000,0.00000000,0.00000000,0.00000000,0,0,0,0,0,0,0.00000000,0.00000000,0.00000000,0.34434477,0.43370802,0.46128342
55085,0,USWisconsinOneida,Wisconsin,Oneida,2020-07-17 08:41:24.889911,2020-04-21 00:00:00.000000,0.00000000,0.00000000,0.00000000,0,0,0,0,0,0,0.00000000,0.00000000,0.00000000,0.34013703,0.43015860,0.46162063
55085,0,USWisconsinOneida,Wisconsin,Oneida,2020-07-17 08:41:24.889911,2020-04-22 00:00:00.000000,0.00000000,0.00000000,0.00000000,0,0,0,0,0,0,0.00000000,0.00000000,0.00000000,0.33744465,0.42894086,0.46127173
55085,0,USWisconsinOneida,Wisconsin,Oneida,2020-07-17 08:41:24.889911,2020-04-23 00:00:00.000000,0.00000000,0.00000000,0.00000000,0,0,0,0,0,0,0.00000000,0.00000000,0.00000000,0.33457602,0.41792206,0.45954577
55085,0,USWisconsinOneida,Wisconsin,Oneida,2020-07-17 08:41:24.889911,2020-04-24 00:00:00.000000,0.00000000,0.00000000,0.00000000,0,0,0,0,0,0,0.00000000,0.00000000,0.00000000,0.32918883,0.40041714,0.45434437
55085,0,USWisconsinOneida,Wisconsin,Oneida,2020-07-17 08:41:24.889911,2020-04-25 00:00:00.000000,0.00000000,0.00000000,0.00000000,0,0,0,0,0,0,0.00000000,0.00000000,0.00000000,0.31776953,0.38089001,0.44206496
55085,0,USWisconsinOneida,Wisconsin,Oneida,2020-07-17 08:41:24.889911,2020-04-26 00:00:00.000000,0.00000000,0.00000000,0.00000000,0,0,0,0,0,0,0.00000000,0.00000000,0.00000000,0.29830522,0.36515230,0.43364364
55085,0,USWisconsinOneida,Wisconsin,Oneida,2020-07-17 08:41:24.889911,2020-04-27 00:00:00.000000,0.00000000,0.00000000,0.00000000,0,0,0,0,0,0,0.00000000,0.00000000,0.00000000,0.27732163,0.35524161,0.44581945
55085,0,USWisconsinOneida,Wisconsin,Oneida,2020-07-17 08:41:24.889911,2020-04-28 00:00:00.000000,0.00000000,0.00000000,0.00000000,0,0,0,0,0,0,0.00000000,0.00000000,0.00000000,0.26647396,0.34969115,0.47219490
55085,0,USWisconsinOneida,Wisconsin,Oneida,2020-07-17 08:41:24.889911,2020-04-29 00:00:00.000000,0.00000000,0.00000000,0.00000000,0,0,0,0,0,0,0.00000000,0.00000000,0.00000000,0.27039270,0.34671456,0.49600964
55085,0,USWisconsinOneida,Wisconsin,Oneida,2020-07-17 08:41:24.889911,2020-04-30 00:00:00.000000,0.00000000,0.00000000,0.00000000,0,0,0,0,0,0,0.00000000,0.00000000,0.00000000,0.28677681,0.34476544,0.50548959
55085,0,USWisconsinOneida,Wisconsin,Oneida,2020-07-17 08:41:24.889911,2020-05-01 00:00:00.000000,0.00000000,0.00000000,0.00000000,0,0,0,0,0,0,0.00000000,0.00000000,0.00000000,0.30810385,0.34284918,0.50800060
55085,0,USWisconsinOneida,Wisconsin,Oneida,2020-07-17 08:41:24.889911,2020-05-02 00:00:00.000000,0.00000000,0.00000000,0.00000000,0,0,0,0,0,0,0.00000000,0.00000000,0.00000000,0.32538880,0.34040086,0.50857987
55085,0,USWisconsinOneida,Wisconsin,Oneida,2020-07-17 08:41:24.889911,2020-05-03 00:00:00.000000,0.00000000,0.00000000,0.00000000,0,0,0,0,0,0,0.00000000,0.00000000,0.00000000,0.33555779,0.33665204,0.50871542
55085,0,USWisconsinOneida,Wisconsin,Oneida,2020-07-17 08:41:24.889911,2020-05-04 00:00:00.000000,0.00000000,0.00000000,0.00000000,0,0,0,0,0,0,0.00000000,0.00000000,0.00000000,0.33153709,0.34058019,0.50943362
55085,0,USWisconsinOneida,Wisconsin,Oneida,2020-07-17 08:41:24.889911,2020-05-05 00:00:00.000000,0.00000000,0.00000000,0.00000000,0,0,0,0,0,0,0.00000000,0.00000000,0.00000000,0.32598561,0.34302822,0.52258361
55085,0,USWisconsinOneida,Wisconsin,Oneida,2020-07-17 08:41:24.889911,2020-05-06 00:00:00.000000,0.00000000,0.00000000,0.00000000,0,0,0,0,0,0,0.00000000,0.00000000,0.00000000,0.32124327,0.34461548,0.59823738
55085,0,USWisconsinOneida,Wisconsin,Oneida,2020-07-17 08:41:24.889911,2020-05-07 00:00:00.000000,0.00000000,0.00000000,0.00000000,0,0,0,0,0,0,0.00000000,0.00000000,0.00000000,0.31883844,0.34648773,0.63131276
55085,0,USWisconsinOneida,Wisconsin,Oneida,2020-07-17 08:41:24.889911,2020-05-08 00:00:00.000000,0.00000000,0.00000000,0.00000000,0,0,0,0,0,0,0.00000000,0.00000000,0.00000000,0.31966845,0.34956003,0.63233542
55085,0,USWisconsinOneida,Wisconsin,Oneida,2020-07-17 08:41:24.889911,2020-05-09 00:00:00.000000,0.00000000,0.00000000,0.00000000,0,0,0,0,0,0,0.00000000,0.00000000,0.00000000,0.32335213,0.35414095,0.63010695
55085,0,USWisconsinOneida,Wisconsin,Oneida,2020-07-17 08:41:24.889911,2020-05-10 00:00:00.000000,0.00000000,0.00000000,0.00000000,0,0,0,0,0,0,0.00000000,0.00000000,0.00000000,0.32748851,0.35916609,0.62664393
55085,0,USWisconsinOneida,Wisconsin,Oneida,2020-07-17 08:41:24.889911,2020-05-11 00:00:00.000000,0.00000000,0.00000000,0.00000000,0,0,0,0,0,0,0.00000000,0.00000000,0.00000000,0.32415080,0.36308358,0.62254647
55085,0,USWisconsinOneida,Wisconsin,Oneida,2020-07-17 08:41:24.889911,2020-05-12 00:00:00.000000,0.00000000,0.00000000,0.00000000,0,0,0,0,0,0,0.00000000,0.00000000,0.00000000,0.32210101,0.36566333,0.61883291
55085,0,USWisconsinOneida,Wisconsin,Oneida,2020-07-17 08:41:24.889911,2020-05-13 00:00:00.000000,0.00000000,0.00000000,0.00000000,0,0,0,0,0,0,0.00000000,0.00000000,0.00000000,0.32097171,0.36806346,0.61573019
55085,0,USWisconsinOneida,Wisconsin,Oneida,2020-07-17 08:41:24.889911,2020-05-14 00:00:00.000000,0.00000000,0.00000000,0.00000000,0,0,0,0,0,0,0.00000000,0.00000000,0.00000000,0.32089412,0.37258886,0.61299063
55085,0,USWisconsinOneida,Wisconsin,Oneida,2020-07-17 08:41:24.889911,2020-05-15 00:00:00.000000,0.00000000,0.00000000,0.00000000,0,0,0,0,0,0,0.00000000,0.00000000,0.00000000,0.32605009,0.38249095,0.60928990
55085,0,USWisconsinOneida,Wisconsin,Oneida,2020-07-17 08:41:24.889911,2020-05-16 00:00:00.000000,0.00000000,0.00000000,0.00000000,0,0,0,0,0,0,0.00000000,0.00000000,0.00000000,0.33603180,0.39717602,0.60162603
55085,0,USWisconsinOneida,Wisconsin,Oneida,2020-07-17 08:41:24.889911,2020-05-17 00:00:00.000000,0.00000000,0.00000000,0.00000000,0,0,0,0,0,0,0.00000000,0.00000000,0.00000000,0.33806585,0.40885035,0.58640272
55085,0,USWisconsinOneida,Wisconsin,Oneida,2020-07-17 08:41:24.889911,2020-05-18 00:00:00.000000,0.00000000,0.00000000,0.00000000,0,0,0,0,0,0,0.00000000,0.00000000,0.00000000,0.33786342,0.41413389,0.56622939
55085,0,USWisconsinOneida,Wisconsin,Oneida,2020-07-17 08:41:24.889911,2020-05-19 00:00:00.000000,0.00000000,0.00000000,0.00000000,0,0,0,0,0,0,0.00000000,0.00000000,0.00000000,0.33677616,0.41547735,0.54888835
55085,0,USWisconsinOneida,Wisconsin,Oneida,2020-07-17 08:41:24.889911,2020-05-20 00:00:00.000000,0.00000000,0.00000000,0.00000000,0,0,0,0,0,0,0.00000000,0.00000000,0.00000000,0.33368482,0.41467217,0.53357365
55085,0,USWisconsinOneida,Wisconsin,Oneida,2020-07-17 08:41:24.889911,2020-05-21 00:00:00.000000,0.00000000,0.00000000,0.00000000,0,0,0,0,0,0,0.00000000,0.00000000,0.00000000,0.32592344,0.41168601,0.51371421
55085,0,USWisconsinOneida,Wisconsin,Oneida,2020-07-17 08:41:24.889911,2020-05-22 00:00:00.000000,0.00000000,0.00000000,0.00000000,0,0,0,0,0,0,0.00000000,0.00000000,0.00000000,0.30929955,0.40516706,0.48463624
55085,0,USWisconsinOneida,Wisconsin,Oneida,2020-07-17 08:41:24.889911,2020-05-23 00:00:00.000000,0.00000000,0.00000000,0.00000000,0,0,0,0,0,0,0.00000000,0.00000000,0.00000000,0.28799533,0.39339108,0.44757800
55085,0,USWisconsinOneida,Wisconsin,Oneida,2020-07-17 08:41:24.889911,2020-05-24 00:00:00.000000,0.00000000,0.00000000,0.00000000,0,0,0,0,0,0,0.00000000,0.00000000,0.00000000,0.27238311,0.37684322,0.41057134
55085,0,USWisconsinOneida,Wisconsin,Oneida,2020-07-17 08:41:24.889911,2020-05-25 00:00:00.000000,0.00000000,0.00000000,0.00000000,0,0,0,0,0,0,0.00000000,0.00000000,0.00000000,0.26554352,0.36013604,0.38194094
55085,0,USWisconsinOneida,Wisconsin,Oneida,2020-07-17 08:41:24.889911,2020-05-26 00:00:00.000000,0.00000000,0.00000000,0.00000000,0,0,0,0,0,0,0.00000000,0.00000000,0.00000000,0.26447639,0.34805098,0.36409085
55085,0,USWisconsinOneida,Wisconsin,Oneida,2020-07-17 08:41:24.889911,2020-05-27 00:00:00.000000,0.00000000,0.00000000,0.00000000,0,0,0,0,0,0,0.00000000,0.00000000,0.00000000,0.26697953,0.34128018,0.35543950
55085,0,USWisconsinOneida,Wisconsin,Oneida,2020-07-17 08:41:24.889911,2020-05-28 00:00:00.000000,0.00000000,0.00000000,0.00000000,0,0,0,0,0,0,0.00000000,0.00000000,0.00000000,0.27239927,0.33808370,0.35672068
55085,0,USWisconsinOneida,Wisconsin,Oneida,2020-07-17 08:41:24.889911,2020-05-29 00:00:00.000000,0.00000000,0.00000000,0.00000000,0,0,0,0,0,0,0.00000000,0.00000000,0.00000000,0.28065431,0.33685541,0.37670608
55085,0,USWisconsinOneida,Wisconsin,Oneida,2020-07-17 08:41:24.889911,2020-05-30 00:00:00.000000,0.00000000,0.00000000,0.00000000,0,0,0,0,0,0,0.00000000,0.00000000,0.00000000,0.29112763,0.33684483,0.41125651
55085,0,USWisconsinOneida,Wisconsin,Oneida,2020-07-17 08:41:24.889911,2020-05-31 00:00:00.000000,0.00000000,0.00000000,0.00000000,0,0,0,0,0,0,0.00000000,0.00000000,0.00000000,0.30262710,0.33822992,0.43021250
55085,0,USWisconsinOneida,Wisconsin,Oneida,2020-07-17 08:41:24.889911,2020-06-01 00:00:00.000000,0.00000000,0.00000000,0.00000000,0,0,0,0,0,0,0.00000000,0.00000000,0.00000000,0.31056152,0.34219849,0.43514250
55085,0,USWisconsinOneida,Wisconsin,Oneida,2020-07-17 08:41:24.889911,2020-06-02 00:00:00.000000,0.00000000,0.00000000,0.00000000,0,0,0,0,0,0,0.00000000,0.00000000,0.00000000,0.26460216,0.34906262,0.43611602
55085,0,USWisconsinOneida,Wisconsin,Oneida,2020-07-17 08:41:24.889911,2020-06-03 00:00:00.000000,0.00000000,0.00000000,0.00000000,0,0,0,0,0,0,0.00000000,0.00000000,0.00000000,0.25768026,0.35640721,0.43641509
55085,0,USWisconsinOneida,Wisconsin,Oneida,2020-07-17 08:41:24.889911,2020-06-04 00:00:00.000000,0.00000000,0.00000000,0.00000000,0,0,0,0,0,0,0.00000000,0.00000000,0.00000000,0.25758466,0.36374314,0.43694986
55085,0,USWisconsinOneida,Wisconsin,Oneida,2020-07-17 08:41:24.889911,2020-06-05 00:00:00.000000,0.00000000,0.00000000,0.00000000,0,0,0,0,0,0,0.00000000,0.00000000,0.00000000,0.25759975,0.37132447,0.43778320
55085,0,USWisconsinOneida,Wisconsin,Oneida,2020-07-17 08:41:24.889911,2020-06-06 00:00:00.000000,0.00000000,0.00000000,0.00000000,0,0,0,0,0,0,0.00000000,0.00000000,0.00000000,0.25763150,0.37812866,0.45818210
55085,0,USWisconsinOneida,Wisconsin,Oneida,2020-07-17 08:41:24.889911,2020-06-07 00:00:00.000000,0.00000000,0.00000000,0.00000000,0,0,0,0,0,0,0.00000000,0.00000000,0.00000000,0.25769580,0.38303818,0.52136919
55085,0,USWisconsinOneida,Wisconsin,Oneida,2020-07-17 08:41:24.889911,2020-06-08 00:00:00.000000,0.00000000,0.00000000,0.00000000,0,0,0,0,0,0,0.00000000,0.00000000,0.00000000,0.25782749,0.38546465,0.54779472
55085,0,USWisconsinOneida,Wisconsin,Oneida,2020-07-17 08:41:24.889911,2020-06-09 00:00:00.000000,0.00000000,0.00000000,0.00000000,0,0,0,0,0,0,0.00000000,0.00000000,0.00000000,0.25809726,0.38431064,0.55137692
55085,0,USWisconsinOneida,Wisconsin,Oneida,2020-07-17 08:41:24.889911,2020-06-10 00:00:00.000000,0.00000000,0.00000000,0.00000000,0,0,0,0,0,0,0.00000000,0.00000000,0.00000000,0.25864718,0.37681593,0.54509953
55085,0,USWisconsinOneida,Wisconsin,Oneida,2020-07-17 08:41:24.889911,2020-06-11 00:00:00.000000,0.00000000,0.00000000,0.00000000,0,0,0,0,0,0,0.00000000,0.00000000,0.00000000,0.25975511,0.36371113,0.53374066
55085,0,USWisconsinOneida,Wisconsin,Oneida,2020-07-17 08:41:24.889911,2020-06-12 00:00:00.000000,0.00000000,0.00000000,0.00000000,0,0,0,0,0,0,0.00000000,0.00000000,0.00000000,0.26193503,0.35402686,0.51971302
55085,0,USWisconsinOneida,Wisconsin,Oneida,2020-07-17 08:41:24.889911,2020-06-13 00:00:00.000000,0.00000000,0.00000000,0.00000000,0,0,0,0,0,0,0.00000000,0.00000000,0.00000000,0.26603027,0.35028869,0.50566747
55085,0,USWisconsinOneida,Wisconsin,Oneida,2020-07-17 08:41:24.889911,2020-06-14 00:00:00.000000,0.00000000,0.00000000,0.00000000,0,0,0,0,0,0,0.00000000,0.00000000,0.00000000,0.27308012,0.34927952,0.49362723
55085,0,USWisconsinOneida,Wisconsin,Oneida,2020-07-17 08:41:24.889911,2020-06-15 00:00:00.000000,0.00000000,0.00000000,0.00000000,0,0,0,0,0,0,0.00000000,0.00000000,0.00000000,0.28362825,0.34920968,0.48648067
55085,0,USWisconsinOneida,Wisconsin,Oneida,2020-07-17 08:41:24.889911,2020-06-16 00:00:00.000000,0.00000000,0.00000000,0.00000000,0,0,0,0,0,0,0.00000000,0.00000000,0.00000000,0.29646711,0.34981296,0.48423702
55085,0,USWisconsinOneida,Wisconsin,Oneida,2020-07-17 08:41:24.889911,2020-06-17 00:00:00.000000,0.00000000,0.00000000,0.00000000,0,0,0,0,0,0,0.00000000,0.00000000,0.00000000,0.30865447,0.35199941,0.48369613
55085,0,USWisconsinOneida,Wisconsin,Oneida,2020-07-17 08:41:24.889911,2020-06-18 00:00:00.000000,0.00000000,0.00000000,0.00000000,0,0,0,0,0,0,0.00000000,0.00000000,0.00000000,0.31775836,0.35895725,0.48530593
55085,0,USWisconsinOneida,Wisconsin,Oneida,2020-07-17 08:41:24.889911,2020-06-19 00:00:00.000000,0.00000000,0.00000000,0.00000000,0,0,0,0,0,0,0.00000000,0.00000000,0.00000000,0.32344356,0.37825138,0.48707068
55085,0,USWisconsinOneida,Wisconsin,Oneida,2020-07-17 08:41:24.889911,2020-06-20 00:00:00.000000,0.00000000,0.00000000,0.00000000,0,0,0,0,0,0,0.00000000,0.00000000,0.00000000,0.32666300,0.37627813,0.48794878
55085,0,USWisconsinOneida,Wisconsin,Oneida,2020-07-17 08:41:24.889911,2020-06-21 00:00:00.000000,0.00000000,0.00000000,0.00000000,0,0,0,0,0,0,0.00000000,0.00000000,0.00000000,0.32955978,0.36731792,0.48827977
55085,0,USWisconsinOneida,Wisconsin,Oneida,2020-07-17 08:41:24.889911,2020-06-22 00:00:00.000000,0.00000000,0.00000000,0.00000000,0,0,0,0,0,0,0.00000000,0.00000000,0.00000000,0.34911195,0.35684258,0.48835011
55085,0,USWisconsinOneida,Wisconsin,Oneida,2020-07-17 08:41:24.889911,2020-06-23 00:00:00.000000,0.00000000,0.00000000,0.00000000,0,0,0,0,0,0,0.00000000,0.00000000,0.00000000,0.34575881,0.39598030,0.49316904
55085,0,USWisconsinOneida,Wisconsin,Oneida,2020-07-17 08:41:24.889911,2020-06-24 00:00:00.000000,0.00000000,0.00000000,0.00000000,0,0,0,0,0,0,0.00000000,0.00000000,0.00000000,0.33530727,0.40462275,0.49470997
55085,0,USWisconsinOneida,Wisconsin,Oneida,2020-07-17 08:41:24.889911,2020-06-25 00:00:00.000000,0.00000000,0.00000000,0.00000000,0,0,0,0,0,0,0.00000000,0.00000000,0.00000000,0.32582929,0.40487217,0.49176912
55085,0,USWisconsinOneida,Wisconsin,Oneida,2020-07-17 08:41:24.889911,2020-06-26 00:00:00.000000,0.00000000,0.00000000,0.00000000,0,0,0,0,0,0,0.00000000,0.00000000,0.00000000,0.31702276,0.40407051,0.48468650
55085,0,USWisconsinOneida,Wisconsin,Oneida,2020-07-17 08:41:24.889911,2020-06-27 00:00:00.000000,0.00000000,0.00000000,0.00000000,0,0,0,0,0,0,0.00000000,0.00000000,0.00000000,0.30886255,0.40201972,0.47547131
55085,0,USWisconsinOneida,Wisconsin,Oneida,2020-07-17 08:41:24.889911,2020-06-28 00:00:00.000000,0.00000000,0.00000000,0.00000000,0,0,0,0,0,0,0.00000000,0.00000000,0.00000000,0.30233659,0.39767856,0.46827108
55085,0,USWisconsinOneida,Wisconsin,Oneida,2020-07-17 08:41:24.889911,2020-06-29 00:00:00.000000,0.00000000,0.00000000,0.00000000,0,0,0,0,0,0,0.00000000,0.00000000,0.00000000,0.29817300,0.39044219,0.46451159
55085,0,USWisconsinOneida,Wisconsin,Oneida,2020-07-17 08:41:24.889911,2020-06-30 00:00:00.000000,0.00000000,0.00000000,0.00000000,0,0,0,0,0,0,0.00000000,0.00000000,0.00000000,0.29596279,0.38203997,0.46299177
55085,0,USWisconsinOneida,Wisconsin,Oneida,2020-07-17 08:41:24.889911,2020-07-01 00:00:00.000000,0.00000000,0.00000000,0.00000000,0,0,0,0,0,0,0.00000000,0.00000000,0.00000000,0.29498084,0.37563876,0.46256431
55085,0,USWisconsinOneida,Wisconsin,Oneida,2020-07-17 08:41:24.889911,2020-07-02 00:00:00.000000,0.00000000,0.00000000,0.00000000,0,0,0,0,0,0,0.00000000,0.00000000,0.00000000,0.29482381,0.37238485,0.46281788
55085,0,USWisconsinOneida,Wisconsin,Oneida,2020-07-17 08:41:24.889911,2020-07-03 00:00:00.000000,0.00000000,0.00000000,0.00000000,0,0,0,0,0,0,0.00000000,0.00000000,0.00000000,0.29551587,0.37184100,0.46402521
55085,0,USWisconsinOneida,Wisconsin,Oneida,2020-07-17 08:41:24.889911,2020-07-04 00:00:00.000000,0.00000000,0.00000000,0.00000000,0,0,0,0,0,0,0.00000000,0.00000000,0.00000000,0.29748703,0.37394530,0.46737849
55085,0,USWisconsinOneida,Wisconsin,Oneida,2020-07-17 08:41:24.889911,2020-07-05 00:00:00.000000,0.00000000,0.00000000,0.00000000,0,0,0,0,0,0,0.00000000,0.00000000,0.00000000,0.30124093,0.37854376,0.47545867
55085,0,USWisconsinOneida,Wisconsin,Oneida,2020-07-17 08:41:24.889911,2020-07-06 00:00:00.000000,0.00000000,0.00000000,0.00000000,0,0,0,0,0,0,0.00000000,0.00000000,0.00000000,0.30644888,0.38324819,0.49108710
55085,0,USWisconsinOneida,Wisconsin,Oneida,2020-07-17 08:41:24.889911,2020-07-07 00:00:00.000000,0.00000000,0.00000000,0.00000000,0,0,0,0,0,0,0.00000000,0.00000000,0.00000000,0.31149501,0.38591903,0.51175813
55085,0,USWisconsinOneida,Wisconsin,Oneida,2020-07-17 08:41:24.889911,2020-07-08 00:00:00.000000,0.00000000,0.00000000,0.00000000,0,0,0,0,0,0,0.00000000,0.00000000,0.00000000,0.31490098,0.38698352,0.52873603
55085,0,USWisconsinOneida,Wisconsin,Oneida,2020-07-17 08:41:24.889911,2020-07-09 00:00:00.000000,0.00000000,0.00000000,0.00000000,0,0,0,0,0,0,0.00000000,0.00000000,0.00000000,0.31669279,0.38734597,0.53802688
55085,0,USWisconsinOneida,Wisconsin,Oneida,2020-07-17 08:41:24.889911,2020-07-10 00:00:00.000000,0.00000000,0.00000000,0.00000000,0,0,0,0,0,0,0.00000000,0.00000000,0.00000000,0.31750972,0.38746252,0.54201831
55085,0,USWisconsinOneida,Wisconsin,Oneida,2020-07-17 08:41:24.889911,2020-07-11 00:00:00.000000,0.00000000,0.00000000,0.00000000,0,0,0,0,0,0,0.00000000,0.00000000,0.00000000,0.31785815,0.38749927,0.54355274
55085,0,USWisconsinOneida,Wisconsin,Oneida,2020-07-17 08:41:24.889911,2020-07-12 00:00:00.000000,0.00000000,0.00000000,0.00000000,0,0,0,0,0,0,0.00000000,0.00000000,0.00000000,0.31800227,0.38751077,0.54411714
55085,0,USWisconsinOneida,Wisconsin,Oneida,2020-07-17 08:41:24.889911,2020-07-13 00:00:00.000000,0.00000000,0.00000000,0.00000000,0,0,0,0,0,0,0.00000000,0.00000000,0.00000000,0.31806102,0.38751436,0.54432134
55085,0,USWisconsinOneida,Wisconsin,Oneida,2020-07-17 08:41:24.889911,2020-07-14 00:00:00.000000,0.00000000,0.00000000,0.00000000,0,0,0,0,0,0,0.00000000,0.00000000,0.00000000,0.31808476,0.38751547,0.54439479
55085,0,USWisconsinOneida,Wisconsin,Oneida,2020-07-17 08:41:24.889911,2020-07-15 00:00:00.000000,0.00000000,0.00000000,0.00000000,0,0,0,0,0,0,0.00000000,0.00000000,0.00000000,0.31809430,0.38751582,0.54442114
55085,0,USWisconsinOneida,Wisconsin,Oneida,2020-07-17 08:41:24.889911,2020-07-16 00:00:00.000000,0.00000000,0.00000000,0.00000000,0,0,0,0,0,0,0.00000000,0.00000000,0.00000000,0.31809809,0.38751593,0.54443060
55085,0,USWisconsinOneida,Wisconsin,Oneida,2020-07-17 08:41:24.889911,2020-07-17 00:00:00.000000,0.00000000,0.00000000,0.00000000,0,0,0,0,0,0,0.00000000,0.00000000,0.00000000,0.31809958,0.38751596,0.54443398
55085,0,USWisconsinOneida,Wisconsin,Oneida,2020-07-17 08:41:24.889911,2020-07-18 00:00:00.000000,0.00000000,0.00000000,0.00000000,0,0,0,0,0,0,0.00000000,0.00000000,0.00000000,0.31810015,0.38751597,0.54443520
55085,0,USWisconsinOneida,Wisconsin,Oneida,2020-07-17 08:41:24.889911,2020-07-19 00:00:00.000000,0.00000000,0.00000000,0.00000000,0,0,0,0,0,0,0.00000000,0.00000000,0.00000000,0.31810037,0.38751597,0.54443563
55085,0,USWisconsinOneida,Wisconsin,Oneida,2020-07-17 08:41:24.889911,2020-07-20 00:00:00.000000,0.00000000,0.00000000,0.00000000,0,0,0,0,0,0,0.00000000,0.00000000,0.00000000,0.31810045,0.38751597,0.54443579
55085,0,USWisconsinOneida,Wisconsin,Oneida,2020-07-17 08:41:24.889911,2020-07-21 00:00:00.000000,0.00000000,0.00000000,0.00000000,0,0,0,0,0,0,0.00000000,0.00000000,0.00000000,0.31810047,0.38751597,0.54443585
55085,0,USWisconsinOneida,Wisconsin,Oneida,2020-07-17 08:41:24.889911,2020-07-22 00:00:00.000000,0.00000000,0.00000000,0.00000000,0,0,0,0,0,0,0.00000000,0.00000000,0.00000000,0.31810048,0.38751597,0.54443587
55085,0,USWisconsinOneida,Wisconsin,Oneida,2020-07-17 08:41:24.889911,2020-07-23 00:00:00.000000,0.00000000,0.00000000,0.00000000,0,0,0,0,0,0,0.00000000,0.00000000,0.00000000,0.31810048,0.38751597,0.54443587
55085,0,USWisconsinOneida,Wisconsin,Oneida,2020-07-17 08:41:24.889911,2020-07-24 00:00:00.000000,0.00000000,0.00000000,0.00000000,0,0,0,0,0,0,0.00000000,0.00000000,0.00000000,0.31810047,0.38751597,0.54443588
55085,0,USWisconsinOneida,Wisconsin,Oneida,2020-07-17 08:41:24.889911,2020-07-25 00:00:00.000000,0.00000000,0.00000000,0.00000000,0,0,0,0,0,0,0.00000000,0.00000000,0.00000000,0.31810047,0.38751597,0.54443588
55085,0,USWisconsinOneida,Wisconsin,Oneida,2020-07-17 08:41:24.889911,2020-07-26 00:00:00.000000,0.00000000,0.00000000,0.00000000,0,0,0,0,0,0,0.00000000,0.00000000,0.00000000,0.31810047,0.38751597,0.54443588
55085,0,USWisconsinOneida,Wisconsin,Oneida,2020-07-17 08:41:24.889911,2020-07-27 00:00:00.000000,0.00000000,0.00000000,0.00000000,0,0,0,0,0,0,0.00000000,0.00000000,0.00000000,0.31810047,0.38751597,0.54443588
55085,0,USWisconsinOneida,Wisconsin,Oneida,2020-07-17 08:41:24.889911,2020-07-28 00:00:00.000000,0.00000000,0.00000000,0.00000000,0,0,0,0,0,0,0.00000000,0.00000000,0.00000000,0.31810047,0.38751597,0.54443588
55085,0,USWisconsinOneida,Wisconsin,Oneida,2020-07-17 08:41:24.889911,2020-07-29 00:00:00.000000,0.00000000,0.00000000,0.00000000,0,0,0,0,0,0,0.00000000,0.00000000,0.00000000,0.31810047,0.38751597,0.54443588
