FIPS,HR_UID,nameid,province,region,analysisTime,dates,pointprevalence_025,pointprevalence_50,pointprevalence_975,pointinfections_025,pointinfections_50,pointinfections_975,pointinfectious_025,pointinfectious_50,pointinfectious_975,pointinfectiousprevalence_05,pointinfectiousprevalence_50,pointinfectiousprevalence_95,infectrate_025,infectrate_50,infectrate_975
13225,0,USGeorgiaPeach,Georgia,Peach,2020-07-18 17:55:43.225821,2020-03-09 00:00:00.000000,0.00803923,0.04844724,0.19848025,2,13,54,0,4,16,0.00136321,0.01597586,0.06017554,0.45782170,0.69516907,1.03166667
13225,0,USGeorgiaPeach,Georgia,Peach,2020-07-18 17:55:43.225821,2020-03-10 00:00:00.000000,0.00997717,0.04734210,0.25253370,2,13,69,0,4,13,0.00177086,0.01740931,0.04891868,0.45776952,0.69516806,1.03154064
13225,0,USGeorgiaPeach,Georgia,Peach,2020-07-18 17:55:43.225821,2020-03-11 00:00:00.000000,0.01066216,0.05349021,0.31089684,2,14,85,0,5,15,0.00074635,0.02020446,0.05595451,0.45767041,0.69516494,1.03134954
13225,0,USGeorgiaPeach,Georgia,Peach,2020-07-18 17:55:43.225821,2020-03-12 00:00:00.000000,0.01485236,0.05426336,0.25436093,4,14,70,0,5,15,0.00197708,0.02149170,0.05801151,0.45748293,0.69515530,1.03105947
13225,0,USGeorgiaPeach,Georgia,Peach,2020-07-18 17:55:43.225821,2020-03-13 00:00:00.000000,0.01188004,0.06000343,0.32052390,3,16,88,0,6,17,0.00076584,0.02407315,0.06333653,0.45739942,0.69512555,1.03061837
13225,0,USGeorgiaPeach,Georgia,Peach,2020-07-18 17:55:43.225821,2020-03-14 00:00:00.000000,0.01749382,0.06035047,0.25131888,4,16,69,0,7,18,0.00279529,0.02563052,0.06540523,0.45756412,0.69953516,1.02994526
13225,0,USGeorgiaPeach,Georgia,Peach,2020-07-18 17:55:43.225821,2020-03-15 00:00:00.000000,0.01244827,0.06778371,0.32890117,3,18,90,0,7,19,0.00114738,0.02758190,0.06963206,0.45776717,0.70876621,1.02890992
13225,0,USGeorgiaPeach,Georgia,Peach,2020-07-18 17:55:43.225821,2020-03-16 00:00:00.000000,0.02187766,0.07118205,0.26041372,6,19,71,1,7,19,0.00394425,0.02804297,0.07183287,0.45796416,0.70922614,1.02728766
13225,0,USGeorgiaPeach,Georgia,Peach,2020-07-18 17:55:43.225821,2020-03-17 00:00:00.000000,0.01345925,0.07898673,0.33558421,3,21,92,0,8,21,0.00162136,0.03088374,0.07787549,0.45802537,0.70984722,1.05139446
13225,0,USGeorgiaPeach,Georgia,Peach,2020-07-18 17:55:43.225821,2020-03-18 00:00:00.000000,0.02824763,0.08018190,0.27757527,7,22,76,1,8,23,0.00503159,0.03172981,0.08370990,0.45767324,0.69869044,1.05993720
13225,0,USGeorgiaPeach,Georgia,Peach,2020-07-18 17:55:43.225821,2020-03-19 00:00:00.000000,0.01694513,0.08467635,0.34174832,4,23,94,0,9,24,0.00210773,0.03380562,0.09002631,0.45839568,0.68776390,1.06673482
13225,0,USGeorgiaPeach,Georgia,Peach,2020-07-18 17:55:43.225821,2020-03-20 00:00:00.000000,0.03147665,0.08611686,0.29832330,8,23,82,1,9,26,0.00575735,0.03486890,0.09670647,0.42575805,0.68723271,1.07928927
13225,0,USGeorgiaPeach,Georgia,Peach,2020-07-18 17:55:43.225821,2020-03-21 00:00:00.000000,0.02191744,0.09348731,0.36304345,6,25,100,0,10,28,0.00259518,0.03772799,0.10304793,0.42380735,0.69131833,1.12898414
13225,0,USGeorgiaPeach,Georgia,Peach,2020-07-18 17:55:43.225821,2020-03-22 00:00:00.000000,0.03585037,0.10002598,0.30765882,9,27,84,1,10,30,0.00648128,0.03867469,0.10907737,0.40650231,0.69217001,1.15859046
13225,0,USGeorgiaPeach,Georgia,Peach,2020-07-18 17:55:43.225821,2020-03-23 00:00:00.000000,0.02685707,0.10599890,0.39116749,7,29,107,0,11,31,0.00316380,0.04193812,0.11511795,0.39332432,0.67915714,1.16860074
13225,0,USGeorgiaPeach,Georgia,Peach,2020-07-18 17:55:43.225821,2020-03-24 00:00:00.000000,0.04323348,0.11105884,0.33336791,11,30,91,2,11,33,0.00726944,0.04111028,0.12135237,0.38101378,0.67510374,1.17124971
13225,0,USGeorgiaPeach,Georgia,Peach,2020-07-18 17:55:43.225821,2020-03-25 00:00:00.000000,0.03368090,0.12063994,0.39645689,9,33,109,1,12,35,0.00402009,0.04480858,0.12787338,0.37297520,0.66206839,1.18121632
13225,0,USGeorgiaPeach,Georgia,Peach,2020-07-18 17:55:43.225821,2020-03-26 00:00:00.000000,0.05286794,0.12670856,0.33983977,14,34,93,2,12,37,0.00813001,0.04530305,0.13468710,0.33845112,0.65316146,1.18487307
13225,0,USGeorgiaPeach,Georgia,Peach,2020-07-18 17:55:43.225821,2020-03-27 00:00:00.000000,0.03802848,0.13920068,0.42126134,10,38,116,1,13,38,0.00450519,0.04885751,0.14075338,0.32721851,0.64229944,1.20942875
13225,0,USGeorgiaPeach,Georgia,Peach,2020-07-18 17:55:43.225821,2020-03-28 00:00:00.000000,0.05843586,0.13697983,0.36453432,16,37,100,2,13,40,0.00900182,0.05016606,0.14831327,0.31211364,0.64120264,1.20310519
13225,0,USGeorgiaPeach,Georgia,Peach,2020-07-18 17:55:43.225821,2020-03-29 00:00:00.000000,0.04634950,0.14720118,0.42652523,12,40,117,1,14,43,0.00451536,0.05429620,0.15748284,0.28470452,0.64062872,1.20385038
13225,0,USGeorgiaPeach,Georgia,Peach,2020-07-18 17:55:43.225821,2020-03-30 00:00:00.000000,0.06168406,0.15094927,0.40645541,16,41,111,2,15,46,0.00984508,0.05723808,0.16910537,0.27622063,0.64076621,1.20413611
13225,0,USGeorgiaPeach,Georgia,Peach,2020-07-18 17:55:43.225821,2020-03-31 00:00:00.000000,0.05718887,0.15927299,0.47502912,15,43,130,1,17,50,0.00608610,0.06213272,0.18499083,0.27471001,0.61461559,1.20407891
13225,0,USGeorgiaPeach,Georgia,Peach,2020-07-18 17:55:43.225821,2020-04-01 00:00:00.000000,0.06582252,0.16262855,0.45511434,18,44,125,2,17,52,0.01063918,0.06398094,0.19108852,0.27079974,0.61585537,1.20385533
13225,0,USGeorgiaPeach,Georgia,Peach,2020-07-18 17:55:43.225821,2020-04-02 00:00:00.000000,0.06452832,0.17580182,0.52852004,17,48,145,1,18,54,0.00709020,0.06837807,0.19930712,0.26388105,0.61520074,1.19092523
13225,0,USGeorgiaPeach,Georgia,Peach,2020-07-18 17:55:43.225821,2020-04-03 00:00:00.000000,0.06905328,0.17994633,0.48393591,19,49,133,3,18,59,0.01119607,0.06808198,0.21438560,0.26134405,0.60901191,1.16545872
13225,0,USGeorgiaPeach,Georgia,Peach,2020-07-18 17:55:43.225821,2020-04-04 00:00:00.000000,0.06966384,0.18923940,0.57516289,19,52,158,2,20,61,0.00777566,0.07284705,0.22362341,0.25756357,0.58942101,1.15628092
13225,0,USGeorgiaPeach,Georgia,Peach,2020-07-18 17:55:43.225821,2020-04-05 00:00:00.000000,0.06981453,0.19076184,0.48518582,19,52,133,3,21,62,0.01136760,0.07636656,0.22853883,0.25241894,0.58816113,1.12822801
13225,0,USGeorgiaPeach,Georgia,Peach,2020-07-18 17:55:43.225821,2020-04-06 00:00:00.000000,0.07030865,0.20191530,0.61502647,19,55,169,2,21,63,0.00841962,0.07869236,0.23210381,0.24906893,0.58397387,1.11010161
13225,0,USGeorgiaPeach,Georgia,Peach,2020-07-18 17:55:43.225821,2020-04-07 00:00:00.000000,0.06866628,0.20528341,0.51635726,18,56,142,3,22,64,0.01151994,0.08083910,0.23498025,0.24752850,0.55833783,1.07032142
13225,0,USGeorgiaPeach,Georgia,Peach,2020-07-18 17:55:43.225821,2020-04-08 00:00:00.000000,0.06957270,0.21510033,0.62817936,19,59,173,2,22,65,0.00913258,0.08306121,0.23748084,0.24608647,0.55531549,1.05811060
13225,0,USGeorgiaPeach,Georgia,Peach,2020-07-18 17:55:43.225821,2020-04-09 00:00:00.000000,0.06692965,0.22098885,0.53955040,18,60,148,3,23,65,0.01167175,0.08550794,0.23939342,0.22867699,0.55156318,1.05399614
13225,0,USGeorgiaPeach,Georgia,Peach,2020-07-18 17:55:43.225821,2020-04-10 00:00:00.000000,0.06924867,0.22415520,0.64660579,19,61,178,2,24,67,0.01011186,0.08794822,0.24389593,0.22712207,0.52947506,1.06118428
13225,0,USGeorgiaPeach,Georgia,Peach,2020-07-18 17:55:43.225821,2020-04-11 00:00:00.000000,0.06591315,0.22557323,0.56288879,18,62,155,3,24,68,0.01174254,0.09021744,0.24904722,0.22890296,0.52573507,1.05004265
13225,0,USGeorgiaPeach,Georgia,Peach,2020-07-18 17:55:43.225821,2020-04-12 00:00:00.000000,0.06908784,0.23067399,0.68453954,19,63,188,2,25,68,0.01082949,0.09215277,0.24934974,0.23119455,0.52208445,1.02546979
13225,0,USGeorgiaPeach,Georgia,Peach,2020-07-18 17:55:43.225821,2020-04-13 00:00:00.000000,0.06689535,0.23656353,0.56913236,18,65,156,3,25,68,0.01161692,0.09119272,0.24945957,0.23240170,0.50368159,1.01654128
13225,0,USGeorgiaPeach,Georgia,Peach,2020-07-18 17:55:43.225821,2020-04-14 00:00:00.000000,0.07012131,0.23483883,0.70946134,19,64,195,3,25,68,0.01125228,0.09403990,0.25011180,0.21556323,0.48159014,0.98573163
13225,0,USGeorgiaPeach,Georgia,Peach,2020-07-18 17:55:43.225821,2020-04-15 00:00:00.000000,0.07077271,0.23902666,0.55995703,19,65,154,3,25,69,0.01286322,0.09249756,0.25235881,0.20247678,0.47521871,0.97910170
13225,0,USGeorgiaPeach,Georgia,Peach,2020-07-18 17:55:43.225821,2020-04-16 00:00:00.000000,0.07180811,0.23697881,0.70919282,19,65,195,3,26,69,0.01153501,0.09514352,0.25391018,0.19201993,0.46522423,0.98352526
13225,0,USGeorgiaPeach,Georgia,Peach,2020-07-18 17:55:43.225821,2020-04-17 00:00:00.000000,0.07290181,0.24029285,0.54165546,20,66,149,3,26,71,0.01353676,0.09564686,0.25790784,0.18456939,0.46214106,0.98742562
13225,0,USGeorgiaPeach,Georgia,Peach,2020-07-18 17:55:43.225821,2020-04-18 00:00:00.000000,0.07218821,0.23824752,0.68985531,19,65,190,3,26,71,0.01144239,0.09741309,0.25858706,0.17949928,0.44992117,0.98002513
13225,0,USGeorgiaPeach,Georgia,Peach,2020-07-18 17:55:43.225821,2020-04-19 00:00:00.000000,0.07299325,0.23505840,0.53578402,20,64,147,3,26,70,0.01369780,0.09679502,0.25719856,0.17856330,0.43185510,0.95810796
13225,0,USGeorgiaPeach,Georgia,Peach,2020-07-18 17:55:43.225821,2020-04-20 00:00:00.000000,0.07259884,0.23241690,0.66504309,19,64,183,3,26,70,0.01097784,0.09592711,0.25437318,0.17537722,0.42573086,0.93773268
13225,0,USGeorgiaPeach,Georgia,Peach,2020-07-18 17:55:43.225821,2020-04-21 00:00:00.000000,0.06899904,0.22745099,0.52376989,19,62,144,3,26,69,0.01389772,0.09680445,0.25109330,0.17206811,0.41594945,0.92448070
13225,0,USGeorgiaPeach,Georgia,Peach,2020-07-18 17:55:43.225821,2020-04-22 00:00:00.000000,0.07265123,0.23413418,0.65661295,20,64,180,2,26,68,0.01044106,0.09747326,0.24926366,0.17248856,0.40714122,0.91040087
13225,0,USGeorgiaPeach,Georgia,Peach,2020-07-18 17:55:43.225821,2020-04-23 00:00:00.000000,0.06649943,0.23304295,0.51541017,18,64,141,3,26,67,0.01409523,0.09790864,0.24631210,0.17331855,0.40482341,0.90112377
13225,0,USGeorgiaPeach,Georgia,Peach,2020-07-18 17:55:43.225821,2020-04-24 00:00:00.000000,0.07114775,0.22885480,0.64579069,19,63,177,2,26,66,0.00988369,0.09794679,0.24233098,0.16723995,0.40003366,0.89407111
13225,0,USGeorgiaPeach,Georgia,Peach,2020-07-18 17:55:43.225821,2020-04-25 00:00:00.000000,0.06466258,0.22668630,0.50221394,17,62,138,3,26,65,0.01425426,0.09511925,0.23778683,0.15067727,0.39399972,0.89024333
13225,0,USGeorgiaPeach,Georgia,Peach,2020-07-18 17:55:43.225821,2020-04-26 00:00:00.000000,0.07022586,0.22731855,0.64100471,19,62,176,2,25,64,0.00967963,0.09279489,0.23401975,0.15025329,0.38638230,0.88006535
13225,0,USGeorgiaPeach,Georgia,Peach,2020-07-18 17:55:43.225821,2020-04-27 00:00:00.000000,0.06282932,0.22295743,0.48714143,17,61,134,3,25,63,0.01435133,0.09103953,0.22953171,0.15277206,0.37721889,0.88671053
13225,0,USGeorgiaPeach,Georgia,Peach,2020-07-18 17:55:43.225821,2020-04-28 00:00:00.000000,0.06834993,0.21973309,0.64541130,18,60,177,2,24,62,0.01003939,0.09014599,0.22777273,0.15640247,0.38108917,0.88034598
13225,0,USGeorgiaPeach,Georgia,Peach,2020-07-18 17:55:43.225821,2020-04-29 00:00:00.000000,0.06024158,0.21118914,0.47061314,16,58,129,3,24,62,0.01424371,0.08858196,0.22748450,0.15196532,0.37190693,0.86145596
13225,0,USGeorgiaPeach,Georgia,Peach,2020-07-18 17:55:43.225821,2020-04-30 00:00:00.000000,0.06596140,0.21182061,0.64339030,18,58,177,2,23,62,0.01057301,0.08674480,0.22720751,0.14792783,0.37730771,0.84785128
13225,0,USGeorgiaPeach,Georgia,Peach,2020-07-18 17:55:43.225821,2020-05-01 00:00:00.000000,0.05714065,0.20204698,0.44359234,15,55,122,3,23,61,0.01294285,0.08512645,0.22441427,0.15389993,0.37278061,0.81765057
13225,0,USGeorgiaPeach,Georgia,Peach,2020-07-18 17:55:43.225821,2020-05-02 00:00:00.000000,0.05686604,0.20062298,0.61378906,15,55,169,2,22,60,0.00974966,0.08257281,0.21935467,0.16093641,0.36724987,0.76308061
13225,0,USGeorgiaPeach,Georgia,Peach,2020-07-18 17:55:43.225821,2020-05-03 00:00:00.000000,0.04824259,0.19308150,0.43899034,13,53,120,3,21,58,0.01175128,0.07941647,0.21362148,0.15610439,0.36096728,0.74327360
13225,0,USGeorgiaPeach,Georgia,Peach,2020-07-18 17:55:43.225821,2020-05-04 00:00:00.000000,0.04978751,0.18992001,0.57965894,13,52,159,2,21,56,0.00851225,0.07704553,0.20686306,0.15152383,0.36204550,0.73262749
13225,0,USGeorgiaPeach,Georgia,Peach,2020-07-18 17:55:43.225821,2020-05-05 00:00:00.000000,0.04270053,0.18083832,0.42508366,11,49,117,2,20,55,0.01064972,0.07487357,0.20180212,0.15092447,0.35791594,0.74597390
13225,0,USGeorgiaPeach,Georgia,Peach,2020-07-18 17:55:43.225821,2020-05-06 00:00:00.000000,0.04390385,0.17596353,0.54893629,12,48,151,2,19,54,0.00733973,0.07249732,0.19919225,0.14963134,0.35002836,0.76945422
13225,0,USGeorgiaPeach,Georgia,Peach,2020-07-18 17:55:43.225821,2020-05-07 00:00:00.000000,0.03890201,0.17235936,0.41361947,10,47,113,2,19,54,0.00960060,0.07030164,0.19655763,0.15023943,0.34490659,0.77980728
13225,0,USGeorgiaPeach,Georgia,Peach,2020-07-18 17:55:43.225821,2020-05-08 00:00:00.000000,0.04016868,0.16879104,0.51814417,11,46,142,1,18,52,0.00622253,0.06785926,0.19068050,0.15249975,0.34085030,0.77885467
13225,0,USGeorgiaPeach,Georgia,Peach,2020-07-18 17:55:43.225821,2020-05-09 00:00:00.000000,0.03621170,0.16269054,0.40237647,9,44,110,2,18,50,0.00861185,0.06556055,0.18367720,0.15100669,0.33692063,0.75477483
13225,0,USGeorgiaPeach,Georgia,Peach,2020-07-18 17:55:43.225821,2020-05-10 00:00:00.000000,0.03641184,0.15415758,0.48423562,10,42,133,1,17,48,0.00529216,0.06331318,0.17656416,0.15143789,0.33859414,0.73867505
13225,0,USGeorgiaPeach,Georgia,Peach,2020-07-18 17:55:43.225821,2020-05-11 00:00:00.000000,0.03426491,0.14510936,0.38531617,9,39,106,2,16,47,0.00771124,0.05976817,0.17176216,0.14866916,0.33676876,0.73982650
13225,0,USGeorgiaPeach,Georgia,Peach,2020-07-18 17:55:43.225821,2020-05-12 00:00:00.000000,0.03391879,0.14494071,0.45292143,9,39,124,1,15,46,0.00456600,0.05740930,0.16836513,0.14846511,0.33875731,0.76012754
13225,0,USGeorgiaPeach,Georgia,Peach,2020-07-18 17:55:43.225821,2020-05-13 00:00:00.000000,0.03377394,0.13904353,0.36893902,9,38,101,1,15,45,0.00647505,0.05589692,0.16395929,0.14847384,0.33717808,0.79379869
13225,0,USGeorgiaPeach,Georgia,Peach,2020-07-18 17:55:43.225821,2020-05-14 00:00:00.000000,0.03190576,0.13552526,0.42413981,8,37,116,1,15,43,0.00403965,0.05508761,0.15966048,0.14868710,0.33669797,0.82173944
13225,0,USGeorgiaPeach,Georgia,Peach,2020-07-18 17:55:43.225821,2020-05-15 00:00:00.000000,0.03364031,0.12946242,0.34844008,9,35,95,1,14,43,0.00535787,0.05324763,0.15703645,0.15218594,0.34050934,0.83408526
13225,0,USGeorgiaPeach,Georgia,Peach,2020-07-18 17:55:43.225821,2020-05-16 00:00:00.000000,0.03065794,0.12636701,0.39734100,8,34,109,1,14,42,0.00364673,0.05156405,0.15425812,0.15808869,0.35244006,0.82546252
13225,0,USGeorgiaPeach,Georgia,Peach,2020-07-18 17:55:43.225821,2020-05-17 00:00:00.000000,0.03426196,0.12204382,0.33279238,9,33,91,1,13,41,0.00418748,0.04944402,0.14922045,0.16026135,0.35472114,0.83235927
13225,0,USGeorgiaPeach,Georgia,Peach,2020-07-18 17:55:43.225821,2020-05-18 00:00:00.000000,0.03050392,0.11755397,0.37974012,8,32,104,0,12,39,0.00337886,0.04699421,0.14418487,0.16296358,0.36461206,0.84631734
13225,0,USGeorgiaPeach,Georgia,Peach,2020-07-18 17:55:43.225821,2020-05-19 00:00:00.000000,0.03458535,0.11505880,0.31921078,9,31,87,0,12,38,0.00306111,0.04568761,0.14134475,0.16466543,0.37537809,0.85562951
13225,0,USGeorgiaPeach,Georgia,Peach,2020-07-18 17:55:43.225821,2020-05-20 00:00:00.000000,0.03123970,0.11179909,0.38155696,8,30,105,0,12,38,0.00281086,0.04548990,0.14134999,0.16440988,0.37615626,0.86178627
13225,0,USGeorgiaPeach,Georgia,Peach,2020-07-18 17:55:43.225821,2020-05-21 00:00:00.000000,0.03429388,0.10953526,0.30624864,9,30,84,0,12,38,0.00266070,0.04501934,0.13828602,0.16522956,0.38627177,0.86496395
13225,0,USGeorgiaPeach,Georgia,Peach,2020-07-18 17:55:43.225821,2020-05-22 00:00:00.000000,0.03067931,0.10916709,0.38349074,8,30,105,0,12,37,0.00228464,0.04439044,0.13496941,0.16972018,0.40444359,0.87480919
13225,0,USGeorgiaPeach,Georgia,Peach,2020-07-18 17:55:43.225821,2020-05-23 00:00:00.000000,0.03233383,0.10586944,0.28914759,8,29,79,0,12,36,0.00289074,0.04452333,0.13201152,0.17342469,0.41858222,0.88549554
13225,0,USGeorgiaPeach,Georgia,Peach,2020-07-18 17:55:43.225821,2020-05-24 00:00:00.000000,0.02951419,0.10636538,0.38546741,8,29,106,0,12,35,0.00205698,0.04443683,0.12925122,0.18106415,0.42853261,0.89036138
13225,0,USGeorgiaPeach,Georgia,Peach,2020-07-18 17:55:43.225821,2020-05-25 00:00:00.000000,0.03093501,0.10413122,0.28249005,8,28,77,0,12,34,0.00321634,0.04475759,0.12631185,0.18445633,0.43600253,0.89524677
13225,0,USGeorgiaPeach,Georgia,Peach,2020-07-18 17:55:43.225821,2020-05-26 00:00:00.000000,0.02784066,0.10274081,0.38794755,7,28,106,0,12,34,0.00210431,0.04458033,0.12355878,0.18665870,0.43634314,0.93374485
13225,0,USGeorgiaPeach,Georgia,Peach,2020-07-18 17:55:43.225821,2020-05-27 00:00:00.000000,0.02993927,0.09989355,0.28169230,8,27,77,0,12,33,0.00355161,0.04412928,0.12092363,0.18841237,0.44942107,0.93904610
13225,0,USGeorgiaPeach,Georgia,Peach,2020-07-18 17:55:43.225821,2020-05-28 00:00:00.000000,0.02700057,0.10133693,0.39206715,7,27,107,0,12,32,0.00238673,0.04360593,0.11963218,0.19019692,0.46072282,0.93969223
13225,0,USGeorgiaPeach,Georgia,Peach,2020-07-18 17:55:43.225821,2020-05-29 00:00:00.000000,0.02893404,0.10005925,0.28531479,7,27,78,1,11,33,0.00386490,0.04348505,0.12205234,0.19270667,0.46152726,0.94340377
13225,0,USGeorgiaPeach,Georgia,Peach,2020-07-18 17:55:43.225821,2020-05-30 00:00:00.000000,0.02727920,0.10204419,0.39896518,7,28,109,0,11,34,0.00281300,0.04311427,0.12437365,0.19551473,0.47265040,0.95741672
13225,0,USGeorgiaPeach,Georgia,Peach,2020-07-18 17:55:43.225821,2020-05-31 00:00:00.000000,0.03034216,0.10061726,0.29797207,8,27,82,1,11,34,0.00416490,0.04327206,0.12446458,0.19704298,0.48373369,0.96715338
13225,0,USGeorgiaPeach,Georgia,Peach,2020-07-18 17:55:43.225821,2020-06-01 00:00:00.000000,0.02544027,0.10220566,0.40793934,7,28,112,0,12,35,0.00326175,0.04377588,0.12753223,0.20195724,0.48426752,0.97305405
13225,0,USGeorgiaPeach,Georgia,Peach,2020-07-18 17:55:43.225821,2020-06-02 00:00:00.000000,0.03313937,0.10199149,0.31228615,9,28,86,1,11,35,0.00461858,0.04319297,0.13026343,0.21024331,0.48933771,0.97538134
13225,0,USGeorgiaPeach,Georgia,Peach,2020-07-18 17:55:43.225821,2020-06-03 00:00:00.000000,0.02656889,0.10323104,0.41907025,7,28,115,1,12,36,0.00369920,0.04414551,0.13331077,0.21550924,0.50839223,0.99705856
13225,0,USGeorgiaPeach,Georgia,Peach,2020-07-18 17:55:43.225821,2020-06-04 00:00:00.000000,0.03471067,0.10273192,0.32213226,9,28,88,1,12,37,0.00506652,0.04377581,0.13618222,0.22554818,0.51290697,0.99985143
13225,0,USGeorgiaPeach,Georgia,Peach,2020-07-18 17:55:43.225821,2020-06-05 00:00:00.000000,0.02789946,0.10645890,0.43385219,7,29,119,1,12,37,0.00407616,0.04530883,0.13730827,0.23538080,0.51216616,0.99979062
13225,0,USGeorgiaPeach,Georgia,Peach,2020-07-18 17:55:43.225821,2020-06-06 00:00:00.000000,0.03730446,0.10664831,0.33284089,10,29,91,1,12,38,0.00552113,0.04621718,0.13896058,0.24579839,0.52213828,1.02586865
13225,0,USGeorgiaPeach,Georgia,Peach,2020-07-18 17:55:43.225821,2020-06-07 00:00:00.000000,0.02658561,0.11139506,0.45054119,7,30,124,1,13,38,0.00428734,0.04753395,0.14127261,0.26857632,0.53092488,1.05026261
13225,0,USGeorgiaPeach,Georgia,Peach,2020-07-18 17:55:43.225821,2020-06-08 00:00:00.000000,0.03892574,0.11553409,0.35409466,10,31,97,1,13,39,0.00626614,0.04782905,0.14395837,0.27951335,0.54595731,1.09408475
13225,0,USGeorgiaPeach,Georgia,Peach,2020-07-18 17:55:43.225821,2020-06-09 00:00:00.000000,0.02517414,0.12006059,0.46779906,6,33,128,1,13,40,0.00436537,0.04933603,0.14626273,0.28658056,0.54892026,1.11034441
13225,0,USGeorgiaPeach,Georgia,Peach,2020-07-18 17:55:43.225821,2020-06-10 00:00:00.000000,0.04005261,0.12346549,0.37544569,11,34,103,2,13,40,0.00735790,0.04886547,0.14869268,0.29093501,0.54949994,1.11639032
13225,0,USGeorgiaPeach,Georgia,Peach,2020-07-18 17:55:43.225821,2020-06-11 00:00:00.000000,0.02480519,0.12752533,0.49527156,6,35,136,1,14,41,0.00444759,0.05135535,0.15128502,0.29878096,0.55598511,1.12717903
13225,0,USGeorgiaPeach,Georgia,Peach,2020-07-18 17:55:43.225821,2020-06-12 00:00:00.000000,0.04178667,0.13454366,0.40053294,11,37,110,2,14,42,0.00876258,0.05241658,0.15415075,0.30757942,0.60287552,1.17661493
13225,0,USGeorgiaPeach,Georgia,Peach,2020-07-18 17:55:43.225821,2020-06-13 00:00:00.000000,0.02471010,0.13623522,0.52286060,6,37,144,1,15,43,0.00468736,0.05613784,0.15753424,0.32455613,0.62667119,1.22531139
13225,0,USGeorgiaPeach,Georgia,Peach,2020-07-18 17:55:43.225821,2020-06-14 00:00:00.000000,0.04504766,0.14764366,0.43584446,12,40,120,2,15,45,0.00889838,0.05752402,0.16384337,0.33469643,0.65814891,1.26072343
13225,0,USGeorgiaPeach,Georgia,Peach,2020-07-18 17:55:43.225821,2020-06-15 00:00:00.000000,0.02588577,0.15277196,0.56042512,7,42,154,1,16,47,0.00522598,0.06094404,0.17311356,0.33947326,0.68482061,1.31904498
13225,0,USGeorgiaPeach,Georgia,Peach,2020-07-18 17:55:43.225821,2020-06-16 00:00:00.000000,0.04973738,0.16176719,0.49061992,13,44,135,2,17,50,0.00929880,0.06438423,0.18468068,0.34470621,0.71316926,1.35956411
13225,0,USGeorgiaPeach,Georgia,Peach,2020-07-18 17:55:43.225821,2020-06-17 00:00:00.000000,0.02930028,0.17400124,0.62019042,8,47,170,1,18,54,0.00596848,0.06781925,0.19763196,0.35485415,0.72040853,1.41337148
13225,0,USGeorgiaPeach,Georgia,Peach,2020-07-18 17:55:43.225821,2020-06-18 00:00:00.000000,0.06022136,0.18144663,0.57035008,16,49,157,2,19,58,0.01002005,0.07025304,0.21226500,0.36291112,0.71721497,1.42871054
13225,0,USGeorgiaPeach,Georgia,Peach,2020-07-18 17:55:43.225821,2020-06-19 00:00:00.000000,0.03692235,0.19056713,0.68808090,10,52,189,1,20,62,0.00677365,0.07272708,0.22722518,0.37660765,0.72154231,1.44609264
13225,0,USGeorgiaPeach,Georgia,Peach,2020-07-18 17:55:43.225821,2020-06-20 00:00:00.000000,0.07533548,0.20165512,0.66408459,20,55,182,2,21,66,0.01066148,0.07798888,0.24029503,0.39054290,0.73356049,1.47979296
13225,0,USGeorgiaPeach,Georgia,Peach,2020-07-18 17:55:43.225821,2020-06-21 00:00:00.000000,0.04945721,0.22174449,0.79070626,13,61,217,2,23,70,0.00773342,0.08420962,0.25527429,0.40417873,0.73698378,1.52727691
13225,0,USGeorgiaPeach,Georgia,Peach,2020-07-18 17:55:43.225821,2020-06-22 00:00:00.000000,0.08822758,0.23124167,0.77025912,24,63,212,3,24,75,0.01211888,0.09000527,0.27230735,0.41020086,0.74316624,1.55375844
13225,0,USGeorgiaPeach,Georgia,Peach,2020-07-18 17:55:43.225821,2020-06-23 00:00:00.000000,0.06699128,0.25291166,0.91490015,18,69,252,2,27,80,0.00909840,0.09878198,0.29145234,0.41078618,0.75774872,1.55105873
13225,0,USGeorgiaPeach,Georgia,Peach,2020-07-18 17:55:43.225821,2020-06-24 00:00:00.000000,0.10238907,0.27096538,0.87885649,28,74,242,3,28,86,0.01445539,0.10233014,0.31320800,0.40838713,0.78729854,1.55002920
13225,0,USGeorgiaPeach,Georgia,Peach,2020-07-18 17:55:43.225821,2020-06-25 00:00:00.000000,0.08998060,0.29263406,1.04435883,24,80,287,3,30,93,0.01098051,0.10996650,0.33859421,0.40596726,0.81675265,1.56294283
13225,0,USGeorgiaPeach,Georgia,Peach,2020-07-18 17:55:43.225821,2020-06-26 00:00:00.000000,0.12226722,0.31438293,0.96691215,33,86,266,4,32,102,0.01739181,0.11894531,0.37309692,0.40512497,0.82595229,1.59507179
13225,0,USGeorgiaPeach,Georgia,Peach,2020-07-18 17:55:43.225821,2020-06-27 00:00:00.000000,0.11489422,0.34268663,1.16404264,31,94,320,3,35,113,0.01400872,0.12845226,0.41276326,0.41244422,0.83738732,1.62344530
13225,0,USGeorgiaPeach,Georgia,Peach,2020-07-18 17:55:43.225821,2020-06-28 00:00:00.000000,0.15433574,0.37369488,1.10550912,42,102,304,5,38,125,0.02103188,0.13898567,0.45613059,0.41938864,0.83954547,1.68303094
13225,0,USGeorgiaPeach,Georgia,Peach,2020-07-18 17:55:43.225821,2020-06-29 00:00:00.000000,0.14046321,0.41078389,1.29109325,38,113,355,4,41,138,0.01801971,0.15034957,0.50292077,0.42430550,0.83690977,1.72643196
13225,0,USGeorgiaPeach,Georgia,Peach,2020-07-18 17:55:43.225821,2020-06-30 00:00:00.000000,0.19010808,0.44766302,1.23897706,52,123,341,7,44,152,0.02610916,0.16292618,0.55237369,0.42665552,0.84803613,1.75104001
13225,0,USGeorgiaPeach,Georgia,Peach,2020-07-18 17:55:43.225821,2020-07-01 00:00:00.000000,0.16834400,0.49271648,1.40882192,46,135,388,6,49,166,0.02270602,0.17805438,0.60568354,0.42828532,0.84850440,1.76948937
13225,0,USGeorgiaPeach,Georgia,Peach,2020-07-18 17:55:43.225821,2020-07-02 00:00:00.000000,0.23664302,0.54208931,1.41831830,65,149,390,9,54,181,0.03323998,0.19752736,0.65954434,0.43009774,0.83730665,1.78766079
13225,0,USGeorgiaPeach,Georgia,Peach,2020-07-18 17:55:43.225821,2020-07-03 00:00:00.000000,0.19245169,0.59523831,1.63875409,53,163,451,7,60,194,0.02777617,0.21837316,0.70573765,0.43869074,0.83893912,1.78081788
13225,0,USGeorgiaPeach,Georgia,Peach,2020-07-18 17:55:43.225821,2020-07-04 00:00:00.000000,0.28610499,0.64929846,1.60502278,78,178,442,11,66,206,0.04265186,0.23994738,0.75097630,0.44657458,0.85571581,1.78277089
13225,0,USGeorgiaPeach,Georgia,Peach,2020-07-18 17:55:43.225821,2020-07-05 00:00:00.000000,0.21708731,0.70966305,2.03905998,59,195,561,9,72,220,0.03329430,0.26214341,0.79893763,0.44533044,0.86324852,1.78783607
13225,0,USGeorgiaPeach,Georgia,Peach,2020-07-18 17:55:43.225821,2020-07-06 00:00:00.000000,0.34787911,0.76586311,1.82603677,95,210,503,15,78,232,0.05633304,0.28522100,0.84522490,0.44514871,0.84910251,1.82962747
13225,0,USGeorgiaPeach,Georgia,Peach,2020-07-18 17:55:43.225821,2020-07-07 00:00:00.000000,0.24390803,0.84058236,2.53191333,67,231,697,11,86,248,0.04000873,0.31334170,0.90177597,0.44560512,0.84691193,1.85483778
13225,0,USGeorgiaPeach,Georgia,Peach,2020-07-18 17:55:43.225821,2020-07-08 00:00:00.000000,0.42414012,0.89734231,2.17537487,116,247,599,19,92,268,0.07195372,0.33413859,0.97644416,0.44650908,0.85670275,1.86438706
13225,0,USGeorgiaPeach,Georgia,Peach,2020-07-18 17:55:43.225821,2020-07-09 00:00:00.000000,0.27757508,0.98228253,2.93108053,76,270,807,12,99,293,0.04694887,0.36032230,1.06556812,0.44760538,0.85591870,1.86721927
13225,0,USGeorgiaPeach,Georgia,Peach,2020-07-18 17:55:43.225821,2020-07-10 00:00:00.000000,0.48403336,1.08193747,2.55018207,133,298,702,22,104,324,0.08109864,0.37999089,1.17797494,0.45118241,0.85548534,1.86824840
13225,0,USGeorgiaPeach,Georgia,Peach,2020-07-18 17:55:43.225821,2020-07-11 00:00:00.000000,0.32250118,1.14241310,3.29338179,88,314,907,14,114,355,0.05369437,0.41627505,1.29175546,0.45369479,0.85537644,1.87841474
13225,0,USGeorgiaPeach,Georgia,Peach,2020-07-18 17:55:43.225821,2020-07-12 00:00:00.000000,0.52566407,1.22396858,3.10278380,144,337,854,24,123,378,0.09012276,0.44824164,1.37380106,0.45507381,0.85535131,1.88811729
13225,0,USGeorgiaPeach,Georgia,Peach,2020-07-18 17:55:43.225821,2020-07-13 00:00:00.000000,0.37393306,1.33603338,3.75017775,103,368,1033,16,139,402,0.06097838,0.50759861,1.45977511,0.45575643,0.85534683,1.89253645
13225,0,USGeorgiaPeach,Georgia,Peach,2020-07-18 17:55:43.225821,2020-07-14 00:00:00.000000,0.55661100,1.45938459,4.00266440,153,402,1102,26,149,427,0.09780517,0.54213044,1.55014914,0.45607706,0.85534690,1.89448457
13225,0,USGeorgiaPeach,Georgia,Peach,2020-07-18 17:55:43.225821,2020-07-15 00:00:00.000000,0.43786893,1.59532427,4.56797242,120,439,1258,19,162,456,0.07113272,0.59148159,1.65889320,0.45622394,0.85534765,1.89533131
13225,0,USGeorgiaPeach,Georgia,Peach,2020-07-18 17:55:43.225821,2020-07-16 00:00:00.000000,0.62573732,1.69452489,4.87830241,172,466,1343,29,175,491,0.10606073,0.63668206,1.78366774,0.45629045,0.85534827,1.89569729
13225,0,USGeorgiaPeach,Georgia,Peach,2020-07-18 17:55:43.225821,2020-07-17 00:00:00.000000,0.51064361,1.85686487,5.79824837,140,511,1597,22,189,527,0.08276251,0.68705102,1.91673911,0.45632042,0.85534867,1.89585525
13225,0,USGeorgiaPeach,Georgia,Peach,2020-07-18 17:55:43.225821,2020-07-18 00:00:00.000000,0.73719654,1.98129985,5.72003148,203,545,1575,31,205,567,0.11493240,0.74648515,2.05848411,0.45633388,0.85534892,1.89592347
13225,0,USGeorgiaPeach,Georgia,Peach,2020-07-18 17:55:43.225821,2020-07-19 00:00:00.000000,0.59312792,2.18258011,7.30833236,163,601,2013,26,232,615,0.09648596,0.84380703,2.23331810,0.45633993,0.85534907,1.89595302
13225,0,USGeorgiaPeach,Georgia,Peach,2020-07-18 17:55:43.225821,2020-07-20 00:00:00.000000,0.80788348,2.28460479,6.67571744,222,629,1838,34,250,669,0.12446344,0.90861931,2.42913916,0.45634264,0.85534916,1.89596587
13225,0,USGeorgiaPeach,Georgia,Peach,2020-07-18 17:55:43.225821,2020-07-21 00:00:00.000000,0.64998820,2.48806600,9.07514309,179,685,2499,31,274,727,0.11269573,0.99654775,2.63960558,0.45634386,0.85534921,1.89597150
13225,0,USGeorgiaPeach,Georgia,Peach,2020-07-18 17:55:43.225821,2020-07-22 00:00:00.000000,0.84560269,2.73606643,8.45821482,232,753,2329,37,296,792,0.13469785,1.07769500,2.87859986,0.45634440,0.85534924,1.89597399
13225,0,USGeorgiaPeach,Georgia,Peach,2020-07-18 17:55:43.225821,2020-07-23 00:00:00.000000,0.71232226,3.00109440,11.06237632,196,826,3047,36,329,887,0.13099261,1.19690053,3.22035214,0.45634465,0.85534925,1.89597512
13225,0,USGeorgiaPeach,Georgia,Peach,2020-07-18 17:55:43.225821,2020-07-24 00:00:00.000000,0.87589324,3.27151258,10.72366555,241,901,2953,40,342,994,0.14574990,1.24254121,3.60955460,0.45634476,0.85534926,1.89597563
13225,0,USGeorgiaPeach,Georgia,Peach,2020-07-18 17:55:43.225821,2020-07-25 00:00:00.000000,0.75055674,3.59747157,13.18442031,206,990,3631,41,384,1110,0.15153000,1.39598430,4.03005482,0.45634481,0.85534927,1.89597588
13225,0,USGeorgiaPeach,Georgia,Peach,2020-07-18 17:55:43.225821,2020-07-26 00:00:00.000000,0.90626686,3.86723977,13.37018314,249,1065,3682,44,407,1221,0.16077885,1.47964834,4.43448211,0.45634483,0.85534927,1.89597600
13225,0,USGeorgiaPeach,Georgia,Peach,2020-07-18 17:55:43.225821,2020-07-27 00:00:00.000000,0.81580107,4.28794816,15.55868691,224,1181,4285,48,443,1336,0.17443252,1.61027635,4.85367921,0.45634484,0.85534927,1.89597606
13225,0,USGeorgiaPeach,Georgia,Peach,2020-07-18 17:55:43.225821,2020-07-28 00:00:00.000000,0.93660451,4.54430887,15.64845261,257,1251,4310,48,467,1456,0.17489640,1.69611391,5.28776326,0.45634484,0.85534928,1.89597610
13225,0,USGeorgiaPeach,Georgia,Peach,2020-07-18 17:55:43.225821,2020-07-29 00:00:00.000000,0.88723935,5.04680628,18.90006839,244,1390,5206,55,519,1566,0.19977981,1.88459712,5.68750240,0.45634485,0.85534928,1.89597612
13225,0,USGeorgiaPeach,Georgia,Peach,2020-07-18 17:55:43.225821,2020-07-30 00:00:00.000000,0.96678310,5.26994727,17.50148897,266,1451,4820,51,547,1675,0.18657880,1.98651390,6.08327506,0.45634485,0.85534928,1.89597613
