FIPS,HR_UID,nameid,province,region,analysisTime,dates,pointprevalence_025,pointprevalence_50,pointprevalence_975,pointinfections_025,pointinfections_50,pointinfections_975,pointinfectious_025,pointinfectious_50,pointinfectious_975,pointinfectiousprevalence_05,pointinfectiousprevalence_50,pointinfectiousprevalence_95,infectrate_025,infectrate_50,infectrate_975
20169,0,USKansasSaline,Kansas,Saline,2020-07-18 16:22:53.725278,2020-03-09 00:00:00.000000,0.00201300,0.02708923,0.05094686,1,14,27,0,3,9,0.00013231,0.00713185,0.01697846,0.50270803,0.64047199,0.84502444
20169,0,USKansasSaline,Kansas,Saline,2020-07-18 16:22:53.725278,2020-03-10 00:00:00.000000,0.00266491,0.02887277,0.05567115,1,15,30,0,4,9,0.00082098,0.00737809,0.01728086,0.50269571,0.64040023,0.84503668
20169,0,USKansasSaline,Kansas,Saline,2020-07-18 16:22:53.725278,2020-03-11 00:00:00.000000,0.00292680,0.02682866,0.06091039,1,14,33,0,3,10,0.00029528,0.00736363,0.01871269,0.50266233,0.64024930,0.84505407
20169,0,USKansasSaline,Kansas,Saline,2020-07-18 16:22:53.725278,2020-03-12 00:00:00.000000,0.00326331,0.02682837,0.06537249,1,14,35,0,4,10,0.00093837,0.00769379,0.01993225,0.50257201,0.63993262,0.84507781
20169,0,USKansasSaline,Kansas,Saline,2020-07-18 16:22:53.725278,2020-03-13 00:00:00.000000,0.00338461,0.02346633,0.07002063,1,12,37,0,4,11,0.00033311,0.00787995,0.02097458,0.50232825,0.63927180,0.84510502
20169,0,USKansasSaline,Kansas,Saline,2020-07-18 16:22:53.725278,2020-03-14 00:00:00.000000,0.00354528,0.02411770,0.07578333,1,13,41,0,4,12,0.00110897,0.00803113,0.02291971,0.50163254,0.63790836,0.84510732
20169,0,USKansasSaline,Kansas,Saline,2020-07-18 16:22:53.725278,2020-03-15 00:00:00.000000,0.00374181,0.02181983,0.08263985,2,11,44,0,4,13,0.00048390,0.00766100,0.02502548,0.49853213,0.63515980,0.84491362
20169,0,USKansasSaline,Kansas,Saline,2020-07-18 16:22:53.725278,2020-03-16 00:00:00.000000,0.00410377,0.02328073,0.09019304,2,12,48,0,4,14,0.00116520,0.00777809,0.02679906,0.49406425,0.63220444,0.84358105
20169,0,USKansasSaline,Kansas,Saline,2020-07-18 16:22:53.725278,2020-03-17 00:00:00.000000,0.00388354,0.02141391,0.09850210,2,11,53,0,4,15,0.00063816,0.00762285,0.02926484,0.48710313,0.62906938,0.83628998
20169,0,USKansasSaline,Kansas,Saline,2020-07-18 16:22:53.725278,2020-03-18 00:00:00.000000,0.00481887,0.02634386,0.10762574,2,14,58,0,4,17,0.00117323,0.00861315,0.03195126,0.46353084,0.62559751,0.80354642
20169,0,USKansasSaline,Kansas,Saline,2020-07-18 16:22:53.725278,2020-03-19 00:00:00.000000,0.00409304,0.02461252,0.11760859,2,13,63,0,4,18,0.00077601,0.00868729,0.03487852,0.43870160,0.60576042,0.71689745
20169,0,USKansasSaline,Kansas,Saline,2020-07-18 16:22:53.725278,2020-03-20 00:00:00.000000,0.00548094,0.02685717,0.12844038,2,14,69,0,5,20,0.00131495,0.00960729,0.03806436,0.41883877,0.59267344,0.69791063
20169,0,USKansasSaline,Kansas,Saline,2020-07-18 16:22:53.725278,2020-03-21 00:00:00.000000,0.00450424,0.02927245,0.13996137,2,15,75,0,5,22,0.00091706,0.01020377,0.04151833,0.40694899,0.57910150,0.68919169
20169,0,USKansasSaline,Kansas,Saline,2020-07-18 16:22:53.725278,2020-03-22 00:00:00.000000,0.00608683,0.03184236,0.15178002,3,17,82,0,5,24,0.00149218,0.01058774,0.04522678,0.40101207,0.55357461,0.67549226
20169,0,USKansasSaline,Kansas,Saline,2020-07-18 16:22:53.725278,2020-03-23 00:00:00.000000,0.00513236,0.03347201,0.16352318,2,18,88,0,6,26,0.00103981,0.01115879,0.04913260,0.39831984,0.52791444,0.67070109
20169,0,USKansasSaline,Kansas,Saline,2020-07-18 16:22:53.725278,2020-03-24 00:00:00.000000,0.00465253,0.03552201,0.17521675,2,19,95,0,6,28,0.00172282,0.01154571,0.05315334,0.39717682,0.51362943,0.67350510
20169,0,USKansasSaline,Kansas,Saline,2020-07-18 16:22:53.725278,2020-03-25 00:00:00.000000,0.00382352,0.03635069,0.18698062,2,19,101,0,6,31,0.00113559,0.01193382,0.05724390,0.39676168,0.50640747,0.67510569
20169,0,USKansasSaline,Kansas,Saline,2020-07-18 16:22:53.725278,2020-03-26 00:00:00.000000,0.00389330,0.03713533,0.19857400,2,20,107,0,6,33,0.00160681,0.01232152,0.06139720,0.39675155,0.50426141,0.66059026
20169,0,USKansasSaline,Kansas,Saline,2020-07-18 16:22:53.725278,2020-03-27 00:00:00.000000,0.00323610,0.03563292,0.20953779,1,19,113,0,6,35,0.00120700,0.01272192,0.06559268,0.39711807,0.50096518,0.64370050
20169,0,USKansasSaline,Kansas,Saline,2020-07-18 16:22:53.725278,2020-03-28 00:00:00.000000,0.00397709,0.03628515,0.21991037,2,19,119,0,7,37,0.00156393,0.01313781,0.06978392,0.39808959,0.50713452,0.63947892
20169,0,USKansasSaline,Kansas,Saline,2020-07-18 16:22:53.725278,2020-03-29 00:00:00.000000,0.00245808,0.03602003,0.22999499,1,19,124,0,7,40,0.00100922,0.01370487,0.07394074,0.39597112,0.50789282,0.66215467
20169,0,USKansasSaline,Kansas,Saline,2020-07-18 16:22:53.725278,2020-03-30 00:00:00.000000,0.00421131,0.03740420,0.24023248,2,20,130,0,7,42,0.00117346,0.01439719,0.07808348,0.38826285,0.50583271,0.69256207
20169,0,USKansasSaline,Kansas,Saline,2020-07-18 16:22:53.725278,2020-03-31 00:00:00.000000,0.00185670,0.03953967,0.25096111,1,21,136,0,8,44,0.00087873,0.01490768,0.08227027,0.37728812,0.50770128,0.71562622
20169,0,USKansasSaline,Kansas,Saline,2020-07-18 16:22:53.725278,2020-04-01 00:00:00.000000,0.00360238,0.04121371,0.26231594,1,22,142,0,8,46,0.00098710,0.01565815,0.08656658,0.36846898,0.50730339,0.73232643
20169,0,USKansasSaline,Kansas,Saline,2020-07-18 16:22:53.725278,2020-04-02 00:00:00.000000,0.00168245,0.04159478,0.27386923,0,22,148,0,8,49,0.00088450,0.01621349,0.09101944,0.36247679,0.50536822,0.73721333
20169,0,USKansasSaline,Kansas,Saline,2020-07-18 16:22:53.725278,2020-04-03 00:00:00.000000,0.00317600,0.04157259,0.28489010,1,22,154,0,9,51,0.00095166,0.01678714,0.09562804,0.35632450,0.49814456,0.73923531
20169,0,USKansasSaline,Kansas,Saline,2020-07-18 16:22:53.725278,2020-04-04 00:00:00.000000,0.00189881,0.04305583,0.29624739,1,23,160,0,9,54,0.00085916,0.01737335,0.10035673,0.35041752,0.47399697,0.74010633
20169,0,USKansasSaline,Kansas,Saline,2020-07-18 16:22:53.725278,2020-04-05 00:00:00.000000,0.00286354,0.04351000,0.30827018,1,23,167,0,9,57,0.00092427,0.01795294,0.10522308,0.34872809,0.44240398,0.74044312
20169,0,USKansasSaline,Kansas,Saline,2020-07-18 16:22:53.725278,2020-04-06 00:00:00.000000,0.00217275,0.04337611,0.32101124,1,23,174,0,10,59,0.00083082,0.01850795,0.11027519,0.34600294,0.42985497,0.74037698
20169,0,USKansasSaline,Kansas,Saline,2020-07-18 16:22:53.725278,2020-04-07 00:00:00.000000,0.00262041,0.04399636,0.33429461,1,23,181,0,10,62,0.00090155,0.01904243,0.11554616,0.34127217,0.42717294,0.76581726
20169,0,USKansasSaline,Kansas,Saline,2020-07-18 16:22:53.725278,2020-04-08 00:00:00.000000,0.00249753,0.04444402,0.34766350,1,24,188,0,10,65,0.00079596,0.01875303,0.12103628,0.33596226,0.42659570,0.76036104
20169,0,USKansasSaline,Kansas,Saline,2020-07-18 16:22:53.725278,2020-04-09 00:00:00.000000,0.00237246,0.04471240,0.36047793,1,24,195,0,10,68,0.00088566,0.01906528,0.12669774,0.32054774,0.42507292,0.75882876
20169,0,USKansasSaline,Kansas,Saline,2020-07-18 16:22:53.725278,2020-04-10 00:00:00.000000,0.00225434,0.04482461,0.37245265,1,24,201,0,10,71,0.00075431,0.01955518,0.13243573,0.30675417,0.40938447,0.74189643
20169,0,USKansasSaline,Kansas,Saline,2020-07-18 16:22:53.725278,2020-04-11 00:00:00.000000,0.00213051,0.04569640,0.38395626,1,24,208,0,10,74,0.00087523,0.02003346,0.13816589,0.29670900,0.38997992,0.72088400
20169,0,USKansasSaline,Kansas,Saline,2020-07-18 16:22:53.725278,2020-04-12 00:00:00.000000,0.00199905,0.04540625,0.39556031,1,24,214,0,10,78,0.00070924,0.01995805,0.14388020,0.28111209,0.38760636,0.72375953
20169,0,USKansasSaline,Kansas,Saline,2020-07-18 16:22:53.725278,2020-04-13 00:00:00.000000,0.00187169,0.04481125,0.40767169,1,24,221,0,11,81,0.00082687,0.02039530,0.14963557,0.26760491,0.38693650,0.71764412
20169,0,USKansasSaline,Kansas,Saline,2020-07-18 16:22:53.725278,2020-04-14 00:00:00.000000,0.00175240,0.04485221,0.42051298,0,24,228,0,11,84,0.00065870,0.02083033,0.15550683,0.26257555,0.38585305,0.70772734
20169,0,USKansasSaline,Kansas,Saline,2020-07-18 16:22:53.725278,2020-04-15 00:00:00.000000,0.00164061,0.04494989,0.43419429,0,24,235,0,11,87,0.00077699,0.02126683,0.16155897,0.26172782,0.38393715,0.69865737
20169,0,USKansasSaline,Kansas,Saline,2020-07-18 16:22:53.725278,2020-04-16 00:00:00.000000,0.00153590,0.04510456,0.44875740,0,24,243,0,11,91,0.00059621,0.02170630,0.16784023,0.26399125,0.38087904,0.69543040
20169,0,USKansasSaline,Kansas,Saline,2020-07-18 16:22:53.725278,2020-04-17 00:00:00.000000,0.00143814,0.04728760,0.46415284,0,25,251,0,12,94,0.00072207,0.02214853,0.17438247,0.27506613,0.38880491,0.69508247
20169,0,USKansasSaline,Kansas,Saline,2020-07-18 16:22:53.725278,2020-04-18 00:00:00.000000,0.00134952,0.04752589,0.48017602,0,25,260,0,12,98,0.00051560,0.02259213,0.18119574,0.28347403,0.38569547,0.70001768
20169,0,USKansasSaline,Kansas,Saline,2020-07-18 16:22:53.725278,2020-04-19 00:00:00.000000,0.00128166,0.04784801,0.49684598,0,25,269,0,12,102,0.00066751,0.02303562,0.18825172,0.28170709,0.38072037,0.71656013
20169,0,USKansasSaline,Kansas,Saline,2020-07-18 16:22:53.725278,2020-04-20 00:00:00.000000,0.00125125,0.04821592,0.51454081,0,26,279,0,12,106,0.00042350,0.02347833,0.19553325,0.27581561,0.37804489,0.73372812
20169,0,USKansasSaline,Kansas,Saline,2020-07-18 16:22:53.725278,2020-04-21 00:00:00.000000,0.00124493,0.04860162,0.53366146,0,26,289,0,12,110,0.00062025,0.02392055,0.20309031,0.27543573,0.38108526,0.74741536
20169,0,USKansasSaline,Kansas,Saline,2020-07-18 16:22:53.725278,2020-04-22 00:00:00.000000,0.00124129,0.04897965,0.55465703,0,26,300,0,13,114,0.00033212,0.02436274,0.21100811,0.27781103,0.38273743,0.75225577
20169,0,USKansasSaline,Kansas,Saline,2020-07-18 16:22:53.725278,2020-04-23 00:00:00.000000,0.00121447,0.04982676,0.57783365,0,27,313,0,13,118,0.00058177,0.02480455,0.21939090,0.27614490,0.38594897,0.74611034
20169,0,USKansasSaline,Kansas,Saline,2020-07-18 16:22:53.725278,2020-04-24 00:00:00.000000,0.00118621,0.05113955,0.60310944,0,27,327,0,13,123,0.00030033,0.02524370,0.22833376,0.27415391,0.39988471,0.73040119
20169,0,USKansasSaline,Kansas,Saline,2020-07-18 16:22:53.725278,2020-04-25 00:00:00.000000,0.00116970,0.05247759,0.62977795,0,28,341,0,13,128,0.00055236,0.02567513,0.23788190,0.27059483,0.41035472,0.71808617
20169,0,USKansasSaline,Kansas,Saline,2020-07-18 16:22:53.725278,2020-04-26 00:00:00.000000,0.00113290,0.05428104,0.65786772,0,29,356,0,14,134,0.00029556,0.02609084,0.24802955,0.26637951,0.41937568,0.72452759
20169,0,USKansasSaline,Kansas,Saline,2020-07-18 16:22:53.725278,2020-04-27 00:00:00.000000,0.00108251,0.05742440,0.68729852,0,31,372,0,14,140,0.00054364,0.02648162,0.25875029,0.26451852,0.41942072,0.74664042
20169,0,USKansasSaline,Kansas,Saline,2020-07-18 16:22:53.725278,2020-04-28 00:00:00.000000,0.00103060,0.06072899,0.71803158,0,32,389,0,14,146,0.00029055,0.02684054,0.27002098,0.26414949,0.41929562,0.78405701
20169,0,USKansasSaline,Kansas,Saline,2020-07-18 16:22:53.725278,2020-04-29 00:00:00.000000,0.00098922,0.06421223,0.75009976,0,34,406,0,14,152,0.00055071,0.02716520,0.28183099,0.26478747,0.42229283,0.80229092
20169,0,USKansasSaline,Kansas,Saline,2020-07-18 16:22:53.725278,2020-04-30 00:00:00.000000,0.00095164,0.06788672,0.78360377,0,36,424,0,14,159,0.00031137,0.02745640,0.29418399,0.25905353,0.42784843,0.80653082
20169,0,USKansasSaline,Kansas,Saline,2020-07-18 16:22:53.725278,2020-05-01 00:00:00.000000,0.00091871,0.07175852,0.81873896,0,38,443,0,15,166,0.00052128,0.02771391,0.30709880,0.24672085,0.43073558,0.84001859
20169,0,USKansasSaline,Kansas,Saline,2020-07-18 16:22:53.725278,2020-05-02 00:00:00.000000,0.00092677,0.07469226,0.85585825,0,40,464,0,15,173,0.00037937,0.02793228,0.32061326,0.23239322,0.43350076,0.88857127
20169,0,USKansasSaline,Kansas,Saline,2020-07-18 16:22:53.725278,2020-05-03 00:00:00.000000,0.00099172,0.08008467,0.89556201,0,43,485,0,15,181,0.00048519,0.02858146,0.33479416,0.21619385,0.43991809,0.91184307
20169,0,USKansasSaline,Kansas,Saline,2020-07-18 16:22:53.725278,2020-05-04 00:00:00.000000,0.00105666,0.08454030,0.93873511,0,45,509,0,15,189,0.00043766,0.02882884,0.34975347,0.20584180,0.43469924,0.91963236
20169,0,USKansasSaline,Kansas,Saline,2020-07-18 16:22:53.725278,2020-05-05 00:00:00.000000,0.00112431,0.09211850,0.98634799,0,49,534,0,15,198,0.00050697,0.02889406,0.36566208,0.20069798,0.46725526,0.92917252
20169,0,USKansasSaline,Kansas,Saline,2020-07-18 16:22:53.725278,2020-05-06 00:00:00.000000,0.00119056,0.10177885,1.03897630,0,55,563,0,15,207,0.00040963,0.02892326,0.38273455,0.19845802,0.47600209,0.93451875
20169,0,USKansasSaline,Kansas,Saline,2020-07-18 16:22:53.725278,2020-05-07 00:00:00.000000,0.00124919,0.11020584,1.09649138,0,59,594,0,16,217,0.00056778,0.03056902,0.40116542,0.19753664,0.47806352,0.87663455
20169,0,USKansasSaline,Kansas,Saline,2020-07-18 16:22:53.725278,2020-05-08 00:00:00.000000,0.00130109,0.11211699,1.15830552,0,60,628,0,16,228,0.00039260,0.03078674,0.42105915,0.19715378,0.49090798,0.86542509
20169,0,USKansasSaline,Kansas,Saline,2020-07-18 16:22:53.725278,2020-05-09 00:00:00.000000,0.00135251,0.11274897,1.22380515,0,61,663,0,16,239,0.00057588,0.03111696,0.44242065,0.19699662,0.51007533,0.86790668
20169,0,USKansasSaline,Kansas,Saline,2020-07-18 16:22:53.725278,2020-05-10 00:00:00.000000,0.00140938,0.11561581,1.29252890,0,62,700,0,16,252,0.00038041,0.03109157,0.46519912,0.19692049,0.51418961,0.91867658
20169,0,USKansasSaline,Kansas,Saline,2020-07-18 16:22:53.725278,2020-05-11 00:00:00.000000,0.00147656,0.11526177,1.36404819,0,62,739,0,17,265,0.00052618,0.03178392,0.48933054,0.19682297,0.51706110,0.96440506
20169,0,USKansasSaline,Kansas,Saline,2020-07-18 16:22:53.725278,2020-05-12 00:00:00.000000,0.00150095,0.11826234,1.43816926,0,64,779,0,17,279,0.00037369,0.03172730,0.51474533,0.19646349,0.51783040,0.98366986
20169,0,USKansasSaline,Kansas,Saline,2020-07-18 16:22:53.725278,2020-05-13 00:00:00.000000,0.00151698,0.11747683,1.51528907,0,63,821,0,17,293,0.00048240,0.03166926,0.54139630,0.19489117,0.51790930,0.99474288
20169,0,USKansasSaline,Kansas,Saline,2020-07-18 16:22:53.725278,2020-05-14 00:00:00.000000,0.00155242,0.11671318,1.59588118,0,63,865,0,17,308,0.00046315,0.03160917,0.56931586,0.19129987,0.51810292,1.01255045
20169,0,USKansasSaline,Kansas,Saline,2020-07-18 16:22:53.725278,2020-05-15 00:00:00.000000,0.00160497,0.11597374,1.68055616,0,62,911,0,17,324,0.00044564,0.03176388,0.59858676,0.18975824,0.51853136,1.04715215
20169,0,USKansasSaline,Kansas,Saline,2020-07-18 16:22:53.725278,2020-05-16 00:00:00.000000,0.00167098,0.11522544,1.77011906,0,62,959,0,17,341,0.00042957,0.03169918,0.62933511,0.18756333,0.52079220,1.10583898
20169,0,USKansasSaline,Kansas,Saline,2020-07-18 16:22:53.725278,2020-05-17 00:00:00.000000,0.00175051,0.11434812,1.86532672,0,62,1011,0,17,358,0.00042372,0.03163060,0.66173452,0.18098005,0.53224082,1.11645944
20169,0,USKansasSaline,Kansas,Saline,2020-07-18 16:22:53.725278,2020-05-18 00:00:00.000000,0.00185490,0.11306882,1.96712079,1,61,1066,0,17,377,0.00044977,0.03154865,0.69598020,0.16307263,0.55542791,1.12087302
20169,0,USKansasSaline,Kansas,Saline,2020-07-18 16:22:53.725278,2020-05-19 00:00:00.000000,0.00201608,0.11172487,2.07711889,1,60,1126,0,17,397,0.00048255,0.03142893,0.73230321,0.13535115,0.58462536,1.12439228
20169,0,USKansasSaline,Kansas,Saline,2020-07-18 16:22:53.725278,2020-05-20 00:00:00.000000,0.00226439,0.10941053,2.19774819,1,59,1191,0,16,418,0.00052131,0.03124211,0.77103653,0.11711216,0.60184023,1.12986563
20169,0,USKansasSaline,Kansas,Saline,2020-07-18 16:22:53.725278,2020-05-21 00:00:00.000000,0.00259577,0.10699487,2.33200719,1,58,1264,0,16,452,0.00058405,0.03098375,0.83411848,0.11014594,0.61231673,1.15268071
20169,0,USKansasSaline,Kansas,Saline,2020-07-18 16:22:53.725278,2020-05-22 00:00:00.000000,0.00297430,0.10465027,2.48358554,1,56,1346,0,16,494,0.00061455,0.03067115,0.91177754,0.11017750,0.60900064,1.20986850
20169,0,USKansasSaline,Kansas,Saline,2020-07-18 16:22:53.725278,2020-05-23 00:00:00.000000,0.00287136,0.10247439,2.71674836,1,55,1473,0,16,530,0.00067707,0.03032615,0.97837846,0.11447571,0.60415269,1.28799596
20169,0,USKansasSaline,Kansas,Saline,2020-07-18 16:22:53.725278,2020-05-24 00:00:00.000000,0.00278604,0.10053778,2.96938235,1,54,1610,0,16,566,0.00077344,0.02996863,1.04398870,0.12203014,0.61169475,1.33801903
20169,0,USKansasSaline,Kansas,Saline,2020-07-18 16:22:53.725278,2020-05-25 00:00:00.000000,0.00271730,0.10009121,3.22863121,1,54,1750,0,16,605,0.00090067,0.02961570,1.11585118,0.13178207,0.61365374,1.36679262
20169,0,USKansasSaline,Kansas,Saline,2020-07-18 16:22:53.725278,2020-05-26 00:00:00.000000,0.00266593,0.11190346,3.47487347,1,60,1884,0,15,647,0.00107187,0.02928095,1.19417590,0.14171619,0.61659365,1.37583939
20169,0,USKansasSaline,Kansas,Saline,2020-07-18 16:22:53.725278,2020-05-27 00:00:00.000000,0.00301531,0.12198396,3.73802869,1,66,2026,0,16,704,0.00128679,0.03046023,1.29952462,0.14984171,0.61849736,1.42794467
20169,0,USKansasSaline,Kansas,Saline,2020-07-18 16:22:53.725278,2020-05-28 00:00:00.000000,0.00364709,0.12143685,4.01796547,1,65,2178,0,18,768,0.00150775,0.03401851,1.41707707,0.15547550,0.61982177,1.51712264
20169,0,USKansasSaline,Kansas,Saline,2020-07-18 16:22:53.725278,2020-05-29 00:00:00.000000,0.00449032,0.12112725,4.30643656,2,65,2335,0,20,837,0.00153188,0.03703130,1.54509305,0.16138156,0.62110210,1.58006488
20169,0,USKansasSaline,Kansas,Saline,2020-07-18 16:22:53.725278,2020-05-30 00:00:00.000000,0.00564523,0.12136939,4.60473418,3,65,2496,0,20,913,0.00164541,0.03695693,1.68463730,0.17789430,0.62311119,1.67124806
20169,0,USKansasSaline,Kansas,Saline,2020-07-18 16:22:53.725278,2020-05-31 00:00:00.000000,0.00602390,0.12190214,4.98972857,3,66,2705,1,20,996,0.00204932,0.03693681,1.83685153,0.18598557,0.62521277,1.72649620
20169,0,USKansasSaline,Kansas,Saline,2020-07-18 16:22:53.725278,2020-06-01 00:00:00.000000,0.00643001,0.12249863,5.43960261,3,66,2949,1,20,1084,0.00232285,0.03696682,2.00057811,0.18708686,0.63985371,1.79757679
20169,0,USKansasSaline,Kansas,Saline,2020-07-18 16:22:53.725278,2020-06-02 00:00:00.000000,0.00687962,0.12311914,5.92440520,3,66,3212,1,20,1162,0.00231446,0.03723930,2.14480128,0.18746860,0.66262231,1.81051304
20169,0,USKansasSaline,Kansas,Saline,2020-07-18 16:22:53.725278,2020-06-03 00:00:00.000000,0.00708409,0.12374902,6.39796011,3,67,3469,1,20,1245,0.00232115,0.03732791,2.29669946,0.18770960,0.66283082,1.81496073
20169,0,USKansasSaline,Kansas,Saline,2020-07-18 16:22:53.725278,2020-06-04 00:00:00.000000,0.00728697,0.12438551,6.80850638,3,67,3691,1,20,1329,0.00232898,0.03743094,2.45159086,0.18807762,0.66298472,1.85573053
20169,0,USKansasSaline,Kansas,Saline,2020-07-18 16:22:53.725278,2020-06-05 00:00:00.000000,0.00744900,0.12570819,7.29750450,4,68,3956,1,20,1411,0.00230720,0.03754374,2.60396080,0.18925183,0.65929387,1.88857341
20169,0,USKansasSaline,Kansas,Saline,2020-07-18 16:22:53.725278,2020-06-06 00:00:00.000000,0.00760727,0.12651359,7.87581605,4,68,4270,1,20,1503,0.00228483,0.03766502,2.77236434,0.19300751,0.65638751,1.97267825
20169,0,USKansasSaline,Kansas,Saline,2020-07-18 16:22:53.725278,2020-06-07 00:00:00.000000,0.00775034,0.12743942,8.50307336,4,69,4610,1,20,1608,0.00226233,0.03779910,2.96576326,0.19733003,0.66337466,2.05424738
20169,0,USKansasSaline,Kansas,Saline,2020-07-18 16:22:53.725278,2020-06-08 00:00:00.000000,0.00787461,0.12848613,9.16200387,4,69,4968,1,20,1724,0.00224037,0.03849889,3.18084665,0.20048313,0.67181395,2.10354019
20169,0,USKansasSaline,Kansas,Saline,2020-07-18 16:22:53.725278,2020-06-09 00:00:00.000000,0.00800105,0.12964051,9.85005780,4,70,5341,1,20,1851,0.00221852,0.03840542,3.41387443,0.20197794,0.69546985,2.12263753
20169,0,USKansasSaline,Kansas,Saline,2020-07-18 16:22:53.725278,2020-06-10 00:00:00.000000,0.00810469,0.13235424,10.56788507,4,71,5730,1,24,1986,0.00219344,0.04437010,3.66276915,0.20403939,0.71318418,2.09364377
20169,0,USKansasSaline,Kansas,Saline,2020-07-18 16:22:53.725278,2020-06-11 00:00:00.000000,0.00816861,0.13487100,11.32004046,4,73,6138,1,24,2129,0.00216326,0.04607543,3.92669263,0.20690858,0.74759690,1.97739036
20169,0,USKansasSaline,Kansas,Saline,2020-07-18 16:22:53.725278,2020-06-12 00:00:00.000000,0.00822271,0.16150137,12.12147456,4,87,6572,1,35,2280,0.00212925,0.06491717,4.20594849,0.20884127,0.76146757,1.96704194
20169,0,USKansasSaline,Kansas,Saline,2020-07-18 16:22:53.725278,2020-06-13 00:00:00.000000,0.00843122,0.19089299,13.00747658,4,103,7053,1,33,2441,0.00209293,0.06117279,4.50282733,0.21018309,0.79421787,1.94386436
20169,0,USKansasSaline,Kansas,Saline,2020-07-18 16:22:53.725278,2020-06-14 00:00:00.000000,0.00889364,0.23537570,14.01710883,4,127,7600,1,50,2615,0.00205540,0.09391498,4.82342066,0.21096982,0.82437376,1.89746673
20169,0,USKansasSaline,Kansas,Saline,2020-07-18 16:22:53.725278,2020-06-15 00:00:00.000000,0.00893729,0.26597604,15.13940473,4,144,8209,1,43,2806,0.00201737,0.07940028,5.17641437,0.21138774,0.85085656,1.91046663
20169,0,USKansasSaline,Kansas,Saline,2020-07-18 16:22:53.725278,2020-06-16 00:00:00.000000,0.00889243,0.33516873,16.32537121,4,181,8852,1,68,3017,0.00197931,0.12710088,5.56528462,0.21160702,0.85670864,1.86757199
20169,0,USKansasSaline,Kansas,Saline,2020-07-18 16:22:53.725278,2020-06-17 00:00:00.000000,0.00883893,0.35740942,17.52983869,4,193,9505,1,71,3245,0.00194151,0.13107338,5.98573740,0.21177328,0.85972002,1.85133904
20169,0,USKansasSaline,Kansas,Saline,2020-07-18 16:22:53.725278,2020-06-18 00:00:00.000000,0.00902155,0.45557521,18.71189387,4,247,10146,1,91,3486,0.00190415,0.16873380,6.42983672,0.21221659,0.85164980,1.80938237
20169,0,USKansasSaline,Kansas,Saline,2020-07-18 16:22:53.725278,2020-06-19 00:00:00.000000,0.00926983,0.50306431,20.36562443,5,272,11043,1,97,3815,0.00186740,0.18021646,7.03564307,0.21466217,0.84241932,1.75176522
20169,0,USKansasSaline,Kansas,Saline,2020-07-18 16:22:53.725278,2020-06-20 00:00:00.000000,0.00949509,0.69133334,21.60965176,5,374,11717,0,123,4158,0.00183192,0.22757034,7.66830964,0.22809435,0.76494950,1.67329311
20169,0,USKansasSaline,Kansas,Saline,2020-07-18 16:22:53.725278,2020-06-21 00:00:00.000000,0.00972618,0.66489816,22.67004371,5,360,12292,0,128,4430,0.00179968,0.23753570,8.17125455,0.26153978,0.74841796,1.54885143
20169,0,USKansasSaline,Kansas,Saline,2020-07-18 16:22:53.725278,2020-06-22 00:00:00.000000,0.00996497,0.94951555,23.63835915,5,514,12817,0,157,4692,0.00177054,0.29065026,8.65324940,0.32826591,0.74839127,1.49181568
20169,0,USKansasSaline,Kansas,Saline,2020-07-18 16:22:53.725278,2020-06-23 00:00:00.000000,0.01021326,0.88207315,25.46689694,5,478,13809,0,177,4946,0.00174359,0.32683649,9.12184016,0.35444480,0.74851100,1.45453028
20169,0,USKansasSaline,Kansas,Saline,2020-07-18 16:22:53.725278,2020-06-24 00:00:00.000000,0.01047047,1.22908179,27.92584673,5,666,15142,0,202,5203,0.00171821,0.37364411,9.59606607,0.35513270,0.74933874,1.43844929
20169,0,USKansasSaline,Kansas,Saline,2020-07-18 16:22:53.725278,2020-06-25 00:00:00.000000,0.01073651,1.11153531,30.45446981,5,602,16513,0,221,5455,0.00169393,0.40804311,10.06149681,0.35699818,0.73521465,1.33427470
20169,0,USKansasSaline,Kansas,Saline,2020-07-18 16:22:53.725278,2020-06-26 00:00:00.000000,0.01101034,1.53504942,33.02189845,5,832,17905,0,255,5754,0.00167045,0.47101606,10.61254790,0.36066877,0.73098691,1.31603609
20169,0,USKansasSaline,Kansas,Saline,2020-07-18 16:22:53.725278,2020-06-27 00:00:00.000000,0.01128991,1.33147544,35.58828297,6,721,19297,0,267,6268,0.00164749,0.49255648,11.56058427,0.35953043,0.73636146,1.26729015
20169,0,USKansasSaline,Kansas,Saline,2020-07-18 16:22:53.725278,2020-06-28 00:00:00.000000,0.01157149,1.82187130,38.09880278,6,987,20658,0,306,6804,0.00162479,0.56445691,12.54811785,0.35473030,0.74028051,1.20630484
20169,0,USKansasSaline,Kansas,Saline,2020-07-18 16:22:53.725278,2020-06-29 00:00:00.000000,0.01174440,1.53212577,40.46315042,6,830,21940,0,315,7355,0.00160216,0.58272471,13.56475759,0.35060350,0.72872569,1.17440021
20169,0,USKansasSaline,Kansas,Saline,2020-07-18 16:22:53.725278,2020-06-30 00:00:00.000000,0.01146100,1.98012793,42.52161765,6,1073,23056,0,352,7911,0.00157958,0.64966761,14.59046250,0.34803747,0.74450082,1.18431972
20169,0,USKansasSaline,Kansas,Saline,2020-07-18 16:22:53.725278,2020-07-01 00:00:00.000000,0.01118784,1.72604638,44.12110696,6,935,23924,0,371,8452,0.00155712,0.68460136,15.58739551,0.34762262,0.73712837,1.18541495
20169,0,USKansasSaline,Kansas,Saline,2020-07-18 16:22:53.725278,2020-07-02 00:00:00.000000,0.01092303,2.14062641,45.31319819,5,1160,24570,0,401,8958,0.00153484,0.74090198,16.52156574,0.34748628,0.71509442,1.17600625
20169,0,USKansasSaline,Kansas,Saline,2020-07-18 16:22:53.725278,2020-07-03 00:00:00.000000,0.01066536,1.91373800,46.22407033,5,1037,25064,0,434,9426,0.00151282,0.80058206,17.38416510,0.34744882,0.70128040,1.16798040
20169,0,USKansasSaline,Kansas,Saline,2020-07-18 16:22:53.725278,2020-07-04 00:00:00.000000,0.01041370,2.26729734,46.63922672,5,1229,25289,0,477,9856,0.00149108,0.88104704,18.17714719,0.34746679,0.68553880,1.16100419
20169,0,USKansasSaline,Kansas,Saline,2020-07-18 16:22:53.725278,2020-07-05 00:00:00.000000,0.01016554,2.10505093,45.81606240,5,1141,24843,0,496,10249,0.00146966,0.91607604,18.90304440,0.34760408,0.65974747,1.16255578
20169,0,USKansasSaline,Kansas,Saline,2020-07-18 16:22:53.725278,2020-07-06 00:00:00.000000,0.00991708,2.28390399,44.65398805,5,1238,24213,0,540,10607,0.00144856,0.99597945,19.56243490,0.32569559,0.63850829,1.17791061
20169,0,USKansasSaline,Kansas,Saline,2020-07-18 16:22:53.725278,2020-07-07 00:00:00.000000,0.00966138,2.24663455,43.29716469,5,1218,23477,0,548,10927,0.00142783,1.01081108,20.15338540,0.32668544,0.63844673,1.28257867
20169,0,USKansasSaline,Kansas,Saline,2020-07-18 16:22:53.725278,2020-07-08 00:00:00.000000,0.00938710,2.30170866,41.78673475,5,1248,22658,0,566,11209,0.00140757,1.04556100,20.67183246,0.33466294,0.62409388,1.30361222
20169,0,USKansasSaline,Kansas,Saline,2020-07-18 16:22:53.725278,2020-07-09 00:00:00.000000,0.00909245,2.29532922,40.20491346,4,1244,21800,0,568,11449,0.00138814,1.04910553,21.11430991,0.35230257,0.61843044,1.34257073
20169,0,USKansasSaline,Kansas,Saline,2020-07-18 16:22:53.725278,2020-07-10 00:00:00.000000,0.00878889,2.28663420,39.56832725,4,1239,21455,0,582,11600,0.00137049,1.07405010,21.39279470,0.34925333,0.61428667,1.35090489
20169,0,USKansasSaline,Kansas,Saline,2020-07-18 16:22:53.725278,2020-07-11 00:00:00.000000,0.00848682,2.27572390,39.87040356,4,1233,21619,0,574,11695,0.00135547,1.05928657,21.56829398,0.34181820,0.61285884,1.35189113
20169,0,USKansasSaline,Kansas,Saline,2020-07-18 16:22:53.725278,2020-07-12 00:00:00.000000,0.00819128,2.26264577,40.10118802,4,1226,21744,0,594,11559,0.00134290,1.09588104,21.31715991,0.33886210,0.61239907,1.35200523
20169,0,USKansasSaline,Kansas,Saline,2020-07-18 16:22:53.725278,2020-07-13 00:00:00.000000,0.00790423,2.24744730,40.26468602,4,1218,21833,0,568,11191,0.00133211,1.04805635,20.63938661,0.33775353,0.61225429,1.35201842
20169,0,USKansasSaline,Kansas,Saline,2020-07-18 16:22:53.725278,2020-07-14 00:00:00.000000,0.00762640,2.23502949,40.36304672,4,1211,21886,0,602,10813,0.00132253,1.11197262,19.94242029,0.33734680,0.61220902,1.35201994
20169,0,USKansasSaline,Kansas,Saline,2020-07-18 16:22:53.725278,2020-07-15 00:00:00.000000,0.00735795,2.24452161,39.97160015,3,1217,21674,0,560,10422,0.00131375,1.03288673,19.22095140,0.33719869,0.61219490,1.35202012
20169,0,USKansasSaline,Kansas,Saline,2020-07-18 16:22:53.725278,2020-07-16 00:00:00.000000,0.00709882,2.25079014,40.25083596,3,1220,21825,0,605,10100,0.00130549,1.11595568,18.62719631,0.33714485,0.61219049,1.35202014
20169,0,USKansasSaline,Kansas,Saline,2020-07-18 16:22:53.725278,2020-07-17 00:00:00.000000,0.00684883,2.25378002,40.46699789,3,1222,21942,0,549,9767,0.00128191,1.01401783,18.01369251,0.33712528,0.61218912,1.35202014
20169,0,USKansasSaline,Kansas,Saline,2020-07-18 16:22:53.725278,2020-07-18 00:00:00.000000,0.00660775,2.20202546,40.40129632,3,1194,21907,0,595,9439,0.00123498,1.09873730,17.40801273,0.33711814,0.61218869,1.35202014
20169,0,USKansasSaline,Kansas,Saline,2020-07-18 16:22:53.725278,2020-07-19 00:00:00.000000,0.00637532,2.19907874,39.31984054,3,1192,21320,0,562,9165,0.00118963,1.03795201,16.90374011,0.33711553,0.61218856,1.35202014
20169,0,USKansasSaline,Kansas,Saline,2020-07-18 16:22:53.725278,2020-07-20 00:00:00.000000,0.00615126,2.19268254,38.15722324,3,1188,20690,0,575,9216,0.00114585,1.06221881,16.99734041,0.33711457,0.61218852,1.35202014
20169,0,USKansasSaline,Kansas,Saline,2020-07-18 16:22:53.725278,2020-07-21 00:00:00.000000,0.00593528,2.18287122,36.86382529,3,1183,19989,0,565,9254,0.00110362,1.04357386,17.06651748,0.33711422,0.61218850,1.35202014
20169,0,USKansasSaline,Kansas,Saline,2020-07-18 16:22:53.725278,2020-07-22 00:00:00.000000,0.00572712,2.16970095,36.86132040,3,1176,19987,0,555,9278,0.00106292,1.02471843,17.11195333,0.33711408,0.61218850,1.35202014
20169,0,USKansasSaline,Kansas,Saline,2020-07-18 16:22:53.725278,2020-07-23 00:00:00.000000,0.00552650,2.15324882,36.85485687,2,1167,19984,0,536,9138,0.00102370,0.98864958,16.85396894,0.33711403,0.61218850,1.35202014
20169,0,USKansasSaline,Kansas,Saline,2020-07-18 16:22:53.725278,2020-07-24 00:00:00.000000,0.00533313,2.11343076,35.93125103,2,1145,19483,0,510,9192,0.00098591,0.94229654,16.95232223,0.33711401,0.61218850,1.35202014
20169,0,USKansasSaline,Kansas,Saline,2020-07-18 16:22:53.725278,2020-07-25 00:00:00.000000,0.00514677,2.02046325,36.25134126,2,1095,19656,0,492,9232,0.00094951,0.90766014,17.02634969,0.33711400,0.61218850,1.35202014
20169,0,USKansasSaline,Kansas,Saline,2020-07-18 16:22:53.725278,2020-07-26 00:00:00.000000,0.00496716,1.99681600,36.81340814,2,1082,19961,0,483,9259,0.00091446,0.89162399,17.07629463,0.33711400,0.61218850,1.35202014
20169,0,USKansasSaline,Kansas,Saline,2020-07-18 16:22:53.725278,2020-07-27 00:00:00.000000,0.00479405,1.97199241,37.16782547,2,1069,20153,0,479,9273,0.00088071,0.88416350,17.10251757,0.33711400,0.61218850,1.35202014
20169,0,USKansasSaline,Kansas,Saline,2020-07-18 16:22:53.725278,2020-07-28 00:00:00.000000,0.00462719,1.94606046,37.20637901,2,1055,20174,0,482,9275,0.00084821,0.89046247,17.10549453,0.33711400,0.61218850,1.35202014
20169,0,USKansasSaline,Kansas,Saline,2020-07-18 16:22:53.725278,2020-07-29 00:00:00.000000,0.00446637,1.91908984,37.07135273,2,1040,20101,0,482,9264,0.00081692,0.88951345,17.08581267,0.33711400,0.61218850,1.35202014
20169,0,USKansasSaline,Kansas,Saline,2020-07-18 16:22:53.725278,2020-07-30 00:00:00.000000,0.00431136,1.89115151,37.03687571,2,1025,20082,0,471,9213,0.00078678,0.87008979,16.99177941,0.33711400,0.61218850,1.35202014
