FIPS,HR_UID,nameid,province,region,analysisTime,dates,pointprevalence_025,pointprevalence_50,pointprevalence_975,pointinfections_025,pointinfections_50,pointinfections_975,pointinfectious_025,pointinfectious_50,pointinfectious_975,pointinfectiousprevalence_05,pointinfectiousprevalence_50,pointinfectiousprevalence_95,infectrate_025,infectrate_50,infectrate_975
6069,0,USCaliforniaSanBenito,California,San Benito,2020-07-18 19:10:18.297425,2020-03-09 00:00:00.000000,0.00552860,0.02450015,0.15681453,3,15,98,0,2,15,0.00081382,0.00375726,0.02438557,0.53073540,0.70444866,0.95360589
6069,0,USCaliforniaSanBenito,California,San Benito,2020-07-18 19:10:18.297425,2020-03-10 00:00:00.000000,0.00639705,0.02851263,0.15357877,4,17,96,0,2,16,0.00143634,0.00410065,0.02615421,0.53072917,0.70444927,0.95360640
6069,0,USCaliforniaSanBenito,California,San Benito,2020-07-18 19:10:18.297425,2020-03-11 00:00:00.000000,0.00734548,0.02789205,0.16559363,4,17,104,0,2,17,0.00126841,0.00404959,0.02756905,0.53071260,0.70445036,0.95360712
6069,0,USCaliforniaSanBenito,California,San Benito,2020-07-18 19:10:18.297425,2020-03-12 00:00:00.000000,0.00826751,0.02966120,0.15555300,5,18,97,1,2,18,0.00161149,0.00434961,0.02910903,0.53066862,0.70445224,0.95360793
6069,0,USCaliforniaSanBenito,California,San Benito,2020-07-18 19:10:18.297425,2020-03-13 00:00:00.000000,0.00918448,0.03000415,0.15789376,5,18,99,0,2,19,0.00144778,0.00453949,0.03102341,0.53055209,0.70445547,0.95360815
6069,0,USCaliforniaSanBenito,California,San Benito,2020-07-18 19:10:18.297425,2020-03-14 00:00:00.000000,0.01011467,0.03280262,0.17007316,6,20,106,1,3,20,0.00201241,0.00492814,0.03326699,0.53032498,0.70446016,0.95360484
6069,0,USCaliforniaSanBenito,California,San Benito,2020-07-18 19:10:18.297425,2020-03-15 00:00:00.000000,0.01107461,0.03314758,0.19049505,6,20,119,0,3,22,0.00151313,0.00534611,0.03580908,0.53020016,0.70529674,0.95358669
6069,0,USCaliforniaSanBenito,California,San Benito,2020-07-18 19:10:18.297425,2020-03-16 00:00:00.000000,0.01208027,0.03601786,0.20845533,7,22,130,1,3,24,0.00238611,0.00579451,0.03841934,0.53001900,0.70573652,0.95351201
6069,0,USCaliforniaSanBenito,California,San Benito,2020-07-18 19:10:18.297425,2020-03-17 00:00:00.000000,0.01314766,0.03650592,0.21999385,8,22,138,1,3,25,0.00159314,0.00607683,0.04114003,0.52766430,0.70456104,0.94826246
6069,0,USCaliforniaSanBenito,California,San Benito,2020-07-18 19:10:18.297425,2020-03-18 00:00:00.000000,0.01418627,0.04046895,0.22965712,8,25,144,1,4,27,0.00274241,0.00681469,0.04426912,0.52669848,0.69663883,0.93055441
6069,0,USCaliforniaSanBenito,California,San Benito,2020-07-18 19:10:18.297425,2020-03-19 00:00:00.000000,0.01472435,0.03937145,0.23964643,9,24,150,1,4,30,0.00168610,0.00717753,0.04777790,0.51543566,0.67973632,0.92958643
6069,0,USCaliforniaSanBenito,California,San Benito,2020-07-18 19:10:18.297425,2020-03-20 00:00:00.000000,0.01520827,0.04455027,0.25064478,9,27,157,1,4,32,0.00309761,0.00780747,0.05164004,0.50011530,0.67244101,0.97275147
6069,0,USCaliforniaSanBenito,California,San Benito,2020-07-18 19:10:18.297425,2020-03-21 00:00:00.000000,0.01562538,0.04491934,0.27166117,9,28,170,1,5,35,0.00182453,0.00833309,0.05684671,0.47588465,0.65652393,0.98631007
6069,0,USCaliforniaSanBenito,California,San Benito,2020-07-18 19:10:18.297425,2020-03-22 00:00:00.000000,0.01599656,0.04869329,0.29488439,10,30,185,2,5,38,0.00335232,0.00878021,0.06160674,0.45065175,0.64143500,0.98473706
6069,0,USCaliforniaSanBenito,California,San Benito,2020-07-18 19:10:18.297425,2020-03-23 00:00:00.000000,0.01630916,0.04906372,0.31944308,10,30,200,1,5,41,0.00208514,0.00912014,0.06655287,0.42869436,0.63072471,0.99426524
6069,0,USCaliforniaSanBenito,California,San Benito,2020-07-18 19:10:18.297425,2020-03-24 00:00:00.000000,0.01656311,0.05233742,0.34542807,10,32,216,2,6,45,0.00356674,0.00962244,0.07216608,0.41535534,0.62403198,0.98522926
6069,0,USCaliforniaSanBenito,California,San Benito,2020-07-18 19:10:18.297425,2020-03-25 00:00:00.000000,0.01684871,0.05402998,0.37295957,10,33,234,1,6,49,0.00240126,0.00987828,0.07844574,0.41701884,0.61684354,0.98498873
6069,0,USCaliforniaSanBenito,California,San Benito,2020-07-18 19:10:18.297425,2020-03-26 00:00:00.000000,0.01727765,0.05785329,0.40215663,10,36,252,2,6,53,0.00357241,0.01036333,0.08516761,0.41643035,0.61047616,0.99849930
6069,0,USCaliforniaSanBenito,California,San Benito,2020-07-18 19:10:18.297425,2020-03-27 00:00:00.000000,0.01778856,0.05828308,0.43190259,11,36,271,1,6,58,0.00278277,0.01093973,0.09235801,0.40790390,0.60220833,1.00861319
6069,0,USCaliforniaSanBenito,California,San Benito,2020-07-18 19:10:18.297425,2020-03-28 00:00:00.000000,0.01836922,0.06516164,0.45936150,11,40,288,2,7,62,0.00362563,0.01156218,0.10003929,0.38784543,0.59094902,1.01852572
6069,0,USCaliforniaSanBenito,California,San Benito,2020-07-18 19:10:18.297425,2020-03-29 00:00:00.000000,0.01907081,0.06419616,0.48228376,11,40,302,2,7,67,0.00321211,0.01225325,0.10821004,0.35253968,0.57400712,1.03660230
6069,0,USCaliforniaSanBenito,California,San Benito,2020-07-18 19:10:18.297425,2020-03-30 00:00:00.000000,0.01970331,0.06896820,0.50563341,12,43,317,2,8,73,0.00390940,0.01300079,0.11643418,0.33396651,0.56643510,1.04538454
6069,0,USCaliforniaSanBenito,California,San Benito,2020-07-18 19:10:18.297425,2020-03-31 00:00:00.000000,0.02050375,0.07021885,0.52956269,12,44,332,2,8,78,0.00370647,0.01405486,0.12419053,0.32965117,0.55104775,1.05048294
6069,0,USCaliforniaSanBenito,California,San Benito,2020-07-18 19:10:18.297425,2020-04-01 00:00:00.000000,0.02190928,0.07789252,0.55412523,13,48,348,2,9,79,0.00429659,0.01458136,0.12635720,0.32126062,0.54790812,1.05487876
6069,0,USCaliforniaSanBenito,California,San Benito,2020-07-18 19:10:18.297425,2020-04-02 00:00:00.000000,0.02261949,0.07689010,0.57944416,14,48,363,2,9,80,0.00423818,0.01545873,0.12859373,0.31376734,0.53623864,1.05908605
6069,0,USCaliforniaSanBenito,California,San Benito,2020-07-18 19:10:18.297425,2020-04-03 00:00:00.000000,0.02331672,0.08337411,0.60579768,14,52,380,3,9,82,0.00480536,0.01545778,0.13171180,0.31397568,0.52937610,1.06066161
6069,0,USCaliforniaSanBenito,California,San Benito,2020-07-18 19:10:18.297425,2020-04-04 00:00:00.000000,0.02399702,0.08674120,0.63356017,15,54,397,3,9,85,0.00484142,0.01585272,0.13563935,0.31546335,0.51955244,1.05645508
6069,0,USCaliforniaSanBenito,California,San Benito,2020-07-18 19:10:18.297425,2020-04-05 00:00:00.000000,0.02440645,0.09190407,0.66337783,15,57,416,3,10,88,0.00512237,0.01637691,0.14082871,0.31565556,0.51825327,1.05180947
6069,0,USCaliforniaSanBenito,California,San Benito,2020-07-18 19:10:18.297425,2020-04-06 00:00:00.000000,0.02441628,0.09380242,0.69680766,15,58,437,3,10,92,0.00518527,0.01725565,0.14721863,0.31314032,0.51849006,1.06245672
6069,0,USCaliforniaSanBenito,California,San Benito,2020-07-18 19:10:18.297425,2020-04-07 00:00:00.000000,0.02509929,0.10175704,0.73614844,15,63,462,3,10,97,0.00539912,0.01728917,0.15490489,0.30427733,0.51688310,1.07748838
6069,0,USCaliforniaSanBenito,California,San Benito,2020-07-18 19:10:18.297425,2020-04-08 00:00:00.000000,0.02580092,0.10425496,0.78159757,16,65,490,3,11,102,0.00554486,0.01832027,0.16290019,0.28710406,0.51787647,1.08823358
6069,0,USCaliforniaSanBenito,California,San Benito,2020-07-18 19:10:18.297425,2020-04-09 00:00:00.000000,0.02657573,0.10941503,0.83138970,16,68,522,3,11,107,0.00574887,0.01832263,0.17123487,0.27952429,0.51873621,1.09126696
6069,0,USCaliforniaSanBenito,California,San Benito,2020-07-18 19:10:18.297425,2020-04-10 00:00:00.000000,0.02775465,0.11190733,0.88446481,17,70,555,3,12,113,0.00596892,0.01945444,0.17996482,0.27860423,0.51737382,1.08512896
6069,0,USCaliforniaSanBenito,California,San Benito,2020-07-18 19:10:18.297425,2020-04-11 00:00:00.000000,0.02848658,0.11674310,0.94062591,17,73,590,3,12,118,0.00613677,0.01952911,0.18902021,0.27321932,0.51521696,1.07709207
6069,0,USCaliforniaSanBenito,California,San Benito,2020-07-18 19:10:18.297425,2020-04-12 00:00:00.000000,0.02929956,0.11958309,1.00003193,18,75,628,3,13,124,0.00631202,0.02096797,0.19793773,0.27526975,0.52532858,1.08851534
6069,0,USCaliforniaSanBenito,California,San Benito,2020-07-18 19:10:18.297425,2020-04-13 00:00:00.000000,0.03017208,0.12435134,1.06042543,18,78,666,4,13,130,0.00649747,0.02110120,0.20722404,0.27285749,0.53096616,1.08147335
6069,0,USCaliforniaSanBenito,California,San Benito,2020-07-18 19:10:18.297425,2020-04-14 00:00:00.000000,0.03108695,0.12842930,1.12291735,19,80,705,4,13,136,0.00665073,0.02206897,0.21692268,0.27174533,0.53536522,1.07416333
6069,0,USCaliforniaSanBenito,California,San Benito,2020-07-18 19:10:18.297425,2020-04-15 00:00:00.000000,0.03204007,0.13328998,1.18955951,20,83,747,4,14,142,0.00682280,0.02324311,0.22709349,0.27277226,0.53826351,1.08976864
6069,0,USCaliforniaSanBenito,California,San Benito,2020-07-18 19:10:18.297425,2020-04-16 00:00:00.000000,0.03302471,0.13566765,1.25900695,20,85,790,4,15,149,0.00700378,0.02416174,0.23778990,0.27589273,0.54067523,1.14759184
6069,0,USCaliforniaSanBenito,California,San Benito,2020-07-18 19:10:18.297425,2020-04-17 00:00:00.000000,0.03405513,0.14167106,1.32637132,21,88,833,4,15,156,0.00719325,0.02520437,0.24906226,0.27167066,0.54180281,1.18713368
6069,0,USCaliforniaSanBenito,California,San Benito,2020-07-18 19:10:18.297425,2020-04-18 00:00:00.000000,0.03508518,0.14517009,1.38704557,22,91,871,4,16,163,0.00739040,0.02627870,0.26098606,0.27040622,0.54585311,1.20360713
6069,0,USCaliforniaSanBenito,California,San Benito,2020-07-18 19:10:18.297425,2020-04-19 00:00:00.000000,0.03630418,0.14989382,1.43769540,22,94,902,4,17,171,0.00762266,0.02736756,0.27372696,0.27013623,0.54874897,1.21033155
6069,0,USCaliforniaSanBenito,California,San Benito,2020-07-18 19:10:18.297425,2020-04-20 00:00:00.000000,0.03749222,0.15457781,1.48488301,23,97,932,4,17,180,0.00788450,0.02847088,0.28750702,0.26510173,0.55220001,1.21257738
6069,0,USCaliforniaSanBenito,California,San Benito,2020-07-18 19:10:18.297425,2020-04-21 00:00:00.000000,0.03886412,0.16636825,1.53344807,24,104,963,5,18,189,0.00816015,0.02958992,0.30241940,0.26394236,0.55772009,1.21334383
6069,0,USCaliforniaSanBenito,California,San Benito,2020-07-18 19:10:18.297425,2020-04-22 00:00:00.000000,0.03992752,0.17363704,1.58494232,25,109,995,5,19,200,0.00827327,0.03072728,0.31845736,0.26472187,0.56652010,1.21377093
6069,0,USCaliforniaSanBenito,California,San Benito,2020-07-18 19:10:18.297425,2020-04-23 00:00:00.000000,0.04153195,0.18431324,1.63926208,26,115,1029,5,20,210,0.00830479,0.03221636,0.33559080,0.26674333,0.58469572,1.23477838
6069,0,USCaliforniaSanBenito,California,San Benito,2020-07-18 19:10:18.297425,2020-04-24 00:00:00.000000,0.04126266,0.18447643,1.72841748,25,115,1085,5,20,222,0.00836691,0.03321754,0.35378960,0.26780083,0.58520549,1.25095046
6069,0,USCaliforniaSanBenito,California,San Benito,2020-07-18 19:10:18.297425,2020-04-25 00:00:00.000000,0.04615141,0.20215504,1.84225917,28,126,1157,5,21,234,0.00845387,0.03487625,0.37302848,0.26118389,0.56994440,1.25529210
6069,0,USCaliforniaSanBenito,California,San Benito,2020-07-18 19:10:18.297425,2020-04-26 00:00:00.000000,0.04243299,0.20097398,1.96025108,26,126,1231,5,23,247,0.00855832,0.03686228,0.39329483,0.26875168,0.56931441,1.27816426
6069,0,USCaliforniaSanBenito,California,San Benito,2020-07-18 19:10:18.297425,2020-04-27 00:00:00.000000,0.05208373,0.21859804,2.07703375,32,137,1304,5,24,260,0.00886883,0.03862311,0.41461298,0.27146585,0.57300353,1.32317459
6069,0,USCaliforniaSanBenito,California,San Benito,2020-07-18 19:10:18.297425,2020-04-28 00:00:00.000000,0.04360043,0.22182140,2.19259742,27,139,1377,5,25,274,0.00920633,0.04126729,0.43709579,0.27424340,0.59696571,1.34795198
6069,0,USCaliforniaSanBenito,California,San Benito,2020-07-18 19:10:18.297425,2020-04-29 00:00:00.000000,0.05867189,0.23663032,2.31138367,36,148,1451,6,27,289,0.00955630,0.04336704,0.46097336,0.27987087,0.60765799,1.35161605
6069,0,USCaliforniaSanBenito,California,San Benito,2020-07-18 19:10:18.297425,2020-04-30 00:00:00.000000,0.04556700,0.24484917,2.43453832,28,153,1529,6,29,305,0.00991537,0.04635238,0.48643419,0.28101761,0.61236888,1.34892050
6069,0,USCaliforniaSanBenito,California,San Benito,2020-07-18 19:10:18.297425,2020-05-01 00:00:00.000000,0.06148884,0.25663385,2.56156974,38,161,1608,6,30,324,0.01027858,0.04876708,0.51711196,0.28208061,0.60597570,1.34198084
6069,0,USCaliforniaSanBenito,California,San Benito,2020-07-18 19:10:18.297425,2020-05-02 00:00:00.000000,0.05013697,0.26525304,2.70744651,31,166,1700,6,32,348,0.01064055,0.05173123,0.55433719,0.28309371,0.62003812,1.33282221
6069,0,USCaliforniaSanBenito,California,San Benito,2020-07-18 19:10:18.297425,2020-05-03 00:00:00.000000,0.06404629,0.28047439,2.86790502,40,176,1801,6,34,371,0.01099923,0.05469137,0.59182748,0.28497685,0.63923378,1.32459035
6069,0,USCaliforniaSanBenito,California,San Benito,2020-07-18 19:10:18.297425,2020-05-04 00:00:00.000000,0.05539386,0.28612048,3.06572626,34,179,1925,7,36,396,0.01135864,0.05804774,0.63124450,0.29273480,0.64515805,1.31760606
6069,0,USCaliforniaSanBenito,California,San Benito,2020-07-18 19:10:18.297425,2020-05-05 00:00:00.000000,0.06885804,0.30302354,3.26315917,43,190,2049,7,37,422,0.01172539,0.06035496,0.67266750,0.30238249,0.64446989,1.31326475
6069,0,USCaliforniaSanBenito,California,San Benito,2020-07-18 19:10:18.297425,2020-05-06 00:00:00.000000,0.06064922,0.31271077,3.47113867,38,196,2180,7,39,449,0.01210676,0.06336544,0.71623021,0.29890210,0.66684145,1.30949066
6069,0,USCaliforniaSanBenito,California,San Benito,2020-07-18 19:10:18.297425,2020-05-07 00:00:00.000000,0.07861393,0.32996115,3.69167802,49,207,2318,7,41,478,0.01250810,0.06589953,0.76215277,0.29134312,0.66700366,1.30004637
6069,0,USCaliforniaSanBenito,California,San Benito,2020-07-18 19:10:18.297425,2020-05-08 00:00:00.000000,0.06774343,0.34375725,3.92626032,42,215,2466,8,44,509,0.01292821,0.07013589,0.81075472,0.29076867,0.68157330,1.25929400
6069,0,USCaliforniaSanBenito,California,San Benito,2020-07-18 19:10:18.297425,2020-05-09 00:00:00.000000,0.09190689,0.36349252,4.17643073,57,228,2623,8,45,541,0.01336449,0.07263918,0.86244098,0.29432679,0.69287460,1.21752297
6069,0,USCaliforniaSanBenito,California,San Benito,2020-07-18 19:10:18.297425,2020-05-10 00:00:00.000000,0.07606504,0.37562857,4.44525938,47,235,2791,8,47,576,0.01381657,0.07635676,0.91762288,0.29337839,0.70307169,1.20134863
6069,0,USCaliforniaSanBenito,California,San Benito,2020-07-18 19:10:18.297425,2020-05-11 00:00:00.000000,0.09745253,0.40452873,4.74029228,61,254,2977,8,49,613,0.01428634,0.07941127,0.97666161,0.29175904,0.70348853,1.20561109
6069,0,USCaliforniaSanBenito,California,San Benito,2020-07-18 19:10:18.297425,2020-05-12 00:00:00.000000,0.08425628,0.41108893,5.06892928,52,258,3183,9,52,653,0.01477958,0.08282170,1.03987800,0.28997495,0.68148478,1.20715393
6069,0,USCaliforniaSanBenito,California,San Benito,2020-07-18 19:10:18.297425,2020-05-13 00:00:00.000000,0.10428713,0.43983621,5.39242351,65,276,3386,9,54,695,0.01531183,0.08726157,1.10757091,0.28712747,0.67890085,1.21206666
6069,0,USCaliforniaSanBenito,California,San Benito,2020-07-18 19:10:18.297425,2020-05-14 00:00:00.000000,0.09480555,0.45570865,5.69221846,59,286,3575,9,57,741,0.01591897,0.09231094,1.18002769,0.28378942,0.68588488,1.23392795
6069,0,USCaliforniaSanBenito,California,San Benito,2020-07-18 19:10:18.297425,2020-05-15 00:00:00.000000,0.11452901,0.48034993,6.00424636,71,301,3771,10,61,789,0.01665607,0.09762107,1.25753127,0.28199029,0.69836800,1.24944349
6069,0,USCaliforniaSanBenito,California,San Benito,2020-07-18 19:10:18.297425,2020-05-16 00:00:00.000000,0.11220550,0.50012711,6.33632061,70,314,3979,11,64,841,0.01756216,0.10320562,1.34036418,0.28237085,0.68254003,1.27934149
6069,0,USCaliforniaSanBenito,California,San Benito,2020-07-18 19:10:18.297425,2020-05-17 00:00:00.000000,0.12677187,0.53188158,6.69199846,79,334,4203,11,68,897,0.01863962,0.10848533,1.42880204,0.28391473,0.68762662,1.30230834
6069,0,USCaliforniaSanBenito,California,San Benito,2020-07-18 19:10:18.297425,2020-05-18 00:00:00.000000,0.13110543,0.54532171,7.07305289,82,342,4442,12,71,956,0.01987230,0.11358245,1.52307003,0.29772602,0.68922073,1.31723436
6069,0,USCaliforniaSanBenito,California,San Benito,2020-07-18 19:10:18.297425,2020-05-19 00:00:00.000000,0.14056372,0.58262645,7.45154504,88,365,4680,13,75,1019,0.02123794,0.11980948,1.62324417,0.29900054,0.68499660,1.31830037
6069,0,USCaliforniaSanBenito,California,San Benito,2020-07-18 19:10:18.297425,2020-05-20 00:00:00.000000,0.15020788,0.60991093,7.84991500,94,383,4930,14,79,1086,0.02271628,0.12637358,1.72950688,0.31064003,0.68492730,1.31379680
6069,0,USCaliforniaSanBenito,California,San Benito,2020-07-18 19:10:18.297425,2020-05-21 00:00:00.000000,0.15579813,0.64158851,8.27227618,97,402,5195,15,83,1157,0.02429336,0.13329230,1.84235245,0.31920556,0.68606926,1.30826892
6069,0,USCaliforniaSanBenito,California,San Benito,2020-07-18 19:10:18.297425,2020-05-22 00:00:00.000000,0.16662922,0.68161129,8.75148797,104,428,5496,16,88,1232,0.02595926,0.14058509,1.96211870,0.32117577,0.68571934,1.30412510
6069,0,USCaliforniaSanBenito,California,San Benito,2020-07-18 19:10:18.297425,2020-05-23 00:00:00.000000,0.17247628,0.71899011,9.28969372,108,451,5834,17,93,1312,0.02770479,0.14827279,2.08909228,0.32387694,0.69459901,1.30280671
6069,0,USCaliforniaSanBenito,California,San Benito,2020-07-18 19:10:18.297425,2020-05-24 00:00:00.000000,0.18145065,0.76195550,9.85831037,113,478,6191,18,98,1396,0.02931078,0.15637777,2.22361440,0.32691679,0.68821752,1.31991382
6069,0,USCaliforniaSanBenito,California,San Benito,2020-07-18 19:10:18.297425,2020-05-25 00:00:00.000000,0.19034699,0.80847494,10.45865715,119,507,6568,19,103,1486,0.03108037,0.16492505,2.36606545,0.32634908,0.67939306,1.34185838
6069,0,USCaliforniaSanBenito,California,San Benito,2020-07-18 19:10:18.297425,2020-05-26 00:00:00.000000,0.19993229,0.86109362,11.09179515,125,540,6966,20,109,1567,0.03315488,0.17394711,2.49594893,0.33196794,0.67293702,1.35982109
6069,0,USCaliforniaSanBenito,California,San Benito,2020-07-18 19:10:18.297425,2020-05-27 00:00:00.000000,0.21013782,0.91299961,11.75832095,131,573,7385,22,115,1651,0.03534741,0.18349988,2.62981518,0.33510719,0.67630536,1.35415863
6069,0,USCaliforniaSanBenito,California,San Benito,2020-07-18 19:10:18.297425,2020-05-28 00:00:00.000000,0.22101321,0.95908341,12.45759145,138,602,7824,23,121,1741,0.03746471,0.19368416,2.77294408,0.33753593,0.69796893,1.37215386
6069,0,USCaliforniaSanBenito,California,San Benito,2020-07-18 19:10:18.297425,2020-05-29 00:00:00.000000,0.23250018,1.00665117,13.18608905,146,632,8281,24,129,1838,0.03969519,0.20576072,2.92791014,0.34480311,0.69414141,1.40826553
6069,0,USCaliforniaSanBenito,California,San Benito,2020-07-18 19:10:18.297425,2020-05-30 00:00:00.000000,0.24495576,1.05537091,13.93681474,153,662,8753,26,136,1944,0.04205726,0.21798701,3.09628086,0.35918497,0.71694512,1.43138572
6069,0,USCaliforniaSanBenito,California,San Benito,2020-07-18 19:10:18.297425,2020-05-31 00:00:00.000000,0.25664280,1.10477146,14.70537353,161,693,9236,27,144,2053,0.04457402,0.22964851,3.26978189,0.37259041,0.71762708,1.44443521
6069,0,USCaliforniaSanBenito,California,San Benito,2020-07-18 19:10:18.297425,2020-06-01 00:00:00.000000,0.27181184,1.15441184,15.49553019,170,725,9732,29,151,2169,0.04728741,0.24108317,3.45366126,0.37205386,0.71032337,1.45008479
6069,0,USCaliforniaSanBenito,California,San Benito,2020-07-18 19:10:18.297425,2020-06-02 00:00:00.000000,0.28244488,1.21837792,16.30268414,177,765,10239,31,159,2291,0.05026139,0.25450529,3.64886247,0.37086851,0.70219431,1.47418069
6069,0,USCaliforniaSanBenito,California,San Benito,2020-07-18 19:10:18.297425,2020-06-03 00:00:00.000000,0.30182070,1.28729511,17.06470954,189,808,10718,33,169,2421,0.05332377,0.26908412,3.85563618,0.37178366,0.70597984,1.47853147
6069,0,USCaliforniaSanBenito,California,San Benito,2020-07-18 19:10:18.297425,2020-06-04 00:00:00.000000,0.31086344,1.35760231,17.81440858,195,852,11188,35,176,2559,0.05652945,0.28167341,4.07441170,0.37187165,0.68500242,1.48212219
6069,0,USCaliforniaSanBenito,California,San Benito,2020-07-18 19:10:18.297425,2020-06-05 00:00:00.000000,0.32940327,1.41926428,18.36121817,206,891,11532,37,185,2704,0.05994943,0.29494708,4.30580545,0.37475544,0.68047243,1.49580698
6069,0,USCaliforniaSanBenito,California,San Benito,2020-07-18 19:10:18.297425,2020-06-06 00:00:00.000000,0.33948788,1.49155038,18.89175340,213,936,11865,39,194,2858,0.06363105,0.30896982,4.55043569,0.37180057,0.67486815,1.48785921
6069,0,USCaliforniaSanBenito,California,San Benito,2020-07-18 19:10:18.297425,2020-06-07 00:00:00.000000,0.36351810,1.57753283,19.40706088,228,990,12189,42,203,3020,0.06754049,0.32381445,4.80869438,0.35406617,0.67215761,1.49039482
6069,0,USCaliforniaSanBenito,California,San Benito,2020-07-18 19:10:18.297425,2020-06-08 00:00:00.000000,0.39077692,1.66567846,19.99850645,245,1046,12560,45,213,3191,0.07320232,0.33955797,5.08064255,0.34893871,0.68392982,1.47566142
6069,0,USCaliforniaSanBenito,California,San Benito,2020-07-18 19:10:18.297425,2020-06-09 00:00:00.000000,0.42100982,1.75754309,21.03380178,264,1103,13210,47,223,3370,0.07626991,0.35627526,5.36604889,0.34271215,0.68375717,1.42951206
6069,0,USCaliforniaSanBenito,California,San Benito,2020-07-18 19:10:18.297425,2020-06-10 00:00:00.000000,0.45188977,1.85112200,22.09400159,283,1162,13876,51,234,3557,0.08222714,0.37402970,5.66449509,0.35040448,0.68579403,1.41868627
6069,0,USCaliforniaSanBenito,California,San Benito,2020-07-18 19:10:18.297425,2020-06-11 00:00:00.000000,0.48364455,1.92492125,23.18285140,303,1209,14560,54,246,3753,0.08640231,0.39286011,5.97550390,0.33978861,0.68668316,1.41584526
6069,0,USCaliforniaSanBenito,California,San Benito,2020-07-18 19:10:18.297425,2020-06-12 00:00:00.000000,0.51598931,2.01130974,24.14133220,324,1263,15162,57,259,3956,0.09201314,0.41277377,6.29880576,0.33214446,0.68726299,1.40974024
6069,0,USCaliforniaSanBenito,California,San Benito,2020-07-18 19:10:18.297425,2020-06-13 00:00:00.000000,0.54500398,2.12952879,25.06256802,342,1337,15741,60,272,4167,0.09597814,0.43376928,6.63515959,0.35159244,0.68796593,1.38557183
6069,0,USCaliforniaSanBenito,California,San Benito,2020-07-18 19:10:18.297425,2020-06-14 00:00:00.000000,0.57506354,2.23417765,26.05764970,361,1403,16366,64,286,4389,0.10254337,0.45586669,6.98813251,0.34573214,0.68914408,1.37482757
6069,0,USCaliforniaSanBenito,California,San Benito,2020-07-18 19:10:18.297425,2020-06-15 00:00:00.000000,0.60625447,2.33907406,27.52126690,380,1469,17285,66,291,4625,0.10620674,0.46403815,7.36402387,0.35635981,0.70405852,1.36336377
6069,0,USCaliforniaSanBenito,California,San Benito,2020-07-18 19:10:18.297425,2020-06-16 00:00:00.000000,0.63880669,2.44735021,29.08067974,401,1537,18264,70,315,4877,0.11241976,0.50261767,7.76589114,0.34687168,0.70201660,1.32053267
6069,0,USCaliforniaSanBenito,California,San Benito,2020-07-18 19:10:18.297425,2020-06-17 00:00:00.000000,0.67296971,2.52960689,30.57409197,422,1588,19202,73,323,5144,0.11682188,0.51584854,8.19148008,0.34197408,0.70142303,1.32391363
6069,0,USCaliforniaSanBenito,California,San Benito,2020-07-18 19:10:18.297425,2020-06-18 00:00:00.000000,0.70897645,2.67954894,31.85216901,445,1682,20005,77,342,5424,0.12415171,0.54487349,8.63654717,0.34004995,0.70212549,1.33380138
6069,0,USCaliforniaSanBenito,California,San Benito,2020-07-18 19:10:18.297425,2020-06-19 00:00:00.000000,0.74894894,2.80413857,32.83335193,470,1761,20621,81,345,5713,0.12906732,0.55059808,9.09688064,0.33663779,0.69167465,1.32073144
6069,0,USCaliforniaSanBenito,California,San Benito,2020-07-18 19:10:18.297425,2020-06-20 00:00:00.000000,0.79310249,2.95540135,33.77096198,498,1856,21210,85,381,6009,0.13675753,0.60714024,9.56883336,0.33154696,0.70143771,1.31782298
6069,0,USCaliforniaSanBenito,California,San Benito,2020-07-18 19:10:18.297425,2020-06-21 00:00:00.000000,0.83621585,3.05523340,34.66609886,525,1918,21773,89,378,6294,0.14218067,0.60190721,10.02160687,0.32477963,0.70214577,1.28596786
6069,0,USCaliforniaSanBenito,California,San Benito,2020-07-18 19:10:18.297425,2020-06-22 00:00:00.000000,0.88175793,3.26239865,35.58562759,553,2049,22350,95,421,6544,0.15268876,0.67170727,10.41973164,0.31978621,0.70213004,1.26201720
6069,0,USCaliforniaSanBenito,California,San Benito,2020-07-18 19:10:18.297425,2020-06-23 00:00:00.000000,0.92966934,3.30973452,36.74097545,583,2078,23076,98,411,6794,0.15714215,0.65522809,10.81796048,0.31670399,0.70115873,1.25512045
6069,0,USCaliforniaSanBenito,California,San Benito,2020-07-18 19:10:18.297425,2020-06-24 00:00:00.000000,0.97985230,3.56859242,37.89598645,615,2241,23801,106,460,7044,0.16895620,0.73245798,11.21559845,0.31133650,0.69353545,1.25806095
6069,0,USCaliforniaSanBenito,California,San Benito,2020-07-18 19:10:18.297425,2020-06-25 00:00:00.000000,1.03211130,3.64786223,39.04519751,648,2291,24523,109,455,7293,0.17356636,0.72501316,11.61238113,0.30106384,0.68656532,1.34588464
6069,0,USCaliforniaSanBenito,California,San Benito,2020-07-18 19:10:18.297425,2020-06-26 00:00:00.000000,1.08601277,3.84966348,40.13413075,682,2417,25207,114,499,7542,0.18256592,0.79497650,12.00857523,0.30131513,0.67804434,1.39714624
6069,0,USCaliforniaSanBenito,California,San Benito,2020-07-18 19:10:18.297425,2020-06-27 00:00:00.000000,1.13812322,4.01848831,41.11814952,714,2523,25825,120,512,7791,0.19116389,0.81533080,12.40509045,0.30186932,0.67564488,1.40019683
6069,0,USCaliforniaSanBenito,California,San Benito,2020-07-18 19:10:18.297425,2020-06-28 00:00:00.000000,1.18930832,4.21567649,42.06903655,746,2647,26422,125,539,8041,0.20006373,0.85871201,12.80298153,0.30537500,0.65037606,1.39845248
6069,0,USCaliforniaSanBenito,California,San Benito,2020-07-18 19:10:18.297425,2020-06-29 00:00:00.000000,1.24330924,4.33070837,42.99935227,780,2720,27007,130,559,8292,0.20772453,0.89051425,13.20248212,0.30714640,0.68355556,1.37692082
6069,0,USCaliforniaSanBenito,California,San Benito,2020-07-18 19:10:18.297425,2020-06-30 00:00:00.000000,1.30020470,4.53269658,43.82483081,816,2846,27525,133,579,8543,0.21202282,0.92195286,13.60299450,0.30830153,0.68907897,1.34868139
6069,0,USCaliforniaSanBenito,California,San Benito,2020-07-18 19:10:18.297425,2020-07-01 00:00:00.000000,1.36106744,4.70828484,44.04695309,854,2957,27665,135,598,8795,0.21585292,0.95288732,14.00357833,0.30916212,0.68831967,1.34614077
6069,0,USCaliforniaSanBenito,California,San Benito,2020-07-18 19:10:18.297425,2020-07-02 00:00:00.000000,1.42675866,4.97127385,44.10580280,896,3122,27701,137,642,9046,0.21927956,1.02305933,14.40324259,0.30943279,0.68634083,1.35453953
6069,0,USCaliforniaSanBenito,California,San Benito,2020-07-18 19:10:18.297425,2020-07-03 00:00:00.000000,1.50907308,5.08306727,44.85753466,947,3192,28174,139,664,9296,0.22231515,1.05864926,14.80105841,0.30935377,0.68360110,1.36589981
6069,0,USCaliforniaSanBenito,California,San Benito,2020-07-18 19:10:18.297425,2020-07-04 00:00:00.000000,1.57552276,5.60627391,45.73138380,989,3521,28722,141,717,9544,0.22501218,1.14307775,15.19620196,0.30920182,0.67031671,1.37738687
6069,0,USCaliforniaSanBenito,California,San Benito,2020-07-18 19:10:18.297425,2020-07-05 00:00:00.000000,1.68761379,5.49905257,46.37655154,1059,3453,29128,142,700,9790,0.22747969,1.11460958,15.58798770,0.31054457,0.68193778,1.38715202
6069,0,USCaliforniaSanBenito,California,San Benito,2020-07-18 19:10:18.297425,2020-07-06 00:00:00.000000,1.75539946,6.17906398,46.39122485,1102,3880,29137,144,793,10034,0.22980584,1.26258311,15.97604268,0.31438578,0.70167748,1.39440288
6069,0,USCaliforniaSanBenito,California,San Benito,2020-07-18 19:10:18.297425,2020-07-07 00:00:00.000000,1.83838516,5.95187020,45.58531100,1154,3738,28631,145,765,10263,0.23205196,1.21865532,16.34165740,0.31176718,0.69226167,1.39910236
6069,0,USCaliforniaSanBenito,California,San Benito,2020-07-18 19:10:18.297425,2020-07-08 00:00:00.000000,1.88370504,6.61361288,45.07576666,1183,4153,28311,147,855,10491,0.23489677,1.36176165,16.70479117,0.30897558,0.69449532,1.40026027
6069,0,USCaliforniaSanBenito,California,San Benito,2020-07-18 19:10:18.297425,2020-07-09 00:00:00.000000,1.94298758,6.65385563,45.23827562,1220,4179,28413,157,872,10722,0.25079302,1.38897745,17.07235361,0.30761390,0.69455745,1.40142297
6069,0,USCaliforniaSanBenito,California,San Benito,2020-07-18 19:10:18.297425,2020-07-10 00:00:00.000000,1.99436626,7.06782085,45.25603559,1252,4439,28424,169,922,10955,0.27040719,1.46899375,17.44339316,0.30696658,0.69456787,1.40208030
6069,0,USCaliforniaSanBenito,California,San Benito,2020-07-18 19:10:18.297425,2020-07-11 00:00:00.000000,2.04777869,7.05759079,45.17050166,1286,4432,28370,173,982,11010,0.27631283,1.56387933,17.53073734,0.30666259,0.69456962,1.40244047
6069,0,USCaliforniaSanBenito,California,San Benito,2020-07-18 19:10:18.297425,2020-07-12 00:00:00.000000,2.10200013,7.59596889,44.98775885,1320,4770,28255,177,1045,11044,0.28271523,1.66453617,17.58522259,0.30652062,0.69456991,1.40263626
6069,0,USCaliforniaSanBenito,California,San Benito,2020-07-18 19:10:18.297425,2020-07-13 00:00:00.000000,2.15708974,7.50656789,45.14123172,1354,4714,28352,182,1112,11059,0.29002940,1.77117071,17.60843959,0.30645449,0.69456996,1.40274230
6069,0,USCaliforniaSanBenito,California,San Benito,2020-07-18 19:10:18.297425,2020-07-14 00:00:00.000000,2.21309922,8.57246892,45.98682563,1390,5384,28883,186,1183,11045,0.29757237,1.88399194,17.58692620,0.30642372,0.69456997,1.40279962
6069,0,USCaliforniaSanBenito,California,San Benito,2020-07-18 19:10:18.297425,2020-07-15 00:00:00.000000,2.27006991,7.93245743,47.60301853,1425,4982,29898,193,1258,11024,0.30816958,2.00320816,17.55300140,0.30640940,0.69456997,1.40283059
6069,0,USCaliforniaSanBenito,California,San Benito,2020-07-18 19:10:18.297425,2020-07-16 00:00:00.000000,2.32803656,8.94761135,49.12611666,1462,5619,30855,203,1332,10997,0.32348349,2.12111744,17.50962925,0.30640275,0.69456997,1.40284731
6069,0,USCaliforniaSanBenito,California,San Benito,2020-07-18 19:10:18.297425,2020-07-17 00:00:00.000000,2.38702613,8.70784892,50.33807702,1499,5469,31616,213,1390,10965,0.33957021,2.21407603,17.45932269,0.30639965,0.69456997,1.40285635
6069,0,USCaliforniaSanBenito,California,San Benito,2020-07-18 19:10:18.297425,2020-07-18 00:00:00.000000,2.44706072,9.42138806,51.43526191,1536,5917,32305,223,1427,11141,0.35645347,2.27270772,17.73937821,0.30639821,0.69456997,1.40286124
6069,0,USCaliforniaSanBenito,California,San Benito,2020-07-18 19:10:18.297425,2020-07-19 00:00:00.000000,2.50815671,9.30768696,52.20848977,1575,5845,32791,235,1456,11356,0.37415946,2.31904211,18.08090511,0.30639754,0.69456997,1.40286388
6069,0,USCaliforniaSanBenito,California,San Benito,2020-07-18 19:10:18.297425,2020-07-20 00:00:00.000000,2.58250530,10.48744127,51.97495884,1622,6586,32644,246,1485,11557,0.39271498,2.36580306,18.40164828,0.30639723,0.69456997,1.40286531
6069,0,USCaliforniaSanBenito,California,San Benito,2020-07-18 19:10:18.297425,2020-07-21 00:00:00.000000,2.66909626,10.06808253,51.12747265,1676,6323,32112,258,1540,11746,0.41214802,2.45263850,18.70149817,0.30639709,0.69456997,1.40286608
6069,0,USCaliforniaSanBenito,California,San Benito,2020-07-18 19:10:18.297425,2020-07-22 00:00:00.000000,2.84805975,10.94832068,51.87048299,1788,6876,32578,271,1577,11921,0.43248679,2.51178083,18.98053354,0.30639702,0.69456997,1.40286650
6069,0,USCaliforniaSanBenito,California,San Benito,2020-07-18 19:10:18.297425,2020-07-23 00:00:00.000000,3.05483006,10.94434202,52.66327369,1918,6873,33076,278,1641,12073,0.44374105,2.61334115,19.22248741,0.30639699,0.69456997,1.40286673
6069,0,USCaliforniaSanBenito,California,San Benito,2020-07-18 19:10:18.297425,2020-07-24 00:00:00.000000,3.15087018,12.31423632,53.42363876,1978,7734,33554,284,1700,12214,0.45356835,2.70745796,19.44709445,0.30639697,0.69456997,1.40286685
6069,0,USCaliforniaSanBenito,California,San Benito,2020-07-18 19:10:18.297425,2020-07-25 00:00:00.000000,3.17776541,11.70505268,54.12039576,1995,7351,33991,291,1732,12377,0.46356039,2.75918920,19.70747549,0.30639697,0.69456997,1.40286692
6069,0,USCaliforniaSanBenito,California,San Benito,2020-07-18 19:10:18.297425,2020-07-26 00:00:00.000000,3.20463958,13.19058711,54.11860645,2012,8284,33990,297,1802,12528,0.47372038,2.86977068,19.94674877,0.30639696,0.69456997,1.40286696
6069,0,USCaliforniaSanBenito,California,San Benito,2020-07-18 19:10:18.297425,2020-07-27 00:00:00.000000,3.23148518,13.08254222,54.00962541,2029,8216,33922,304,1883,12681,0.48405118,2.99854511,20.19038516,0.30639696,0.69456997,1.40286698
6069,0,USCaliforniaSanBenito,California,San Benito,2020-07-18 19:10:18.297425,2020-07-28 00:00:00.000000,3.25829434,13.81314636,53.80086570,2046,8675,33791,310,1967,12790,0.49455532,3.13206933,20.36492717,0.30639696,0.69456997,1.40286699
6069,0,USCaliforniaSanBenito,California,San Benito,2020-07-18 19:10:18.297425,2020-07-29 00:00:00.000000,3.28505876,14.11507603,54.31402646,2063,8865,34113,317,2048,12904,0.50523506,3.26122119,20.54554652,0.30639696,0.69456997,1.40286700
6069,0,USCaliforniaSanBenito,California,San Benito,2020-07-18 19:10:18.297425,2020-07-30 00:00:00.000000,3.31595324,15.12967800,55.35377692,2082,9502,34766,324,2124,13006,0.51609245,3.38308943,20.70844154,0.30639696,0.69456997,1.40286700
