FIPS,HR_UID,nameid,province,region,analysisTime,dates,pointprevalence_025,pointprevalence_50,pointprevalence_975,pointinfections_025,pointinfections_50,pointinfections_975,pointinfectious_025,pointinfectious_50,pointinfectious_975,pointinfectiousprevalence_05,pointinfectiousprevalence_50,pointinfectiousprevalence_95,infectrate_025,infectrate_50,infectrate_975
42025,0,USPennsylvaniaCarbon,Pennsylvania,Carbon,2020-07-18 07:20:20.758923,2020-03-09 00:00:00.000000,0.00586881,0.02516528,0.07204805,3,16,46,1,7,20,0.00232618,0.01121346,0.03242785,0.64450004,0.81731914,1.06615464
42025,0,USPennsylvaniaCarbon,Pennsylvania,Carbon,2020-07-18 07:20:20.758923,2020-03-10 00:00:00.000000,0.00651352,0.02697371,0.07746294,4,17,49,2,8,21,0.00404085,0.01299125,0.03301993,0.64450881,0.81732412,1.06630519
42025,0,USPennsylvaniaCarbon,Pennsylvania,Carbon,2020-07-18 07:20:20.758923,2020-03-11 00:00:00.000000,0.00810017,0.02908745,0.08391257,5,18,53,2,9,22,0.00453742,0.01509195,0.03535326,0.64452940,0.81733745,1.06656711
42025,0,USPennsylvaniaCarbon,Pennsylvania,Carbon,2020-07-18 07:20:20.758923,2020-03-12 00:00:00.000000,0.00934546,0.03188307,0.09091594,5,20,58,3,10,25,0.00548534,0.01642054,0.04010560,0.64457800,0.81737245,1.06701749
42025,0,USPennsylvaniaCarbon,Pennsylvania,Carbon,2020-07-18 07:20:20.758923,2020-03-13 00:00:00.000000,0.01144639,0.03558625,0.10210974,7,22,65,4,11,29,0.00676122,0.01826405,0.04561142,0.64469326,0.81750665,1.06778289
42025,0,USPennsylvaniaCarbon,Pennsylvania,Carbon,2020-07-18 07:20:20.758923,2020-03-14 00:00:00.000000,0.01387755,0.04090014,0.11280359,8,26,72,5,13,32,0.00807470,0.02079652,0.05061968,0.64496774,0.81748720,1.06906631
42025,0,USPennsylvaniaCarbon,Pennsylvania,Carbon,2020-07-18 07:20:20.758923,2020-03-15 00:00:00.000000,0.01609887,0.04588776,0.12497742,10,29,80,6,15,36,0.00958570,0.02346915,0.05701817,0.64562386,0.81734730,1.07118207
42025,0,USPennsylvaniaCarbon,Pennsylvania,Carbon,2020-07-18 07:20:20.758923,2020-03-16 00:00:00.000000,0.01881694,0.05393600,0.14290758,12,34,91,7,17,41,0.01116888,0.02684301,0.06417344,0.64719495,0.81746849,1.07195727
42025,0,USPennsylvaniaCarbon,Pennsylvania,Carbon,2020-07-18 07:20:20.758923,2020-03-17 00:00:00.000000,0.02192485,0.06085920,0.16347868,14,39,104,7,19,46,0.01238613,0.03060521,0.07220875,0.65094207,0.81730332,1.07270114
42025,0,USPennsylvaniaCarbon,Pennsylvania,Carbon,2020-07-18 07:20:20.758923,2020-03-18 00:00:00.000000,0.02500353,0.07002981,0.18462572,16,44,118,9,21,52,0.01413193,0.03414726,0.08125355,0.66079634,0.81866886,1.08890986
42025,0,USPennsylvaniaCarbon,Pennsylvania,Carbon,2020-07-18 07:20:20.758923,2020-03-19 00:00:00.000000,0.02881705,0.07802521,0.21143188,18,50,135,10,24,58,0.01572656,0.03804211,0.09145112,0.67807635,0.85010167,1.10635160
42025,0,USPennsylvaniaCarbon,Pennsylvania,Carbon,2020-07-18 07:20:20.758923,2020-03-20 00:00:00.000000,0.03238788,0.09014615,0.24250422,20,57,155,11,27,68,0.01817601,0.04338098,0.10674117,0.68497346,0.87886528,1.12362410
42025,0,USPennsylvaniaCarbon,Pennsylvania,Carbon,2020-07-18 07:20:20.758923,2020-03-21 00:00:00.000000,0.03717661,0.09953291,0.27312888,23,63,175,13,31,80,0.02033884,0.04850249,0.12477219,0.68012905,0.89618592,1.19165077
42025,0,USPennsylvaniaCarbon,Pennsylvania,Carbon,2020-07-18 07:20:20.758923,2020-03-22 00:00:00.000000,0.04311317,0.11280909,0.30733711,27,72,197,15,34,93,0.02465347,0.05400742,0.14585004,0.66773933,0.90731395,1.23252072
42025,0,USPennsylvaniaCarbon,Pennsylvania,Carbon,2020-07-18 07:20:20.758923,2020-03-23 00:00:00.000000,0.04982583,0.13112381,0.34590107,31,84,222,17,41,109,0.02757503,0.06392995,0.17048172,0.65598792,0.90860982,1.25209337
42025,0,USPennsylvaniaCarbon,Pennsylvania,Carbon,2020-07-18 07:20:20.758923,2020-03-24 00:00:00.000000,0.05633950,0.15524702,0.38934969,36,99,249,20,46,127,0.03209951,0.07239666,0.19921920,0.65828167,0.90911264,1.25720220
42025,0,USPennsylvaniaCarbon,Pennsylvania,Carbon,2020-07-18 07:20:20.758923,2020-03-25 00:00:00.000000,0.06700193,0.17411401,0.44765263,43,111,287,22,52,149,0.03558210,0.08256977,0.23252588,0.65410617,0.90883914,1.26136077
42025,0,USPennsylvaniaCarbon,Pennsylvania,Carbon,2020-07-18 07:20:20.758923,2020-03-26 00:00:00.000000,0.07890449,0.19598260,0.51314950,50,125,329,25,60,173,0.04007295,0.09348490,0.27015803,0.64459201,0.90849435,1.27616722
42025,0,USPennsylvaniaCarbon,Pennsylvania,Carbon,2020-07-18 07:20:20.758923,2020-03-27 00:00:00.000000,0.09198263,0.22250242,0.57814951,59,142,371,28,68,198,0.04386155,0.10714654,0.30987464,0.64475321,0.90616055,1.26364118
42025,0,USPennsylvaniaCarbon,Pennsylvania,Carbon,2020-07-18 07:20:20.758923,2020-03-28 00:00:00.000000,0.10816047,0.25602715,0.66015703,69,164,423,32,77,242,0.05102187,0.12132334,0.37754050,0.60207938,0.90170491,1.21380514
42025,0,USPennsylvaniaCarbon,Pennsylvania,Carbon,2020-07-18 07:20:20.758923,2020-03-29 00:00:00.000000,0.12360434,0.29095505,0.78298923,79,186,502,35,87,283,0.05601291,0.13705768,0.44139947,0.56612818,0.89008509,1.18422446
42025,0,USPennsylvaniaCarbon,Pennsylvania,Carbon,2020-07-18 07:20:20.758923,2020-03-30 00:00:00.000000,0.14125364,0.32848510,0.90711513,90,210,582,42,101,322,0.06674254,0.15745906,0.50263918,0.52472694,0.86908014,1.18269891
42025,0,USPennsylvaniaCarbon,Pennsylvania,Carbon,2020-07-18 07:20:20.758923,2020-03-31 00:00:00.000000,0.16089213,0.36469727,0.99109216,103,234,636,46,115,359,0.07319576,0.18022093,0.55972791,0.49999938,0.81470415,1.16880373
42025,0,USPennsylvaniaCarbon,Pennsylvania,Carbon,2020-07-18 07:20:20.758923,2020-04-01 00:00:00.000000,0.18263115,0.40037250,1.04940558,117,256,673,53,130,391,0.08377807,0.20296874,0.60938289,0.48016031,0.74490901,1.16868758
42025,0,USPennsylvaniaCarbon,Pennsylvania,Carbon,2020-07-18 07:20:20.758923,2020-04-02 00:00:00.000000,0.20348533,0.42701054,1.10288501,130,274,707,59,148,415,0.09225686,0.23207318,0.64806912,0.46070116,0.70813368,1.16334802
42025,0,USPennsylvaniaCarbon,Pennsylvania,Carbon,2020-07-18 07:20:20.758923,2020-04-03 00:00:00.000000,0.22460389,0.48604439,1.15005598,144,311,738,68,162,438,0.10645376,0.25379581,0.68335951,0.42366418,0.65972438,1.13890804
42025,0,USPennsylvaniaCarbon,Pennsylvania,Carbon,2020-07-18 07:20:20.758923,2020-04-04 00:00:00.000000,0.22781094,0.51497401,1.18746038,146,330,762,74,178,455,0.11595906,0.27803571,0.70896275,0.39609006,0.62262442,1.08032898
42025,0,USPennsylvaniaCarbon,Pennsylvania,Carbon,2020-07-18 07:20:20.758923,2020-04-05 00:00:00.000000,0.26751478,0.54230757,1.23876151,171,348,795,89,187,466,0.13903727,0.29266345,0.72643674,0.37589542,0.57081775,0.99972320
42025,0,USPennsylvaniaCarbon,Pennsylvania,Carbon,2020-07-18 07:20:20.758923,2020-04-06 00:00:00.000000,0.26076239,0.56701490,1.28938857,167,363,827,90,196,476,0.14099228,0.30545994,0.74187940,0.34073063,0.52574691,0.91403420
42025,0,USPennsylvaniaCarbon,Pennsylvania,Carbon,2020-07-18 07:20:20.758923,2020-04-07 00:00:00.000000,0.28203819,0.58767530,1.33114420,181,377,854,99,204,491,0.15530280,0.31813533,0.76570655,0.32315064,0.50624645,0.84779371
42025,0,USPennsylvaniaCarbon,Pennsylvania,Carbon,2020-07-18 07:20:20.758923,2020-04-08 00:00:00.000000,0.28764420,0.59358914,1.36240516,184,380,874,103,212,506,0.16203042,0.33075016,0.78948678,0.30633741,0.48819876,0.77431739
42025,0,USPennsylvaniaCarbon,Pennsylvania,Carbon,2020-07-18 07:20:20.758923,2020-04-09 00:00:00.000000,0.29358326,0.59231890,1.38960728,188,380,891,101,216,517,0.15886951,0.33664559,0.80654793,0.28920436,0.45889017,0.71648012
42025,0,USPennsylvaniaCarbon,Pennsylvania,Carbon,2020-07-18 07:20:20.758923,2020-04-10 00:00:00.000000,0.28116809,0.59846510,1.41008969,180,384,905,98,217,529,0.15416440,0.33810580,0.82462224,0.27911890,0.43277773,0.65792812
42025,0,USPennsylvaniaCarbon,Pennsylvania,Carbon,2020-07-18 07:20:20.758923,2020-04-11 00:00:00.000000,0.27819513,0.58853588,1.41830168,178,377,910,95,219,538,0.14904593,0.34137948,0.83844435,0.26192314,0.38860960,0.60748996
42025,0,USPennsylvaniaCarbon,Pennsylvania,Carbon,2020-07-18 07:20:20.758923,2020-04-12 00:00:00.000000,0.26584479,0.58902545,1.42438923,170,378,914,91,218,552,0.14325923,0.34043813,0.86149930,0.24515188,0.35574985,0.55881550
42025,0,USPennsylvaniaCarbon,Pennsylvania,Carbon,2020-07-18 07:20:20.758923,2020-04-13 00:00:00.000000,0.26188315,0.57742463,1.38693197,168,370,890,88,216,545,0.13723081,0.33764564,0.84959032,0.24229488,0.34496979,0.54195377
42025,0,USPennsylvaniaCarbon,Pennsylvania,Carbon,2020-07-18 07:20:20.758923,2020-04-14 00:00:00.000000,0.24784109,0.56524551,1.35728413,159,362,871,87,214,544,0.13602670,0.33382651,0.84803698,0.24089712,0.33978404,0.53076079
42025,0,USPennsylvaniaCarbon,Pennsylvania,Carbon,2020-07-18 07:20:20.758923,2020-04-15 00:00:00.000000,0.24145891,0.54164946,1.32321798,154,347,849,86,206,539,0.13481354,0.32096902,0.84002483,0.22660389,0.33846612,0.51494017
42025,0,USPennsylvaniaCarbon,Pennsylvania,Carbon,2020-07-18 07:20:20.758923,2020-04-16 00:00:00.000000,0.22279113,0.52021289,1.28481745,142,333,824,85,197,530,0.13335480,0.30826590,0.82597296,0.22636907,0.33556352,0.51152502
42025,0,USPennsylvaniaCarbon,Pennsylvania,Carbon,2020-07-18 07:20:20.758923,2020-04-17 00:00:00.000000,0.22248690,0.50039674,1.24213517,142,321,797,82,191,515,0.12789334,0.29815669,0.80286376,0.22074097,0.33440323,0.49809907
42025,0,USPennsylvaniaCarbon,Pennsylvania,Carbon,2020-07-18 07:20:20.758923,2020-04-18 00:00:00.000000,0.21065000,0.48067438,1.19703463,135,308,768,77,182,498,0.12048920,0.28462113,0.77716863,0.21268443,0.34070824,0.50363980
42025,0,USPennsylvaniaCarbon,Pennsylvania,Carbon,2020-07-18 07:20:20.758923,2020-04-19 00:00:00.000000,0.20554990,0.46829981,1.15151266,131,300,739,72,176,481,0.11318810,0.27491414,0.74981794,0.21078361,0.33037557,0.48848635
42025,0,USPennsylvaniaCarbon,Pennsylvania,Carbon,2020-07-18 07:20:20.758923,2020-04-20 00:00:00.000000,0.19051705,0.45578772,1.10657163,122,292,710,68,170,463,0.10627958,0.26599102,0.72192106,0.20807343,0.32434452,0.47656568
42025,0,USPennsylvaniaCarbon,Pennsylvania,Carbon,2020-07-18 07:20:20.758923,2020-04-21 00:00:00.000000,0.18560398,0.44081198,1.06230283,119,282,681,64,167,444,0.10048535,0.26079091,0.69292515,0.20461623,0.32388588,0.46630081
42025,0,USPennsylvaniaCarbon,Pennsylvania,Carbon,2020-07-18 07:20:20.758923,2020-04-22 00:00:00.000000,0.17163838,0.42576551,1.01802838,110,273,653,61,163,424,0.09519366,0.25518003,0.66101116,0.20435655,0.32210435,0.45629187
42025,0,USPennsylvaniaCarbon,Pennsylvania,Carbon,2020-07-18 07:20:20.758923,2020-04-23 00:00:00.000000,0.16821938,0.41230057,0.96951832,107,264,622,58,159,404,0.09107694,0.24776075,0.63061683,0.19829586,0.32435831,0.46133820
42025,0,USPennsylvaniaCarbon,Pennsylvania,Carbon,2020-07-18 07:20:20.758923,2020-04-24 00:00:00.000000,0.15389149,0.39703918,0.91738463,98,254,588,56,153,385,0.08799127,0.23897290,0.60076574,0.19582948,0.32038244,0.46961255
42025,0,USPennsylvaniaCarbon,Pennsylvania,Carbon,2020-07-18 07:20:20.758923,2020-04-25 00:00:00.000000,0.15282396,0.38030512,0.87211923,98,244,559,54,146,365,0.08415826,0.22855094,0.57017639,0.18804168,0.31840436,0.47823867
42025,0,USPennsylvaniaCarbon,Pennsylvania,Carbon,2020-07-18 07:20:20.758923,2020-04-26 00:00:00.000000,0.13834865,0.36567427,0.81984387,88,234,526,51,141,345,0.08016850,0.21973188,0.53773184,0.18132088,0.31779072,0.48320312
42025,0,USPennsylvaniaCarbon,Pennsylvania,Carbon,2020-07-18 07:20:20.758923,2020-04-27 00:00:00.000000,0.13432868,0.35192107,0.76679925,86,225,492,49,135,323,0.07716719,0.21117251,0.50356224,0.18322533,0.31681637,0.49247409
42025,0,USPennsylvaniaCarbon,Pennsylvania,Carbon,2020-07-18 07:20:20.758923,2020-04-28 00:00:00.000000,0.12556761,0.33335793,0.71563369,80,213,459,45,130,301,0.07164774,0.20316170,0.46898229,0.18232803,0.31345372,0.49141382
42025,0,USPennsylvaniaCarbon,Pennsylvania,Carbon,2020-07-18 07:20:20.758923,2020-04-29 00:00:00.000000,0.12454370,0.31834253,0.67916195,79,204,435,43,124,279,0.06737604,0.19425783,0.43543721,0.18219965,0.31528557,0.49843372
42025,0,USPennsylvaniaCarbon,Pennsylvania,Carbon,2020-07-18 07:20:20.758923,2020-04-30 00:00:00.000000,0.11298208,0.30611252,0.66249909,72,196,425,40,119,261,0.06370439,0.18631807,0.40678282,0.18420880,0.32009217,0.49756057
42025,0,USPennsylvaniaCarbon,Pennsylvania,Carbon,2020-07-18 07:20:20.758923,2020-05-01 00:00:00.000000,0.11081448,0.29366525,0.64469121,71,188,413,39,114,253,0.06095519,0.17882506,0.39451840,0.18542788,0.32404844,0.50034451
42025,0,USPennsylvaniaCarbon,Pennsylvania,Carbon,2020-07-18 07:20:20.758923,2020-05-02 00:00:00.000000,0.10416222,0.28414009,0.62448265,66,182,400,38,110,243,0.05943052,0.17197895,0.37936356,0.18587846,0.32921160,0.50047088
42025,0,USPennsylvaniaCarbon,Pennsylvania,Carbon,2020-07-18 07:20:20.758923,2020-05-03 00:00:00.000000,0.10052834,0.26938978,0.60022534,64,172,385,37,107,229,0.05778015,0.16680314,0.35760745,0.18811457,0.34226966,0.50058952
42025,0,USPennsylvaniaCarbon,Pennsylvania,Carbon,2020-07-18 07:20:20.758923,2020-05-04 00:00:00.000000,0.09629509,0.26148414,0.57443382,61,167,368,34,103,226,0.05422332,0.16158156,0.35212908,0.18736387,0.35271158,0.50064303
42025,0,USPennsylvaniaCarbon,Pennsylvania,Carbon,2020-07-18 07:20:20.758923,2020-05-05 00:00:00.000000,0.09346934,0.25172386,0.54883856,59,161,352,33,100,221,0.05149253,0.15682548,0.34513374,0.18711315,0.35133474,0.50174589
42025,0,USPennsylvaniaCarbon,Pennsylvania,Carbon,2020-07-18 07:20:20.758923,2020-05-06 00:00:00.000000,0.08960688,0.24160063,0.52401962,57,155,336,32,96,213,0.04988032,0.15080528,0.33261468,0.18795718,0.35225575,0.50944156
42025,0,USPennsylvaniaCarbon,Pennsylvania,Carbon,2020-07-18 07:20:20.758923,2020-05-07 00:00:00.000000,0.08805751,0.23228860,0.50126893,56,149,321,31,93,207,0.04840359,0.14618091,0.32404134,0.19914266,0.35604092,0.51427260
42025,0,USPennsylvaniaCarbon,Pennsylvania,Carbon,2020-07-18 07:20:20.758923,2020-05-08 00:00:00.000000,0.08623922,0.22234754,0.48148916,55,142,309,30,90,201,0.04712392,0.14171803,0.31449844,0.20721392,0.35846591,0.53351070
42025,0,USPennsylvaniaCarbon,Pennsylvania,Carbon,2020-07-18 07:20:20.758923,2020-05-09 00:00:00.000000,0.08415679,0.21578920,0.47046870,54,138,301,29,87,194,0.04595535,0.13705216,0.30352980,0.20960378,0.35925946,0.53380234
42025,0,USPennsylvaniaCarbon,Pennsylvania,Carbon,2020-07-18 07:20:20.758923,2020-05-10 00:00:00.000000,0.08218574,0.20870975,0.46377663,52,133,297,28,85,186,0.04485086,0.13295002,0.29132445,0.20869086,0.36082194,0.53759494
42025,0,USPennsylvaniaCarbon,Pennsylvania,Carbon,2020-07-18 07:20:20.758923,2020-05-11 00:00:00.000000,0.07918282,0.20054894,0.45707386,50,128,293,28,83,178,0.04386727,0.12963725,0.27839451,0.20811976,0.36537136,0.54659382
42025,0,USPennsylvaniaCarbon,Pennsylvania,Carbon,2020-07-18 07:20:20.758923,2020-05-12 00:00:00.000000,0.07631168,0.19581459,0.44946623,48,125,288,27,80,170,0.04270887,0.12492916,0.26526199,0.20847800,0.36830030,0.55182408
42025,0,USPennsylvaniaCarbon,Pennsylvania,Carbon,2020-07-18 07:20:20.758923,2020-05-13 00:00:00.000000,0.07369324,0.19112063,0.43851513,47,122,281,26,78,163,0.04158486,0.12154893,0.25422870,0.20952598,0.37630652,0.55682877
42025,0,USPennsylvaniaCarbon,Pennsylvania,Carbon,2020-07-18 07:20:20.758923,2020-05-14 00:00:00.000000,0.07101162,0.18490707,0.42635801,45,118,273,25,76,155,0.04037466,0.11844896,0.24201758,0.21388641,0.37729928,0.56812909
42025,0,USPennsylvaniaCarbon,Pennsylvania,Carbon,2020-07-18 07:20:20.758923,2020-05-15 00:00:00.000000,0.06882427,0.17883419,0.41675634,44,114,267,24,73,147,0.03873584,0.11529398,0.23031235,0.22347223,0.37681913,0.56751845
42025,0,USPennsylvaniaCarbon,Pennsylvania,Carbon,2020-07-18 07:20:20.758923,2020-05-16 00:00:00.000000,0.06675549,0.17313567,0.41127337,42,111,263,23,71,141,0.03703426,0.11152521,0.22073282,0.22260246,0.38450370,0.56449466
42025,0,USPennsylvaniaCarbon,Pennsylvania,Carbon,2020-07-18 07:20:20.758923,2020-05-17 00:00:00.000000,0.06526369,0.16761489,0.40942695,41,107,262,23,69,140,0.03624183,0.10901074,0.21929417,0.22130997,0.38533537,0.56336477
42025,0,USPennsylvaniaCarbon,Pennsylvania,Carbon,2020-07-18 07:20:20.758923,2020-05-18 00:00:00.000000,0.06539457,0.16301643,0.41140581,41,104,264,22,66,140,0.03505304,0.10294580,0.21901371,0.22124212,0.39012028,0.56145608
42025,0,USPennsylvaniaCarbon,Pennsylvania,Carbon,2020-07-18 07:20:20.758923,2020-05-19 00:00:00.000000,0.06432360,0.15909717,0.41511723,41,102,266,21,63,138,0.03378194,0.09947185,0.21549159,0.22094959,0.38138516,0.56422399
42025,0,USPennsylvaniaCarbon,Pennsylvania,Carbon,2020-07-18 07:20:20.758923,2020-05-20 00:00:00.000000,0.06284675,0.15505891,0.41112677,40,99,263,20,61,136,0.03255867,0.09637768,0.21218905,0.22197393,0.35396276,0.56266314
42025,0,USPennsylvaniaCarbon,Pennsylvania,Carbon,2020-07-18 07:20:20.758923,2020-05-21 00:00:00.000000,0.06042767,0.15032927,0.40228472,38,96,258,20,59,136,0.03164053,0.09254281,0.21336060,0.21907017,0.35272878,0.55491077
42025,0,USPennsylvaniaCarbon,Pennsylvania,Carbon,2020-07-18 07:20:20.758923,2020-05-22 00:00:00.000000,0.05934883,0.14743812,0.39248809,38,94,251,19,57,137,0.03052411,0.08965028,0.21451329,0.21542256,0.35209079,0.54448463
42025,0,USPennsylvaniaCarbon,Pennsylvania,Carbon,2020-07-18 07:20:20.758923,2020-05-23 00:00:00.000000,0.05829730,0.14625491,0.38229878,37,93,245,18,56,138,0.02918555,0.08768554,0.21542505,0.21869704,0.35359056,0.53912417
42025,0,USPennsylvaniaCarbon,Pennsylvania,Carbon,2020-07-18 07:20:20.758923,2020-05-24 00:00:00.000000,0.05681248,0.14229227,0.37174593,36,91,238,18,53,138,0.02859133,0.08361808,0.21583198,0.22332056,0.35848147,0.54757772
42025,0,USPennsylvaniaCarbon,Pennsylvania,Carbon,2020-07-18 07:20:20.758923,2020-05-25 00:00:00.000000,0.05535925,0.13737644,0.36095959,35,88,231,18,51,138,0.02832520,0.08086003,0.21556380,0.22856755,0.37002234,0.55538648
42025,0,USPennsylvaniaCarbon,Pennsylvania,Carbon,2020-07-18 07:20:20.758923,2020-05-26 00:00:00.000000,0.05394068,0.13277733,0.35694848,34,85,229,17,50,137,0.02768612,0.07830204,0.21468678,0.23800132,0.38206849,0.55014697
42025,0,USPennsylvaniaCarbon,Pennsylvania,Carbon,2020-07-18 07:20:20.758923,2020-05-27 00:00:00.000000,0.05228065,0.12851592,0.35224385,33,82,226,17,49,136,0.02696543,0.07700352,0.21335980,0.23893020,0.39291577,0.54664020
42025,0,USPennsylvaniaCarbon,Pennsylvania,Carbon,2020-07-18 07:20:20.758923,2020-05-28 00:00:00.000000,0.05027903,0.12596658,0.34684058,32,80,222,16,48,135,0.02646360,0.07526722,0.21166124,0.23892324,0.39202525,0.54461607
42025,0,USPennsylvaniaCarbon,Pennsylvania,Carbon,2020-07-18 07:20:20.758923,2020-05-29 00:00:00.000000,0.04866682,0.12302454,0.34064362,31,78,218,17,47,134,0.02715901,0.07369108,0.20956662,0.23973412,0.39110709,0.54385936
42025,0,USPennsylvaniaCarbon,Pennsylvania,Carbon,2020-07-18 07:20:20.758923,2020-05-30 00:00:00.000000,0.04702888,0.12013422,0.33355004,30,77,214,17,46,132,0.02698444,0.07201424,0.20697606,0.24150015,0.39425170,0.54868769
42025,0,USPennsylvaniaCarbon,Pennsylvania,Carbon,2020-07-18 07:20:20.758923,2020-05-31 00:00:00.000000,0.04717776,0.11829012,0.32320088,30,75,207,17,44,130,0.02648726,0.07008308,0.20361737,0.24554264,0.39604316,0.54760034
42025,0,USPennsylvaniaCarbon,Pennsylvania,Carbon,2020-07-18 07:20:20.758923,2020-06-01 00:00:00.000000,0.04666088,0.11788011,0.31069386,29,75,199,16,44,127,0.02613104,0.06917615,0.19934821,0.24599136,0.39824680,0.54708342
42025,0,USPennsylvaniaCarbon,Pennsylvania,Carbon,2020-07-18 07:20:20.758923,2020-06-02 00:00:00.000000,0.04598423,0.11662468,0.30109028,29,74,193,16,43,124,0.02588335,0.06742113,0.19453801,0.24474649,0.40365720,0.54854789
42025,0,USPennsylvaniaCarbon,Pennsylvania,Carbon,2020-07-18 07:20:20.758923,2020-06-03 00:00:00.000000,0.04485931,0.11647465,0.29228248,28,74,187,16,42,121,0.02581564,0.06627435,0.18929902,0.25064151,0.39866196,0.54674458
42025,0,USPennsylvaniaCarbon,Pennsylvania,Carbon,2020-07-18 07:20:20.758923,2020-06-04 00:00:00.000000,0.04481260,0.11438125,0.28305085,28,73,181,16,41,117,0.02508477,0.06542063,0.18375876,0.25278076,0.39656150,0.54509592
42025,0,USPennsylvaniaCarbon,Pennsylvania,Carbon,2020-07-18 07:20:20.758923,2020-06-05 00:00:00.000000,0.04286654,0.11247417,0.27352658,27,72,175,15,40,114,0.02402175,0.06363416,0.17802187,0.25401480,0.39307654,0.54522736
42025,0,USPennsylvaniaCarbon,Pennsylvania,Carbon,2020-07-18 07:20:20.758923,2020-06-06 00:00:00.000000,0.04442023,0.11008790,0.26382641,28,70,169,14,40,110,0.02298408,0.06332056,0.17214031,0.25699211,0.39260190,0.54658082
42025,0,USPennsylvaniaCarbon,Pennsylvania,Carbon,2020-07-18 07:20:20.758923,2020-06-07 00:00:00.000000,0.03988361,0.10762574,0.25426260,25,69,163,14,39,106,0.02196943,0.06214974,0.16613812,0.25912836,0.39169313,0.54954802
42025,0,USPennsylvaniaCarbon,Pennsylvania,Carbon,2020-07-18 07:20:20.758923,2020-06-08 00:00:00.000000,0.04379785,0.10531720,0.24949148,28,67,160,13,39,104,0.02095589,0.06087795,0.16227573,0.26079079,0.39334078,0.55448941
42025,0,USPennsylvaniaCarbon,Pennsylvania,Carbon,2020-07-18 07:20:20.758923,2020-06-09 00:00:00.000000,0.03689212,0.10328099,0.24052297,23,66,154,12,38,102,0.01996847,0.05935162,0.15898346,0.26190595,0.39628615,0.56546315
42025,0,USPennsylvaniaCarbon,Pennsylvania,Carbon,2020-07-18 07:20:20.758923,2020-06-10 00:00:00.000000,0.04399131,0.10139004,0.23184375,28,65,148,12,37,99,0.01902408,0.05903327,0.15519848,0.26330679,0.39812230,0.57117278
42025,0,USPennsylvaniaCarbon,Pennsylvania,Carbon,2020-07-18 07:20:20.758923,2020-06-11 00:00:00.000000,0.03736166,0.10141102,0.23337250,23,65,149,11,36,97,0.01813644,0.05697660,0.15142577,0.26575178,0.39847662,0.58178538
42025,0,USPennsylvaniaCarbon,Pennsylvania,Carbon,2020-07-18 07:20:20.758923,2020-06-12 00:00:00.000000,0.04243728,0.10152162,0.23660421,27,65,151,11,36,94,0.01789702,0.05685760,0.14764253,0.26994362,0.39740160,0.58462383
42025,0,USPennsylvaniaCarbon,Pennsylvania,Carbon,2020-07-18 07:20:20.758923,2020-06-13 00:00:00.000000,0.03948656,0.10009192,0.23575788,25,64,151,11,36,93,0.01756035,0.05612085,0.14619182,0.27334101,0.40739514,0.59648988
42025,0,USPennsylvaniaCarbon,Pennsylvania,Carbon,2020-07-18 07:20:20.758923,2020-06-14 00:00:00.000000,0.04095129,0.09841681,0.23570708,26,63,151,11,35,92,0.01820260,0.05592603,0.14359578,0.27436260,0.41228404,0.60007035
42025,0,USPennsylvaniaCarbon,Pennsylvania,Carbon,2020-07-18 07:20:20.758923,2020-06-15 00:00:00.000000,0.03740354,0.09749691,0.23956760,24,62,153,11,35,91,0.01810065,0.05582884,0.14221591,0.27439318,0.42122597,0.60098079
42025,0,USPennsylvaniaCarbon,Pennsylvania,Carbon,2020-07-18 07:20:20.758923,2020-06-16 00:00:00.000000,0.03949472,0.09604612,0.24068199,25,61,154,12,35,92,0.01892651,0.05586239,0.14487450,0.27496009,0.42572747,0.60294992
42025,0,USPennsylvaniaCarbon,Pennsylvania,Carbon,2020-07-18 07:20:20.758923,2020-06-17 00:00:00.000000,0.03771593,0.09553668,0.24040978,24,61,154,12,35,94,0.01875259,0.05524799,0.14769882,0.27598578,0.42863781,0.61248312
42025,0,USPennsylvaniaCarbon,Pennsylvania,Carbon,2020-07-18 07:20:20.758923,2020-06-18 00:00:00.000000,0.03931373,0.09435934,0.23949648,25,60,153,12,35,96,0.01914740,0.05577851,0.15025980,0.27849667,0.43305813,0.61707002
42025,0,USPennsylvaniaCarbon,Pennsylvania,Carbon,2020-07-18 07:20:20.758923,2020-06-19 00:00:00.000000,0.03767950,0.09265914,0.23806367,24,59,152,11,35,97,0.01825332,0.05459117,0.15178874,0.28807650,0.43946840,0.62915022
42025,0,USPennsylvaniaCarbon,Pennsylvania,Carbon,2020-07-18 07:20:20.758923,2020-06-20 00:00:00.000000,0.03769509,0.09386131,0.23630124,24,60,151,12,34,98,0.01919098,0.05426233,0.15350751,0.28252777,0.44102106,0.65101930
42025,0,USPennsylvaniaCarbon,Pennsylvania,Carbon,2020-07-18 07:20:20.758923,2020-06-21 00:00:00.000000,0.03570231,0.09483146,0.23437337,22,60,150,11,34,99,0.01791188,0.05427673,0.15539442,0.28586799,0.44140573,0.66087752
42025,0,USPennsylvaniaCarbon,Pennsylvania,Carbon,2020-07-18 07:20:20.758923,2020-06-22 00:00:00.000000,0.03629607,0.09592201,0.23237766,23,61,149,13,34,101,0.02036040,0.05422305,0.15746547,0.28447428,0.45366444,0.67618823
42025,0,USPennsylvaniaCarbon,Pennsylvania,Carbon,2020-07-18 07:20:20.758923,2020-06-23 00:00:00.000000,0.03607468,0.09617427,0.23031581,23,61,147,11,34,102,0.01800122,0.05437776,0.15978357,0.28327565,0.46740561,0.69146430
42025,0,USPennsylvaniaCarbon,Pennsylvania,Carbon,2020-07-18 07:20:20.758923,2020-06-24 00:00:00.000000,0.03818304,0.09549136,0.22803182,24,61,146,12,35,104,0.01976355,0.05530384,0.16241624,0.27995456,0.47734336,0.69692894
42025,0,USPennsylvaniaCarbon,Pennsylvania,Carbon,2020-07-18 07:20:20.758923,2020-06-25 00:00:00.000000,0.03759018,0.09757010,0.22568328,24,62,144,11,36,103,0.01824902,0.05664023,0.16198505,0.27994903,0.47692870,0.70623499
42025,0,USPennsylvaniaCarbon,Pennsylvania,Carbon,2020-07-18 07:20:20.758923,2020-06-26 00:00:00.000000,0.03820693,0.09829451,0.22614458,24,63,145,12,36,103,0.01923138,0.05716286,0.16114283,0.28390997,0.48375925,0.71069396
42025,0,USPennsylvaniaCarbon,Pennsylvania,Carbon,2020-07-18 07:20:20.758923,2020-06-27 00:00:00.000000,0.03933929,0.09938964,0.22550606,25,63,144,11,37,101,0.01857894,0.05771976,0.15806700,0.28412766,0.48869876,0.73466859
42025,0,USPennsylvaniaCarbon,Pennsylvania,Carbon,2020-07-18 07:20:20.758923,2020-06-28 00:00:00.000000,0.04066871,0.10384446,0.23006515,26,66,147,12,38,98,0.01886059,0.05935645,0.15406022,0.28344006,0.49195615,0.77214277
42025,0,USPennsylvaniaCarbon,Pennsylvania,Carbon,2020-07-18 07:20:20.758923,2020-06-29 00:00:00.000000,0.04179641,0.10433177,0.23297496,26,66,149,12,37,98,0.01890996,0.05858958,0.15337109,0.28321871,0.49503697,0.78468760
42025,0,USPennsylvaniaCarbon,Pennsylvania,Carbon,2020-07-18 07:20:20.758923,2020-06-30 00:00:00.000000,0.04347667,0.10786343,0.23545912,27,69,151,12,39,99,0.01979538,0.06119891,0.15540060,0.28082044,0.48900669,0.78980182
42025,0,USPennsylvaniaCarbon,Pennsylvania,Carbon,2020-07-18 07:20:20.758923,2020-07-01 00:00:00.000000,0.04537294,0.10903184,0.24326106,29,69,156,13,39,100,0.02060284,0.06088199,0.15720731,0.28231976,0.48615439,0.84419581
42025,0,USPennsylvaniaCarbon,Pennsylvania,Carbon,2020-07-18 07:20:20.758923,2020-07-02 00:00:00.000000,0.04736889,0.11330002,0.26225222,30,72,168,13,40,107,0.02173984,0.06341813,0.16688238,0.28297992,0.48918323,0.87043545
42025,0,USPennsylvaniaCarbon,Pennsylvania,Carbon,2020-07-18 07:20:20.758923,2020-07-03 00:00:00.000000,0.04945159,0.11813466,0.27530384,31,75,176,15,41,109,0.02389751,0.06502830,0.17113705,0.28858462,0.48203135,0.90403182
42025,0,USPennsylvaniaCarbon,Pennsylvania,Carbon,2020-07-18 07:20:20.758923,2020-07-04 00:00:00.000000,0.04911915,0.12220902,0.28681470,31,78,184,15,43,112,0.02443112,0.06776865,0.17535311,0.29929698,0.48098440,0.91152113
42025,0,USPennsylvaniaCarbon,Pennsylvania,Carbon,2020-07-18 07:20:20.758923,2020-07-05 00:00:00.000000,0.05003085,0.12264140,0.29831346,32,78,191,15,44,115,0.02492453,0.06952275,0.17977535,0.30174076,0.49067486,0.86319831
42025,0,USPennsylvaniaCarbon,Pennsylvania,Carbon,2020-07-18 07:20:20.758923,2020-07-06 00:00:00.000000,0.05042942,0.12611656,0.31402443,32,80,201,16,45,118,0.02572043,0.07134170,0.18498162,0.30306472,0.50572390,0.86210256
42025,0,USPennsylvaniaCarbon,Pennsylvania,Carbon,2020-07-18 07:20:20.758923,2020-07-07 00:00:00.000000,0.05135380,0.12975195,0.33232643,32,83,213,17,47,122,0.02682632,0.07440477,0.19073507,0.30356863,0.50696126,0.87085502
42025,0,USPennsylvaniaCarbon,Pennsylvania,Carbon,2020-07-18 07:20:20.758923,2020-07-08 00:00:00.000000,0.05130349,0.13477033,0.34431035,32,86,220,18,49,126,0.02810544,0.07644341,0.19690367,0.30373715,0.51525632,0.88166493
42025,0,USPennsylvaniaCarbon,Pennsylvania,Carbon,2020-07-18 07:20:20.758923,2020-07-09 00:00:00.000000,0.05185239,0.13501267,0.36281706,33,86,232,19,50,130,0.03044878,0.07822493,0.20343027,0.30378990,0.51739463,0.88585204
42025,0,USPennsylvaniaCarbon,Pennsylvania,Carbon,2020-07-18 07:20:20.758923,2020-07-10 00:00:00.000000,0.05381977,0.13958453,0.38322459,34,89,245,20,51,134,0.03175006,0.07971018,0.21029343,0.30380567,0.51751611,0.88787931
42025,0,USPennsylvaniaCarbon,Pennsylvania,Carbon,2020-07-18 07:20:20.758923,2020-07-11 00:00:00.000000,0.05663122,0.14018953,0.40091463,36,89,257,20,53,139,0.03199415,0.08309738,0.21795189,0.30381008,0.51756979,0.88887614
42025,0,USPennsylvaniaCarbon,Pennsylvania,Carbon,2020-07-18 07:20:20.758923,2020-07-12 00:00:00.000000,0.05947527,0.14542141,0.42564288,38,93,273,20,55,151,0.03206810,0.08624395,0.23559390,0.30381116,0.51759731,0.88937628
42025,0,USPennsylvaniaCarbon,Pennsylvania,Carbon,2020-07-18 07:20:20.758923,2020-07-13 00:00:00.000000,0.05940095,0.14878994,0.45515963,38,95,292,20,55,165,0.03198855,0.08638401,0.25796653,0.30381131,0.51761301,0.88963184
42025,0,USPennsylvaniaCarbon,Pennsylvania,Carbon,2020-07-18 07:20:20.758923,2020-07-14 00:00:00.000000,0.05901163,0.15556180,0.48538651,37,99,311,20,57,174,0.03216862,0.08882773,0.27185549,0.30381126,0.51762267,0.88976434
42025,0,USPennsylvaniaCarbon,Pennsylvania,Carbon,2020-07-18 07:20:20.758923,2020-07-15 00:00:00.000000,0.05862552,0.15880405,0.51522355,37,101,330,21,58,180,0.03395113,0.09064302,0.28054636,0.30381119,0.51762890,0.88983379
42025,0,USPennsylvaniaCarbon,Pennsylvania,Carbon,2020-07-18 07:20:20.758923,2020-07-16 00:00:00.000000,0.05824249,0.16349225,0.54696330,37,104,351,22,58,194,0.03535730,0.09053889,0.30289007,0.30381113,0.51763307,0.88987047
42025,0,USPennsylvaniaCarbon,Pennsylvania,Carbon,2020-07-18 07:20:20.758923,2020-07-17 00:00:00.000000,0.05786241,0.16325010,0.58068010,37,104,372,22,59,208,0.03512768,0.09291138,0.32508101,0.30381109,0.51763590,0.88988996
42025,0,USPennsylvaniaCarbon,Pennsylvania,Carbon,2020-07-18 07:20:20.758923,2020-07-18 00:00:00.000000,0.05748518,0.16852455,0.61645694,36,108,395,22,61,222,0.03489979,0.09569799,0.34705818,0.30381107,0.51763785,0.88990035
42025,0,USPennsylvaniaCarbon,Pennsylvania,Carbon,2020-07-18 07:20:20.758923,2020-07-19 00:00:00.000000,0.05711073,0.17142213,0.65438448,36,110,419,22,62,239,0.03467358,0.09755657,0.37256153,0.30381106,0.51763920,0.88990590
42025,0,USPennsylvaniaCarbon,Pennsylvania,Carbon,2020-07-18 07:20:20.758923,2020-07-20 00:00:00.000000,0.05673898,0.17645645,0.69456009,36,113,445,22,64,264,0.03444901,0.10019432,0.41153297,0.30381105,0.51764014,0.88990886
42025,0,USPennsylvaniaCarbon,Pennsylvania,Carbon,2020-07-18 07:20:20.758923,2020-07-21 00:00:00.000000,0.05636990,0.17761912,0.73708706,36,113,473,21,66,291,0.03422605,0.10347397,0.45467303,0.30381104,0.51764080,0.88991045
42025,0,USPennsylvaniaCarbon,Pennsylvania,Carbon,2020-07-18 07:20:20.758923,2020-07-22 00:00:00.000000,0.05600343,0.19087019,0.78207379,35,122,501,21,69,322,0.03400467,0.10789797,0.50211508,0.30381104,0.51764126,0.88991130
42025,0,USPennsylvaniaCarbon,Pennsylvania,Carbon,2020-07-18 07:20:20.758923,2020-07-23 00:00:00.000000,0.05563955,0.19005645,0.83739341,35,121,537,21,70,348,0.03378485,0.10994165,0.54303471,0.30381104,0.51764158,0.88991176
42025,0,USPennsylvaniaCarbon,Pennsylvania,Carbon,2020-07-18 07:20:20.758923,2020-07-24 00:00:00.000000,0.05527822,0.19797007,0.92522969,35,127,593,21,70,365,0.03356657,0.11057192,0.57019582,0.30381104,0.51764181,0.88991200
42025,0,USPennsylvaniaCarbon,Pennsylvania,Carbon,2020-07-18 07:20:20.758923,2020-07-25 00:00:00.000000,0.05491943,0.19777627,1.02127318,35,126,655,21,71,384,0.03336228,0.11142278,0.59860614,0.30381104,0.51764197,0.88991213
42025,0,USPennsylvaniaCarbon,Pennsylvania,Carbon,2020-07-18 07:20:20.758923,2020-07-26 00:00:00.000000,0.05456315,0.20013894,1.12412225,35,128,721,21,73,403,0.03331209,0.11454564,0.62831003,0.30381104,0.51764208,0.88991220
42025,0,USPennsylvaniaCarbon,Pennsylvania,Carbon,2020-07-18 07:20:20.758923,2020-07-27 00:00:00.000000,0.05420936,0.20111129,1.23900147,34,129,795,21,74,423,0.03297652,0.11534590,0.65935210,0.30381104,0.51764215,0.88991224
42025,0,USPennsylvaniaCarbon,Pennsylvania,Carbon,2020-07-18 07:20:20.758923,2020-07-28 00:00:00.000000,0.05385804,0.20507327,1.37004553,34,131,879,21,76,443,0.03297745,0.11943291,0.69177705,0.30381104,0.51764221,0.88991226
42025,0,USPennsylvaniaCarbon,Pennsylvania,Carbon,2020-07-18 07:20:20.758923,2020-07-29 00:00:00.000000,0.05327708,0.20834499,1.47175058,34,133,944,21,76,465,0.03297839,0.11912247,0.72562941,0.30381104,0.51764225,0.88991227
42025,0,USPennsylvaniaCarbon,Pennsylvania,Carbon,2020-07-18 07:20:20.758923,2020-07-30 00:00:00.000000,0.05267141,0.21531817,1.58069840,33,138,1014,21,79,488,0.03297932,0.12370192,0.76095325,0.30381104,0.51764227,0.88991227
