30 Divergences 
Computed from 160 by 124 log-likelihood matrix

         Estimate       SE
elpd_loo  -324.29    42.92
p_loo      243.63        -

There has been a warning during the calculation. Please check the results.
------

Pareto k diagnostic values:
                         Count   Pct.
(-Inf, 0.5]   (good)      100   80.6%
 (0.5, 0.7]   (ok)          4    3.2%
   (0.7, 1]   (bad)         7    5.6%
   (1, Inf)   (very bad)   13   10.5%


The scale is now log by default. Use 'scale' argument or 'stats.ic_scale' rcParam if
you rely on a specific value.
A higher log-score (or a lower deviance) indicates a model with better predictive
accuracy.