FIPS,HR_UID,nameid,province,region,analysisTime,dates,pointprevalence_025,pointprevalence_50,pointprevalence_975,pointinfections_025,pointinfections_50,pointinfections_975,pointinfectious_025,pointinfectious_50,pointinfectious_975,pointinfectiousprevalence_05,pointinfectiousprevalence_50,pointinfectiousprevalence_95,infectrate_025,infectrate_50,infectrate_975
13135,0,USGeorgiaGwinnett,Georgia,Gwinnett,2020-07-18 18:31:40.854720,2020-03-09 00:00:00.000000,0.00263446,0.01016664,0.04477341,24,95,419,8,38,174,0.00094125,0.00406101,0.01860168,0.59419205,0.85933303,1.18372818
13135,0,USGeorgiaGwinnett,Georgia,Gwinnett,2020-07-18 18:31:40.854720,2020-03-10 00:00:00.000000,0.00250810,0.01165684,0.05069005,23,109,474,13,45,177,0.00140692,0.00481766,0.01897410,0.59419327,0.85933306,1.18372803
13135,0,USGeorgiaGwinnett,Georgia,Gwinnett,2020-07-18 18:31:40.854720,2020-03-11 00:00:00.000000,0.00291700,0.01273917,0.05623314,27,119,526,14,52,191,0.00155481,0.00563782,0.02044069,0.59419614,0.85933320,1.18372775
13135,0,USGeorgiaGwinnett,Georgia,Gwinnett,2020-07-18 18:31:40.854720,2020-03-12 00:00:00.000000,0.00334943,0.01489997,0.06080798,31,139,569,18,60,197,0.00196241,0.00649684,0.02104761,0.59420297,0.85933383,1.18372721
13135,0,USGeorgiaGwinnett,Georgia,Gwinnett,2020-07-18 18:31:40.854720,2020-03-13 00:00:00.000000,0.00401899,0.01760506,0.06621774,37,164,619,22,69,208,0.00236000,0.00738562,0.02226152,0.59421915,0.85933650,1.18372604
13135,0,USGeorgiaGwinnett,Georgia,Gwinnett,2020-07-18 18:31:40.854720,2020-03-14 00:00:00.000000,0.00496862,0.01997856,0.07208417,46,187,674,26,77,233,0.00287769,0.00826897,0.02491900,0.59492165,0.85934791,1.18372296
13135,0,USGeorgiaGwinnett,Georgia,Gwinnett,2020-07-18 18:31:40.854720,2020-03-15 00:00:00.000000,0.00625336,0.02252544,0.07827265,58,210,732,32,87,263,0.00349330,0.00939780,0.02809584,0.59660897,0.85939943,1.18371185
13135,0,USGeorgiaGwinnett,Georgia,Gwinnett,2020-07-18 18:31:40.854720,2020-03-16 00:00:00.000000,0.00785811,0.02498335,0.08481049,73,233,794,39,98,291,0.00424591,0.01056244,0.03115639,0.59600901,0.86700608,1.18365981
13135,0,USGeorgiaGwinnett,Georgia,Gwinnett,2020-07-18 18:31:40.854720,2020-03-17 00:00:00.000000,0.00928680,0.02822623,0.09530479,86,264,892,42,110,334,0.00452998,0.01177072,0.03575931,0.59651240,0.87038893,1.18338041
13135,0,USGeorgiaGwinnett,Georgia,Gwinnett,2020-07-18 18:31:40.854720,2020-03-18 00:00:00.000000,0.01095184,0.03196172,0.10732973,102,299,1004,50,122,378,0.00538438,0.01311873,0.04039151,0.60368714,0.87075551,1.18180734
13135,0,USGeorgiaGwinnett,Georgia,Gwinnett,2020-07-18 18:31:40.854720,2020-03-19 00:00:00.000000,0.01291689,0.03539750,0.12084818,120,331,1131,58,138,426,0.00620819,0.01478761,0.04551512,0.58473400,0.87315396,1.19613779
13135,0,USGeorgiaGwinnett,Georgia,Gwinnett,2020-07-18 18:31:40.854720,2020-03-20 00:00:00.000000,0.01544844,0.03947331,0.13595102,144,369,1272,69,156,480,0.00739481,0.01672489,0.05128417,0.59920878,0.85871621,1.23947638
13135,0,USGeorgiaGwinnett,Georgia,Gwinnett,2020-07-18 18:31:40.854720,2020-03-21 00:00:00.000000,0.01831532,0.04502063,0.15277932,171,421,1430,78,178,540,0.00839648,0.01905055,0.05776033,0.57577552,0.85097150,1.28324360
13135,0,USGeorgiaGwinnett,Georgia,Gwinnett,2020-07-18 18:31:40.854720,2020-03-22 00:00:00.000000,0.02167706,0.05183155,0.17154327,202,485,1606,93,203,608,0.00998823,0.02176974,0.06500496,0.56415595,0.86105601,1.27051999
13135,0,USGeorgiaGwinnett,Georgia,Gwinnett,2020-07-18 18:31:40.854720,2020-03-23 00:00:00.000000,0.02474832,0.05838856,0.19237956,231,546,1801,105,228,688,0.01129329,0.02442279,0.07352972,0.56032327,0.84510758,1.29714023
13135,0,USGeorgiaGwinnett,Georgia,Gwinnett,2020-07-18 18:31:40.854720,2020-03-24 00:00:00.000000,0.02823460,0.06536701,0.21528030,264,611,2015,116,254,770,0.01242388,0.02721176,0.08227908,0.55885030,0.82816088,1.29541355
13135,0,USGeorgiaGwinnett,Georgia,Gwinnett,2020-07-18 18:31:40.854720,2020-03-25 00:00:00.000000,0.03306049,0.07374553,0.23995378,309,690,2246,130,285,885,0.01392161,0.03046217,0.09457251,0.55526698,0.81649439,1.29462033
13135,0,USGeorgiaGwinnett,Georgia,Gwinnett,2020-07-18 18:31:40.854720,2020-03-26 00:00:00.000000,0.03842110,0.08263974,0.25696227,359,773,2405,151,319,996,0.01622844,0.03416324,0.10648035,0.52317964,0.81231152,1.28463418
13135,0,USGeorgiaGwinnett,Georgia,Gwinnett,2020-07-18 18:31:40.854720,2020-03-27 00:00:00.000000,0.04249298,0.09303773,0.28915367,397,871,2707,175,362,1136,0.01876987,0.03873401,0.12136185,0.48690054,0.80167983,1.25579094
13135,0,USGeorgiaGwinnett,Georgia,Gwinnett,2020-07-18 18:31:40.854720,2020-03-28 00:00:00.000000,0.04686214,0.10676254,0.31094617,438,999,2911,195,412,1345,0.02084044,0.04403438,0.14373755,0.46257208,0.78762583,1.29822251
13135,0,USGeorgiaGwinnett,Georgia,Gwinnett,2020-07-18 18:31:40.854720,2020-03-29 00:00:00.000000,0.05086452,0.11861444,0.32924167,476,1110,3082,219,458,1451,0.02341826,0.04891866,0.15499351,0.44182615,0.76734160,1.31360888
13135,0,USGeorgiaGwinnett,Georgia,Gwinnett,2020-07-18 18:31:40.854720,2020-03-30 00:00:00.000000,0.05661697,0.13045441,0.34572982,530,1221,3236,247,513,1539,0.02642665,0.05488601,0.16444667,0.42205534,0.73793246,1.26329556
13135,0,USGeorgiaGwinnett,Georgia,Gwinnett,2020-07-18 18:31:40.854720,2020-03-31 00:00:00.000000,0.06220141,0.14296405,0.36067542,582,1338,3376,269,575,1626,0.02875087,0.06150434,0.17373380,0.40233893,0.72255859,1.20538399
13135,0,USGeorgiaGwinnett,Georgia,Gwinnett,2020-07-18 18:31:40.854720,2020-04-01 00:00:00.000000,0.06825110,0.15629248,0.38251663,639,1463,3581,294,639,1712,0.03142359,0.06827968,0.18288141,0.36260363,0.69307427,1.16176332
13135,0,USGeorgiaGwinnett,Georgia,Gwinnett,2020-07-18 18:31:40.854720,2020-04-02 00:00:00.000000,0.07424024,0.16626879,0.41382278,695,1556,3874,331,702,1868,0.03540918,0.07502310,0.19960841,0.34164374,0.68054767,1.10565090
13135,0,USGeorgiaGwinnett,Georgia,Gwinnett,2020-07-18 18:31:40.854720,2020-04-03 00:00:00.000000,0.08164538,0.18024001,0.49022945,764,1687,4589,360,776,2066,0.03853967,0.08290567,0.22077389,0.31998230,0.67017844,1.01453053
13135,0,USGeorgiaGwinnett,Georgia,Gwinnett,2020-07-18 18:31:40.854720,2020-04-04 00:00:00.000000,0.08843720,0.19461253,0.52152139,827,1822,4882,385,839,2265,0.04121119,0.08969820,0.24192978,0.31259321,0.64009960,0.99055122
13135,0,USGeorgiaGwinnett,Georgia,Gwinnett,2020-07-18 18:31:40.854720,2020-04-05 00:00:00.000000,0.09598497,0.20521317,0.54925844,898,1921,5142,416,901,2558,0.04449358,0.09625913,0.27326209,0.30521694,0.60241135,0.94939296
13135,0,USGeorgiaGwinnett,Georgia,Gwinnett,2020-07-18 18:31:40.854720,2020-04-06 00:00:00.000000,0.10331294,0.21665591,0.57516473,967,2028,5384,449,995,2646,0.04806271,0.10633913,0.28266191,0.29263583,0.57850466,0.90420533
13135,0,USGeorgiaGwinnett,Georgia,Gwinnett,2020-07-18 18:31:40.854720,2020-04-07 00:00:00.000000,0.11088228,0.23617852,0.59381268,1038,2211,5559,491,1051,2757,0.05248193,0.11231243,0.29452356,0.28852884,0.56178354,0.88685290
13135,0,USGeorgiaGwinnett,Georgia,Gwinnett,2020-07-18 18:31:40.854720,2020-04-08 00:00:00.000000,0.11887874,0.24756394,0.62562191,1113,2317,5857,536,1129,2947,0.05729657,0.12067312,0.31483849,0.28720787,0.54722626,0.87018193
13135,0,USGeorgiaGwinnett,Georgia,Gwinnett,2020-07-18 18:31:40.854720,2020-04-09 00:00:00.000000,0.12730817,0.26041850,0.65428975,1191,2438,6125,575,1202,3156,0.06149569,0.12848623,0.33718133,0.27040117,0.53054066,0.85475874
13135,0,USGeorgiaGwinnett,Georgia,Gwinnett,2020-07-18 18:31:40.854720,2020-04-10 00:00:00.000000,0.13628611,0.27520340,0.68209543,1275,2576,6386,614,1265,3291,0.06560034,0.13511499,0.35159229,0.26678748,0.51603443,0.81047268
13135,0,USGeorgiaGwinnett,Georgia,Gwinnett,2020-07-18 18:31:40.854720,2020-04-11 00:00:00.000000,0.14580075,0.28740219,0.70052616,1365,2690,6558,647,1350,3450,0.06917401,0.14429833,0.36855747,0.27248841,0.50226689,0.79843832
13135,0,USGeorgiaGwinnett,Georgia,Gwinnett,2020-07-18 18:31:40.854720,2020-04-12 00:00:00.000000,0.15362602,0.30289076,0.71568053,1438,2835,6700,692,1434,3663,0.07393639,0.15325507,0.39127961,0.25106690,0.48396290,0.78421220
13135,0,USGeorgiaGwinnett,Georgia,Gwinnett,2020-07-18 18:31:40.854720,2020-04-13 00:00:00.000000,0.16173825,0.31341898,0.73526878,1514,2934,6883,723,1500,3675,0.07728566,0.16030843,0.39256430,0.24743028,0.46452380,0.77051190
13135,0,USGeorgiaGwinnett,Georgia,Gwinnett,2020-07-18 18:31:40.854720,2020-04-14 00:00:00.000000,0.16982218,0.32745231,0.76652360,1589,3065,7176,748,1543,3758,0.07996043,0.16490885,0.40141543,0.24259104,0.45673086,0.75700936
13135,0,USGeorgiaGwinnett,Georgia,Gwinnett,2020-07-18 18:31:40.854720,2020-04-15 00:00:00.000000,0.17602301,0.33912175,0.78605059,1648,3175,7359,765,1589,3956,0.08173411,0.16980887,0.42255095,0.23918918,0.44943536,0.74079178
13135,0,USGeorgiaGwinnett,Georgia,Gwinnett,2020-07-18 18:31:40.854720,2020-04-16 00:00:00.000000,0.18225754,0.34368653,0.80508275,1706,3217,7537,791,1643,4148,0.08451855,0.17556531,0.44309177,0.23825643,0.44343646,0.72177650
13135,0,USGeorgiaGwinnett,Georgia,Gwinnett,2020-07-18 18:31:40.854720,2020-04-17 00:00:00.000000,0.18781801,0.35190299,0.82250712,1758,3294,7700,813,1709,4324,0.08685123,0.18262911,0.46186777,0.22658646,0.43160395,0.70927900
13135,0,USGeorgiaGwinnett,Georgia,Gwinnett,2020-07-18 18:31:40.854720,2020-04-18 00:00:00.000000,0.18613195,0.35310476,0.83087193,1742,3305,7779,838,1774,4475,0.08955844,0.18950276,0.47805343,0.21703712,0.41901438,0.68092730
13135,0,USGeorgiaGwinnett,Georgia,Gwinnett,2020-07-18 18:31:40.854720,2020-04-19 00:00:00.000000,0.19048932,0.35675072,0.84950775,1783,3340,7953,863,1803,4602,0.09226251,0.19264397,0.49155464,0.21109967,0.41320651,0.65602072
13135,0,USGeorgiaGwinnett,Georgia,Gwinnett,2020-07-18 18:31:40.854720,2020-04-20 00:00:00.000000,0.19258516,0.36547317,0.86298259,1803,3421,8079,888,1799,4706,0.09488260,0.19217201,0.50266654,0.20418769,0.40749602,0.64337255
13135,0,USGeorgiaGwinnett,Georgia,Gwinnett,2020-07-18 18:31:40.854720,2020-04-21 00:00:00.000000,0.19439415,0.36932521,0.86969625,1820,3457,8142,896,1808,4791,0.09576463,0.19311594,0.51182084,0.20164141,0.40717685,0.63084674
13135,0,USGeorgiaGwinnett,Georgia,Gwinnett,2020-07-18 18:31:40.854720,2020-04-22 00:00:00.000000,0.19617605,0.37626098,0.87656285,1836,3522,8206,906,1818,4867,0.09678974,0.19427937,0.51994632,0.20055541,0.40611609,0.62883898
13135,0,USGeorgiaGwinnett,Georgia,Gwinnett,2020-07-18 18:31:40.854720,2020-04-23 00:00:00.000000,0.19727914,0.38154422,0.88453129,1847,3572,8281,905,1843,4938,0.09676451,0.19690147,0.52744562,0.20006581,0.40159679,0.62219081
13135,0,USGeorgiaGwinnett,Georgia,Gwinnett,2020-07-18 18:31:40.854720,2020-04-24 00:00:00.000000,0.19780970,0.38431142,0.89123737,1851,3598,8344,899,1875,5012,0.09605103,0.20027635,0.53541543,0.19596948,0.39856725,0.61952981
13135,0,USGeorgiaGwinnett,Georgia,Gwinnett,2020-07-18 18:31:40.854720,2020-04-25 00:00:00.000000,0.19782481,0.38673772,0.89581426,1852,3620,8387,893,1904,5178,0.09547947,0.20341176,0.55308620,0.19814329,0.39545485,0.61356698
13135,0,USGeorgiaGwinnett,Georgia,Gwinnett,2020-07-18 18:31:40.854720,2020-04-26 00:00:00.000000,0.19595271,0.38825758,0.90211224,1834,3635,8446,892,1912,5343,0.09532433,0.20427162,0.57071235,0.18869328,0.39126104,0.61411667
13135,0,USGeorgiaGwinnett,Georgia,Gwinnett,2020-07-18 18:31:40.854720,2020-04-27 00:00:00.000000,0.19684824,0.39150081,0.91037968,1842,3665,8523,888,1950,5345,0.09494227,0.20834991,0.57096937,0.18121460,0.37940002,0.61676919
13135,0,USGeorgiaGwinnett,Georgia,Gwinnett,2020-07-18 18:31:40.854720,2020-04-28 00:00:00.000000,0.19591472,0.39641108,0.92171118,1834,3711,8629,886,1968,5323,0.09463306,0.21020077,0.56863550,0.17530672,0.36580442,0.60933055
13135,0,USGeorgiaGwinnett,Georgia,Gwinnett,2020-07-18 18:31:40.854720,2020-04-29 00:00:00.000000,0.19487583,0.39861574,0.93104135,1824,3732,8716,882,1991,5305,0.09425537,0.21268489,0.56669379,0.17514598,0.36665851,0.60176214
13135,0,USGeorgiaGwinnett,Georgia,Gwinnett,2020-07-18 18:31:40.854720,2020-04-30 00:00:00.000000,0.19377535,0.39863052,0.94015616,1814,3732,8802,878,2001,5331,0.09381562,0.21378789,0.56947601,0.17440772,0.36874801,0.59536177
13135,0,USGeorgiaGwinnett,Georgia,Gwinnett,2020-07-18 18:31:40.854720,2020-05-01 00:00:00.000000,0.19264367,0.40067933,0.94866325,1803,3751,8881,873,2003,5356,0.09333902,0.21395527,0.57216320,0.16769686,0.35812328,0.58946883
13135,0,USGeorgiaGwinnett,Georgia,Gwinnett,2020-07-18 18:31:40.854720,2020-05-02 00:00:00.000000,0.19150355,0.40757248,0.95608750,1792,3815,8951,869,2011,5377,0.09284283,0.21485901,0.57441263,0.16288221,0.34932440,0.58887824
13135,0,USGeorgiaGwinnett,Georgia,Gwinnett,2020-07-18 18:31:40.854720,2020-05-03 00:00:00.000000,0.19037489,0.40212630,0.96223689,1782,3764,9008,864,2031,5442,0.09234003,0.21701956,0.58129213,0.15932737,0.35184464,0.59593053
13135,0,USGeorgiaGwinnett,Georgia,Gwinnett,2020-07-18 18:31:40.854720,2020-05-04 00:00:00.000000,0.18928181,0.39607719,0.96723204,1772,3708,9055,859,2013,5470,0.09184257,0.21507122,0.58426492,0.15396717,0.34712586,0.59743097
13135,0,USGeorgiaGwinnett,Georgia,Gwinnett,2020-07-18 18:31:40.854720,2020-05-05 00:00:00.000000,0.18829621,0.39451273,0.97150846,1762,3693,9095,855,2010,5503,0.09136442,0.21477458,0.58777152,0.15326921,0.34824048,0.58998351
13135,0,USGeorgiaGwinnett,Georgia,Gwinnett,2020-07-18 18:31:40.854720,2020-05-06 00:00:00.000000,0.18757921,0.38751713,0.97558520,1756,3628,9133,851,2015,5547,0.09092508,0.21523473,0.59256602,0.15327043,0.34904790,0.59438078
13135,0,USGeorgiaGwinnett,Georgia,Gwinnett,2020-07-18 18:31:40.854720,2020-05-07 00:00:00.000000,0.18735103,0.38037285,0.98226671,1754,3561,9196,848,2008,5586,0.09059023,0.21457260,0.59666568,0.15514545,0.35201800,0.59589546
13135,0,USGeorgiaGwinnett,Georgia,Gwinnett,2020-07-18 18:31:40.854720,2020-05-08 00:00:00.000000,0.18668425,0.38012316,1.00032467,1747,3558,9365,846,2035,5620,0.09046611,0.21744680,0.60035490,0.16163532,0.35707278,0.59560433
13135,0,USGeorgiaGwinnett,Georgia,Gwinnett,2020-07-18 18:31:40.854720,2020-05-09 00:00:00.000000,0.18333184,0.37839859,1.01652223,1716,3542,9517,842,2052,5653,0.08994936,0.21918984,0.60380129,0.16617020,0.36089952,0.61313306
13135,0,USGeorgiaGwinnett,Georgia,Gwinnett,2020-07-18 18:31:40.854720,2020-05-10 00:00:00.000000,0.18084124,0.38277975,1.02488687,1693,3583,9595,832,2057,5684,0.08892452,0.21971481,0.60710398,0.16221999,0.36094454,0.61777650
13135,0,USGeorgiaGwinnett,Georgia,Gwinnett,2020-07-18 18:31:40.854720,2020-05-11 00:00:00.000000,0.17960882,0.38096096,1.03122057,1681,3566,9654,829,2038,5714,0.08862291,0.21770534,0.61034397,0.16752472,0.36501098,0.64358775
13135,0,USGeorgiaGwinnett,Georgia,Gwinnett,2020-07-18 18:31:40.854720,2020-05-12 00:00:00.000000,0.17890706,0.38883814,1.03910484,1675,3640,9728,837,2000,5743,0.08950517,0.21371751,0.61346360,0.17138471,0.37170232,0.66625562
13135,0,USGeorgiaGwinnett,Georgia,Gwinnett,2020-07-18 18:31:40.854720,2020-05-13 00:00:00.000000,0.17925190,0.39263064,1.05021411,1678,3676,9832,850,2034,5778,0.09083377,0.21732270,0.61722755,0.17138638,0.37827124,0.67879790
13135,0,USGeorgiaGwinnett,Georgia,Gwinnett,2020-07-18 18:31:40.854720,2020-05-14 00:00:00.000000,0.18000311,0.40047131,1.07727413,1685,3749,10085,867,2039,5844,0.09270359,0.21784545,0.62429673,0.16767665,0.39658149,0.72913840
13135,0,USGeorgiaGwinnett,Georgia,Gwinnett,2020-07-18 18:31:40.854720,2020-05-15 00:00:00.000000,0.18341394,0.40047851,1.10255159,1717,3749,10322,884,2062,5913,0.09442007,0.22028294,0.63161849,0.16651668,0.40349570,0.72649974
13135,0,USGeorgiaGwinnett,Georgia,Gwinnett,2020-07-18 18:31:40.854720,2020-05-16 00:00:00.000000,0.18897295,0.40929417,1.12117601,1769,3832,10497,908,2083,5980,0.09701017,0.22253368,0.63872240,0.17258532,0.42031086,0.75748417
13135,0,USGeorgiaGwinnett,Georgia,Gwinnett,2020-07-18 18:31:40.854720,2020-05-17 00:00:00.000000,0.19296743,0.42351651,1.14619228,1806,3965,10731,914,2134,6043,0.09767080,0.22796614,0.64553809,0.18072826,0.42417670,0.75510132
13135,0,USGeorgiaGwinnett,Georgia,Gwinnett,2020-07-18 18:31:40.854720,2020-05-18 00:00:00.000000,0.20380296,0.43213023,1.17764798,1908,4045,11025,914,2193,6163,0.09768346,0.23427729,0.65826927,0.19017726,0.43204310,0.74998074
13135,0,USGeorgiaGwinnett,Georgia,Gwinnett,2020-07-18 18:31:40.854720,2020-05-19 00:00:00.000000,0.20548660,0.45142946,1.21769114,1923,4226,11400,914,2243,6294,0.09770683,0.23965614,0.67233124,0.19700924,0.43479495,0.74295084
13135,0,USGeorgiaGwinnett,Georgia,Gwinnett,2020-07-18 18:31:40.854720,2020-05-20 00:00:00.000000,0.20896152,0.46203445,1.25883597,1956,4325,11785,924,2299,6444,0.09876458,0.24562073,0.68831561,0.20006960,0.44249214,0.73730911
13135,0,USGeorgiaGwinnett,Georgia,Gwinnett,2020-07-18 18:31:40.854720,2020-05-21 00:00:00.000000,0.21641349,0.47617723,1.29904601,2026,4458,12162,974,2344,6607,0.10413736,0.25036863,0.70574978,0.20312137,0.44304455,0.73407616
13135,0,USGeorgiaGwinnett,Georgia,Gwinnett,2020-07-18 18:31:40.854720,2020-05-22 00:00:00.000000,0.22665902,0.49014948,1.33727691,2122,4589,12520,1036,2414,6779,0.11071452,0.25791304,0.72415430,0.20264086,0.44899867,0.73798106
13135,0,USGeorgiaGwinnett,Georgia,Gwinnett,2020-07-18 18:31:40.854720,2020-05-23 00:00:00.000000,0.23838145,0.50293381,1.37349648,2231,4708,12859,1103,2516,6958,0.11788234,0.26874391,0.74322157,0.20309759,0.44786617,0.73707416
13135,0,USGeorgiaGwinnett,Georgia,Gwinnett,2020-07-18 18:31:40.854720,2020-05-24 00:00:00.000000,0.25099888,0.51535641,1.40829252,2349,4825,13185,1164,2584,7142,0.12436929,0.27605249,0.76286868,0.20437418,0.45085127,0.73135681
13135,0,USGeorgiaGwinnett,Georgia,Gwinnett,2020-07-18 18:31:40.854720,2020-05-25 00:00:00.000000,0.26430558,0.52807807,1.44237226,2474,4944,13504,1222,2633,7331,0.13058886,0.28125098,0.78308858,0.20625647,0.45355270,0.73189890
13135,0,USGeorgiaGwinnett,Georgia,Gwinnett,2020-07-18 18:31:40.854720,2020-05-26 00:00:00.000000,0.27826343,0.54446753,1.47628716,2605,5097,13821,1271,2708,7527,0.13584858,0.28933907,0.80404174,0.20388663,0.44969817,0.73178143
13135,0,USGeorgiaGwinnett,Georgia,Gwinnett,2020-07-18 18:31:40.854720,2020-05-27 00:00:00.000000,0.29288399,0.55941608,1.51013936,2742,5237,14138,1296,2808,7735,0.13845401,0.30001701,0.82616989,0.20495414,0.44864717,0.73136750
13135,0,USGeorgiaGwinnett,Georgia,Gwinnett,2020-07-18 18:31:40.854720,2020-05-28 00:00:00.000000,0.30817931,0.57485931,1.54406875,2885,5382,14456,1347,2875,7959,0.14388377,0.30710097,0.85012769,0.20485828,0.44216804,0.73062390
13135,0,USGeorgiaGwinnett,Georgia,Gwinnett,2020-07-18 18:31:40.854720,2020-05-29 00:00:00.000000,0.32401807,0.59443338,1.57852621,3033,5565,14778,1391,2959,8200,0.14859775,0.31614623,0.87591803,0.20290356,0.42874046,0.72768456
13135,0,USGeorgiaGwinnett,Georgia,Gwinnett,2020-07-18 18:31:40.854720,2020-05-30 00:00:00.000000,0.33731898,0.60968050,1.61356756,3158,5708,15107,1430,3057,8453,0.15279211,0.32654474,0.90290669,0.19918321,0.42634702,0.71454871
13135,0,USGeorgiaGwinnett,Georgia,Gwinnett,2020-07-18 18:31:40.854720,2020-05-31 00:00:00.000000,0.34869172,0.62473137,1.64924975,3264,5849,15441,1493,3133,8711,0.15950017,0.33469275,0.93045157,0.19832312,0.43100804,0.71041462
13135,0,USGeorgiaGwinnett,Georgia,Gwinnett,2020-07-18 18:31:40.854720,2020-06-01 00:00:00.000000,0.35727887,0.63227222,1.71440910,3345,5919,16051,1568,3197,8969,0.16749293,0.34151340,0.95807182,0.19818064,0.43146455,0.71028849
13135,0,USGeorgiaGwinnett,Georgia,Gwinnett,2020-07-18 18:31:40.854720,2020-06-02 00:00:00.000000,0.36333546,0.64514283,1.79814680,3401,6040,16835,1619,3258,9226,0.17297838,0.34798730,0.98549068,0.19815689,0.43306242,0.71228962
13135,0,USGeorgiaGwinnett,Georgia,Gwinnett,2020-07-18 18:31:40.854720,2020-06-03 00:00:00.000000,0.37461097,0.66841557,1.88488644,3507,6258,17647,1679,3348,9480,0.17936059,0.35764386,1.01260043,0.20154608,0.43213151,0.70464356
13135,0,USGeorgiaGwinnett,Georgia,Gwinnett,2020-07-18 18:31:40.854720,2020-06-04 00:00:00.000000,0.37411523,0.68298626,1.97489470,3502,6394,18489,1719,3438,9731,0.18363433,0.36729098,1.03940642,0.20931271,0.43314775,0.69566807
13135,0,USGeorgiaGwinnett,Georgia,Gwinnett,2020-07-18 18:31:40.854720,2020-06-05 00:00:00.000000,0.37449731,0.69792170,2.06829588,3506,6534,19364,1757,3510,9979,0.18776424,0.37491045,1.06589487,0.21469531,0.44198843,0.68584431
13135,0,USGeorgiaGwinnett,Georgia,Gwinnett,2020-07-18 18:31:40.854720,2020-06-06 00:00:00.000000,0.37756242,0.71141071,2.16478412,3534,6660,20267,1804,3614,10222,0.19278740,0.38611087,1.09187392,0.21720935,0.45702407,0.68653740
13135,0,USGeorgiaGwinnett,Georgia,Gwinnett,2020-07-18 18:31:40.854720,2020-06-07 00:00:00.000000,0.38050296,0.72922386,2.25452776,3562,6827,21108,1857,3696,10457,0.19841786,0.39480186,1.11700837,0.21855030,0.45486751,0.71765776
13135,0,USGeorgiaGwinnett,Georgia,Gwinnett,2020-07-18 18:31:40.854720,2020-06-08 00:00:00.000000,0.38579215,0.75674097,2.31826148,3611,7084,21704,1919,3809,10684,0.20499310,0.40691753,1.14119372,0.21985149,0.45058063,0.72379434
13135,0,USGeorgiaGwinnett,Georgia,Gwinnett,2020-07-18 18:31:40.854720,2020-06-09 00:00:00.000000,0.40233722,0.78225537,2.38320814,3766,7323,22312,1949,3888,10904,0.20826114,0.41535735,1.16470902,0.22187421,0.45221952,0.75151222
13135,0,USGeorgiaGwinnett,Georgia,Gwinnett,2020-07-18 18:31:40.854720,2020-06-10 00:00:00.000000,0.42003670,0.80635355,2.44919873,3932,7549,22930,1964,3997,11122,0.20983937,0.42691987,1.18795379,0.22501136,0.44914404,0.75719318
13135,0,USGeorgiaGwinnett,Georgia,Gwinnett,2020-07-18 18:31:40.854720,2020-06-11 00:00:00.000000,0.43220844,0.83653819,2.51592780,4046,7832,23555,1942,4122,11340,0.20749515,0.44028432,1.21124321,0.23364120,0.46491432,0.75945009
13135,0,USGeorgiaGwinnett,Georgia,Gwinnett,2020-07-18 18:31:40.854720,2020-06-12 00:00:00.000000,0.43776077,0.85867971,2.58436631,4098,8039,24196,1949,4251,11560,0.20823074,0.45413934,1.23476639,0.23889488,0.47950389,0.76279321
13135,0,USGeorgiaGwinnett,Georgia,Gwinnett,2020-07-18 18:31:40.854720,2020-06-13 00:00:00.000000,0.44320871,0.88885495,2.65550250,4149,8321,24862,2020,4386,11783,0.21583569,0.46854550,1.25862397,0.24480825,0.48538053,0.76663090
13135,0,USGeorgiaGwinnett,Georgia,Gwinnett,2020-07-18 18:31:40.854720,2020-06-14 00:00:00.000000,0.44893483,0.90587146,2.73116146,4203,8481,25570,2093,4509,12010,0.22358839,0.48169820,1.28286073,0.24862727,0.48591289,0.79553638
13135,0,USGeorgiaGwinnett,Georgia,Gwinnett,2020-07-18 18:31:40.854720,2020-06-15 00:00:00.000000,0.46203110,0.93703383,2.81712131,4325,8772,26375,2166,4661,12241,0.23141543,0.49786545,1.30747368,0.24930087,0.49722750,0.82120388
13135,0,USGeorgiaGwinnett,Georgia,Gwinnett,2020-07-18 18:31:40.854720,2020-06-16 00:00:00.000000,0.49399126,0.98389149,2.90948744,4624,9211,27240,2233,4793,12474,0.23858671,0.51202952,1.33243079,0.24790425,0.50256875,0.85223464
13135,0,USGeorgiaGwinnett,Georgia,Gwinnett,2020-07-18 18:31:40.854720,2020-06-17 00:00:00.000000,0.52273944,1.03534150,2.97569806,4894,9693,27859,2313,4951,12799,0.24706874,0.52889333,1.36705552,0.24834766,0.49637331,0.85335487
13135,0,USGeorgiaGwinnett,Georgia,Gwinnett,2020-07-18 18:31:40.854720,2020-06-18 00:00:00.000000,0.54664491,1.07286220,3.04629761,5117,10044,28520,2399,5149,13324,0.25633259,0.54997526,1.42322728,0.25397134,0.49808573,0.83662790
13135,0,USGeorgiaGwinnett,Georgia,Gwinnett,2020-07-18 18:31:40.854720,2020-06-19 00:00:00.000000,0.57669079,1.11534533,3.12302016,5399,10442,29239,2431,5359,13867,0.25967386,0.57244861,1.48121216,0.25638340,0.50069064,0.82728603
13135,0,USGeorgiaGwinnett,Georgia,Gwinnett,2020-07-18 18:31:40.854720,2020-06-20 00:00:00.000000,0.60477422,1.15012366,3.20901700,5662,10768,30044,2494,5565,14416,0.26639602,0.59446277,1.53979870,0.25922501,0.49019260,0.82846657
13135,0,USGeorgiaGwinnett,Georgia,Gwinnett,2020-07-18 18:31:40.854720,2020-06-21 00:00:00.000000,0.63303472,1.18906607,3.30689330,5926,11132,30960,2565,5749,14963,0.27404894,0.61412604,1.59819004,0.25934259,0.49749827,0.80078792
13135,0,USGeorgiaGwinnett,Georgia,Gwinnett,2020-07-18 18:31:40.854720,2020-06-22 00:00:00.000000,0.65967607,1.22397771,3.41635912,6176,11459,31985,2642,5940,15577,0.28229099,0.63452533,1.66385648,0.25487642,0.49956945,0.78050248
13135,0,USGeorgiaGwinnett,Georgia,Gwinnett,2020-07-18 18:31:40.854720,2020-06-23 00:00:00.000000,0.68202558,1.27381527,3.53468080,6385,11926,33093,2761,6143,16342,0.29498089,0.65621759,1.74553851,0.24802152,0.49803471,0.77706230
13135,0,USGeorgiaGwinnett,Georgia,Gwinnett,2020-07-18 18:31:40.854720,2020-06-24 00:00:00.000000,0.69711521,1.31046815,3.67407482,6526,12269,34398,2891,6353,17108,0.30884286,0.67865378,1.82732493,0.24102043,0.49418041,0.77059205
13135,0,USGeorgiaGwinnett,Georgia,Gwinnett,2020-07-18 18:31:40.854720,2020-06-25 00:00:00.000000,0.72146331,1.34594741,3.85811860,6754,12601,36121,3023,6573,17873,0.32289053,0.70210795,1.90907147,0.23794107,0.48800649,0.74550472
13135,0,USGeorgiaGwinnett,Georgia,Gwinnett,2020-07-18 18:31:40.854720,2020-06-26 00:00:00.000000,0.75979099,1.38211978,4.03913928,7113,12940,37816,3158,6815,18637,0.33736116,0.72798301,1.99070449,0.24486596,0.48635196,0.74024806
13135,0,USGeorgiaGwinnett,Georgia,Gwinnett,2020-07-18 18:31:40.854720,2020-06-27 00:00:00.000000,0.79557982,1.41584132,4.15145911,7448,13255,38868,3328,7024,19398,0.35548822,0.75026275,2.07194742,0.24526439,0.47917799,0.73554396
13135,0,USGeorgiaGwinnett,Georgia,Gwinnett,2020-07-18 18:31:40.854720,2020-06-28 00:00:00.000000,0.83106195,1.45218239,4.23507533,7780,13596,39650,3433,7225,20149,0.36671283,0.77178283,2.15215626,0.24012478,0.47249311,0.73512339
13135,0,USGeorgiaGwinnett,Georgia,Gwinnett,2020-07-18 18:31:40.854720,2020-06-29 00:00:00.000000,0.84886102,1.48198580,4.32882660,7947,13875,40528,3543,7435,20881,0.37848250,0.79422025,2.23028993,0.23410277,0.46383450,0.73545892
13135,0,USGeorgiaGwinnett,Georgia,Gwinnett,2020-07-18 18:31:40.854720,2020-06-30 00:00:00.000000,0.85474436,1.51254035,4.46928313,8002,14161,41843,3659,7621,21581,0.39086393,0.81401860,2.30506672,0.23046513,0.46366242,0.73551940
13135,0,USGeorgiaGwinnett,Georgia,Gwinnett,2020-07-18 18:31:40.854720,2020-07-01 00:00:00.000000,0.86018750,1.54343056,4.61172062,8053,14450,43177,3780,7817,22239,0.40378216,0.83498069,2.37532824,0.22802516,0.45662648,0.74578444
13135,0,USGeorgiaGwinnett,Georgia,Gwinnett,2020-07-18 18:31:40.854720,2020-07-02 00:00:00.000000,0.86669288,1.58003724,4.73093406,8114,14793,44293,3904,7976,22848,0.41704509,0.85196231,2.44047717,0.22235310,0.45068982,0.73983674
13135,0,USGeorgiaGwinnett,Georgia,Gwinnett,2020-07-18 18:31:40.854720,2020-07-03 00:00:00.000000,0.88705942,1.62926030,4.73630647,8305,15253,44343,3974,8121,23412,0.42449240,0.86743742,2.50070165,0.21461242,0.44566592,0.72246217
13135,0,USGeorgiaGwinnett,Georgia,Gwinnett,2020-07-18 18:31:40.854720,2020-07-04 00:00:00.000000,0.90223083,1.66880548,4.72293212,8447,15624,44218,4002,8264,23937,0.42755623,0.88270500,2.55678314,0.20840665,0.43837967,0.71091699
13135,0,USGeorgiaGwinnett,Georgia,Gwinnett,2020-07-18 18:31:40.854720,2020-07-05 00:00:00.000000,0.89887341,1.70296950,4.77315198,8415,15944,44688,3995,8398,24432,0.42680829,0.89702132,2.60964679,0.20365426,0.43777944,0.70733263
13135,0,USGeorgiaGwinnett,Georgia,Gwinnett,2020-07-18 18:31:40.854720,2020-07-06 00:00:00.000000,0.90140596,1.72126103,4.81397323,8439,16115,45070,3991,8482,24904,0.42637966,0.90598425,2.66005061,0.19973103,0.43330369,0.69396307
13135,0,USGeorgiaGwinnett,Georgia,Gwinnett,2020-07-18 18:31:40.854720,2020-07-07 00:00:00.000000,0.91205560,1.72727466,4.85030376,8539,16171,45410,3992,8547,25359,0.42639067,0.91293591,2.70858700,0.19853485,0.43233604,0.68860598
13135,0,USGeorgiaGwinnett,Georgia,Gwinnett,2020-07-18 18:31:40.854720,2020-07-08 00:00:00.000000,0.92276556,1.76037952,4.88587208,8639,16481,45743,4040,8617,25800,0.43157622,0.92040510,2.75572875,0.19778718,0.42689166,0.66752277
13135,0,USGeorgiaGwinnett,Georgia,Gwinnett,2020-07-18 18:31:40.854720,2020-07-09 00:00:00.000000,0.92842826,1.80067413,4.92147956,8692,16858,46077,4095,8748,26232,0.43739554,0.93440300,2.80184221,0.19732307,0.42639095,0.66634191
13135,0,USGeorgiaGwinnett,Georgia,Gwinnett,2020-07-18 18:31:40.854720,2020-07-10 00:00:00.000000,0.94616725,1.82590117,4.95715888,8858,17094,46411,4140,8889,26656,0.44225442,0.94952463,2.84720480,0.19703615,0.42632312,0.66623145
13135,0,USGeorgiaGwinnett,Georgia,Gwinnett,2020-07-18 18:31:40.854720,2020-07-11 00:00:00.000000,0.95751307,1.85096340,4.99282969,8964,17329,46745,4179,9007,27076,0.44645582,0.96209057,2.89201937,0.19685917,0.42630139,0.66618459
13135,0,USGeorgiaGwinnett,Georgia,Gwinnett,2020-07-18 18:31:40.854720,2020-07-12 00:00:00.000000,0.95793333,1.84276864,5.02839564,8968,17252,47078,4215,9169,27492,0.45026931,0.97935921,2.93642830,0.19675016,0.42629381,0.66616509
13135,0,USGeorgiaGwinnett,Georgia,Gwinnett,2020-07-18 18:31:40.854720,2020-07-13 00:00:00.000000,0.94263360,1.84865888,5.06377509,8825,17308,47409,4249,9316,27905,0.45390315,0.99504708,2.98052622,0.19668304,0.42624188,0.66615723
13135,0,USGeorgiaGwinnett,Georgia,Gwinnett,2020-07-18 18:31:40.854720,2020-07-14 00:00:00.000000,0.94244361,1.85500978,5.09889752,8823,17367,47738,4281,9399,28315,0.45733619,1.00391115,3.02437145,0.19664173,0.42565929,0.66615425
13135,0,USGeorgiaGwinnett,Georgia,Gwinnett,2020-07-18 18:31:40.854720,2020-07-15 00:00:00.000000,0.94959084,1.87593482,5.16864627,8890,17563,48391,4312,9432,28724,0.46062625,1.00743522,3.06799535,0.19661631,0.42521638,0.66615325
13135,0,USGeorgiaGwinnett,Georgia,Gwinnett,2020-07-18 18:31:40.854720,2020-07-16 00:00:00.000000,0.95649833,1.90327882,5.31806035,8955,17819,49790,4388,9524,29130,0.46876855,1.01734179,3.11140976,0.19660066,0.42488061,0.66615301
13135,0,USGeorgiaGwinnett,Georgia,Gwinnett,2020-07-18 18:31:40.854720,2020-07-17 00:00:00.000000,0.96275026,1.91347121,5.46993746,9013,17914,51212,4469,9656,29535,0.47737490,1.03145356,3.15461256,0.19659103,0.42462659,0.66615303
13135,0,USGeorgiaGwinnett,Georgia,Gwinnett,2020-07-18 18:31:40.854720,2020-07-18 00:00:00.000000,0.95515182,1.90689146,5.62420940,8942,17853,52656,4525,9746,29945,0.48333772,1.04103033,3.19843001,0.19658509,0.42443474,0.66615312
13135,0,USGeorgiaGwinnett,Georgia,Gwinnett,2020-07-18 18:31:40.854720,2020-07-19 00:00:00.000000,0.95755486,1.90170964,5.78079736,8965,17804,54122,4557,9749,30368,0.48675369,1.04138542,3.24361773,0.19658144,0.42429002,0.66615321
13135,0,USGeorgiaGwinnett,Georgia,Gwinnett,2020-07-18 18:31:40.854720,2020-07-20 00:00:00.000000,0.95118340,1.91398982,5.93961167,8905,17919,55609,4588,9812,30789,0.49005571,1.04809621,3.28862640,0.19657919,0.42418095,0.66615328
13135,0,USGeorgiaGwinnett,Georgia,Gwinnett,2020-07-18 18:31:40.854720,2020-07-21 00:00:00.000000,0.95157877,1.92194238,6.10055162,8909,17994,57116,4572,9988,31209,0.48836193,1.06689164,3.33342576,0.19657781,0.42409880,0.66615333
13135,0,USGeorgiaGwinnett,Georgia,Gwinnett,2020-07-18 18:31:40.854720,2020-07-22 00:00:00.000000,0.95175593,1.91344970,6.26350522,8910,17914,58642,4496,10073,31626,0.48026212,1.07597177,3.37798301,0.19657695,0.42403696,0.66615337
13135,0,USGeorgiaGwinnett,Georgia,Gwinnett,2020-07-18 18:31:40.854720,2020-07-23 00:00:00.000000,0.93530894,1.91584618,6.42834909,8756,17937,60185,4484,10085,32040,0.47903075,1.07718317,3.42226338,0.19657643,0.42399044,0.66615339
13135,0,USGeorgiaGwinnett,Georgia,Gwinnett,2020-07-18 18:31:40.854720,2020-07-24 00:00:00.000000,0.91639587,1.94110030,6.54845486,8579,18173,61309,4489,10077,32452,0.47956567,1.07634147,3.46623056,0.19657611,0.42395544,0.66615341
13135,0,USGeorgiaGwinnett,Georgia,Gwinnett,2020-07-18 18:31:40.854720,2020-07-25 00:00:00.000000,0.89788085,1.96344809,6.61081683,8406,18382,61893,4398,10128,32860,0.46975278,1.08180706,3.50984700,0.19657591,0.42392912,0.66615342
13135,0,USGeorgiaGwinnett,Georgia,Gwinnett,2020-07-18 18:31:40.854720,2020-07-26 00:00:00.000000,0.88729620,1.98056033,6.66992819,8307,18542,62447,4351,10216,33265,0.46476583,1.09116574,3.55307412,0.19657578,0.42390933,0.66615342
13135,0,USGeorgiaGwinnett,Georgia,Gwinnett,2020-07-18 18:31:40.854720,2020-07-27 00:00:00.000000,0.88445025,2.01215582,6.72475829,8280,18838,62960,4362,10373,33666,0.46600344,1.10803166,3.59587246,0.19657571,0.42389445,0.66615343
13135,0,USGeorgiaGwinnett,Georgia,Gwinnett,2020-07-18 18:31:40.854720,2020-07-28 00:00:00.000000,0.86472797,2.04303057,6.80991494,8096,19127,63757,4374,10447,34062,0.46722864,1.11591622,3.63820185,0.19657566,0.42388326,0.66615343
13135,0,USGeorgiaGwinnett,Georgia,Gwinnett,2020-07-18 18:31:40.854720,2020-07-29 00:00:00.000000,0.84532475,2.06742561,7.01275299,7914,19356,65656,4317,10503,34454,0.46112050,1.12185815,3.68002145,0.19657563,0.42387485,0.66615343
13135,0,USGeorgiaGwinnett,Georgia,Gwinnett,2020-07-18 18:31:40.854720,2020-07-30 00:00:00.000000,0.82624247,2.09132000,7.06324758,7735,19579,66129,4286,10495,34840,0.45786986,1.12096752,3.72128989,0.19657561,0.42386853,0.66615343
