FIPS,HR_UID,nameid,province,region,analysisTime,dates,pointprevalence_025,pointprevalence_50,pointprevalence_975,pointinfections_025,pointinfections_50,pointinfections_975,pointinfectious_025,pointinfectious_50,pointinfectious_975,pointinfectiousprevalence_05,pointinfectiousprevalence_50,pointinfectiousprevalence_95,infectrate_025,infectrate_50,infectrate_975
28005,0,USMississippiAmite,Mississippi,Amite,2020-07-16 15:13:43.583435,2020-03-09 00:00:00.000000,0.05230215,0.27273372,1.45978937,6,33,179,0,7,39,0.00465899,0.06250047,0.32510005,0.55357013,0.78861521,1.05383501
28005,0,USMississippiAmite,Mississippi,Amite,2020-07-16 15:13:43.583435,2020-03-10 00:00:00.000000,0.11312019,0.29017816,1.75017432,13,35,215,1,8,49,0.01013008,0.06797197,0.40447466,0.55357007,0.78859901,1.05383498
28005,0,USMississippiAmite,Mississippi,Amite,2020-07-16 15:13:43.583435,2020-03-11 00:00:00.000000,0.05615916,0.30549585,1.86093433,6,37,228,0,7,62,0.00394570,0.06254429,0.51167299,0.55356987,0.78856981,1.05383493
28005,0,USMississippiAmite,Mississippi,Amite,2020-07-16 15:13:43.583435,2020-03-12 00:00:00.000000,0.12415226,0.32511645,2.16331861,15,39,266,1,8,78,0.01455904,0.06896443,0.63546864,0.55356918,0.78851717,1.05383480
28005,0,USMississippiAmite,Mississippi,Amite,2020-07-16 15:13:43.583435,2020-03-13 00:00:00.000000,0.06728940,0.34276413,2.41937043,8,42,297,0,8,96,0.00517217,0.06539970,0.78640510,0.55356684,0.78979702,1.05383455
28005,0,USMississippiAmite,Mississippi,Amite,2020-07-16 15:13:43.583435,2020-03-14 00:00:00.000000,0.13452891,0.36276607,2.66190874,16,44,327,2,9,122,0.01756573,0.07412084,0.99481879,0.55366998,0.79183522,1.05383406
28005,0,USMississippiAmite,Mississippi,Amite,2020-07-16 15:13:43.583435,2020-03-15 00:00:00.000000,0.08257157,0.36523311,3.03720300,10,44,373,0,9,153,0.00685155,0.07349023,1.25069160,0.55419483,0.79123021,1.05383334
28005,0,USMississippiAmite,Mississippi,Amite,2020-07-16 15:13:43.583435,2020-03-16 00:00:00.000000,0.14583216,0.39241471,3.46153461,17,48,425,2,9,193,0.01909610,0.07859205,1.57217820,0.55822242,0.79014954,1.05383387
28005,0,USMississippiAmite,Mississippi,Amite,2020-07-16 15:13:43.583435,2020-03-17 00:00:00.000000,0.10065070,0.39970918,3.94946711,12,49,485,1,9,242,0.00956655,0.07959330,1.97548743,0.55885072,0.78823166,1.05384879
28005,0,USMississippiAmite,Mississippi,Amite,2020-07-16 15:13:43.583435,2020-03-18 00:00:00.000000,0.15688046,0.42837113,4.78054721,19,52,587,2,10,305,0.02095555,0.08531425,2.48039962,0.55745720,0.78486666,1.05397218
28005,0,USMississippiAmite,Mississippi,Amite,2020-07-16 15:13:43.583435,2020-03-19 00:00:00.000000,0.11945966,0.43691576,5.93246272,14,53,729,1,10,382,0.01212112,0.08566855,3.11072549,0.55304271,0.78657622,1.05483503
28005,0,USMississippiAmite,Mississippi,Amite,2020-07-16 15:13:43.583435,2020-03-20 00:00:00.000000,0.16425725,0.46847819,7.23025003,20,57,889,2,11,478,0.02311553,0.09436442,3.89459418,0.54160475,0.78123726,1.06031176
28005,0,USMississippiAmite,Mississippi,Amite,2020-07-16 15:13:43.583435,2020-03-21 00:00:00.000000,0.13919220,0.47639521,8.66166338,17,58,1065,1,11,598,0.01411336,0.09038051,4.86457866,0.52166656,0.77836724,1.09071074
28005,0,USMississippiAmite,Mississippi,Amite,2020-07-16 15:13:43.583435,2020-03-22 00:00:00.000000,0.17055999,0.50416239,10.63271863,20,61,1307,3,12,744,0.02558279,0.10405511,6.05767814,0.50479511,0.77588940,1.13395140
28005,0,USMississippiAmite,Mississippi,Amite,2020-07-16 15:13:43.583435,2020-03-23 00:00:00.000000,0.15899198,0.51453001,13.04716668,19,63,1604,2,12,924,0.01637799,0.09954267,7.51523325,0.49698540,0.76708548,1.14241332
28005,0,USMississippiAmite,Mississippi,Amite,2020-07-16 15:13:43.583435,2020-03-24 00:00:00.000000,0.17790093,0.53942421,15.92818688,21,66,1958,3,13,1141,0.02842595,0.11329270,9.28304751,0.48504761,0.75670072,1.14378614
28005,0,USMississippiAmite,Mississippi,Amite,2020-07-16 15:13:43.583435,2020-03-25 00:00:00.000000,0.17729757,0.55293729,19.34065088,21,67,2378,2,12,1397,0.01964338,0.10508550,11.36321203,0.47759868,0.75197670,1.13722967
28005,0,USMississippiAmite,Mississippi,Amite,2020-07-16 15:13:43.583435,2020-03-26 00:00:00.000000,0.19029877,0.58454670,23.34754880,23,71,2871,3,15,1662,0.03204491,0.12341719,13.52342315,0.47215774,0.74937816,1.09310055
28005,0,USMississippiAmite,Mississippi,Amite,2020-07-16 15:13:43.583435,2020-03-27 00:00:00.000000,0.19196271,0.58760398,27.99040118,23,72,3441,2,13,1973,0.02399346,0.11066991,16.05111398,0.48382338,0.74534352,1.06783702
28005,0,USMississippiAmite,Mississippi,Amite,2020-07-16 15:13:43.583435,2020-03-28 00:00:00.000000,0.20551120,0.62513785,33.26475997,25,76,4090,4,16,2336,0.03769397,0.13054930,18.99763723,0.46160448,0.74365226,1.05336276
28005,0,USMississippiAmite,Mississippi,Amite,2020-07-16 15:13:43.583435,2020-03-29 00:00:00.000000,0.21276364,0.62588364,39.11672667,26,76,4810,3,14,2754,0.02890845,0.11588515,22.39647594,0.45293993,0.73725290,1.05325469
28005,0,USMississippiAmite,Mississippi,Amite,2020-07-16 15:13:43.583435,2020-03-30 00:00:00.000000,0.22306672,0.66599738,45.44580973,27,81,5588,5,17,3228,0.04348957,0.13908189,26.25541619,0.44761413,0.72536095,1.05828595
28005,0,USMississippiAmite,Mississippi,Amite,2020-07-16 15:13:43.583435,2020-03-31 00:00:00.000000,0.23346949,0.66485085,52.10499564,28,81,6407,3,15,3757,0.03206498,0.12286982,30.55582006,0.44408314,0.71821684,1.08152170
28005,0,USMississippiAmite,Mississippi,Amite,2020-07-16 15:13:43.583435,2020-04-01 00:00:00.000000,0.24231044,0.69461005,58.89545194,29,85,7242,5,18,4334,0.04695646,0.14777729,35.24889161,0.44009359,0.71799228,1.09495384
28005,0,USMississippiAmite,Mississippi,Amite,2020-07-16 15:13:43.583435,2020-04-02 00:00:00.000000,0.25167238,0.70053063,65.56549288,30,86,8062,4,16,4949,0.03420543,0.13141107,40.24929741,0.44463748,0.71526583,1.11238709
28005,0,USMississippiAmite,Mississippi,Amite,2020-07-16 15:13:43.583435,2020-04-03 00:00:00.000000,0.25687652,0.72985113,71.57550446,31,89,8801,6,19,5554,0.04927008,0.15682485,45.17260528,0.44930517,0.69569150,1.10914635
28005,0,USMississippiAmite,Mississippi,Amite,2020-07-16 15:13:43.583435,2020-04-04 00:00:00.000000,0.26335285,0.73764984,75.24641869,32,90,9253,4,17,6253,0.03653436,0.14058513,50.85378129,0.45947408,0.68649214,1.08522910
28005,0,USMississippiAmite,Mississippi,Amite,2020-07-16 15:13:43.583435,2020-04-05 00:00:00.000000,0.26902152,0.78110646,78.41518825,33,96,9642,6,20,6941,0.05425859,0.16608395,56.44491120,0.43623813,0.65663282,1.06070458
28005,0,USMississippiAmite,Mississippi,Amite,2020-07-16 15:13:43.583435,2020-04-06 00:00:00.000000,0.28117983,0.77461483,79.13958476,34,95,9731,4,18,7292,0.03844121,0.15018441,59.29972951,0.42126452,0.64276428,1.05972821
28005,0,USMississippiAmite,Mississippi,Amite,2020-07-16 15:13:43.583435,2020-04-07 00:00:00.000000,0.28154985,0.82995812,81.03699712,34,102,9965,7,21,7644,0.05785802,0.17839019,62.16655872,0.41428713,0.62633574,1.05690124
28005,0,USMississippiAmite,Mississippi,Amite,2020-07-16 15:13:43.583435,2020-04-08 00:00:00.000000,0.30165411,0.81217258,85.67589473,37,99,10535,4,19,8171,0.04038939,0.16128178,66.45355128,0.41069022,0.59857697,1.05824886
28005,0,USMississippiAmite,Mississippi,Amite,2020-07-16 15:13:43.583435,2020-04-09 00:00:00.000000,0.29448982,0.89140988,89.19128238,36,109,10967,7,23,8841,0.06143848,0.19233559,71.89960279,0.40673653,0.57369907,1.04824153
28005,0,USMississippiAmite,Mississippi,Amite,2020-07-16 15:13:43.583435,2020-04-10 00:00:00.000000,0.31452024,0.85620940,91.51731432,38,105,11253,5,21,9272,0.04238215,0.17315158,75.40643699,0.39957875,0.56568574,1.03246605
28005,0,USMississippiAmite,Mississippi,Amite,2020-07-16 15:13:43.583435,2020-04-11 00:00:00.000000,0.30745980,0.94111447,92.47065243,37,115,11371,7,25,9490,0.06502673,0.20811201,77.18015323,0.39365375,0.55703776,1.02476442
28005,0,USMississippiAmite,Mississippi,Amite,2020-07-16 15:13:43.583435,2020-04-12 00:00:00.000000,0.32795827,0.89170385,92.82946789,40,109,11415,5,22,9909,0.04572925,0.18603847,80.58856345,0.39077279,0.55360468,1.06580065
28005,0,USMississippiAmite,Mississippi,Amite,2020-07-16 15:13:43.583435,2020-04-13 00:00:00.000000,0.32019511,0.98917501,93.14714615,39,121,11454,8,27,10277,0.06857510,0.22007381,83.57616558,0.38693344,0.55031547,1.07332330
28005,0,USMississippiAmite,Mississippi,Amite,2020-07-16 15:13:43.583435,2020-04-14 00:00:00.000000,0.34198093,0.91933647,93.57692070,42,113,11507,6,24,10540,0.04941268,0.19993168,85.71710483,0.38541343,0.54333444,1.10053427
28005,0,USMississippiAmite,Mississippi,Amite,2020-07-16 15:13:43.583435,2020-04-15 00:00:00.000000,0.33495916,1.02456563,94.72517737,41,125,11648,8,27,10755,0.07208320,0.22663618,87.46112747,0.38414581,0.54559751,1.08716280
28005,0,USMississippiAmite,Mississippi,Amite,2020-07-16 15:13:43.583435,2020-04-16 00:00:00.000000,0.35699766,0.98345391,95.30572338,43,120,11719,6,26,10933,0.05327203,0.21319152,88.91529365,0.37722174,0.53766369,1.09362491
28005,0,USMississippiAmite,Mississippi,Amite,2020-07-16 15:13:43.583435,2020-04-17 00:00:00.000000,0.35641638,1.07666430,94.97319700,43,132,11678,9,28,10909,0.07518520,0.23485329,88.71275115,0.36891255,0.53197190,1.09317512
28005,0,USMississippiAmite,Mississippi,Amite,2020-07-16 15:13:43.583435,2020-04-18 00:00:00.000000,0.37179849,1.01571537,94.55297775,45,124,11627,7,27,10864,0.05721255,0.22327803,88.35476932,0.32787850,0.51627260,1.07149287
28005,0,USMississippiAmite,Mississippi,Amite,2020-07-16 15:13:43.583435,2020-04-19 00:00:00.000000,0.37990182,1.13584017,94.08546139,46,139,11569,9,30,10808,0.07724447,0.24518941,87.89710587,0.32065366,0.49614599,1.06488422
28005,0,USMississippiAmite,Mississippi,Amite,2020-07-16 15:13:43.583435,2020-04-20 00:00:00.000000,0.40049314,1.05071060,93.76580799,49,129,11530,7,28,10744,0.06108692,0.23251811,87.37151223,0.32150328,0.48244467,1.06323406
28005,0,USMississippiAmite,Mississippi,Amite,2020-07-16 15:13:43.583435,2020-04-21 00:00:00.000000,0.38706948,1.18429263,94.38987840,47,145,11607,9,31,10673,0.07915432,0.25564371,86.80092364,0.32103348,0.47624782,1.10734370
28005,0,USMississippiAmite,Mississippi,Amite,2020-07-16 15:13:43.583435,2020-04-22 00:00:00.000000,0.40590303,1.09781495,94.10483780,49,134,11572,7,29,10600,0.06478005,0.24038911,86.20148224,0.31132197,0.46278774,1.13208812
28005,0,USMississippiAmite,Mississippi,Amite,2020-07-16 15:13:43.583435,2020-04-23 00:00:00.000000,0.39747440,1.21100145,93.77680168,48,148,11531,9,31,10524,0.08121762,0.25822626,85.58431479,0.29251957,0.46308280,1.13553370
28005,0,USMississippiAmite,Mississippi,Amite,2020-07-16 15:13:43.583435,2020-04-24 00:00:00.000000,0.41985471,1.10382231,93.54259811,51,135,11502,8,30,10447,0.06862093,0.24494405,84.95701733,0.27181744,0.46031159,1.10159801
28005,0,USMississippiAmite,Mississippi,Amite,2020-07-16 15:13:43.583435,2020-04-25 00:00:00.000000,0.41536856,1.24575917,94.49724367,51,153,11620,10,32,10433,0.08370102,0.26067491,84.84826359,0.26981389,0.45381280,0.99240477
28005,0,USMississippiAmite,Mississippi,Amite,2020-07-16 15:13:43.583435,2020-04-26 00:00:00.000000,0.43114692,1.13598047,94.64330205,53,139,11638,8,30,10577,0.07254045,0.24558138,86.01370229,0.26939056,0.45319405,0.93640001
28005,0,USMississippiAmite,Mississippi,Amite,2020-07-16 15:13:43.583435,2020-04-27 00:00:00.000000,0.43122261,1.27863855,94.39880948,53,157,11608,10,32,10702,0.08637954,0.26161863,87.03234334,0.26935368,0.45251989,0.93355488
28005,0,USMississippiAmite,Mississippi,Amite,2020-07-16 15:13:43.583435,2020-04-28 00:00:00.000000,0.43707026,1.16711856,94.11211260,53,143,11572,9,30,10811,0.07678853,0.25040910,87.91985627,0.25982329,0.44849359,0.94154775
28005,0,USMississippiAmite,Mississippi,Amite,2020-07-16 15:13:43.583435,2020-04-29 00:00:00.000000,0.43720633,1.31618043,93.79212439,53,161,11533,10,32,10847,0.08907188,0.26692200,88.21441286,0.26018148,0.45008132,0.94095303
28005,0,USMississippiAmite,Mississippi,Amite,2020-07-16 15:13:43.583435,2020-04-30 00:00:00.000000,0.44094653,1.22512222,93.44562571,54,150,11491,10,31,10807,0.08144009,0.25670468,87.89038640,0.26017863,0.44854507,0.96836310
28005,0,USMississippiAmite,Mississippi,Amite,2020-07-16 15:13:43.583435,2020-05-01 00:00:00.000000,0.44162109,1.34349835,93.05612972,54,165,11443,11,34,10822,0.09065254,0.27742020,88.00858150,0.25996435,0.43161481,0.98758329
28005,0,USMississippiAmite,Mississippi,Amite,2020-07-16 15:13:43.583435,2020-05-02 00:00:00.000000,0.45480113,1.27768778,92.63234056,55,157,11390,10,32,10956,0.08686609,0.26563283,89.09746757,0.26107165,0.40771414,0.99877991
28005,0,USMississippiAmite,Mississippi,Amite,2020-07-16 15:13:43.583435,2020-05-03 00:00:00.000000,0.44317742,1.36690879,92.20206147,54,168,11338,11,34,10988,0.09124393,0.28319260,89.36277071,0.25853470,0.39618432,1.00677669
28005,0,USMississippiAmite,Mississippi,Amite,2020-07-16 15:13:43.583435,2020-05-04 00:00:00.000000,0.47209445,1.29972491,91.76789779,58,159,11284,11,33,10964,0.09177662,0.27082122,89.16613885,0.25553831,0.40071311,1.01173237
28005,0,USMississippiAmite,Mississippi,Amite,2020-07-16 15:13:43.583435,2020-05-05 00:00:00.000000,0.44780229,1.40671360,91.33084543,55,172,11230,11,35,10938,0.09415105,0.28539170,88.95277092,0.25440305,0.40077092,1.02389810
28005,0,USMississippiAmite,Mississippi,Amite,2020-07-16 15:13:43.583435,2020-05-06 00:00:00.000000,0.45335352,1.32141806,90.89168920,55,162,11176,11,34,10909,0.09621945,0.27967625,88.71355695,0.25410308,0.40528224,1.03024857
28005,0,USMississippiAmite,Mississippi,Amite,2020-07-16 15:13:43.583435,2020-05-07 00:00:00.000000,0.45451348,1.42813759,90.45107624,55,175,11122,12,35,10873,0.09837570,0.29119007,88.42696235,0.24978257,0.41237245,1.01821802
28005,0,USMississippiAmite,Mississippi,Amite,2020-07-16 15:13:43.583435,2020-05-08 00:00:00.000000,0.45119670,1.35114034,90.00955195,55,166,11068,12,35,10837,0.10027854,0.28599071,88.13499373,0.25193550,0.40727249,1.00744060
28005,0,USMississippiAmite,Mississippi,Amite,2020-07-16 15:13:43.583435,2020-05-09 00:00:00.000000,0.46207927,1.45530406,89.56757925,56,178,11014,12,37,10801,0.10208610,0.30630840,87.83855003,0.25901156,0.40134026,0.95100654
28005,0,USMississippiAmite,Mississippi,Amite,2020-07-16 15:13:43.583435,2020-05-10 00:00:00.000000,0.45797483,1.40016071,89.12554981,56,172,10959,12,35,10764,0.10375676,0.29025797,87.53839664,0.25853233,0.39432095,0.93103556
28005,0,USMississippiAmite,Mississippi,Amite,2020-07-16 15:13:43.583435,2020-05-11 00:00:00.000000,0.46405282,1.49751845,88.68379489,57,184,10905,12,39,10727,0.10526801,0.32139697,87.23518853,0.25794927,0.38353913,0.97677417
28005,0,USMississippiAmite,Mississippi,Amite,2020-07-16 15:13:43.583435,2020-05-12 00:00:00.000000,0.46533607,1.45114454,88.24259856,57,178,10851,13,36,10689,0.10688387,0.29432718,86.92948882,0.25702186,0.37719989,0.99793596
28005,0,USMississippiAmite,Mississippi,Amite,2020-07-16 15:13:43.583435,2020-05-13 00:00:00.000000,0.46241840,1.54287218,87.80220706,56,189,10797,13,41,10651,0.10792229,0.33393366,86.62178368,0.25521910,0.37328704,1.00331189
28005,0,USMississippiAmite,Mississippi,Amite,2020-07-16 15:13:43.583435,2020-05-14 00:00:00.000000,0.47310836,1.50398034,87.36283524,58,184,10743,13,36,10613,0.10971426,0.29837853,86.31249439,0.25153105,0.37064330,0.99326637
28005,0,USMississippiAmite,Mississippi,Amite,2020-07-16 15:13:43.583435,2020-05-15 00:00:00.000000,0.45904978,1.56733306,86.92467137,56,192,10689,13,41,10575,0.10929294,0.33959059,86.00198722,0.24307657,0.36771967,0.97703644
28005,0,USMississippiAmite,Mississippi,Amite,2020-07-16 15:13:43.583435,2020-05-16 00:00:00.000000,0.48966928,1.54362738,86.48787951,60,189,10635,13,37,10537,0.11230547,0.30262498,85.69058150,0.22176598,0.36696975,0.96256953
28005,0,USMississippiAmite,Mississippi,Amite,2020-07-16 15:13:43.583435,2020-05-17 00:00:00.000000,0.45893721,1.61063582,86.05260143,56,198,10581,13,42,10499,0.11015859,0.34440334,85.37855630,0.22291489,0.35796707,0.93835064
28005,0,USMississippiAmite,Mississippi,Amite,2020-07-16 15:13:43.583435,2020-05-18 00:00:00.000000,0.48980940,1.57574356,85.61895897,60,193,10528,14,38,10460,0.11450666,0.31146389,85.06615598,0.21644929,0.36076185,0.92052071
28005,0,USMississippiAmite,Mississippi,Amite,2020-07-16 15:13:43.583435,2020-05-19 00:00:00.000000,0.46098315,1.64433185,85.19269723,56,202,10476,13,43,10422,0.11207263,0.34992529,84.75359487,0.20762734,0.36182261,0.92913945
28005,0,USMississippiAmite,Mississippi,Amite,2020-07-16 15:13:43.583435,2020-05-20 00:00:00.000000,0.47856922,1.60511042,84.86617146,58,197,10435,14,39,10383,0.11606062,0.32113677,84.44106118,0.18778615,0.35444446,0.92981936
28005,0,USMississippiAmite,Mississippi,Amite,2020-07-16 15:13:43.583435,2020-05-21 00:00:00.000000,0.46229002,1.66582280,84.54120686,56,204,10396,14,43,10345,0.11478571,0.35705982,84.12872036,0.18455388,0.34959820,0.94272858
28005,0,USMississippiAmite,Mississippi,Amite,2020-07-16 15:13:43.583435,2020-05-22 00:00:00.000000,0.47395955,1.62063178,84.21779805,58,199,10356,14,40,10306,0.11575767,0.33021988,83.81671795,0.18103461,0.35239875,0.97369116
28005,0,USMississippiAmite,Mississippi,Amite,2020-07-16 15:13:43.583435,2020-05-23 00:00:00.000000,0.45246943,1.67646873,83.89593933,55,206,10316,14,44,10268,0.11532499,0.36418469,83.50518201,0.17751621,0.34298902,0.99411811
28005,0,USMississippiAmite,Mississippi,Amite,2020-07-16 15:13:43.583435,2020-05-24 00:00:00.000000,0.47473655,1.63520735,83.57562482,58,201,10277,14,41,10230,0.11485101,0.33915302,83.19422524,0.17609131,0.34345612,1.00374074
28005,0,USMississippiAmite,Mississippi,Amite,2020-07-16 15:13:43.583435,2020-05-25 00:00:00.000000,0.43832908,1.68864509,83.25684842,53,207,10238,14,45,10192,0.11453514,0.37083841,82.88394682,0.17496795,0.34800077,1.00743121
28005,0,USMississippiAmite,Mississippi,Amite,2020-07-16 15:13:43.583435,2020-05-26 00:00:00.000000,0.47665687,1.66977512,82.93960386,58,205,10199,13,42,10154,0.11382398,0.34923340,82.57443401,0.17346388,0.36662148,1.00909455
28005,0,USMississippiAmite,Mississippi,Amite,2020-07-16 15:13:43.583435,2020-05-27 00:00:00.000000,0.42798128,1.73770687,82.62388473,52,213,10160,14,46,10116,0.11422399,0.37488629,82.26576351,0.17145669,0.36938748,1.00945557
28005,0,USMississippiAmite,Mississippi,Amite,2020-07-16 15:13:43.583435,2020-05-28 00:00:00.000000,0.47941749,1.73510912,82.30968450,58,213,10121,13,45,10078,0.11291103,0.36616020,81.95800267,0.16900440,0.38755022,1.00192864
28005,0,USMississippiAmite,Mississippi,Amite,2020-07-16 15:13:43.583435,2020-05-29 00:00:00.000000,0.43320646,1.82555727,81.99699653,53,224,10083,14,47,10040,0.11433171,0.38356851,81.65121062,0.16601854,0.38668618,1.03163244
28005,0,USMississippiAmite,Mississippi,Amite,2020-07-16 15:13:43.583435,2020-05-30 00:00:00.000000,0.48268780,1.79393437,81.68581409,59,220,10044,13,46,10003,0.11248011,0.37963248,81.34543912,0.16112472,0.38523641,1.04742592
28005,0,USMississippiAmite,Mississippi,Amite,2020-07-16 15:13:43.583435,2020-05-31 00:00:00.000000,0.44241674,1.90486729,81.37613040,54,234,10006,14,47,9965,0.11722163,0.38750132,81.04073347,0.15878543,0.38588923,1.06998026
28005,0,USMississippiAmite,Mississippi,Amite,2020-07-16 15:13:43.583435,2020-06-01 00:00:00.000000,0.48614503,1.82640937,81.06793859,59,224,9968,13,48,9928,0.11228295,0.39469806,80.73713317,0.15753819,0.38820611,1.09613837
28005,0,USMississippiAmite,Mississippi,Amite,2020-07-16 15:13:43.583435,2020-06-02 00:00:00.000000,0.45019270,2.00852465,80.76123175,55,246,9931,14,48,9891,0.11978263,0.39320202,80.43467261,0.15670842,0.38887479,1.10438206
28005,0,USMississippiAmite,Mississippi,Amite,2020-07-16 15:13:43.583435,2020-06-03 00:00:00.000000,0.46482691,1.84585397,80.45600295,57,226,9893,13,49,9854,0.11245708,0.40577244,80.13338164,0.15612091,0.38961066,1.13096969
28005,0,USMississippiAmite,Mississippi,Amite,2020-07-16 15:13:43.583435,2020-06-04 00:00:00.000000,0.45693230,2.08918889,80.15224520,56,256,9856,14,49,9817,0.11802331,0.40638052,79.83328606,0.15486646,0.39266984,1.18335458
28005,0,USMississippiAmite,Mississippi,Amite,2020-07-16 15:13:43.583435,2020-06-05 00:00:00.000000,0.44771226,1.87645627,79.84995151,55,230,9819,13,49,9780,0.11274116,0.39886726,79.53440805,0.15022533,0.39657925,1.16696955
28005,0,USMississippiAmite,Mississippi,Amite,2020-07-16 15:13:43.583435,2020-06-06 00:00:00.000000,0.45206532,2.12126273,79.54911487,55,260,9782,14,51,9743,0.11545269,0.41713444,79.23676664,0.14399185,0.39304884,1.11508631
28005,0,USMississippiAmite,Mississippi,Amite,2020-07-16 15:13:43.583435,2020-06-07 00:00:00.000000,0.43241432,1.92297772,79.24972824,53,236,9745,13,48,9707,0.11242114,0.39713876,78.94037799,0.14158937,0.40502478,1.12171384
28005,0,USMississippiAmite,Mississippi,Amite,2020-07-16 15:13:43.583435,2020-06-08 00:00:00.000000,0.45610755,2.13372407,78.95178460,56,262,9708,13,52,9671,0.11309036,0.42745072,78.64525573,0.13685232,0.39759979,1.12147462
28005,0,USMississippiAmite,Mississippi,Amite,2020-07-16 15:13:43.583435,2020-06-09 00:00:00.000000,0.41865886,1.95425182,78.65527692,51,240,9672,13,49,9634,0.11185449,0.40495632,78.35141127,0.13472339,0.38575389,1.14267367
28005,0,USMississippiAmite,Mississippi,Amite,2020-07-16 15:13:43.583435,2020-06-10 00:00:00.000000,0.45161669,2.12485280,78.36019818,55,261,9635,13,53,9598,0.11161374,0.43601940,78.05885399,0.13143443,0.37571517,1.15059022
28005,0,USMississippiAmite,Mississippi,Amite,2020-07-16 15:13:43.583435,2020-06-11 00:00:00.000000,0.42529870,1.97297010,78.06654134,52,242,9599,13,50,9563,0.11121058,0.41084940,77.76759152,0.12717100,0.36283493,1.15809992
28005,0,USMississippiAmite,Mississippi,Amite,2020-07-16 15:13:43.583435,2020-06-12 00:00:00.000000,0.43703616,2.10625818,77.77429940,53,259,9563,13,54,9527,0.11214907,0.44376130,77.47762992,0.12479947,0.37179642,1.17550568
28005,0,USMississippiAmite,Mississippi,Amite,2020-07-16 15:13:43.583435,2020-06-13 00:00:00.000000,0.43283061,1.98192680,77.48346537,53,243,9528,14,50,9491,0.11410732,0.41429164,77.18897381,0.12039166,0.35449908,1.21429765
28005,0,USMississippiAmite,Mississippi,Amite,2020-07-16 15:13:43.583435,2020-06-14 00:00:00.000000,0.41695026,2.06696231,77.19403225,51,254,9492,14,55,9456,0.11417842,0.45079512,76.90162660,0.11842349,0.33661011,1.25182572
28005,0,USMississippiAmite,Mississippi,Amite,2020-07-16 15:13:43.583435,2020-06-15 00:00:00.000000,0.40817263,1.98702058,76.90599309,50,244,9457,13,51,9421,0.11167199,0.42070057,76.61559058,0.11098931,0.33988421,1.24849311
28005,0,USMississippiAmite,Mississippi,Amite,2020-07-16 15:13:43.583435,2020-06-16 00:00:00.000000,0.39583333,2.01142350,76.61934095,48,247,9421,13,55,9386,0.10915176,0.44766477,76.33086705,0.09939892,0.33665313,1.21312789
28005,0,USMississippiAmite,Mississippi,Amite,2020-07-16 15:13:43.583435,2020-06-17 00:00:00.000000,0.39238694,1.99999700,76.33406889,48,245,9386,13,53,9351,0.10663264,0.43187399,76.04745647,0.09432785,0.33168966,1.21071984
28005,0,USMississippiAmite,Mississippi,Amite,2020-07-16 15:13:43.583435,2020-06-18 00:00:00.000000,0.39219545,2.01965104,76.05017001,48,248,9351,12,54,9316,0.10551524,0.44482040,75.76535849,0.09178451,0.33191928,1.21985905
28005,0,USMississippiAmite,Mississippi,Amite,2020-07-16 15:13:43.583435,2020-06-19 00:00:00.000000,0.40864784,2.03915908,75.76763745,50,250,9317,12,54,9282,0.10477517,0.44310890,75.48457209,0.08909124,0.33085192,1.24269395
28005,0,USMississippiAmite,Mississippi,Amite,2020-07-16 15:13:43.583435,2020-06-20 00:00:00.000000,0.37404280,2.05782774,75.48646434,45,253,9282,12,55,9247,0.10517778,0.44871022,75.20509564,0.08791172,0.33547500,1.24085384
28005,0,USMississippiAmite,Mississippi,Amite,2020-07-16 15:13:43.583435,2020-06-21 00:00:00.000000,0.39807510,2.07544970,75.20664386,48,255,9248,13,55,9213,0.10612014,0.45470774,74.92692699,0.08494594,0.33195731,1.22812899
28005,0,USMississippiAmite,Mississippi,Amite,2020-07-16 15:13:43.583435,2020-06-22 00:00:00.000000,0.36649976,2.09243515,74.92816921,45,257,9213,13,56,9179,0.10710418,0.46037464,74.65006348,0.08287082,0.33031324,1.22567015
28005,0,USMississippiAmite,Mississippi,Amite,2020-07-16 15:13:43.583435,2020-06-23 00:00:00.000000,0.38050664,2.10921790,74.65103362,46,259,9179,13,57,9145,0.10818136,0.46662023,74.37450207,0.08118184,0.32928240,1.25065556
28005,0,USMississippiAmite,Mississippi,Amite,2020-07-16 15:13:43.583435,2020-06-24 00:00:00.000000,0.35988201,2.12584536,74.37523034,44,261,9145,13,58,9112,0.10941524,0.47300492,74.10023931,0.08005318,0.32941356,1.25918418
28005,0,USMississippiAmite,Mississippi,Amite,2020-07-16 15:13:43.583435,2020-06-25 00:00:00.000000,0.36533022,2.14178053,74.10075266,44,263,9112,13,58,9078,0.11085477,0.47947011,73.82727146,0.07985167,0.32955153,1.30143923
28005,0,USMississippiAmite,Mississippi,Amite,2020-07-16 15:13:43.583435,2020-06-26 00:00:00.000000,0.33445886,2.15568692,73.82759390,41,265,9078,13,59,9045,0.11251796,0.48602190,73.55559446,0.07974404,0.33230105,1.30428714
28005,0,USMississippiAmite,Mississippi,Amite,2020-07-16 15:13:43.583435,2020-06-27 00:00:00.000000,0.35231982,2.17286716,73.55574739,43,267,9045,14,60,9011,0.11439125,0.49117477,73.28520402,0.07923221,0.32082247,1.32936019
28005,0,USMississippiAmite,Mississippi,Amite,2020-07-16 15:13:43.583435,2020-06-28 00:00:00.000000,0.30988369,2.22823726,73.28520652,38,274,9011,14,60,8978,0.11644376,0.49357022,73.01609561,0.07870260,0.31730659,1.37335976
28005,0,USMississippiAmite,Mississippi,Amite,2020-07-16 15:13:43.583435,2020-06-29 00:00:00.000000,0.33689812,2.27836845,73.01596469,41,280,8978,14,60,8945,0.11864272,0.49422669,72.74826452,0.07833744,0.31379311,1.37895823
28005,0,USMississippiAmite,Mississippi,Amite,2020-07-16 15:13:43.583435,2020-06-30 00:00:00.000000,0.28960746,2.28443142,72.74801533,35,280,8945,14,62,8913,0.11530318,0.50633182,72.48170586,0.07849419,0.31506488,1.38182740
28005,0,USMississippiAmite,Mississippi,Amite,2020-07-16 15:13:43.583435,2020-07-01 00:00:00.000000,0.31838036,2.29176307,72.48135191,39,281,8913,14,62,8880,0.11977506,0.50895220,72.21641460,0.07684183,0.31614300,1.38323822
28005,0,USMississippiAmite,Mississippi,Amite,2020-07-16 15:13:43.583435,2020-07-02 00:00:00.000000,0.27090660,2.30057779,72.21596793,33,282,8880,13,62,8847,0.11149694,0.51081212,71.95238557,0.07634633,0.32076279,1.38390441
28005,0,USMississippiAmite,Mississippi,Amite,2020-07-16 15:13:43.583435,2020-07-03 00:00:00.000000,0.30165076,2.31120957,71.95185692,37,284,8847,14,61,8815,0.11855041,0.50230109,71.68961352,0.07638469,0.32335110,1.38419652
28005,0,USMississippiAmite,Mississippi,Amite,2020-07-16 15:13:43.583435,2020-07-04 00:00:00.000000,0.25506745,2.32388781,71.68901243,31,285,8815,13,63,8783,0.10752606,0.51275330,71.42809306,0.07591313,0.31897785,1.38667805
28005,0,USMississippiAmite,Mississippi,Amite,2020-07-16 15:13:43.583435,2020-07-05 00:00:00.000000,0.28688794,2.35433360,71.42742805,35,289,8783,14,61,8751,0.11736178,0.49900021,71.16781874,0.07187320,0.33160188,1.45257722
28005,0,USMississippiAmite,Mississippi,Amite,2020-07-16 15:13:43.583435,2020-07-06 00:00:00.000000,0.24133477,2.40637622,71.16709742,29,295,8751,12,63,8719,0.10363865,0.51438924,70.90878505,0.07102416,0.33857234,1.48564846
28005,0,USMississippiAmite,Mississippi,Amite,2020-07-16 15:13:43.583435,2020-07-07 00:00:00.000000,0.27510295,2.45283616,70.90801418,33,301,8719,14,61,8687,0.11623606,0.49932855,70.65098642,0.07080696,0.34055453,1.49438585
28005,0,USMississippiAmite,Mississippi,Amite,2020-07-16 15:13:43.583435,2020-07-08 00:00:00.000000,0.22910054,2.50002580,70.65017202,28,307,8687,12,65,8656,0.09985871,0.52989287,70.39441720,0.07085361,0.33736426,1.49290281
28005,0,USMississippiAmite,Mississippi,Amite,2020-07-16 15:13:43.583435,2020-07-09 00:00:00.000000,0.26457025,2.54781248,70.39356465,32,313,8656,14,62,8625,0.11508617,0.50702419,70.13907175,0.07086218,0.33167418,1.48066745
28005,0,USMississippiAmite,Mississippi,Amite,2020-07-16 15:13:43.583435,2020-07-10 00:00:00.000000,0.21797391,2.59614047,70.13818582,26,319,8624,11,67,8593,0.09702420,0.54643198,69.88494435,0.07086141,0.32901057,1.48084510
28005,0,USMississippiAmite,Mississippi,Amite,2020-07-16 15:13:43.583435,2020-07-11 00:00:00.000000,0.25423403,2.64499365,69.88402931,31,325,8593,14,62,8562,0.11390200,0.50738762,69.63202929,0.07085935,0.32799397,1.48088468
28005,0,USMississippiAmite,Mississippi,Amite,2020-07-16 15:13:43.583435,2020-07-12 00:00:00.000000,0.20770072,2.68350971,69.63108893,25,329,8562,11,67,8531,0.09271191,0.54760251,69.38032081,0.07085777,0.32763661,1.48089482
28005,0,USMississippiAmite,Mississippi,Amite,2020-07-16 15:13:43.583435,2020-07-13 00:00:00.000000,0.24406803,2.70306912,69.37935852,30,332,8531,13,62,8500,0.11268740,0.50841356,69.12981317,0.07085680,0.32751464,1.48089822
28005,0,USMississippiAmite,Mississippi,Amite,2020-07-16 15:13:43.583435,2020-07-14 00:00:00.000000,0.19811310,2.72495769,69.12883195,24,335,8500,10,67,8470,0.08854754,0.54844968,68.88050059,0.07085625,0.32747344,1.48089979
28005,0,USMississippiAmite,Mississippi,Amite,2020-07-16 15:13:43.583435,2020-07-15 00:00:00.000000,0.23413552,2.74559930,68.87950313,28,337,8470,13,63,8439,0.11144794,0.51282785,68.63237731,0.07085596,0.32745957,1.48090070
28005,0,USMississippiAmite,Mississippi,Amite,2020-07-16 15:13:43.583435,2020-07-16 00:00:00.000000,0.18909803,2.77438213,68.63136599,23,341,8439,10,67,8409,0.08454006,0.54901934,68.38543754,0.07085580,0.32745490,1.48090128
28005,0,USMississippiAmite,Mississippi,Amite,2020-07-16 15:13:43.583435,2020-07-17 00:00:00.000000,0.22448300,2.80841929,68.38441449,27,345,8409,13,63,8379,0.11018927,0.51697751,68.13967552,0.07085572,0.32745333,1.48090167
28005,0,USMississippiAmite,Mississippi,Amite,2020-07-16 15:13:43.583435,2020-07-18 00:00:00.000000,0.18057751,2.83895899,68.13864263,22,349,8379,9,67,8349,0.08069244,0.54935006,67.89508548,0.07085568,0.32745281,1.48090193
28005,0,USMississippiAmite,Mississippi,Amite,2020-07-16 15:13:43.583435,2020-07-19 00:00:00.000000,0.21513839,2.89082976,67.89404443,26,355,8348,13,66,8319,0.10891670,0.54377473,67.65166167,0.07085566,0.32745263,1.48090211
28005,0,USMississippiAmite,Mississippi,Amite,2020-07-16 15:13:43.583435,2020-07-20 00:00:00.000000,0.17249609,2.90699838,67.65061395,21,357,8318,9,70,8289,0.07700400,0.56983082,67.40939833,0.07085565,0.32745257,1.48090223
28005,0,USMississippiAmite,Mississippi,Amite,2020-07-16 15:13:43.583435,2020-07-21 00:00:00.000000,0.20611639,2.91071801,67.40834528,25,357,8289,13,68,8259,0.10814652,0.55533287,67.16828973,0.07085565,0.32745255,1.48090232
28005,0,USMississippiAmite,Mississippi,Amite,2020-07-16 15:13:43.583435,2020-07-22 00:00:00.000000,0.16481295,2.91459117,67.16723254,20,358,8259,9,70,8230,0.07347181,0.56932215,66.92833014,0.07085564,0.32745254,1.48090238
28005,0,USMississippiAmite,Mississippi,Amite,2020-07-16 15:13:43.583435,2020-07-23 00:00:00.000000,0.19742271,2.91859774,66.92726986,24,358,8230,13,69,8200,0.10933002,0.56879289,66.68951387,0.07085564,0.32745254,1.48090242
28005,0,USMississippiAmite,Mississippi,Amite,2020-07-16 15:13:43.583435,2020-07-24 00:00:00.000000,0.15749680,2.94252542,66.68845142,19,361,8200,8,70,8171,0.07009160,0.57572014,66.45183522,0.07085564,0.32745254,1.48090244
28005,0,USMississippiAmite,Mississippi,Amite,2020-07-16 15:13:43.583435,2020-07-25 00:00:00.000000,0.18905702,2.96811301,66.45077143,23,364,8171,13,71,8142,0.10691481,0.58277959,66.21528851,0.07085564,0.32745254,1.48090246
28005,0,USMississippiAmite,Mississippi,Amite,2020-07-16 15:13:43.583435,2020-07-26 00:00:00.000000,0.15052267,2.99721646,66.21422414,18,368,8142,8,72,8113,0.06685839,0.58997203,65.97986810,0.07085564,0.32745254,1.48090248
28005,0,USMississippiAmite,Mississippi,Amite,2020-07-16 15:13:43.583435,2020-07-27 00:00:00.000000,0.18101503,3.05167183,65.97880379,22,375,8113,12,73,8084,0.10307300,0.59729847,65.74556836,0.07085564,0.32745254,1.48090249
