FIPS,HR_UID,nameid,province,region,analysisTime,dates,pointprevalence_025,pointprevalence_50,pointprevalence_975,pointinfections_025,pointinfections_50,pointinfections_975,pointinfectious_025,pointinfectious_50,pointinfectious_975,pointinfectiousprevalence_05,pointinfectiousprevalence_50,pointinfectiousprevalence_95,infectrate_025,infectrate_50,infectrate_975
13075,0,USGeorgiaCook,Georgia,Cook,2020-07-18 17:51:25.979716,2020-03-09 00:00:00.000000,0.01737677,0.09602514,0.39939883,3,16,68,0,3,14,0.00000000,0.02106112,0.08175881,0.43951985,0.68176107,1.00142671
13075,0,USGeorgiaCook,Georgia,Cook,2020-07-18 17:51:25.979716,2020-03-10 00:00:00.000000,0.02102348,0.10985813,0.50362195,3,18,86,0,4,13,0.00550902,0.02790020,0.07952520,0.43952615,0.68176095,1.00068865
13075,0,USGeorgiaCook,Georgia,Cook,2020-07-18 17:51:25.979716,2020-03-11 00:00:00.000000,0.02465608,0.10238311,0.40363925,4,17,69,0,3,14,0.00319311,0.02188975,0.08535131,0.43955157,0.68176058,0.99926747
13075,0,USGeorgiaCook,Georgia,Cook,2020-07-18 17:51:25.979716,2020-03-12 00:00:00.000000,0.02788518,0.11935128,0.51129239,4,20,88,1,4,15,0.00650310,0.02609751,0.08713669,0.43964128,0.68175943,0.99654978
13075,0,USGeorgiaCook,Georgia,Cook,2020-07-18 17:51:25.979716,2020-03-13 00:00:00.000000,0.03055428,0.11558054,0.39844126,5,19,68,0,4,15,0.00516000,0.02476302,0.09041270,0.43994249,0.68175586,0.99142092
13075,0,USGeorgiaCook,Georgia,Cook,2020-07-18 17:51:25.979716,2020-03-14 00:00:00.000000,0.03466491,0.12544747,0.54034347,5,21,93,1,4,17,0.00808398,0.02580522,0.09877484,0.44092509,0.68174486,0.98197898
13075,0,USGeorgiaCook,Georgia,Cook,2020-07-18 17:51:25.979716,2020-03-15 00:00:00.000000,0.03707379,0.13003048,0.41479564,6,22,71,1,4,18,0.00661484,0.02509962,0.10623560,0.44400348,0.68171096,0.97482359
13075,0,USGeorgiaCook,Georgia,Cook,2020-07-18 17:51:25.979716,2020-03-16 00:00:00.000000,0.04250435,0.14640000,0.57595136,7,25,99,1,4,19,0.01026240,0.02880948,0.11306520,0.45193667,0.68160673,0.97444406
13075,0,USGeorgiaCook,Georgia,Cook,2020-07-18 17:51:25.979716,2020-03-17 00:00:00.000000,0.04423817,0.14738695,0.46895838,7,25,80,1,4,20,0.00868988,0.02658524,0.11947055,0.44952391,0.67986586,0.97340614
13075,0,USGeorgiaCook,Georgia,Cook,2020-07-18 17:51:25.979716,2020-03-18 00:00:00.000000,0.04913076,0.16476447,0.61792176,8,28,106,2,5,21,0.01277373,0.03225799,0.12397329,0.44250849,0.67368339,0.97074215
13075,0,USGeorgiaCook,Georgia,Cook,2020-07-18 17:51:25.979716,2020-03-19 00:00:00.000000,0.05199094,0.16773874,0.51359746,8,28,88,1,5,21,0.01085553,0.03033465,0.12587658,0.42419888,0.66674477,0.96543143
13075,0,USGeorgiaCook,Georgia,Cook,2020-07-18 17:51:25.979716,2020-03-20 00:00:00.000000,0.05986764,0.18535126,0.66628020,10,32,115,2,6,22,0.01580853,0.03614849,0.12791833,0.40050229,0.65274672,0.94220922
13075,0,USGeorgiaCook,Georgia,Cook,2020-07-18 17:51:25.979716,2020-03-21 00:00:00.000000,0.05970395,0.19230992,0.58479824,10,33,100,2,5,22,0.01312178,0.03415025,0.12996061,0.36761178,0.64586939,0.93951424
13075,0,USGeorgiaCook,Georgia,Cook,2020-07-18 17:51:25.979716,2020-03-22 00:00:00.000000,0.07158801,0.20915599,0.72466002,12,36,125,3,7,24,0.01813014,0.04161028,0.14061420,0.36047705,0.63884004,0.94153074
13075,0,USGeorgiaCook,Georgia,Cook,2020-07-18 17:51:25.979716,2020-03-23 00:00:00.000000,0.06856683,0.21008724,0.64154574,11,36,110,2,6,26,0.01551319,0.04037024,0.15259805,0.35746012,0.63604779,0.94399943
13075,0,USGeorgiaCook,Georgia,Cook,2020-07-18 17:51:25.979716,2020-03-24 00:00:00.000000,0.08364904,0.23601746,0.77505929,14,40,133,3,8,27,0.01911542,0.04795702,0.15870654,0.34214143,0.62620048,0.99755969
13075,0,USGeorgiaCook,Georgia,Cook,2020-07-18 17:51:25.979716,2020-03-25 00:00:00.000000,0.07872422,0.23184578,0.70355324,13,40,121,3,7,28,0.01804911,0.04500837,0.16351218,0.33933860,0.61766220,0.96562900
13075,0,USGeorgiaCook,Georgia,Cook,2020-07-18 17:51:25.979716,2020-03-26 00:00:00.000000,0.09789490,0.25791770,0.81600104,16,44,140,3,9,29,0.02218358,0.05584151,0.16826126,0.33624666,0.61051684,0.95190657
13075,0,USGeorgiaCook,Georgia,Cook,2020-07-18 17:51:25.979716,2020-03-27 00:00:00.000000,0.09070909,0.26016593,0.78558735,15,44,135,3,8,29,0.02075098,0.05054788,0.17312058,0.34084928,0.60164206,0.96308324
13075,0,USGeorgiaCook,Georgia,Cook,2020-07-18 17:51:25.979716,2020-03-28 00:00:00.000000,0.11393690,0.28345779,0.91461527,19,48,157,4,10,31,0.02572921,0.06047360,0.18105845,0.33030580,0.59265703,0.97165887
13075,0,USGeorgiaCook,Georgia,Cook,2020-07-18 17:51:25.979716,2020-03-29 00:00:00.000000,0.10480004,0.28880715,0.85964498,18,49,148,3,10,32,0.02273282,0.05813578,0.19003002,0.33612254,0.58801328,0.98313470
13075,0,USGeorgiaCook,Georgia,Cook,2020-07-18 17:51:25.979716,2020-03-30 00:00:00.000000,0.12333589,0.31855469,1.01909965,21,55,175,5,11,34,0.02994622,0.06505402,0.20042654,0.31514334,0.56921596,0.98383792
13075,0,USGeorgiaCook,Georgia,Cook,2020-07-18 17:51:25.979716,2020-03-31 00:00:00.000000,0.12357284,0.31845269,0.90804251,21,54,156,4,11,37,0.02589426,0.06633901,0.21587704,0.31018846,0.55622369,0.98356373
13075,0,USGeorgiaCook,Georgia,Cook,2020-07-18 17:51:25.979716,2020-04-01 00:00:00.000000,0.13480853,0.35364275,1.12948063,23,61,195,5,12,40,0.03259979,0.07397031,0.23232381,0.30939254,0.54260024,0.97859652
13075,0,USGeorgiaCook,Georgia,Cook,2020-07-18 17:51:25.979716,2020-04-02 00:00:00.000000,0.13728414,0.34892572,0.96861792,23,60,167,4,12,42,0.02753602,0.07523787,0.24654094,0.28526369,0.52231517,0.94952227
13075,0,USGeorgiaCook,Georgia,Cook,2020-07-18 17:51:25.979716,2020-04-03 00:00:00.000000,0.15044787,0.39240470,1.24352671,25,67,214,6,14,44,0.03483870,0.08319437,0.25945729,0.27651458,0.51857922,0.91368362
13075,0,USGeorgiaCook,Georgia,Cook,2020-07-18 17:51:25.979716,2020-04-04 00:00:00.000000,0.14895735,0.38520908,1.03710344,25,66,179,5,14,47,0.02926962,0.08559762,0.27300914,0.27382690,0.50435283,0.91072147
13075,0,USGeorgiaCook,Georgia,Cook,2020-07-18 17:51:25.979716,2020-04-05 00:00:00.000000,0.16041707,0.43086602,1.34879699,27,74,232,6,16,49,0.03670244,0.09428671,0.28719259,0.26923433,0.50393992,0.89242436
13075,0,USGeorgiaCook,Georgia,Cook,2020-07-18 17:51:25.979716,2020-04-06 00:00:00.000000,0.16385766,0.42618263,1.11462071,28,73,192,5,16,52,0.03168454,0.09473577,0.30201494,0.25439359,0.50313977,0.86775746
13075,0,USGeorgiaCook,Georgia,Cook,2020-07-18 17:51:25.979716,2020-04-07 00:00:00.000000,0.17017754,0.46936008,1.43474816,29,81,247,6,18,55,0.03879039,0.10622224,0.32088004,0.24424647,0.49819141,0.88636196
13075,0,USGeorgiaCook,Georgia,Cook,2020-07-18 17:51:25.979716,2020-04-08 00:00:00.000000,0.17383892,0.47845782,1.19913550,30,82,207,6,17,59,0.03530170,0.10361026,0.34212504,0.24399952,0.49624311,0.89219930
13075,0,USGeorgiaCook,Georgia,Cook,2020-07-18 17:51:25.979716,2020-04-09 00:00:00.000000,0.18041416,0.52499898,1.52461738,31,90,263,7,19,62,0.04107176,0.11508314,0.36430030,0.24182510,0.49168066,0.87789567
13075,0,USGeorgiaCook,Georgia,Cook,2020-07-18 17:51:25.979716,2020-04-10 00:00:00.000000,0.18428572,0.52819642,1.29049018,31,91,222,7,20,66,0.04055814,0.11698565,0.38749708,0.23653817,0.48695917,0.84655846
13075,0,USGeorgiaCook,Georgia,Cook,2020-07-18 17:51:25.979716,2020-04-11 00:00:00.000000,0.19114213,0.56969269,1.61713985,33,98,279,7,21,71,0.04351792,0.12721356,0.41180724,0.23413496,0.47450036,0.86757290
13075,0,USGeorgiaCook,Georgia,Cook,2020-07-18 17:51:25.979716,2020-04-12 00:00:00.000000,0.19646751,0.57489026,1.48603439,33,99,256,7,21,75,0.04467844,0.12543586,0.43715411,0.22578237,0.46208753,0.85419351
13075,0,USGeorgiaCook,Georgia,Cook,2020-07-18 17:51:25.979716,2020-04-13 00:00:00.000000,0.20241548,0.61209197,1.71350639,34,105,295,8,24,80,0.04651584,0.14176519,0.46336120,0.22165185,0.46390310,0.84460923
13075,0,USGeorgiaCook,Georgia,Cook,2020-07-18 17:51:25.979716,2020-04-14 00:00:00.000000,0.20584623,0.62171926,1.66976089,35,107,288,8,23,84,0.04731736,0.13789242,0.49097920,0.21591463,0.45964829,0.84423042
13075,0,USGeorgiaCook,Georgia,Cook,2020-07-18 17:51:25.979716,2020-04-15 00:00:00.000000,0.21246597,0.67857848,1.91446837,36,117,330,8,26,89,0.04899622,0.15260093,0.52013511,0.21892314,0.46305327,0.85144302
13075,0,USGeorgiaCook,Georgia,Cook,2020-07-18 17:51:25.979716,2020-04-16 00:00:00.000000,0.21630762,0.67519933,1.91603585,37,116,330,8,27,95,0.04984077,0.15683665,0.55091806,0.21783898,0.46302761,0.86218320
13075,0,USGeorgiaCook,Georgia,Cook,2020-07-18 17:51:25.979716,2020-04-17 00:00:00.000000,0.22217171,0.70837326,2.06127512,38,122,355,8,28,100,0.05146557,0.16736143,0.58339071,0.21560531,0.45898300,0.87582920
13075,0,USGeorgiaCook,Georgia,Cook,2020-07-18 17:51:25.979716,2020-04-18 00:00:00.000000,0.22581990,0.72539455,2.09556238,38,125,361,9,30,106,0.05223691,0.17410079,0.61730525,0.21251750,0.45018532,0.86647729
13075,0,USGeorgiaCook,Georgia,Cook,2020-07-18 17:51:25.979716,2020-04-19 00:00:00.000000,0.23024773,0.76173477,2.31621625,39,131,400,9,32,110,0.05378883,0.18793232,0.64240467,0.20871355,0.44610647,0.84788673
13075,0,USGeorgiaCook,Georgia,Cook,2020-07-18 17:51:25.979716,2020-04-20 00:00:00.000000,0.23345002,0.76935815,2.34705989,40,132,405,9,33,115,0.05445717,0.19299812,0.66863179,0.20426977,0.44063697,0.87083105
13075,0,USGeorgiaCook,Georgia,Cook,2020-07-18 17:51:25.979716,2020-04-21 00:00:00.000000,0.23636430,0.80465887,2.50068846,40,138,431,9,35,120,0.05574035,0.20457624,0.69603059,0.20258186,0.43817598,0.85963166
13075,0,USGeorgiaCook,Georgia,Cook,2020-07-18 17:51:25.979716,2020-04-22 00:00:00.000000,0.23921048,0.82557476,2.58111776,41,142,445,9,36,125,0.05656018,0.21164114,0.72443302,0.20429749,0.43504167,0.82630109
13075,0,USGeorgiaCook,Georgia,Cook,2020-07-18 17:51:25.979716,2020-04-23 00:00:00.000000,0.24218247,0.87734393,2.74726930,41,151,474,9,39,130,0.05733636,0.22620372,0.75335915,0.20620934,0.42552677,0.82046819
13075,0,USGeorgiaCook,Georgia,Cook,2020-07-18 17:51:25.979716,2020-04-24 00:00:00.000000,0.24541896,0.89733879,2.81818348,42,154,486,10,39,135,0.05808580,0.22786030,0.78219066,0.20371536,0.42309396,0.82069645
13075,0,USGeorgiaCook,Georgia,Cook,2020-07-18 17:51:25.979716,2020-04-25 00:00:00.000000,0.24891057,0.94877811,3.08405649,42,163,532,10,42,139,0.05885319,0.24496293,0.81051281,0.19646074,0.41773839,0.82047811
13075,0,USGeorgiaCook,Georgia,Cook,2020-07-18 17:51:25.979716,2020-04-26 00:00:00.000000,0.25254509,0.98374534,3.16609395,43,169,546,10,42,147,0.05965810,0.24614852,0.85416349,0.19057490,0.41571190,0.81898777
13075,0,USGeorgiaCook,Georgia,Cook,2020-07-18 17:51:25.979716,2020-04-27 00:00:00.000000,0.25621254,1.01561562,3.41598990,44,175,589,10,44,156,0.06049923,0.26041202,0.90700633,0.18833402,0.41672556,0.80956351
13075,0,USGeorgiaCook,Georgia,Cook,2020-07-18 17:51:25.979716,2020-04-28 00:00:00.000000,0.25981490,1.03540890,3.69649538,44,178,638,10,44,166,0.06136394,0.26014088,0.96295669,0.18739127,0.41670174,0.80669972
13075,0,USGeorgiaCook,Georgia,Cook,2020-07-18 17:51:25.979716,2020-04-29 00:00:00.000000,0.26323766,1.09392180,3.93361417,45,188,679,10,47,176,0.06223464,0.27639718,1.02224538,0.18734587,0.40926634,0.81304798
13075,0,USGeorgiaCook,Georgia,Cook,2020-07-18 17:51:25.979716,2020-04-30 00:00:00.000000,0.26633379,1.14463877,4.18609001,45,197,722,10,48,187,0.06308920,0.28116058,1.08510850,0.18083225,0.40098889,0.80738157
13075,0,USGeorgiaCook,Georgia,Cook,2020-07-18 17:51:25.979716,2020-05-01 00:00:00.000000,0.26893901,1.20769705,4.44909709,46,208,768,11,52,198,0.06389951,0.30212071,1.15177806,0.17621083,0.40408899,0.82634569
13075,0,USGeorgiaCook,Georgia,Cook,2020-07-18 17:51:25.979716,2020-05-02 00:00:00.000000,0.27092560,1.24712607,4.72811695,46,215,816,11,51,208,0.06463216,0.30066902,1.20799981,0.17222886,0.40463458,0.81129817
13075,0,USGeorgiaCook,Georgia,Cook,2020-07-18 17:51:25.979716,2020-05-03 00:00:00.000000,0.27226357,1.30292845,5.02274413,47,225,867,11,57,216,0.06525480,0.33113671,1.25287860,0.16883623,0.41141197,0.82035951
13075,0,USGeorgiaCook,Georgia,Cook,2020-07-18 17:51:25.979716,2020-05-04 00:00:00.000000,0.27303096,1.35037248,5.32768811,47,233,920,11,55,229,0.06574620,0.32257082,1.32692254,0.16547246,0.42106070,0.81943990
13075,0,USGeorgiaCook,Georgia,Cook,2020-07-18 17:51:25.979716,2020-05-05 00:00:00.000000,0.27336436,1.40222464,5.50660688,47,242,950,11,62,242,0.06610298,0.36127089,1.40263231,0.16319160,0.42763220,0.81028682
13075,0,USGeorgiaCook,Georgia,Cook,2020-07-18 17:51:25.979716,2020-05-06 00:00:00.000000,0.27340099,1.44921491,5.64898208,47,250,975,11,60,253,0.06633804,0.34979821,1.47046135,0.16146013,0.43364451,0.79195789
13075,0,USGeorgiaCook,Georgia,Cook,2020-07-18 17:51:25.979716,2020-05-07 00:00:00.000000,0.27325011,1.50779377,5.82536825,47,260,1006,11,67,260,0.06647340,0.39217520,1.51020982,0.15972286,0.43894579,0.78597436
13075,0,USGeorgiaCook,Georgia,Cook,2020-07-18 17:51:25.979716,2020-05-08 00:00:00.000000,0.27299157,1.53291199,6.03673144,47,264,1042,11,65,278,0.06653305,0.37669828,1.61294114,0.15791744,0.44140372,0.77740910
13075,0,USGeorgiaCook,Georgia,Cook,2020-07-18 17:51:25.979716,2020-05-09 00:00:00.000000,0.27268819,1.62789049,6.26942276,47,281,1082,11,73,301,0.06653894,0.42274121,1.74441531,0.15653096,0.44508878,0.78016328
13075,0,USGeorgiaCook,Georgia,Cook,2020-07-18 17:51:25.979716,2020-05-10 00:00:00.000000,0.27240637,1.64642445,6.51110813,47,284,1124,11,69,318,0.06651000,0.40489894,1.84237212,0.15490872,0.44970451,0.79587998
13075,0,USGeorgiaCook,Georgia,Cook,2020-07-18 17:51:25.979716,2020-05-11 00:00:00.000000,0.27225150,1.74143337,6.75813073,47,300,1167,11,79,335,0.06646392,0.45804814,1.94153228,0.15327132,0.45646983,0.83021807
13075,0,USGeorgiaCook,Georgia,Cook,2020-07-18 17:51:25.979716,2020-05-12 00:00:00.000000,0.27244452,1.80290022,7.00956007,47,311,1210,11,76,353,0.06642192,0.44409448,2.04417999,0.15171975,0.45934292,0.84174710
13075,0,USGeorgiaCook,Georgia,Cook,2020-07-18 17:51:25.979716,2020-05-13 00:00:00.000000,0.27352295,1.95220167,7.26517046,47,337,1254,11,85,369,0.06641965,0.49669795,2.13997216,0.15022845,0.46166684,0.88064692
13075,0,USGeorgiaCook,Georgia,Cook,2020-07-18 17:51:25.979716,2020-05-14 00:00:00.000000,0.27678776,2.00896111,7.52439175,47,346,1299,11,85,384,0.06653500,0.49668924,2.22487593,0.14882642,0.46769254,0.91141062
13075,0,USGeorgiaCook,Georgia,Cook,2020-07-18 17:51:25.979716,2020-05-15 00:00:00.000000,0.28397753,2.12480469,7.78692685,49,366,1344,11,91,399,0.06695176,0.53037833,2.31325231,0.14763915,0.47470776,0.89833476
13075,0,USGeorgiaCook,Georgia,Cook,2020-07-18 17:51:25.979716,2020-05-16 00:00:00.000000,0.29471528,2.19726103,8.05285775,50,379,1390,11,93,415,0.06796014,0.54275167,2.40539556,0.14669723,0.49475879,0.89455270
13075,0,USGeorgiaCook,Georgia,Cook,2020-07-18 17:51:25.979716,2020-05-17 00:00:00.000000,0.30741196,2.33430929,8.37498726,53,403,1446,12,100,435,0.06968147,0.57955941,2.52314815,0.13808004,0.49953992,0.92898769
13075,0,USGeorgiaCook,Georgia,Cook,2020-07-18 17:51:25.979716,2020-05-18 00:00:00.000000,0.32138266,2.43446842,8.77415683,55,420,1515,12,100,468,0.07200760,0.58145797,2.71215795,0.14142830,0.50746939,0.95669336
13075,0,USGeorgiaCook,Georgia,Cook,2020-07-18 17:51:25.979716,2020-05-19 00:00:00.000000,0.33663579,2.55905119,9.19025906,58,441,1587,12,108,502,0.07481550,0.62816292,2.90757720,0.14105894,0.52508419,0.95723570
13075,0,USGeorgiaCook,Georgia,Cook,2020-07-18 17:51:25.979716,2020-05-20 00:00:00.000000,0.35346586,2.65550978,9.62285061,61,458,1661,13,106,527,0.07801420,0.61869770,3.05661141,0.14040919,0.52857714,0.95476263
13075,0,USGeorgiaCook,Georgia,Cook,2020-07-18 17:51:25.979716,2020-05-21 00:00:00.000000,0.37216628,2.76838016,10.07096011,64,478,1739,14,117,554,0.08162345,0.68055349,3.21242332,0.14121562,0.53207122,0.96300174
13075,0,USGeorgiaCook,Georgia,Cook,2020-07-18 17:51:25.979716,2020-05-22 00:00:00.000000,0.39281225,2.81256902,10.53033888,67,485,1818,14,118,582,0.08563148,0.68614626,3.37537635,0.14158550,0.53315423,0.95524155
13075,0,USGeorgiaCook,Georgia,Cook,2020-07-18 17:51:25.979716,2020-05-23 00:00:00.000000,0.41528231,3.01255997,10.98617423,71,520,1897,15,127,612,0.09011429,0.74012549,3.54581807,0.14182364,0.53256377,0.97058149
13075,0,USGeorgiaCook,Georgia,Cook,2020-07-18 17:51:25.979716,2020-05-24 00:00:00.000000,0.43942767,3.04861923,11.43284904,75,526,1974,16,127,643,0.09500292,0.74103290,3.72398197,0.14059486,0.52423861,0.97934423
13075,0,USGeorgiaCook,Georgia,Cook,2020-07-18 17:51:25.979716,2020-05-25 00:00:00.000000,0.46516796,3.22224774,12.05972922,80,556,2082,17,138,675,0.10036949,0.80482421,3.90981636,0.14441010,0.54093330,0.98390754
13075,0,USGeorgiaCook,Georgia,Cook,2020-07-18 17:51:25.979716,2020-05-26 00:00:00.000000,0.49249443,3.32524987,12.89749720,85,574,2227,18,143,708,0.10608496,0.83237500,4.10317101,0.14721445,0.54520006,0.98612352
13075,0,USGeorgiaCook,Georgia,Cook,2020-07-18 17:51:25.979716,2020-05-27 00:00:00.000000,0.52144723,3.58494605,13.68418438,90,619,2363,19,153,743,0.11227594,0.89116795,4.30424284,0.14899884,0.54930844,0.98719705
13075,0,USGeorgiaCook,Georgia,Cook,2020-07-18 17:51:25.979716,2020-05-28 00:00:00.000000,0.55210410,3.57024078,14.59784588,95,616,2521,20,155,779,0.11877397,0.90130785,4.51088326,0.15097031,0.56192991,0.98965362
13075,0,USGeorgiaCook,Georgia,Cook,2020-07-18 17:51:25.979716,2020-05-29 00:00:00.000000,0.58460223,3.85503380,15.56832571,100,665,2688,21,168,816,0.12578594,0.97335804,4.72549965,0.15355739,0.56138019,0.99420652
13075,0,USGeorgiaCook,Georgia,Cook,2020-07-18 17:51:25.979716,2020-05-30 00:00:00.000000,0.61907804,3.88842983,16.58949498,106,671,2865,22,168,854,0.13309727,0.97486070,4.94923162,0.15704693,0.56809187,1.01920231
13075,0,USGeorgiaCook,Georgia,Cook,2020-07-18 17:51:25.979716,2020-05-31 00:00:00.000000,0.65529642,4.27319494,17.65964652,113,737,3049,24,179,895,0.14100262,1.04125105,5.18312099,0.16199201,0.57128349,1.03890564
13075,0,USGeorgiaCook,Georgia,Cook,2020-07-18 17:51:25.979716,2020-06-01 00:00:00.000000,0.69237306,4.33957958,18.77831206,119,749,3243,25,184,938,0.14919438,1.06926711,5.43146239,0.16748971,0.57746590,1.04681691
13075,0,USGeorgiaCook,Georgia,Cook,2020-07-18 17:51:25.979716,2020-06-02 00:00:00.000000,0.72885864,4.64860352,19.94610624,125,802,3444,27,201,983,0.15788532,1.16852538,5.69717473,0.16432698,0.57362960,0.98538211
13075,0,USGeorgiaCook,Georgia,Cook,2020-07-18 17:51:25.979716,2020-06-03 00:00:00.000000,0.76466359,4.84418062,21.16541624,132,836,3655,28,201,1032,0.16653919,1.16764535,5.98045643,0.16417278,0.57719527,1.00877258
13075,0,USGeorgiaCook,Georgia,Cook,2020-07-18 17:51:25.979716,2020-06-04 00:00:00.000000,0.80101667,5.22800038,22.42157051,138,902,3872,30,218,1084,0.17534870,1.26271159,6.28127981,0.16684352,0.60332932,0.93378849
13075,0,USGeorgiaCook,Georgia,Cook,2020-07-18 17:51:25.979716,2020-06-05 00:00:00.000000,0.83868832,5.28750500,23.74115635,144,913,4100,31,224,1139,0.18405934,1.30197851,6.59962515,0.17130534,0.61196397,0.94109071
13075,0,USGeorgiaCook,Georgia,Cook,2020-07-18 17:51:25.979716,2020-06-06 00:00:00.000000,0.87797941,5.70377147,25.14335349,151,985,4342,33,241,1197,0.19309532,1.39896191,6.93541455,0.17518794,0.62487645,0.96074695
13075,0,USGeorgiaCook,Georgia,Cook,2020-07-18 17:51:25.979716,2020-06-07 00:00:00.000000,0.91904800,5.92356657,26.64081321,158,1022,4600,34,246,1258,0.20226115,1.42630046,7.28835070,0.17654597,0.61908150,0.97390911
13075,0,USGeorgiaCook,Georgia,Cook,2020-07-18 17:51:25.979716,2020-06-08 00:00:00.000000,0.96206904,6.23830307,27.87705049,166,1077,4814,36,266,1322,0.21190654,1.54301845,7.65757738,0.17613326,0.61101214,0.98163180
13075,0,USGeorgiaCook,Georgia,Cook,2020-07-18 17:51:25.979716,2020-06-09 00:00:00.000000,1.00737244,6.44613235,29.06909463,173,1113,5020,38,270,1388,0.22182897,1.56383786,8.04162042,0.17714111,0.60856271,0.98379393
13075,0,USGeorgiaCook,Georgia,Cook,2020-07-18 17:51:25.979716,2020-06-10 00:00:00.000000,1.05570901,6.80675223,30.26288888,182,1175,5226,40,293,1457,0.23233698,1.70175064,8.43902561,0.17839059,0.60391401,0.97272159
13075,0,USGeorgiaCook,Georgia,Cook,2020-07-18 17:51:25.979716,2020-06-11 00:00:00.000000,1.10872883,7.07344667,31.42868358,191,1221,5427,42,295,1528,0.24333147,1.71168185,8.84844927,0.17854208,0.59222801,0.96339969
13075,0,USGeorgiaCook,Georgia,Cook,2020-07-18 17:51:25.979716,2020-06-12 00:00:00.000000,1.16919821,7.43222811,33.49094194,201,1283,5783,44,321,1600,0.25524967,1.86290825,9.26845074,0.18006119,0.60112652,0.98397950
13075,0,USGeorgiaCook,Georgia,Cook,2020-07-18 17:51:25.979716,2020-06-13 00:00:00.000000,1.23949244,7.67278214,36.09487148,214,1325,6233,46,326,1699,0.26836138,1.88769691,9.83795064,0.18051842,0.60323154,1.01802018
13075,0,USGeorgiaCook,Georgia,Cook,2020-07-18 17:51:25.979716,2020-06-14 00:00:00.000000,1.31945384,8.08947027,38.79380347,227,1397,6699,48,355,1828,0.28329988,2.05830959,10.58564303,0.18079802,0.61543327,1.05132301
13075,0,USGeorgiaCook,Georgia,Cook,2020-07-18 17:51:25.979716,2020-06-15 00:00:00.000000,1.40745787,8.32266834,40.72400704,243,1437,7033,51,359,1967,0.30021472,2.08045785,11.39477266,0.18098217,0.60953867,1.07348362
13075,0,USGeorgiaCook,Georgia,Cook,2020-07-18 17:51:25.979716,2020-06-16 00:00:00.000000,1.50237033,8.77584480,42.56826189,259,1515,7351,55,390,2118,0.31917043,2.26024079,12.26922488,0.18114350,0.60812065,1.08319626
13075,0,USGeorgiaCook,Georgia,Cook,2020-07-18 17:51:25.979716,2020-06-17 00:00:00.000000,1.60383484,9.25824506,44.37571485,276,1598,7663,58,397,2281,0.33920249,2.30108113,13.21157585,0.18137653,0.59250677,1.08700523
13075,0,USGeorgiaCook,Georgia,Cook,2020-07-18 17:51:25.979716,2020-06-18 00:00:00.000000,1.71193006,9.60323402,46.14604672,295,1658,7969,62,433,2456,0.36244695,2.50898901,14.22225079,0.17816270,0.58783538,1.09109370
13075,0,USGeorgiaCook,Georgia,Cook,2020-07-18 17:51:25.979716,2020-06-19 00:00:00.000000,1.82692255,10.26700212,47.78101500,315,1773,8251,66,437,2641,0.38558611,2.53156485,15.29603584,0.18252949,0.58919988,1.09289799
13075,0,USGeorgiaCook,Georgia,Cook,2020-07-18 17:51:25.979716,2020-06-20 00:00:00.000000,1.94915715,10.59596168,48.98836806,336,1829,8460,71,475,2835,0.41130465,2.75379834,16.41761580,0.18331734,0.60710018,1.09434192
13075,0,USGeorgiaCook,Georgia,Cook,2020-07-18 17:51:25.979716,2020-06-21 00:00:00.000000,2.07901947,10.80726991,49.99167819,359,1866,8633,75,483,3034,0.43861475,2.79817395,17.57288980,0.18584061,0.60281535,1.09503651
13075,0,USGeorgiaCook,Georgia,Cook,2020-07-18 17:51:25.979716,2020-06-22 00:00:00.000000,2.21693568,11.23181261,50.94068370,382,1939,8797,80,520,3239,0.46443351,3.01665225,18.75793462,0.18846649,0.60229386,1.09521928
13075,0,USGeorgiaCook,Georgia,Cook,2020-07-18 17:51:25.979716,2020-06-23 00:00:00.000000,2.36307653,11.69787893,51.83986868,408,2020,8952,85,535,3449,0.49300821,3.10026046,19.97316913,0.18954370,0.59620225,1.09506776
13075,0,USGeorgiaCook,Georgia,Cook,2020-07-18 17:51:25.979716,2020-06-24 00:00:00.000000,2.51688284,12.16809178,52.67896042,434,2101,9097,90,565,3664,0.52460528,3.27698639,21.21963777,0.18886332,0.59195639,1.08976015
13075,0,USGeorgiaCook,Georgia,Cook,2020-07-18 17:51:25.979716,2020-06-25 00:00:00.000000,2.65864178,12.64995125,53.41994127,459,2184,9225,96,582,3885,0.55793541,3.37246209,22.49802924,0.18845938,0.59180376,1.06032250
13075,0,USGeorgiaCook,Georgia,Cook,2020-07-18 17:51:25.979716,2020-06-26 00:00:00.000000,2.77624591,13.14953924,53.99352645,479,2270,9324,102,613,4111,0.59105532,3.55520654,23.80850755,0.18812656,0.58176834,1.06002143
13075,0,USGeorgiaCook,Georgia,Cook,2020-07-18 17:51:25.979716,2020-06-27 00:00:00.000000,2.90579357,13.42482461,54.47884972,501,2318,9408,107,616,4343,0.62200910,3.56961792,25.14883371,0.18754745,0.56413616,1.03839105
13075,0,USGeorgiaCook,Georgia,Cook,2020-07-18 17:51:25.979716,2020-06-28 00:00:00.000000,3.05320656,14.04239714,54.90656442,527,2425,9482,112,666,4580,0.65309549,3.86022996,26.52046239,0.18595754,0.56095716,1.11482505
13075,0,USGeorgiaCook,Georgia,Cook,2020-07-18 17:51:25.979716,2020-06-29 00:00:00.000000,3.21174430,14.20468509,55.27745218,554,2453,9546,118,653,4736,0.68588455,3.78173263,27.42424487,0.17931406,0.55665244,1.10573857
13075,0,USGeorgiaCook,Georgia,Cook,2020-07-18 17:51:25.979716,2020-06-30 00:00:00.000000,3.37955284,15.36562348,56.62153326,583,2653,9778,124,718,4842,0.72072056,4.16030025,28.03848148,0.17404442,0.55223002,1.09263678
13075,0,USGeorgiaCook,Georgia,Cook,2020-07-18 17:51:25.979716,2020-07-01 00:00:00.000000,3.55352541,15.05208461,59.37595142,613,2599,10254,130,689,4946,0.75753385,3.99063197,28.63946531,0.16586295,0.55202806,1.07924038
13075,0,USGeorgiaCook,Georgia,Cook,2020-07-18 17:51:25.979716,2020-07-02 00:00:00.000000,3.73531268,16.60269651,62.55588637,645,2867,10803,137,768,5047,0.79619424,4.44911491,29.22926275,0.16043618,0.53721653,1.06560140
13075,0,USGeorgiaCook,Georgia,Cook,2020-07-18 17:51:25.979716,2020-07-03 00:00:00.000000,3.89280360,16.53032548,65.96025882,672,2854,11391,144,741,5148,0.83652053,4.29143323,29.81010832,0.15682915,0.52316837,1.04982825
13075,0,USGeorgiaCook,Georgia,Cook,2020-07-18 17:51:25.979716,2020-07-04 00:00:00.000000,4.08842344,17.86457734,66.99079144,706,3085,11569,151,847,5247,0.87798955,4.90972810,30.38316539,0.14959939,0.51696980,1.07138029
13075,0,USGeorgiaCook,Georgia,Cook,2020-07-18 17:51:25.979716,2020-07-05 00:00:00.000000,4.17882872,17.84049373,67.44358666,721,3081,11647,158,832,5344,0.91880276,4.81791600,30.94869499,0.14473635,0.52083136,1.07931790
13075,0,USGeorgiaCook,Georgia,Cook,2020-07-18 17:51:25.979716,2020-07-06 00:00:00.000000,4.29521113,19.13963596,67.69916960,741,3305,11691,164,909,5441,0.95505761,5.26436431,31.50667614,0.14212610,0.51940165,1.08013607
13075,0,USGeorgiaCook,Georgia,Cook,2020-07-18 17:51:25.979716,2020-07-07 00:00:00.000000,4.32354035,18.22092027,67.89781852,746,3146,11725,169,915,5536,0.98405628,5.30118361,32.05700395,0.14106859,0.50483389,1.07989344
13075,0,USGeorgiaCook,Georgia,Cook,2020-07-18 17:51:25.979716,2020-07-08 00:00:00.000000,4.39936847,19.72038436,68.04441049,759,3405,11751,173,982,5629,1.00666505,5.68697239,32.59951256,0.14073650,0.50059664,1.07958985
13075,0,USGeorgiaCook,Georgia,Cook,2020-07-18 17:51:25.979716,2020-07-09 00:00:00.000000,4.44099117,19.29778139,68.13545676,766,3332,11766,176,1005,5705,1.02485764,5.82098959,33.03709903,0.14064040,0.50047270,1.07942264
13075,0,USGeorgiaCook,Georgia,Cook,2020-07-18 17:51:25.979716,2020-07-10 00:00:00.000000,4.48539735,20.11059987,68.16812853,774,3473,11772,179,1039,5775,1.04022647,6.01947494,33.44427742,0.14061307,0.49600422,1.07930462
13075,0,USGeorgiaCook,Georgia,Cook,2020-07-18 17:51:25.979716,2020-07-11 00:00:00.000000,4.52268592,19.73736128,68.14093543,781,3408,11767,181,1033,5841,1.05380380,5.98682379,33.82460263,0.14060526,0.49582910,1.07921449
13075,0,USGeorgiaCook,Georgia,Cook,2020-07-18 17:51:25.979716,2020-07-12 00:00:00.000000,4.56421428,20.67973382,68.05371189,788,3571,11752,185,1092,5902,1.07304087,6.32468254,34.17839259,0.14060300,0.49462589,1.07914449
13075,0,USGeorgiaCook,Georgia,Cook,2020-07-18 17:51:25.979716,2020-07-13 00:00:00.000000,4.60140911,20.80101312,67.90732932,794,3592,11727,186,1094,5959,1.08277766,6.33721181,34.50598916,0.14060233,0.49429589,1.07909010
13075,0,USGeorgiaCook,Georgia,Cook,2020-07-18 17:51:25.979716,2020-07-14 00:00:00.000000,4.63718108,21.50675518,67.70338983,800,3714,11692,188,1157,6011,1.09187030,6.70146813,34.80775903,0.14060213,0.49420575,1.07904795
13075,0,USGeorgiaCook,Georgia,Cook,2020-07-18 17:51:25.979716,2020-07-15 00:00:00.000000,4.67152795,21.85762386,67.44398753,806,3774,11647,190,1205,6059,1.10044786,6.98077612,35.08409459,0.14060206,0.49418116,1.07901539
13075,0,USGeorgiaCook,Georgia,Cook,2020-07-18 17:51:25.979716,2020-07-16 00:00:00.000000,4.70443183,22.88300839,68.42719546,812,3951,11817,193,1211,6102,1.12285158,7.01771951,35.33541435,0.14060204,0.49417444,1.07899029
13075,0,USGeorgiaCook,Georgia,Cook,2020-07-18 17:51:25.979716,2020-07-17 00:00:00.000000,4.73586617,22.75621733,69.29604163,817,3929,11967,193,1217,6141,1.11924862,7.05153220,35.56397527,0.14060204,0.49417261,1.07897098
13075,0,USGeorgiaCook,Georgia,Cook,2020-07-18 17:51:25.979716,2020-07-18 00:00:00.000000,4.76579985,23.73353595,68.88283903,823,4098,11896,197,1223,6325,1.14336301,7.08219216,36.62551042,0.14060203,0.49417211,1.07895615
13075,0,USGeorgiaCook,Georgia,Cook,2020-07-18 17:51:25.979716,2020-07-19 00:00:00.000000,4.79419970,23.96520158,68.44177287,827,4138,11819,198,1255,6507,1.14692230,7.27093359,37.68163673,0.14060203,0.49417197,1.07894476
13075,0,USGeorgiaCook,Georgia,Cook,2020-07-18 17:51:25.979716,2020-07-20 00:00:00.000000,4.82103201,24.94357266,67.97444063,832,4307,11739,200,1292,6652,1.15932690,7.48453457,38.52189198,0.14060203,0.49417193,1.07893603
13075,0,USGeorgiaCook,Georgia,Cook,2020-07-18 17:51:25.979716,2020-07-21 00:00:00.000000,4.84626356,24.33274781,67.48243708,836,4202,11654,201,1313,6731,1.16577329,7.60731647,38.97925540,0.14060203,0.49417192,1.07892935
13075,0,USGeorgiaCook,Georgia,Cook,2020-07-18 17:51:25.979716,2020-07-22 00:00:00.000000,4.86986223,26.04198334,66.96734645,841,4497,11565,202,1321,6808,1.17299394,7.65002669,39.42418346,0.14060203,0.49417192,1.07892423
13075,0,USGeorgiaCook,Georgia,Cook,2020-07-18 17:51:25.979716,2020-07-23 00:00:00.000000,4.89179742,25.32372705,67.76398154,844,4373,11702,203,1353,6883,1.17880032,7.83521246,39.85617943,0.14060203,0.49417192,1.07892031
13075,0,USGeorgiaCook,Georgia,Cook,2020-07-18 17:51:25.979716,2020-07-24 00:00:00.000000,4.91204042,27.08266625,68.99619859,848,4677,11915,204,1378,6955,1.18509640,7.98032827,40.27476961,0.14060203,0.49417192,1.07891731
13075,0,USGeorgiaCook,Georgia,Cook,2020-07-18 17:51:25.979716,2020-07-25 00:00:00.000000,4.93056456,25.83819779,70.13171136,851,4462,12111,205,1362,7025,1.19024096,7.88911714,40.67950592,0.14060203,0.49417192,1.07891501
13075,0,USGeorgiaCook,Georgia,Cook,2020-07-18 17:51:25.979716,2020-07-26 00:00:00.000000,4.94734539,26.97521108,71.16758610,854,4658,12290,206,1385,7092,1.19558182,8.02092443,41.06996817,0.14060203,0.49417192,1.07891325
13075,0,USGeorgiaCook,Georgia,Cook,2020-07-18 17:51:25.979716,2020-07-27 00:00:00.000000,4.96236083,26.24293941,72.10183732,856,4532,12451,207,1401,7157,1.20004176,8.11736690,41.44576602,0.14060203,0.49417192,1.07891191
13075,0,USGeorgiaCook,Georgia,Cook,2020-07-18 17:51:25.979716,2020-07-28 00:00:00.000000,4.97559124,27.13583546,72.93342312,859,4686,12595,207,1414,7219,1.20439910,8.18785253,41.80654062,0.14060203,0.49417192,1.07891088
13075,0,USGeorgiaCook,Georgia,Cook,2020-07-18 17:51:25.979716,2020-07-29 00:00:00.000000,4.98701949,26.53526769,73.66221959,861,4582,12721,208,1445,7279,1.20815356,8.36925347,42.15196597,0.14060203,0.49417192,1.07891010
13075,0,USGeorgiaCook,Georgia,Cook,2020-07-18 17:51:25.979716,2020-07-30 00:00:00.000000,4.99663109,27.24417242,74.28897624,862,4705,12829,209,1450,7336,1.21150342,8.40117064,42.48175000,0.14060203,0.49417192,1.07890949
