FIPS,HR_UID,nameid,province,region,analysisTime,dates,pointprevalence_025,pointprevalence_50,pointprevalence_975,pointinfections_025,pointinfections_50,pointinfections_975,pointinfectious_025,pointinfectious_50,pointinfectious_975,pointinfectiousprevalence_05,pointinfectiousprevalence_50,pointinfectiousprevalence_95,infectrate_025,infectrate_50,infectrate_975
6031,0,USCaliforniaKings,California,Kings,2020-07-18 19:10:01.110336,2020-03-09 00:00:00.000000,0.00259789,0.01861011,0.10534501,3,28,161,0,7,31,0.00059513,0.00497486,0.02079958,0.53120792,0.80154973,1.48837503
6031,0,USCaliforniaKings,California,Kings,2020-07-18 19:10:01.110336,2020-03-10 00:00:00.000000,0.00309530,0.02550573,0.12734774,4,39,194,1,10,37,0.00127806,0.00718549,0.02445150,0.53120759,0.80154881,1.48809106
6031,0,USCaliforniaKings,California,Kings,2020-07-18 19:10:01.110336,2020-03-11 00:00:00.000000,0.00348687,0.02254059,0.12200777,5,34,186,1,11,44,0.00123769,0.00732275,0.02896858,0.53120666,0.80154765,1.48755326
6031,0,USCaliforniaKings,California,Kings,2020-07-18 19:10:01.110336,2020-03-12 00:00:00.000000,0.00438634,0.03310742,0.13615554,6,50,208,2,14,51,0.00166594,0.00962287,0.03368174,0.53120415,0.80154625,1.48653860
6031,0,USCaliforniaKings,California,Kings,2020-07-18 19:10:01.110336,2020-03-13 00:00:00.000000,0.00495507,0.02893880,0.14757686,7,44,225,2,14,59,0.00167362,0.00950832,0.03868729,0.53119751,0.80154481,1.48463684
6031,0,USCaliforniaKings,California,Kings,2020-07-18 19:10:01.110336,2020-03-14 00:00:00.000000,0.00607009,0.03986014,0.16395577,9,60,250,3,18,68,0.00231663,0.01219480,0.04453642,0.53118029,0.80154428,1.48111338
6031,0,USCaliforniaKings,California,Kings,2020-07-18 19:10:01.110336,2020-03-15 00:00:00.000000,0.00657627,0.03929149,0.18296613,10,60,279,3,19,79,0.00247669,0.01284626,0.05215564,0.53113716,0.80154849,1.47471817
6031,0,USCaliforniaKings,California,Kings,2020-07-18 19:10:01.110336,2020-03-16 00:00:00.000000,0.00847908,0.05163149,0.21062420,12,78,322,4,23,93,0.00324096,0.01544378,0.06121434,0.53103670,0.80357332,1.46320733
6031,0,USCaliforniaKings,California,Kings,2020-07-18 19:10:01.110336,2020-03-17 00:00:00.000000,0.00958294,0.05204146,0.24089072,14,79,368,5,25,109,0.00344450,0.01635725,0.07154019,0.53084122,0.81194157,1.45496911
6031,0,USCaliforniaKings,California,Kings,2020-07-18 19:10:01.110336,2020-03-18 00:00:00.000000,0.01194760,0.06761993,0.27495011,18,103,420,7,30,127,0.00481915,0.02008240,0.08332431,0.52855592,0.80828090,1.44636652
6031,0,USCaliforniaKings,California,Kings,2020-07-18 19:10:01.110336,2020-03-19 00:00:00.000000,0.01293269,0.06922007,0.31375008,19,105,479,7,33,147,0.00458231,0.02188405,0.09662298,0.50969058,0.81156613,1.47670915
6031,0,USCaliforniaKings,California,Kings,2020-07-18 19:10:01.110336,2020-03-20 00:00:00.000000,0.01730370,0.09000008,0.35781838,26,137,547,11,41,170,0.00723012,0.02697541,0.11130186,0.50943246,0.81743829,1.52037733
6031,0,USCaliforniaKings,California,Kings,2020-07-18 19:10:01.110336,2020-03-21 00:00:00.000000,0.01581214,0.09099887,0.40770189,24,139,623,9,44,194,0.00620125,0.02939710,0.12699343,0.49615505,0.82044293,1.53590545
6031,0,USCaliforniaKings,California,Kings,2020-07-18 19:10:01.110336,2020-03-22 00:00:00.000000,0.02474718,0.11504779,0.46397666,37,175,709,14,54,216,0.00980298,0.03573872,0.14168987,0.48853138,0.82577779,1.54506749
6031,0,USCaliforniaKings,California,Kings,2020-07-18 19:10:01.110336,2020-03-23 00:00:00.000000,0.02166303,0.11815928,0.52729001,33,180,806,11,58,241,0.00764540,0.03811545,0.15793486,0.48734903,0.82508015,1.54269820
6031,0,USCaliforniaKings,California,Kings,2020-07-18 19:10:01.110336,2020-03-24 00:00:00.000000,0.03595250,0.14929922,0.59841122,54,228,915,19,69,269,0.01252345,0.04545482,0.17589876,0.45212470,0.82889098,1.53941632
6031,0,USCaliforniaKings,California,Kings,2020-07-18 19:10:01.110336,2020-03-25 00:00:00.000000,0.02711833,0.15928784,0.67822677,41,243,1037,15,78,299,0.01025099,0.05113237,0.19575149,0.44377835,0.82599624,1.52923530
6031,0,USCaliforniaKings,California,Kings,2020-07-18 19:10:01.110336,2020-03-26 00:00:00.000000,0.04557828,0.19475488,0.76761312,69,297,1173,23,91,332,0.01515772,0.05978795,0.21766019,0.44105414,0.83617739,1.51499817
6031,0,USCaliforniaKings,California,Kings,2020-07-18 19:10:01.110336,2020-03-27 00:00:00.000000,0.03435814,0.20891270,0.86621722,52,319,1324,19,103,374,0.01295401,0.06770507,0.24496996,0.44259565,0.84508539,1.51675267
6031,0,USCaliforniaKings,California,Kings,2020-07-18 19:10:01.110336,2020-03-28 00:00:00.000000,0.05809823,0.25975850,0.95403105,88,397,1459,29,118,432,0.01930130,0.07773655,0.28310928,0.45183194,0.83838861,1.49572016
6031,0,USCaliforniaKings,California,Kings,2020-07-18 19:10:01.110336,2020-03-29 00:00:00.000000,0.04196579,0.27571800,1.05085998,64,421,1607,24,135,499,0.01579681,0.08831468,0.32653604,0.44741318,0.87597784,1.47835273
6031,0,USCaliforniaKings,California,Kings,2020-07-18 19:10:01.110336,2020-03-30 00:00:00.000000,0.07430499,0.34099680,1.16160928,113,521,1776,38,155,574,0.02533846,0.10183481,0.37594151,0.43832389,0.88447507,1.50138631
6031,0,USCaliforniaKings,California,Kings,2020-07-18 19:10:01.110336,2020-03-31 00:00:00.000000,0.05001925,0.37582604,1.30673740,76,574,1998,29,180,660,0.01950063,0.11788458,0.43215843,0.44618959,0.89307749,1.51214924
6031,0,USCaliforniaKings,California,Kings,2020-07-18 19:10:01.110336,2020-04-01 00:00:00.000000,0.09402797,0.44960272,1.53862848,143,687,2353,48,207,758,0.03192304,0.13539506,0.49623224,0.45312995,0.88658820,1.51642042
6031,0,USCaliforniaKings,California,Kings,2020-07-18 19:10:01.110336,2020-04-02 00:00:00.000000,0.06203164,0.51216473,1.75240986,94,783,2680,37,233,869,0.02447389,0.15262691,0.56850890,0.44417014,0.90201070,1.51591151
6031,0,USCaliforniaKings,California,Kings,2020-07-18 19:10:01.110336,2020-04-03 00:00:00.000000,0.11556803,0.59682822,1.97536999,176,912,3021,62,271,994,0.04090227,0.17764207,0.65015589,0.43294003,0.90286228,1.51212852
6031,0,USCaliforniaKings,California,Kings,2020-07-18 19:10:01.110336,2020-04-04 00:00:00.000000,0.08002843,0.66857181,2.22483257,122,1022,3402,47,303,1138,0.03094649,0.19872947,0.74416858,0.41130873,0.90598929,1.51703089
6031,0,USCaliforniaKings,California,Kings,2020-07-18 19:10:01.110336,2020-04-05 00:00:00.000000,0.14250001,0.79505980,2.50985957,217,1215,3838,80,359,1297,0.05264388,0.23491902,0.84839108,0.39512365,0.90499515,1.53118339
6031,0,USCaliforniaKings,California,Kings,2020-07-18 19:10:01.110336,2020-04-06 00:00:00.000000,0.10635689,0.89189583,2.83652036,162,1364,4338,59,409,1508,0.03921668,0.26773614,0.98643550,0.37255605,0.89932796,1.57936757
6031,0,USCaliforniaKings,California,Kings,2020-07-18 19:10:01.110336,2020-04-07 00:00:00.000000,0.17631297,1.06910354,3.20751267,269,1635,4905,104,488,1742,0.06841578,0.31970430,1.13929069,0.36408855,0.90474787,1.66279341
6031,0,USCaliforniaKings,California,Kings,2020-07-18 19:10:01.110336,2020-04-08 00:00:00.000000,0.14319703,1.18539976,3.66307082,219,1812,5602,76,568,1969,0.04996136,0.37201022,1.28786601,0.36008093,0.91911827,1.67931795
6031,0,USCaliforniaKings,California,Kings,2020-07-18 19:10:01.110336,2020-04-09 00:00:00.000000,0.21864784,1.44436402,4.19684175,334,2209,6418,132,667,2222,0.08637757,0.43668925,1.45287956,0.36158023,0.92045852,1.74547436
6031,0,USCaliforniaKings,California,Kings,2020-07-18 19:10:01.110336,2020-04-10 00:00:00.000000,0.18471431,1.57200625,4.80519556,282,2404,7349,99,768,2545,0.06532965,0.50268389,1.66445174,0.36942359,0.92085087,1.83436127
6031,0,USCaliforniaKings,California,Kings,2020-07-18 19:10:01.110336,2020-04-11 00:00:00.000000,0.28277898,1.90064986,5.49430369,432,2906,8402,165,903,2925,0.10803390,0.59054906,1.91268967,0.38052022,0.92962826,1.88524253
6031,0,USCaliforniaKings,California,Kings,2020-07-18 19:10:01.110336,2020-04-12 00:00:00.000000,0.24070280,2.08206370,6.27302177,368,3184,9593,128,1024,3314,0.08406170,0.66995969,2.16699746,0.37608415,0.91060689,1.88951387
6031,0,USCaliforniaKings,California,Kings,2020-07-18 19:10:01.110336,2020-04-13 00:00:00.000000,0.39594419,2.44635341,7.09718790,605,3741,10854,206,1190,3750,0.13493259,0.77838963,2.45198265,0.36430619,0.90258636,1.78016059
6031,0,USCaliforniaKings,California,Kings,2020-07-18 19:10:01.110336,2020-04-14 00:00:00.000000,0.31452945,2.71669883,7.91587959,481,4154,12106,173,1382,4264,0.11364385,0.90374170,2.78840162,0.35729750,0.89946799,1.73063241
6031,0,USCaliforniaKings,California,Kings,2020-07-18 19:10:01.110336,2020-04-15 00:00:00.000000,0.49165332,3.17532725,9.03124109,751,4856,13812,254,1628,4836,0.16653242,1.06488583,3.16260830,0.34902172,0.89544331,1.70491636
6031,0,USCaliforniaKings,California,Kings,2020-07-18 19:10:01.110336,2020-04-16 00:00:00.000000,0.39694033,3.50104095,10.42939607,607,5354,15950,206,1846,5475,0.13475614,1.20764182,3.58000795,0.32824450,0.87974878,1.68749915
6031,0,USCaliforniaKings,California,Kings,2020-07-18 19:10:01.110336,2020-04-17 00:00:00.000000,0.59838417,4.01678729,12.02261025,915,6143,18387,313,2143,6188,0.20506808,1.40168563,4.04630935,0.33225156,0.88518289,1.78359126
6031,0,USCaliforniaKings,California,Kings,2020-07-18 19:10:01.110336,2020-04-18 00:00:00.000000,0.49655616,4.48582193,13.79666457,759,6860,21100,245,2390,6933,0.16060163,1.56271435,4.53343140,0.33945945,0.84847294,1.91077953
6031,0,USCaliforniaKings,California,Kings,2020-07-18 19:10:01.110336,2020-04-19 00:00:00.000000,0.72492177,5.24916268,15.94055448,1108,8028,24379,383,2667,7748,0.25103107,1.74411391,5.06608790,0.30955466,0.80942055,1.91654920
6031,0,USCaliforniaKings,California,Kings,2020-07-18 19:10:01.110336,2020-04-20 00:00:00.000000,0.58739485,5.63805421,17.84406338,898,8622,27290,305,2978,8644,0.19950931,1.94721685,5.65231788,0.29932725,0.79545335,1.92044395
6031,0,USCaliforniaKings,California,Kings,2020-07-18 19:10:01.110336,2020-04-21 00:00:00.000000,0.87652789,6.65929053,20.18995207,1340,10184,30878,447,3355,9710,0.29289216,2.19426174,6.34899324,0.29230931,0.78791333,1.91583829
6031,0,USCaliforniaKings,California,Kings,2020-07-18 19:10:01.110336,2020-04-22 00:00:00.000000,0.68551466,7.10966361,22.83768217,1048,10873,34927,377,3671,10902,0.24671911,2.40041872,7.12856043,0.28721650,0.77978027,1.91350582
6031,0,USCaliforniaKings,California,Kings,2020-07-18 19:10:01.110336,2020-04-23 00:00:00.000000,1.06141621,8.35035602,25.70421775,1623,12771,39312,540,4151,12280,0.35315054,2.71436434,8.02948856,0.28544924,0.76918317,1.91439476
6031,0,USCaliforniaKings,California,Kings,2020-07-18 19:10:01.110336,2020-04-24 00:00:00.000000,0.77580180,8.88061063,28.59782471,1186,13582,43737,463,4622,13733,0.30285469,3.02244302,8.97964170,0.27941375,0.74677782,1.86568329
6031,0,USCaliforniaKings,California,Kings,2020-07-18 19:10:01.110336,2020-04-25 00:00:00.000000,1.28095962,9.93610846,31.57413999,1959,15196,48289,660,5267,15358,0.43157455,3.44390549,10.04221007,0.26820601,0.71384414,1.86513474
6031,0,USCaliforniaKings,California,Kings,2020-07-18 19:10:01.110336,2020-04-26 00:00:00.000000,0.87736772,10.56691102,35.76335010,1341,16161,54696,552,5935,17087,0.36138662,3.88103161,11.17268479,0.25650167,0.69677072,1.86292921
6031,0,USCaliforniaKings,California,Kings,2020-07-18 19:10:01.110336,2020-04-27 00:00:00.000000,1.53740258,11.63385690,40.27734011,2351,17792,61600,785,6714,18940,0.51375913,4.39055543,12.38422801,0.24684995,0.67532113,1.80516185
6031,0,USCaliforniaKings,California,Kings,2020-07-18 19:10:01.110336,2020-04-28 00:00:00.000000,1.00647433,12.30502902,45.06903810,1539,18819,68928,646,7393,21071,0.42286905,4.83425913,13.77767233,0.23468721,0.66382494,1.75073616
6031,0,USCaliforniaKings,California,Kings,2020-07-18 19:10:01.110336,2020-04-29 00:00:00.000000,1.81346179,13.83204129,50.06927954,2773,21154,76575,931,8191,23438,0.60884581,5.35606700,15.32543610,0.23093557,0.64027796,1.72518507
6031,0,USCaliforniaKings,California,Kings,2020-07-18 19:10:01.110336,2020-04-30 00:00:00.000000,1.22543395,14.45406099,55.18641743,1874,22106,84402,748,9062,25960,0.48916816,5.92583029,16.97447875,0.22147478,0.60697190,1.68545830
6031,0,USCaliforniaKings,California,Kings,2020-07-18 19:10:01.110336,2020-05-01 00:00:00.000000,2.03311184,15.93236345,60.27835925,3109,24366,92189,1075,9884,28503,0.70305682,6.46267118,18.63723335,0.21123244,0.58483755,1.61082879
6031,0,USCaliforniaKings,California,Kings,2020-07-18 19:10:01.110336,2020-05-02 00:00:00.000000,1.36918535,16.64335425,65.01874264,2094,25454,99439,858,10929,30994,0.56151534,7.14596365,20.26590677,0.19721905,0.56513787,1.55206453
6031,0,USCaliforniaKings,California,Kings,2020-07-18 19:10:01.110336,2020-05-03 00:00:00.000000,2.30503113,17.88108089,69.88913914,3525,27347,106888,1213,11844,33481,0.79374186,7.74465299,21.89176196,0.18523258,0.55793315,1.51173911
6031,0,USCaliforniaKings,California,Kings,2020-07-18 19:10:01.110336,2020-05-04 00:00:00.000000,1.53623329,18.15255960,73.93068823,2349,27762,113069,977,12836,35997,0.63901200,8.39331004,23.53722298,0.17277164,0.55411496,1.43868687
6031,0,USCaliforniaKings,California,Kings,2020-07-18 19:10:01.110336,2020-05-05 00:00:00.000000,2.61979023,19.99287034,77.30974022,4006,30577,118237,1372,13919,39801,0.89730217,9.10116164,26.02448552,0.16686353,0.54162859,1.44302250
6031,0,USCaliforniaKings,California,Kings,2020-07-18 19:10:01.110336,2020-05-06 00:00:00.000000,1.65738912,21.25628995,79.96915493,2534,32509,122304,1099,15067,43679,0.71888871,9.85162283,28.55965341,0.16260796,0.52763097,1.43895438
6031,0,USCaliforniaKings,California,Kings,2020-07-18 19:10:01.110336,2020-05-07 00:00:00.000000,2.97008717,22.61536124,82.14625050,4542,34587,125634,1512,16191,47584,0.98920258,10.58679433,31.11306937,0.15855746,0.51599299,1.42613726
6031,0,USCaliforniaKings,California,Kings,2020-07-18 19:10:01.110336,2020-05-08 00:00:00.000000,1.76725618,23.56838793,84.16538256,2702,36045,128722,1225,17192,51275,0.80097625,11.24160700,33.52677600,0.15667715,0.49613442,1.42420565
6031,0,USCaliforniaKings,California,Kings,2020-07-18 19:10:01.110336,2020-05-09 00:00:00.000000,3.14484802,24.89944083,85.66647320,4809,38081,131018,1673,18185,54029,1.09398588,11.89043302,35.32751040,0.15279595,0.48849332,1.44915494
6031,0,USCaliforniaKings,California,Kings,2020-07-18 19:10:01.110336,2020-05-10 00:00:00.000000,1.88332065,25.52391370,87.53508975,2880,39036,133876,1352,18941,55669,0.88423242,12.38476215,36.39939214,0.14969622,0.48423825,1.49150985
6031,0,USCaliforniaKings,California,Kings,2020-07-18 19:10:01.110336,2020-05-11 00:00:00.000000,3.26983900,27.46953276,88.33884310,5000,42011,135105,1829,19814,56758,1.19593654,12.95569733,37.11155960,0.14946669,0.48135018,1.56253925
6031,0,USCaliforniaKings,California,Kings,2020-07-18 19:10:01.110336,2020-05-12 00:00:00.000000,2.05066510,28.20521053,88.50415547,3136,43137,135358,1482,20729,59375,0.96908219,13.55425220,38.82279178,0.14933799,0.47573853,1.61332294
6031,0,USCaliforniaKings,California,Kings,2020-07-18 19:10:01.110336,2020-05-13 00:00:00.000000,3.45240345,29.77794602,89.33282449,5280,45542,136625,1972,21635,60707,1.28991953,14.14660022,39.69376990,0.14705506,0.47012662,1.63728629
6031,0,USCaliforniaKings,California,Kings,2020-07-18 19:10:01.110336,2020-05-14 00:00:00.000000,2.18076366,30.11707831,91.12704675,3335,46061,139369,1617,22834,63147,1.05761060,14.93050237,41.28890189,0.14421054,0.46165389,1.65177626
6031,0,USCaliforniaKings,California,Kings,2020-07-18 19:10:01.110336,2020-05-15 00:00:00.000000,3.69839142,31.44663799,92.76206301,5656,48094,141870,2116,23999,65567,1.38371465,15.69187639,42.87169281,0.14204475,0.44868227,1.66549597
6031,0,USCaliforniaKings,California,Kings,2020-07-18 19:10:01.110336,2020-05-16 00:00:00.000000,2.33088196,32.04518711,92.45383724,3564,49009,141398,1759,24938,67541,1.15066003,16.30607986,44.16184897,0.13483904,0.44716613,1.73547001
6031,0,USCaliforniaKings,California,Kings,2020-07-18 19:10:01.110336,2020-05-17 00:00:00.000000,3.95970399,32.62692427,92.00562536,6055,49899,140713,2274,25576,69436,1.48741802,16.72303115,45.40138008,0.12942615,0.44410382,1.77016914
6031,0,USCaliforniaKings,California,Kings,2020-07-18 19:10:01.110336,2020-05-18 00:00:00.000000,2.46644027,32.97556067,91.46625143,3772,50432,139888,1907,26174,72217,1.24710102,17.11453327,47.21938049,0.12654760,0.44145961,1.80728971
6031,0,USCaliforniaKings,California,Kings,2020-07-18 19:10:01.110336,2020-05-19 00:00:00.000000,4.31412780,33.12119717,90.95105236,6598,50655,139100,2436,26733,74312,1.59315511,17.47944624,48.58961315,0.12567276,0.44319883,1.80889920
6031,0,USCaliforniaKings,California,Kings,2020-07-18 19:10:01.110336,2020-05-20 00:00:00.000000,2.61941719,33.35144165,90.55615862,4006,51007,138496,2057,27449,77082,1.34544773,17.94775138,50.40045771,0.12547341,0.44169934,1.80874024
6031,0,USCaliforniaKings,California,Kings,2020-07-18 19:10:01.110336,2020-05-21 00:00:00.000000,4.63244191,34.13184512,90.25170988,7084,52201,138030,2602,27940,79976,1.70192164,18.26877536,52.29270635,0.12377821,0.44024473,1.80642674
6031,0,USCaliforniaKings,California,Kings,2020-07-18 19:10:01.110336,2020-05-22 00:00:00.000000,2.78978959,34.22963079,90.15124535,4266,52350,137877,2212,28591,82737,1.44643272,18.69458472,54.09818130,0.11735719,0.42580996,1.80528038
6031,0,USCaliforniaKings,California,Kings,2020-07-18 19:10:01.110336,2020-05-23 00:00:00.000000,4.98245350,34.10911878,89.87953734,7620,52166,137461,2781,28999,85306,1.81876312,18.96127110,55.77757221,0.11302117,0.41846687,1.80319807
6031,0,USCaliforniaKings,California,Kings,2020-07-18 19:10:01.110336,2020-05-24 00:00:00.000000,2.96281901,33.54965155,89.46629152,4531,51310,136829,2375,29378,87553,1.55323436,19.20911615,57.24696700,0.11219446,0.41704061,1.78732149
6031,0,USCaliforniaKings,California,Kings,2020-07-18 19:10:01.110336,2020-05-25 00:00:00.000000,5.18168388,33.15839289,88.93210776,7924,50712,136012,2974,29721,90242,1.94473317,19.43330447,59.00495510,0.11123024,0.41794277,1.78047454
6031,0,USCaliforniaKings,California,Kings,2020-07-18 19:10:01.110336,2020-05-26 00:00:00.000000,3.10410648,32.90237454,88.73762515,4747,50320,135715,2547,29838,93087,1.66556743,19.50988525,60.86529198,0.11227946,0.41659517,1.75097417
6031,0,USCaliforniaKings,California,Kings,2020-07-18 19:10:01.110336,2020-05-27 00:00:00.000000,5.41027489,32.51968273,89.10803077,8274,49735,136281,3156,29836,95346,2.06414302,19.50834587,62.34219583,0.11324446,0.40476741,1.77734207
6031,0,USCaliforniaKings,California,Kings,2020-07-18 19:10:01.110336,2020-05-28 00:00:00.000000,3.25646337,32.09461711,88.82917239,4980,49085,135855,2719,29701,98181,1.77832423,19.42007425,64.19585401,0.11356407,0.39807690,1.76866904
6031,0,USCaliforniaKings,California,Kings,2020-07-18 19:10:01.110336,2020-05-29 00:00:00.000000,5.72702937,32.13766576,88.40334460,8758,49151,135204,3342,29799,100897,2.18555925,19.48462679,65.97222948,0.11473328,0.39414541,1.75997579
6031,0,USCaliforniaKings,California,Kings,2020-07-18 19:10:01.110336,2020-05-30 00:00:00.000000,3.43941115,31.02141926,87.95747453,5260,47444,134522,2894,30315,103360,1.89265315,19.82198039,67.58268633,0.11528208,0.38872632,1.75297078
6031,0,USCaliforniaKings,California,Kings,2020-07-18 19:10:01.110336,2020-05-31 00:00:00.000000,5.89683648,30.84581903,87.49419960,9018,47175,133813,3535,30559,104365,2.31141367,19.98132045,68.23941487,0.11461036,0.39192275,1.82347788
6031,0,USCaliforniaKings,California,Kings,2020-07-18 19:10:01.110336,2020-06-01 00:00:00.000000,3.65753469,29.82968013,87.01600032,5593,45621,133082,3073,30764,105160,2.00951182,20.11520920,68.75924768,0.11374121,0.38490233,1.82485743
6031,0,USCaliforniaKings,California,Kings,2020-07-18 19:10:01.110336,2020-06-02 00:00:00.000000,5.87480199,30.26821022,86.56270066,8984,46292,132388,3604,30934,106487,2.35707790,20.22624402,69.62677710,0.11346055,0.38416363,1.79217076
6031,0,USCaliforniaKings,California,Kings,2020-07-18 19:10:01.110336,2020-06-03 00:00:00.000000,3.82509407,29.47034091,87.04237452,5850,45071,133122,3259,31050,108111,2.13103191,20.30265066,70.68885810,0.11313045,0.38282849,1.74010865
6031,0,USCaliforniaKings,California,Kings,2020-07-18 19:10:01.110336,2020-06-04 00:00:00.000000,6.11329903,29.76782632,87.41136919,9349,45526,133686,3677,31041,109570,2.40425893,20.29644826,71.64296444,0.10886079,0.37717424,1.74084108
6031,0,USCaliforniaKings,California,Kings,2020-07-18 19:10:01.110336,2020-06-05 00:00:00.000000,4.08187416,28.60112245,87.69690314,6242,43742,134123,3458,31009,110869,2.26130248,20.27574302,72.49222979,0.10963797,0.37931968,1.73622950
6031,0,USCaliforniaKings,California,Kings,2020-07-18 19:10:01.110336,2020-06-06 00:00:00.000000,6.37228154,28.38599153,87.87963326,9745,43413,134403,3773,31128,112013,2.46714859,20.35344194,73.23988275,0.09643264,0.38205037,1.62981312
6031,0,USCaliforniaKings,California,Kings,2020-07-18 19:10:01.110336,2020-06-07 00:00:00.000000,4.20913574,27.81369356,87.85275091,6437,42538,134361,3673,30722,113006,2.40220972,20.08787840,73.88915218,0.09299108,0.37669855,1.58914268
6031,0,USCaliforniaKings,California,Kings,2020-07-18 19:10:01.110336,2020-06-08 00:00:00.000000,6.64137397,27.84790864,87.47904575,10157,42590,133790,3875,30426,113854,2.53399112,19.89467771,74.44367836,0.09129850,0.37815694,1.59167931
6031,0,USCaliforniaKings,California,Kings,2020-07-18 19:10:01.110336,2020-06-09 00:00:00.000000,4.41857831,27.08026128,87.07455365,6757,41416,133171,3860,30513,115066,2.52427466,19.95097681,75.23625322,0.09037352,0.37759084,1.59112047
6031,0,USCaliforniaKings,California,Kings,2020-07-18 19:10:01.110336,2020-06-10 00:00:00.000000,6.89422217,27.64681146,86.64417949,10544,42283,132513,4024,30406,116204,2.63145473,19.88149611,75.98032915,0.09018531,0.37543836,1.59126002
6031,0,USCaliforniaKings,California,Kings,2020-07-18 19:10:01.110336,2020-06-11 00:00:00.000000,4.39885479,27.13726024,86.25727499,6727,41503,131921,3964,30217,117193,2.59232808,19.75763806,76.62694999,0.08993694,0.37738764,1.59647078
6031,0,USCaliforniaKings,California,Kings,2020-07-18 19:10:01.110336,2020-06-12 00:00:00.000000,7.09189430,26.67778339,86.59396582,10846,40801,132436,4171,29907,117770,2.72727519,19.55526125,77.00452337,0.08990045,0.37794332,1.60938377
6031,0,USCaliforniaKings,California,Kings,2020-07-18 19:10:01.110336,2020-06-13 00:00:00.000000,4.35931422,25.79591351,86.86048852,6667,39452,132844,4075,29850,118917,2.66479445,19.51753198,77.75455914,0.09007992,0.36810921,1.62908241
6031,0,USCaliforniaKings,California,Kings,2020-07-18 19:10:01.110336,2020-06-14 00:00:00.000000,7.28314870,25.25591478,87.09986507,11138,38626,133210,4303,29748,119667,2.81400280,19.45085529,78.24467078,0.09038587,0.36815172,1.64873321
6031,0,USCaliforniaKings,California,Kings,2020-07-18 19:10:01.110336,2020-06-15 00:00:00.000000,4.38087026,24.38731341,87.37292997,6700,37297,133628,4228,29734,120770,2.76471062,19.44194245,78.96605326,0.08941092,0.36127660,1.69158504
6031,0,USCaliforniaKings,California,Kings,2020-07-18 19:10:01.110336,2020-06-16 00:00:00.000000,7.28786455,23.73776082,87.61635196,11146,36304,134000,4440,29873,121899,2.90320501,19.53281033,79.70398968,0.08562654,0.35568151,1.69705493
6031,0,USCaliforniaKings,California,Kings,2020-07-18 19:10:01.110336,2020-06-17 00:00:00.000000,4.49147912,22.97865139,87.82307205,6869,35143,134316,4381,29688,122883,2.86465745,19.41195421,80.34731046,0.08555409,0.34748318,1.67557494
6031,0,USCaliforniaKings,California,Kings,2020-07-18 19:10:01.110336,2020-06-18 00:00:00.000000,7.26419115,22.61653125,87.91626063,11109,34589,134459,4571,29225,123770,2.98908802,19.10921637,80.92749299,0.07982477,0.34509942,1.66964386
6031,0,USCaliforniaKings,California,Kings,2020-07-18 19:10:01.110336,2020-06-19 00:00:00.000000,4.61049587,22.08050987,87.86146453,7051,33769,134375,4485,28875,124214,2.93310280,18.88037636,81.21758519,0.07963941,0.34145445,1.68488885
6031,0,USCaliforniaKings,California,Kings,2020-07-18 19:10:01.110336,2020-06-20 00:00:00.000000,7.13962376,21.87544384,87.79307941,10919,33456,134270,4681,28796,124425,3.06072171,18.82888259,81.35552529,0.08138527,0.33783676,1.82052596
6031,0,USCaliforniaKings,California,Kings,2020-07-18 19:10:01.110336,2020-06-21 00:00:00.000000,4.72627293,21.29565223,87.46500699,7228,32569,133768,4574,28663,124537,2.99115153,18.74135942,81.42883896,0.07776584,0.34287274,1.86876319
6031,0,USCaliforniaKings,California,Kings,2020-07-18 19:10:01.110336,2020-06-22 00:00:00.000000,7.05501058,21.01463858,87.09673867,10789,32139,133205,4776,28270,124564,3.12323917,18.48448570,81.44680846,0.07516395,0.33612424,1.89255250
6031,0,USCaliforniaKings,California,Kings,2020-07-18 19:10:01.110336,2020-06-23 00:00:00.000000,4.84273690,20.79044172,86.72357526,7406,31796,132635,4659,27808,124559,3.04634078,18.18265484,81.44335132,0.07357540,0.33082728,1.90243009
6031,0,USCaliforniaKings,California,Kings,2020-07-18 19:10:01.110336,2020-06-24 00:00:00.000000,7.08759370,20.65609570,86.34956806,10839,31591,132063,4870,27417,124566,3.18482437,17.92708479,81.44807907,0.07267673,0.32926980,1.91182845
6031,0,USCaliforniaKings,California,Kings,2020-07-18 19:10:01.110336,2020-06-25 00:00:00.000000,4.95811493,20.61703758,85.97483870,7582,31531,131489,4735,27236,124857,3.09633771,17.80886634,81.63838064,0.06940113,0.33090265,1.92149107
6031,0,USCaliforniaKings,California,Kings,2020-07-18 19:10:01.110336,2020-06-26 00:00:00.000000,7.09836869,20.28853664,85.59950316,10856,31029,130915,4962,26986,125103,3.24479557,17.64541840,81.79890724,0.06899321,0.33182915,1.91140722
6031,0,USCaliforniaKings,California,Kings,2020-07-18 19:10:01.110336,2020-06-27 00:00:00.000000,5.05009734,19.89813095,85.36490402,7723,30432,130557,4786,26760,124980,3.12987801,17.49708133,81.71893288,0.06844270,0.33740386,1.90109584
6031,0,USCaliforniaKings,California,Kings,2020-07-18 19:10:01.110336,2020-06-28 00:00:00.000000,7.09596861,19.70518595,85.30067439,10852,30137,130458,5048,26870,124810,3.30103251,17.56935370,81.60736518,0.06352629,0.34344021,1.89347999
6031,0,USCaliforniaKings,California,Kings,2020-07-18 19:10:01.110336,2020-06-29 00:00:00.000000,5.08644327,19.34140170,85.20591174,7779,29580,130313,4797,26665,124619,3.13717415,17.43495360,81.48237956,0.06621328,0.34524757,1.89196903
6031,0,USCaliforniaKings,California,Kings,2020-07-18 19:10:01.110336,2020-06-30 00:00:00.000000,7.15408393,19.36377865,84.95433192,10941,29614,129929,5133,26554,124408,3.35678136,17.36262125,81.34456375,0.06887085,0.34515141,1.90307783
6031,0,USCaliforniaKings,California,Kings,2020-07-18 19:10:01.110336,2020-07-01 00:00:00.000000,5.12444711,18.93910863,84.63866304,7837,28965,129446,4869,26303,124178,3.18396955,17.19840401,81.19453685,0.06945717,0.34408772,1.90354146
6031,0,USCaliforniaKings,California,Kings,2020-07-18 19:10:01.110336,2020-07-02 00:00:00.000000,7.26541927,19.23194658,84.32029666,11111,29413,128959,5237,26201,123931,3.42450372,17.13181009,81.03294917,0.06852703,0.34838199,1.93261175
6031,0,USCaliforniaKings,California,Kings,2020-07-18 19:10:01.110336,2020-07-03 00:00:00.000000,5.18583524,18.76849845,83.99963669,7931,28704,128469,4959,26302,123668,3.24263212,17.19761068,80.86046976,0.06675636,0.35973753,1.99960538
6031,0,USCaliforniaKings,California,Kings,2020-07-18 19:10:01.110336,2020-07-04 00:00:00.000000,7.41366682,19.17613640,83.67705478,11338,29327,127975,5348,26333,123388,3.49679784,17.21813586,80.67777403,0.06177836,0.36061703,2.10426893
6031,0,USCaliforniaKings,California,Kings,2020-07-18 19:10:01.110336,2020-07-05 00:00:00.000000,5.26029730,19.01288246,83.35289315,8045,29078,127479,5053,26343,123094,3.30446400,17.22487573,80.48553389,0.06093599,0.36364854,2.24168958
6031,0,USCaliforniaKings,California,Kings,2020-07-18 19:10:01.110336,2020-07-06 00:00:00.000000,7.55221345,19.04864747,83.02746552,11550,29133,126982,5460,26265,122786,3.57064504,17.17399224,80.28441026,0.05990974,0.35989037,2.37620595
6031,0,USCaliforniaKings,California,Kings,2020-07-18 19:10:01.110336,2020-07-07 00:00:00.000000,5.35337719,18.82744555,82.70105626,8187,28794,126482,5150,26097,122466,3.36772735,17.06371527,80.07504728,0.05842551,0.36683850,2.46547144
6031,0,USCaliforniaKings,California,Kings,2020-07-18 19:10:01.110336,2020-07-08 00:00:00.000000,7.64579316,18.80318549,82.37391982,11693,28757,125982,5573,26302,122178,3.64431870,17.19799712,79.88623157,0.05751328,0.36600160,2.50947178
6031,0,USCaliforniaKings,California,Kings,2020-07-18 19:10:01.110336,2020-07-09 00:00:00.000000,5.54086900,18.61210272,82.04628188,8474,28465,125481,5248,25989,121879,3.43174395,16.99309153,79.69110926,0.05698715,0.36572238,2.52793788
6031,0,USCaliforniaKings,California,Kings,2020-07-18 19:10:01.110336,2020-07-10 00:00:00.000000,7.43492833,18.73196155,81.71834204,11370,28648,124980,5684,26309,121568,3.71703400,17.20256482,79.48768722,0.05669569,0.36564938,2.53515610
6031,0,USCaliforniaKings,California,Kings,2020-07-18 19:10:01.110336,2020-07-11 00:00:00.000000,5.74982377,18.39911563,81.39027708,8793,28139,124478,5347,26004,121245,3.49617610,17.00330837,79.27659490,0.05653789,0.36563718,2.53789861
6031,0,USCaliforniaKings,California,Kings,2020-07-18 19:10:01.110336,2020-07-12 00:00:00.000000,7.26254867,18.65530714,81.06224407,11107,28531,123976,5796,26075,120911,3.79024668,17.04928055,79.05842682,0.05645352,0.36563998,2.53892935
6031,0,USCaliforniaKings,California,Kings,2020-07-18 19:10:01.110336,2020-07-13 00:00:00.000000,5.92170412,18.32922852,80.73438293,9056,28032,123475,5445,25922,120568,3.56081697,16.94927583,78.83374279,0.05640872,0.36564498,2.53931514
6031,0,USCaliforniaKings,California,Kings,2020-07-18 19:10:01.110336,2020-07-14 00:00:00.000000,7.11962595,18.50770526,80.40681859,10888,28305,122974,5909,26172,120215,3.86383015,17.11304861,78.60306851,0.05638501,0.36564917,2.53945932
6031,0,USCaliforniaKings,California,Kings,2020-07-18 19:10:01.110336,2020-07-15 00:00:00.000000,6.07071585,18.08577974,80.07966270,9284,27660,122473,5546,25927,119854,3.62640243,16.95284923,78.36689674,0.05637249,0.36565213,2.53951317
6031,0,USCaliforniaKings,California,Kings,2020-07-18 19:10:01.110336,2020-07-16 00:00:00.000000,6.99840035,18.28646235,79.75301512,10703,27967,121974,6022,26166,119485,3.93760123,17.10868113,78.12568855,0.05636589,0.36565412,2.53953327
6031,0,USCaliforniaKings,California,Kings,2020-07-18 19:10:01.110336,2020-07-17 00:00:00.000000,6.20711572,17.84700405,79.42696519,9493,27295,121475,5654,25900,119109,3.69721391,16.93536930,77.87987481,0.05636240,0.36565541,2.53954078
6031,0,USCaliforniaKings,California,Kings,2020-07-18 19:10:01.110336,2020-07-18 00:00:00.000000,6.89279546,18.02778226,79.10159280,10541,27571,120977,6135,25968,118727,4.01143374,16.97943863,77.62985769,0.05636056,0.36565624,2.53954358
6031,0,USCaliforniaKings,California,Kings,2020-07-18 19:10:01.110336,2020-07-19 00:00:00.000000,6.33597764,17.75678311,78.77696936,9690,27157,120481,5763,25645,118338,3.76816014,16.76862604,77.37601229,0.05635960,0.36565677,2.53954462
6031,0,USCaliforniaKings,California,Kings,2020-07-18 19:10:01.110336,2020-07-20 00:00:00.000000,6.79991620,17.94237773,78.45315869,10399,27441,119986,6247,25579,117945,4.08522983,16.72526116,77.11868812,0.05635909,0.36565710,2.53954501
6031,0,USCaliforniaKings,California,Kings,2020-07-18 19:10:01.110336,2020-07-21 00:00:00.000000,6.42908085,17.38734436,78.13021778,9832,26592,119492,5871,25514,117546,3.83916245,16.68276705,76.85821071,0.05635882,0.36565732,2.53954516
6031,0,USCaliforniaKings,California,Kings,2020-07-18 19:10:01.110336,2020-07-22 00:00:00.000000,6.71830828,17.85279723,77.80819748,10274,27304,118999,6360,25452,117144,4.15890492,16.64242937,76.59488305,0.05635868,0.36565745,2.53954521
6031,0,USCaliforniaKings,California,Kings,2020-07-18 19:10:01.110336,2020-07-23 00:00:00.000000,6.39139881,17.32301067,77.48714313,9775,26493,118508,5980,25403,116737,3.91014404,16.61026278,76.32898707,0.05635860,0.36565754,2.53954523
6031,0,USCaliforniaKings,California,Kings,2020-07-18 19:10:01.110336,2020-07-24 00:00:00.000000,6.64172837,17.53896512,77.16709510,10157,26824,118019,6473,25355,116327,4.23238046,16.57842178,76.06078500,0.05635856,0.36565759,2.53954524
6031,0,USCaliforniaKings,California,Kings,2020-07-18 19:10:01.110336,2020-07-25 00:00:00.000000,6.35206830,17.11219020,76.84808932,9714,26171,117531,6088,25306,115914,3.98102997,16.54687280,75.79052068,0.05635854,0.36565763,2.53954524
6031,0,USCaliforniaKings,California,Kings,2020-07-18 19:10:01.110336,2020-07-26 00:00:00.000000,6.56858353,17.37998684,76.53015772,10045,26580,117045,6584,25258,115497,4.30558048,16.51558660,75.51842082,0.05635853,0.36565765,2.53954524
6031,0,USCaliforniaKings,California,Kings,2020-07-18 19:10:01.110336,2020-07-27 00:00:00.000000,6.31122182,16.89936832,76.21332861,9652,25845,116560,6196,25211,115079,4.05174669,16.48453772,75.24469616,0.05635852,0.36565766,2.53954524
6031,0,USCaliforniaKings,California,Kings,2020-07-18 19:10:01.110336,2020-07-28 00:00:00.000000,6.52538464,17.13782593,75.89762710,9979,26210,116077,6696,25164,114658,4.37842999,16.45370394,74.96954259,0.05635852,0.36565767,2.53954524
6031,0,USCaliforniaKings,California,Kings,2020-07-18 19:10:01.110336,2020-07-29 00:00:00.000000,6.26898397,16.79519295,75.58307536,9587,25686,115596,6304,25117,114235,4.12222150,16.42306591,74.69314216,0.05635852,0.36565768,2.53954524
6031,0,USCaliforniaKings,California,Kings,2020-07-18 19:10:01.110336,2020-07-30 00:00:00.000000,6.52435658,16.97440116,75.26969295,9978,25960,115117,6807,25070,113811,4.45085432,16.39260672,74.41566410,0.05635852,0.36565768,2.53954524
