FIPS,HR_UID,nameid,province,region,analysisTime,dates,pointprevalence_025,pointprevalence_50,pointprevalence_975,pointinfections_025,pointinfections_50,pointinfections_975,pointinfectious_025,pointinfectious_50,pointinfectious_975,pointinfectiousprevalence_05,pointinfectiousprevalence_50,pointinfectiousprevalence_95,infectrate_025,infectrate_50,infectrate_975
28153,0,USMississippiWayne,Mississippi,Wayne,2020-07-18 09:52:53.774006,2020-03-09 00:00:00.000000,0.00920348,0.03947479,0.19816186,1,7,39,0,2,19,0.00032706,0.01222163,0.09569051,0.50699769,0.69496915,0.99800998
28153,0,USMississippiWayne,Mississippi,Wayne,2020-07-18 09:52:53.774006,2020-03-10 00:00:00.000000,0.01148710,0.03797417,0.17574840,2,7,35,1,2,13,0.00523561,0.01326252,0.06819270,0.50696974,0.69564588,0.99800995
28153,0,USMississippiWayne,Mississippi,Wayne,2020-07-18 09:52:53.774006,2020-03-11 00:00:00.000000,0.00993621,0.03446703,0.14921824,2,6,30,0,2,14,0.00222364,0.01101669,0.07310350,0.50692684,0.69667078,0.99800995
28153,0,USMississippiWayne,Mississippi,Wayne,2020-07-18 09:52:53.774006,2020-03-12 00:00:00.000000,0.01284803,0.03826342,0.14657154,2,7,29,1,2,12,0.00526648,0.01233051,0.06133072,0.50686109,0.69731954,0.99801013
28153,0,USMississippiWayne,Mississippi,Wayne,2020-07-18 09:52:53.774006,2020-03-13 00:00:00.000000,0.01043662,0.03418245,0.13911697,2,6,28,0,2,12,0.00271015,0.01037222,0.06279208,0.50676061,0.69713477,0.99801121
28153,0,USMississippiWayne,Mississippi,Wayne,2020-07-18 09:52:53.774006,2020-03-14 00:00:00.000000,0.01068078,0.03677165,0.14746720,2,7,29,0,2,11,0.00495232,0.01244153,0.05641760,0.50660773,0.69826821,0.99801604
28153,0,USMississippiWayne,Mississippi,Wayne,2020-07-18 09:52:53.774006,2020-03-15 00:00:00.000000,0.00892961,0.03397589,0.14350430,1,6,28,0,2,11,0.00276406,0.01061943,0.05939167,0.50637679,0.69981010,0.99803570
28153,0,USMississippiWayne,Mississippi,Wayne,2020-07-18 09:52:53.774006,2020-03-16 00:00:00.000000,0.00884577,0.03623173,0.14693765,1,7,29,0,2,11,0.00437516,0.01186932,0.05723574,0.50603199,0.70578320,0.99811231
28153,0,USMississippiWayne,Mississippi,Wayne,2020-07-18 09:52:53.774006,2020-03-17 00:00:00.000000,0.00733623,0.03288857,0.13860762,1,6,27,0,2,11,0.00303020,0.01091531,0.05887469,0.50552720,0.70685328,0.99840301
28153,0,USMississippiWayne,Mississippi,Wayne,2020-07-18 09:52:53.774006,2020-03-18 00:00:00.000000,0.00739514,0.03531630,0.15180328,1,7,30,0,2,11,0.00362263,0.01199137,0.05714101,0.50481323,0.70725549,0.98412184
28153,0,USMississippiWayne,Mississippi,Wayne,2020-07-18 09:52:53.774006,2020-03-19 00:00:00.000000,0.00668067,0.03194007,0.14441994,1,6,29,0,2,12,0.00290607,0.01138839,0.06126433,0.50386661,0.71374295,0.98590159
28153,0,USMississippiWayne,Mississippi,Wayne,2020-07-18 09:52:53.774006,2020-03-20 00:00:00.000000,0.00623777,0.03237860,0.15678831,1,6,31,0,2,12,0.00310376,0.01200694,0.06085796,0.50327387,0.72488366,1.01035879
28153,0,USMississippiWayne,Mississippi,Wayne,2020-07-18 09:52:53.774006,2020-03-21 00:00:00.000000,0.00549999,0.02791696,0.15561527,1,5,31,0,2,12,0.00256410,0.01139753,0.06352378,0.50380885,0.76665975,1.08641242
28153,0,USMississippiWayne,Mississippi,Wayne,2020-07-18 09:52:53.774006,2020-03-22 00:00:00.000000,0.00522682,0.03022477,0.16237366,1,6,32,0,2,12,0.00261733,0.01159428,0.06351042,0.49957677,0.77677484,1.13168188
28153,0,USMississippiWayne,Mississippi,Wayne,2020-07-18 09:52:53.774006,2020-03-23 00:00:00.000000,0.00480847,0.02838754,0.17027961,0,5,34,0,2,13,0.00215854,0.01085417,0.06826480,0.49945166,0.81293601,1.09228551
28153,0,USMississippiWayne,Mississippi,Wayne,2020-07-18 09:52:53.774006,2020-03-24 00:00:00.000000,0.00460761,0.03326383,0.17940958,0,6,36,0,2,13,0.00222893,0.01173924,0.06835182,0.48317840,0.84444832,1.07900604
28153,0,USMississippiWayne,Mississippi,Wayne,2020-07-18 09:52:53.774006,2020-03-25 00:00:00.000000,0.00410440,0.02950034,0.18883530,0,5,38,0,2,14,0.00185395,0.01081855,0.07256638,0.45954875,0.84691413,1.09366698
28153,0,USMississippiWayne,Mississippi,Wayne,2020-07-18 09:52:53.774006,2020-03-26 00:00:00.000000,0.00398205,0.03524632,0.19851216,0,7,40,0,2,15,0.00191852,0.01211293,0.07455452,0.45166438,0.84866553,1.09854659
28153,0,USMississippiWayne,Mississippi,Wayne,2020-07-18 09:52:53.774006,2020-03-27 00:00:00.000000,0.00351605,0.03114955,0.20840463,0,6,42,0,2,17,0.00160821,0.01107617,0.08488846,0.44610038,0.85646266,1.12807194
28153,0,USMississippiWayne,Mississippi,Wayne,2020-07-18 09:52:53.774006,2020-03-28 00:00:00.000000,0.00341530,0.03539903,0.21849559,0,7,44,0,2,16,0.00164496,0.01233666,0.08201894,0.44407995,0.84701980,1.15328380
28153,0,USMississippiWayne,Mississippi,Wayne,2020-07-18 09:52:53.774006,2020-03-29 00:00:00.000000,0.00300961,0.03335857,0.22877959,0,6,46,0,2,19,0.00138115,0.01134397,0.09434374,0.44201980,0.85612108,1.22375710
28153,0,USMississippiWayne,Mississippi,Wayne,2020-07-18 09:52:53.774006,2020-03-30 00:00:00.000000,0.00288626,0.03558181,0.23910995,0,7,48,0,2,18,0.00139714,0.01185744,0.09366267,0.44034245,0.88815996,1.24203499
28153,0,USMississippiWayne,Mississippi,Wayne,2020-07-18 09:52:53.774006,2020-03-31 00:00:00.000000,0.00265253,0.03298926,0.24985938,0,6,50,0,2,20,0.00118746,0.01126026,0.10115177,0.43955556,0.87712918,1.24853305
28153,0,USMississippiWayne,Mississippi,Wayne,2020-07-18 09:52:53.774006,2020-04-01 00:00:00.000000,0.00244833,0.03628845,0.26056584,0,7,52,0,2,20,0.00124726,0.01153321,0.10384394,0.43974396,0.88027154,1.25761297
28153,0,USMississippiWayne,Mississippi,Wayne,2020-07-18 09:52:53.774006,2020-04-02 00:00:00.000000,0.00228799,0.03484500,0.27129888,0,7,54,0,2,22,0.00106458,0.01094787,0.11255249,0.44093934,0.87784312,1.24538887
28153,0,USMississippiWayne,Mississippi,Wayne,2020-07-18 09:52:53.774006,2020-04-03 00:00:00.000000,0.00216075,0.03680625,0.28200909,0,7,56,0,2,22,0.00107825,0.01162655,0.11260713,0.44316823,0.87646446,1.23263416
28153,0,USMississippiWayne,Mississippi,Wayne,2020-07-18 09:52:53.774006,2020-04-04 00:00:00.000000,0.00210249,0.03575593,0.29268781,0,7,59,0,2,25,0.00095685,0.01078020,0.12419235,0.44380362,0.89020699,1.26207995
28153,0,USMississippiWayne,Mississippi,Wayne,2020-07-18 09:52:53.774006,2020-04-05 00:00:00.000000,0.00206533,0.03816686,0.30316301,0,7,61,0,2,25,0.00096821,0.01212835,0.12859236,0.44645063,0.90770301,1.29602392
28153,0,USMississippiWayne,Mississippi,Wayne,2020-07-18 09:52:53.774006,2020-04-06 00:00:00.000000,0.00204360,0.03581531,0.31344748,0,7,63,0,2,27,0.00091733,0.01054932,0.13672802,0.45957576,0.91092999,1.30728965
28153,0,USMississippiWayne,Mississippi,Wayne,2020-07-18 09:52:53.774006,2020-04-07 00:00:00.000000,0.00203304,0.04130909,0.30173683,0,8,60,0,2,27,0.00092445,0.01224254,0.13853737,0.48518742,0.92795792,1.31488729
28153,0,USMississippiWayne,Mississippi,Wayne,2020-07-18 09:52:53.774006,2020-04-08 00:00:00.000000,0.00203115,0.03778754,0.33373245,0,7,67,0,2,29,0.00085036,0.01088354,0.14862827,0.50669269,0.94509858,1.35633140
28153,0,USMississippiWayne,Mississippi,Wayne,2020-07-18 09:52:53.774006,2020-04-09 00:00:00.000000,0.00203683,0.04333059,0.31545536,0,8,63,0,2,30,0.00092153,0.01229413,0.15173923,0.51467252,0.98347467,1.36266857
28153,0,USMississippiWayne,Mississippi,Wayne,2020-07-18 09:52:53.774006,2020-04-10 00:00:00.000000,0.00204976,0.04102474,0.34689509,0,8,70,0,2,34,0.00081313,0.01141087,0.16876070,0.51632059,0.97478943,1.36994012
28153,0,USMississippiWayne,Mississippi,Wayne,2020-07-18 09:52:53.774006,2020-04-11 00:00:00.000000,0.00206979,0.04485020,0.34806207,0,9,70,0,2,32,0.00093252,0.01335113,0.16255906,0.52462143,0.98217913,1.37619582
28153,0,USMississippiWayne,Mississippi,Wayne,2020-07-18 09:52:53.774006,2020-04-12 00:00:00.000000,0.00209660,0.04388475,0.36883793,0,8,74,0,2,36,0.00080965,0.01213236,0.17855932,0.53682272,0.98514596,1.38632482
28153,0,USMississippiWayne,Mississippi,Wayne,2020-07-18 09:52:53.774006,2020-04-13 00:00:00.000000,0.00212989,0.04845455,0.39283329,0,9,79,0,2,36,0.00095657,0.01453234,0.17981641,0.54448772,1.00321817,1.40759402
28153,0,USMississippiWayne,Mississippi,Wayne,2020-07-18 09:52:53.774006,2020-04-14 00:00:00.000000,0.00217010,0.04678059,0.42652601,0,9,86,0,2,38,0.00083736,0.01260100,0.19106354,0.54975328,1.01267719,1.43072432
28153,0,USMississippiWayne,Mississippi,Wayne,2020-07-18 09:52:53.774006,2020-04-15 00:00:00.000000,0.00221991,0.05347594,0.45255530,0,10,91,0,3,40,0.00099296,0.01624576,0.20116506,0.56691460,1.01961496,1.45612943
28153,0,USMississippiWayne,Mississippi,Wayne,2020-07-18 09:52:53.774006,2020-04-16 00:00:00.000000,0.00228647,0.05090468,0.50355819,0,10,101,0,2,42,0.00089284,0.01434067,0.20835193,0.59430761,1.04633070,1.49052737
28153,0,USMississippiWayne,Mississippi,Wayne,2020-07-18 09:52:53.774006,2020-04-17 00:00:00.000000,0.00238417,0.05538453,0.52221328,0,11,105,0,3,43,0.00104393,0.01886970,0.21613926,0.61904181,1.07027189,1.53866613
28153,0,USMississippiWayne,Mississippi,Wayne,2020-07-18 09:52:53.774006,2020-04-18 00:00:00.000000,0.00253347,0.05353588,0.60539655,0,10,122,0,2,47,0.00106148,0.01479705,0.23602904,0.64579215,1.08950750,1.55972981
28153,0,USMississippiWayne,Mississippi,Wayne,2020-07-18 09:52:53.774006,2020-04-19 00:00:00.000000,0.00275113,0.05821722,0.63464303,0,11,128,0,4,52,0.00109516,0.02145239,0.26231161,0.66486953,1.13876120,1.67590341
28153,0,USMississippiWayne,Mississippi,Wayne,2020-07-18 09:52:53.774006,2020-04-20 00:00:00.000000,0.00304097,0.05762192,0.75280356,0,11,151,0,3,58,0.00118858,0.01673503,0.29231837,0.67351937,1.18614055,1.70019556
28153,0,USMississippiWayne,Mississippi,Wayne,2020-07-18 09:52:53.774006,2020-04-21 00:00:00.000000,0.00339836,0.07148926,0.78066432,0,14,157,0,4,65,0.00131975,0.02300996,0.32552227,0.69050092,1.19750595,1.76040358
28153,0,USMississippiWayne,Mississippi,Wayne,2020-07-18 09:52:53.774006,2020-04-22 00:00:00.000000,0.00381947,0.06297157,0.96316511,0,12,194,0,3,72,0.00147939,0.01906147,0.36101101,0.70171895,1.20808715,1.86654294
28153,0,USMississippiWayne,Mississippi,Wayne,2020-07-18 09:52:53.774006,2020-04-23 00:00:00.000000,0.00430581,0.08163181,0.95970766,0,16,193,0,4,80,0.00166561,0.02472519,0.39651425,0.70340806,1.22815162,1.88286204
28153,0,USMississippiWayne,Mississippi,Wayne,2020-07-18 09:52:53.774006,2020-04-24 00:00:00.000000,0.00486637,0.08223909,1.21992853,0,16,246,0,4,87,0.00188728,0.02116812,0.43564532,0.71887241,1.24935046,1.88397815
28153,0,USMississippiWayne,Mississippi,Wayne,2020-07-18 09:52:53.774006,2020-04-25 00:00:00.000000,0.00552362,0.09428319,1.18045526,1,19,238,0,5,96,0.00214135,0.02765644,0.47939831,0.71905739,1.27338505,1.95843873
28153,0,USMississippiWayne,Mississippi,Wayne,2020-07-18 09:52:53.774006,2020-04-26 00:00:00.000000,0.00632728,0.09657971,1.49021378,1,19,300,0,5,106,0.00243418,0.02533974,0.52946734,0.70469634,1.31595363,1.99633410
28153,0,USMississippiWayne,Mississippi,Wayne,2020-07-18 09:52:53.774006,2020-04-27 00:00:00.000000,0.00736432,0.10355044,1.52911969,1,20,308,0,6,118,0.00277960,0.02994507,0.58949517,0.70416071,1.36803953,2.03662177
28153,0,USMississippiWayne,Mississippi,Wayne,2020-07-18 09:52:53.774006,2020-04-28 00:00:00.000000,0.00873056,0.11071111,1.93849224,1,22,391,0,5,134,0.00320762,0.02939113,0.66649524,0.69915247,1.42874289,2.07286401
28153,0,USMississippiWayne,Mississippi,Wayne,2020-07-18 09:52:53.774006,2020-04-29 00:00:00.000000,0.01022606,0.13349070,2.17535036,2,26,439,0,7,151,0.00376350,0.03545171,0.74920114,0.70402576,1.49887622,2.10073258
28153,0,USMississippiWayne,Mississippi,Wayne,2020-07-18 09:52:53.774006,2020-04-30 00:00:00.000000,0.01167129,0.12699269,2.62149331,2,25,529,0,6,169,0.00447685,0.03427317,0.83835959,0.70438345,1.54461164,2.16201597
28153,0,USMississippiWayne,Mississippi,Wayne,2020-07-18 09:52:53.774006,2020-05-01 00:00:00.000000,0.01359861,0.16788112,3.08969546,2,33,623,1,8,192,0.00537861,0.04128483,0.95399248,0.70612525,1.60256281,2.23147003
28153,0,USMississippiWayne,Mississippi,Wayne,2020-07-18 09:52:53.774006,2020-05-02 00:00:00.000000,0.01609137,0.15960816,3.61322465,3,32,729,1,8,221,0.00657864,0.04348822,1.09571743,0.72942453,1.59481539,2.35693178
28153,0,USMississippiWayne,Mississippi,Wayne,2020-07-18 09:52:53.774006,2020-05-03 00:00:00.000000,0.01921450,0.21227304,4.18417819,3,42,844,1,10,255,0.00828761,0.05417656,1.26540756,0.81550558,1.59740122,2.44849241
28153,0,USMississippiWayne,Mississippi,Wayne,2020-07-18 09:52:53.774006,2020-05-04 00:00:00.000000,0.02410291,0.20634980,4.76364824,4,41,961,2,11,296,0.00995010,0.05634711,1.47150583,0.94139533,1.60643395,2.49480277
28153,0,USMississippiWayne,Mississippi,Wayne,2020-07-18 09:52:53.774006,2020-05-05 00:00:00.000000,0.03047069,0.25657663,5.33975476,6,51,1077,2,13,346,0.01206197,0.06924805,1.71560857,0.95328679,1.62902034,2.56986199
28153,0,USMississippiWayne,Mississippi,Wayne,2020-07-18 09:52:53.774006,2020-05-06 00:00:00.000000,0.03625505,0.26667634,5.93957872,7,53,1198,3,13,403,0.01490591,0.06751281,1.99766251,0.96143879,1.67448037,2.71630524
28153,0,USMississippiWayne,Mississippi,Wayne,2020-07-18 09:52:53.774006,2020-05-07 00:00:00.000000,0.04401527,0.31317056,6.79105270,8,63,1370,3,17,469,0.01762072,0.08539648,2.32472864,0.98056698,1.73915733,2.87548623
28153,0,USMississippiWayne,Mississippi,Wayne,2020-07-18 09:52:53.774006,2020-05-08 00:00:00.000000,0.05286772,0.32974044,8.05683208,10,66,1626,4,17,544,0.02095701,0.08559384,2.69790956,0.99729785,1.80451612,3.03188184
28153,0,USMississippiWayne,Mississippi,Wayne,2020-07-18 09:52:53.774006,2020-05-09 00:00:00.000000,0.06088138,0.39770007,9.10959634,12,80,1838,4,22,633,0.02398608,0.11064463,3.13838408,1.00880538,1.86091821,3.38226573
28153,0,USMississippiWayne,Mississippi,Wayne,2020-07-18 09:52:53.774006,2020-05-10 00:00:00.000000,0.07152615,0.42770517,10.81813877,14,86,2183,5,22,734,0.02858262,0.11208663,3.63786817,0.99007075,1.89292685,3.49730557
28153,0,USMississippiWayne,Mississippi,Wayne,2020-07-18 09:52:53.774006,2020-05-11 00:00:00.000000,0.08557849,0.52316040,13.16714143,17,105,2657,6,28,847,0.03455706,0.13957863,4.19673753,1.02281274,1.91178631,3.60374077
28153,0,USMississippiWayne,Mississippi,Wayne,2020-07-18 09:52:53.774006,2020-05-12 00:00:00.000000,0.10543999,0.57170564,15.96038865,21,115,3221,8,29,970,0.04122724,0.14846546,4.80852734,1.01639165,1.92316286,3.68966816
28153,0,USMississippiWayne,Mississippi,Wayne,2020-07-18 09:52:53.774006,2020-05-13 00:00:00.000000,0.12854600,0.67503618,19.23499577,25,136,3882,9,35,1118,0.04940155,0.17761146,5.54149316,1.02884391,1.93624351,3.89876257
28153,0,USMississippiWayne,Mississippi,Wayne,2020-07-18 09:52:53.774006,2020-05-14 00:00:00.000000,0.15280222,0.77683691,23.02506065,30,156,4647,12,40,1299,0.05981933,0.20182850,6.44105134,1.08007927,1.93578296,4.08436668
28153,0,USMississippiWayne,Mississippi,Wayne,2020-07-18 09:52:53.774006,2020-05-15 00:00:00.000000,0.18259317,0.99188684,27.70252188,36,200,5591,14,48,1569,0.07379743,0.24049479,7.77848384,1.11285679,1.96185711,4.22303755
28153,0,USMississippiWayne,Mississippi,Wayne,2020-07-18 09:52:53.774006,2020-05-16 00:00:00.000000,0.22007510,1.12989078,33.06669355,44,228,6673,17,57,1890,0.08673920,0.28262952,9.36560279,1.13882533,1.97463427,4.36856564
28153,0,USMississippiWayne,Mississippi,Wayne,2020-07-18 09:52:53.774006,2020-05-17 00:00:00.000000,0.26854428,1.35533350,37.86324922,54,273,7641,20,68,2250,0.09992956,0.33771062,11.15180504,1.20401363,1.99573792,4.56242924
28153,0,USMississippiWayne,Mississippi,Wayne,2020-07-18 09:52:53.774006,2020-05-18 00:00:00.000000,0.33294715,1.60112126,42.62013850,67,323,8602,23,79,2697,0.11816770,0.39519345,13.36523413,1.27325248,2.00289048,4.74557392
28153,0,USMississippiWayne,Mississippi,Wayne,2020-07-18 09:52:53.774006,2020-05-19 00:00:00.000000,0.41876570,1.91640558,47.29430938,84,386,9545,29,96,3145,0.14623751,0.47606295,15.58367270,1.30826030,2.04064493,4.86100015
28153,0,USMississippiWayne,Mississippi,Wayne,2020-07-18 09:52:53.774006,2020-05-20 00:00:00.000000,0.53304157,2.21076817,50.44600419,107,446,10181,36,113,3599,0.18051903,0.56413128,17.83354884,1.31645299,2.08081947,4.90864206
28153,0,USMississippiWayne,Mississippi,Wayne,2020-07-18 09:52:53.774006,2020-05-21 00:00:00.000000,0.65116021,2.64061739,58.90169763,131,532,11888,42,136,4226,0.20890599,0.67517292,20.94086289,1.32974180,2.08693977,5.07178307
28153,0,USMississippiWayne,Mississippi,Wayne,2020-07-18 09:52:53.774006,2020-05-22 00:00:00.000000,0.80408276,2.73008271,55.82306343,162,551,11266,48,162,4839,0.24116157,0.80403917,23.98011024,1.32763919,1.95887431,5.09517566
28153,0,USMississippiWayne,Mississippi,Wayne,2020-07-18 09:52:53.774006,2020-05-23 00:00:00.000000,0.93068257,3.06708643,60.16010671,187,619,12142,56,192,5265,0.27861139,0.95172643,26.08862141,1.24126428,1.80896563,5.18778999
28153,0,USMississippiWayne,Mississippi,Wayne,2020-07-18 09:52:53.774006,2020-05-24 00:00:00.000000,1.00634504,3.28422998,53.79861183,203,662,10858,62,212,5391,0.31038464,1.05162525,26.71179493,1.10400205,1.69214033,5.22117698
28153,0,USMississippiWayne,Mississippi,Wayne,2020-07-18 09:52:53.774006,2020-05-25 00:00:00.000000,1.07103192,3.54710596,52.07992180,216,715,10511,70,230,5649,0.34825885,1.14240585,27.99167152,1.06796783,1.54922583,5.29431270
28153,0,USMississippiWayne,Mississippi,Wayne,2020-07-18 09:52:53.774006,2020-05-26 00:00:00.000000,1.13705340,3.76799289,47.37767970,229,760,9562,74,257,5740,0.37050744,1.27764878,28.44215909,1.01114870,1.46619088,5.32419711
28153,0,USMississippiWayne,Mississippi,Wayne,2020-07-18 09:52:53.774006,2020-05-27 00:00:00.000000,1.20086034,4.01902887,44.56173504,242,811,8993,82,272,5595,0.41037498,1.35158259,27.72338657,0.96688857,1.41454753,5.32301507
28153,0,USMississippiWayne,Mississippi,Wayne,2020-07-18 09:52:53.774006,2020-05-28 00:00:00.000000,1.26020131,4.25653414,39.23040543,254,859,7917,83,281,5189,0.41435555,1.39596872,25.71111919,0.95640702,1.36462206,5.28596055
28153,0,USMississippiWayne,Mississippi,Wayne,2020-07-18 09:52:53.774006,2020-05-29 00:00:00.000000,1.31419116,4.52396199,35.79304856,265,913,7224,90,291,4687,0.45047259,1.44209062,23.22565986,0.93907520,1.32087012,5.19736583
28153,0,USMississippiWayne,Mississippi,Wayne,2020-07-18 09:52:53.774006,2020-05-30 00:00:00.000000,1.33475558,4.64925277,31.72902388,269,938,6403,91,297,4191,0.45091664,1.47330533,20.76921587,0.91702305,1.28762243,5.06660170
28153,0,USMississippiWayne,Mississippi,Wayne,2020-07-18 09:52:53.774006,2020-05-31 00:00:00.000000,1.36257143,4.77368920,28.63725150,275,963,5779,98,306,3841,0.48797357,1.51824935,19.03579266,0.89254697,1.24118672,5.01094624
28153,0,USMississippiWayne,Mississippi,Wayne,2020-07-18 09:52:53.774006,2020-06-01 00:00:00.000000,1.32832734,4.68587945,25.57474127,268,945,5161,96,316,3405,0.47686306,1.56702067,16.87388015,0.84784986,1.19333385,5.11701531
28153,0,USMississippiWayne,Mississippi,Wayne,2020-07-18 09:52:53.774006,2020-06-02 00:00:00.000000,1.35720541,4.72221920,23.07625745,273,953,4657,93,315,2971,0.46540438,1.56470556,14.72186152,0.80029419,1.16315946,5.12869896
28153,0,USMississippiWayne,Mississippi,Wayne,2020-07-18 09:52:53.774006,2020-06-03 00:00:00.000000,1.30918499,4.46706414,20.56307375,264,901,4150,92,312,2574,0.45885281,1.54819897,12.75406094,0.79249474,1.13299274,5.14865822
28153,0,USMississippiWayne,Mississippi,Wayne,2020-07-18 09:52:53.774006,2020-06-04 00:00:00.000000,1.28942711,4.39378562,18.12272082,260,886,3657,94,308,2236,0.46585837,1.53023724,11.07975497,0.77710673,1.09259307,5.19750484
28153,0,USMississippiWayne,Mississippi,Wayne,2020-07-18 09:52:53.774006,2020-06-05 00:00:00.000000,1.24998541,4.08501596,15.83774726,252,824,3196,89,304,1974,0.44276339,1.51081396,9.78352527,0.74045355,1.07758280,5.31191791
28153,0,USMississippiWayne,Mississippi,Wayne,2020-07-18 09:52:53.774006,2020-06-06 00:00:00.000000,1.20045473,4.21079225,13.76365868,242,849,2777,89,304,1829,0.44097909,1.50675422,9.06505302,0.71341348,1.03748297,5.34176016
28153,0,USMississippiWayne,Mississippi,Wayne,2020-07-18 09:52:53.774006,2020-06-07 00:00:00.000000,1.13704578,3.82174960,12.40603951,229,771,2503,82,296,1637,0.41036076,1.46902432,8.11447683,0.69810714,1.02491189,5.36154434
28153,0,USMississippiWayne,Mississippi,Wayne,2020-07-18 09:52:53.774006,2020-06-08 00:00:00.000000,1.04696080,3.97416774,11.64587556,211,802,2350,80,292,1468,0.39705444,1.44977670,7.27417760,0.68993161,1.00732702,5.38602773
28153,0,USMississippiWayne,Mississippi,Wayne,2020-07-18 09:52:53.774006,2020-06-09 00:00:00.000000,0.94674724,3.64755206,10.92319120,191,736,2204,71,283,1406,0.35576666,1.40246164,6.97008691,0.68620327,0.97915528,5.42887644
28153,0,USMississippiWayne,Mississippi,Wayne,2020-07-18 09:52:53.774006,2020-06-10 00:00:00.000000,0.85556433,3.59841849,9.88261639,172,726,1994,67,272,1366,0.33419356,1.34793817,6.76970975,0.68876068,0.96425246,5.44607884
28153,0,USMississippiWayne,Mississippi,Wayne,2020-07-18 09:52:53.774006,2020-06-11 00:00:00.000000,0.77909385,3.40258445,8.93780630,157,686,1803,61,261,1331,0.30550083,1.29333370,6.59565887,0.68379135,0.95702334,5.35967578
28153,0,USMississippiWayne,Mississippi,Wayne,2020-07-18 09:52:53.774006,2020-06-12 00:00:00.000000,0.71513960,3.30096423,8.32529859,144,666,1680,56,246,1300,0.27973205,1.22069936,6.44284896,0.68214589,0.95608337,5.22913869
28153,0,USMississippiWayne,Mississippi,Wayne,2020-07-18 09:52:53.774006,2020-06-13 00:00:00.000000,0.68333685,3.16307362,7.87214256,137,638,1588,52,239,1272,0.25906165,1.18668954,6.30721483,0.68212611,0.94819210,5.14535648
28153,0,USMississippiWayne,Mississippi,Wayne,2020-07-18 09:52:53.774006,2020-06-14 00:00:00.000000,0.69735982,3.00594315,7.45395731,140,606,1504,51,230,1248,0.25539815,1.14411013,6.18569711,0.61951468,1.08928810,5.02676508
28153,0,USMississippiWayne,Mississippi,Wayne,2020-07-18 09:52:53.774006,2020-06-15 00:00:00.000000,0.70771688,2.81400554,7.04570850,142,567,1422,51,222,1224,0.25567297,1.10047079,6.06687994,0.57857118,1.11711646,4.90369834
28153,0,USMississippiWayne,Mississippi,Wayne,2020-07-18 09:52:53.774006,2020-06-16 00:00:00.000000,0.69706443,2.68488719,6.57971470,140,541,1327,48,212,1191,0.24149503,1.05306837,5.90565399,0.55306752,1.12524458,5.13305245
28153,0,USMississippiWayne,Mississippi,Wayne,2020-07-18 09:52:53.774006,2020-06-17 00:00:00.000000,0.69057431,2.47470337,6.37933695,139,499,1287,47,202,1159,0.23474993,1.00466432,5.74253857,0.54674770,1.13134560,5.22132535
28153,0,USMississippiWayne,Mississippi,Wayne,2020-07-18 09:52:53.774006,2020-06-18 00:00:00.000000,0.67572620,2.47774961,6.23100465,136,500,1257,46,189,1130,0.22995357,0.94054699,5.59989576,0.55137856,1.15373789,5.33661277
28153,0,USMississippiWayne,Mississippi,Wayne,2020-07-18 09:52:53.774006,2020-06-19 00:00:00.000000,0.67754265,2.35079626,6.09470849,136,474,1230,45,181,1105,0.22464847,0.90161929,5.47582123,0.56377654,1.18664252,5.36203289
28153,0,USMississippiWayne,Mississippi,Wayne,2020-07-18 09:52:53.774006,2020-06-20 00:00:00.000000,0.67833752,2.29762079,5.96968389,136,463,1204,45,174,1087,0.22385972,0.86514350,5.38994031,0.59049337,1.20327940,5.42102834
28153,0,USMississippiWayne,Mississippi,Wayne,2020-07-18 09:52:53.774006,2020-06-21 00:00:00.000000,0.67898847,2.15644428,5.85494581,137,435,1181,45,165,1077,0.22353485,0.82176435,5.33773842,0.61005267,1.20738981,5.43304019
28153,0,USMississippiWayne,Mississippi,Wayne,2020-07-18 09:52:53.774006,2020-06-22 00:00:00.000000,0.67627127,2.12795353,5.74928509,136,429,1160,45,158,1066,0.22314059,0.78476270,5.28651076,0.56055397,1.20906383,5.39400424
28153,0,USMississippiWayne,Mississippi,Wayne,2020-07-18 09:52:53.774006,2020-06-23 00:00:00.000000,0.64577914,2.04648415,5.65126117,130,413,1140,44,156,1056,0.21937634,0.77762252,5.23596297,0.54858168,1.20905904,5.35288143
28153,0,USMississippiWayne,Mississippi,Wayne,2020-07-18 09:52:53.774006,2020-06-24 00:00:00.000000,0.66372117,1.96731551,5.54390106,133,397,1118,44,150,1046,0.22154410,0.74463209,5.18549784,0.55209030,1.20918301,5.31958126
28153,0,USMississippiWayne,Mississippi,Wayne,2020-07-18 09:52:53.774006,2020-06-25 00:00:00.000000,0.62867334,1.86570639,5.41018250,126,376,1091,43,144,1036,0.21525596,0.71781966,5.13597675,0.56190004,1.20634420,5.29054593
28153,0,USMississippiWayne,Mississippi,Wayne,2020-07-18 09:52:53.774006,2020-06-26 00:00:00.000000,0.61801333,1.81546547,5.26190720,124,366,1062,44,142,1026,0.21910439,0.70627043,5.08730877,0.59926432,1.19714947,5.21795419
28153,0,USMississippiWayne,Mississippi,Wayne,2020-07-18 09:52:53.774006,2020-06-27 00:00:00.000000,0.60005697,1.73464322,5.11910101,121,350,1033,42,146,1017,0.21116287,0.72389410,5.03941668,0.64200786,1.16556790,5.12324458
28153,0,USMississippiWayne,Mississippi,Wayne,2020-07-18 09:52:53.774006,2020-06-28 00:00:00.000000,0.58173628,1.69100029,5.05567612,117,341,1020,42,138,1007,0.21140201,0.68558166,4.99223324,0.66973662,1.11121674,5.21334853
28153,0,USMississippiWayne,Mississippi,Wayne,2020-07-18 09:52:53.774006,2020-06-29 00:00:00.000000,0.53654552,1.61229202,5.00670793,108,325,1010,39,135,998,0.19591112,0.66978018,4.94569415,0.66981659,1.11109299,5.32026177
28153,0,USMississippiWayne,Mississippi,Wayne,2020-07-18 09:52:53.774006,2020-06-30 00:00:00.000000,0.50573403,1.59052034,4.95840796,102,321,1000,38,131,988,0.18841770,0.65337311,4.89972729,0.66615909,1.10654416,5.34425238
28153,0,USMississippiWayne,Mississippi,Wayne,2020-07-18 09:52:53.774006,2020-07-01 00:00:00.000000,0.47427344,1.52776411,4.91062915,95,308,991,35,127,979,0.17495863,0.63166220,4.85424512,0.66040094,1.10821139,5.28842619
28153,0,USMississippiWayne,Mississippi,Wayne,2020-07-18 09:52:53.774006,2020-07-02 00:00:00.000000,0.44695331,1.49631582,4.86339499,90,302,981,33,123,970,0.16720781,0.61332728,4.80917511,0.65507883,1.11196434,5.21424210
28153,0,USMississippiWayne,Mississippi,Wayne,2020-07-18 09:52:53.774006,2020-07-03 00:00:00.000000,0.42473105,1.45313684,4.81688773,85,293,972,31,123,961,0.15756113,0.61142163,4.76454549,0.65170863,1.13232498,5.11859272
28153,0,USMississippiWayne,Mississippi,Wayne,2020-07-18 09:52:53.774006,2020-07-04 00:00:00.000000,0.41000082,1.43887522,4.77124335,82,290,962,30,122,952,0.15101089,0.60821851,4.72046441,0.65277713,1.17468242,5.20687671
28153,0,USMississippiWayne,Mississippi,Wayne,2020-07-18 09:52:53.774006,2020-07-05 00:00:00.000000,0.41147407,1.37704857,4.72648238,83,277,953,29,119,943,0.14709007,0.58992327,4.67700271,0.67251438,1.19585390,5.07481508
28153,0,USMississippiWayne,Mississippi,Wayne,2020-07-18 09:52:53.774006,2020-07-06 00:00:00.000000,0.42280250,1.32818284,4.68253903,85,268,945,29,114,935,0.14751984,0.56532837,4.63416285,0.70750711,1.25447925,5.11620904
28153,0,USMississippiWayne,Mississippi,Wayne,2020-07-18 09:52:53.774006,2020-07-07 00:00:00.000000,0.43759624,1.29025031,4.63931307,88,260,936,30,110,926,0.14993576,0.54711356,4.59190193,0.71777230,1.31565812,5.14903274
28153,0,USMississippiWayne,Mississippi,Wayne,2020-07-18 09:52:53.774006,2020-07-08 00:00:00.000000,0.43889510,1.32266769,4.59671660,88,266,927,30,109,918,0.15269853,0.54461785,4.55017058,0.72492038,1.33684227,5.15032499
28153,0,USMississippiWayne,Mississippi,Wayne,2020-07-18 09:52:53.774006,2020-07-09 00:00:00.000000,0.43791976,1.27293904,4.55468009,88,256,919,31,110,910,0.15484606,0.54976854,4.50892498,0.72670115,1.34342498,5.15043852
28153,0,USMississippiWayne,Mississippi,Wayne,2020-07-18 09:52:53.774006,2020-07-10 00:00:00.000000,0.43422525,1.32322413,4.51315144,87,267,910,31,111,901,0.15727873,0.55208806,4.46745918,0.72690641,1.34544605,5.15048531
28153,0,USMississippiWayne,Mississippi,Wayne,2020-07-18 09:52:53.774006,2020-07-11 00:00:00.000000,0.41824870,1.28145437,4.47209255,84,258,902,31,111,892,0.15624237,0.55405774,4.42344346,0.72911385,1.34605666,5.15051325
28153,0,USMississippiWayne,Mississippi,Wayne,2020-07-18 09:52:53.774006,2020-07-12 00:00:00.000000,0.40529705,1.26711980,4.43147568,81,255,894,32,112,884,0.15891122,0.55962966,4.38001693,0.72911228,1.34624023,5.15053031
28153,0,USMississippiWayne,Mississippi,Wayne,2020-07-18 09:52:53.774006,2020-07-13 00:00:00.000000,0.39381442,1.22576127,4.39128043,79,247,886,30,112,875,0.15222532,0.55673813,4.33713117,0.72906520,1.34629534,5.15054070
28153,0,USMississippiWayne,Mississippi,Wayne,2020-07-18 09:52:53.774006,2020-07-14 00:00:00.000000,0.39516075,1.25161893,4.35004177,79,252,877,30,111,866,0.15021941,0.55232199,4.29456953,0.72904829,1.34631187,5.15054702
28153,0,USMississippiWayne,Mississippi,Wayne,2020-07-18 09:52:53.774006,2020-07-15 00:00:00.000000,0.39555430,1.20135743,4.30688571,79,242,869,28,109,858,0.14201886,0.54409652,4.25133191,0.72904236,1.34631683,5.15055086
28153,0,USMississippiWayne,Mississippi,Wayne,2020-07-18 09:52:53.774006,2020-07-16 00:00:00.000000,0.38667452,1.20675261,4.26411478,78,243,860,28,108,850,0.14134814,0.53534897,4.21170420,0.72904038,1.34631832,5.15055319
28153,0,USMississippiWayne,Mississippi,Wayne,2020-07-18 09:52:53.774006,2020-07-17 00:00:00.000000,0.37794321,1.17181847,4.22049166,76,236,851,26,110,842,0.13162714,0.54804340,4.17337759,0.72903977,1.34631877,5.15055461
28153,0,USMississippiWayne,Mississippi,Wayne,2020-07-18 09:52:53.774006,2020-07-18 00:00:00.000000,0.36935862,1.15514873,4.17742313,74,233,843,26,110,834,0.13289845,0.54623308,4.13540925,0.72903962,1.34631890,5.15055546
28153,0,USMississippiWayne,Mississippi,Wayne,2020-07-18 09:52:53.774006,2020-07-19 00:00:00.000000,0.36091995,1.11845705,4.13643630,72,225,834,23,104,826,0.11735898,0.51575673,4.09596074,0.72903962,1.34631894,5.15055599
28153,0,USMississippiWayne,Mississippi,Wayne,2020-07-18 09:52:53.774006,2020-07-20 00:00:00.000000,0.35262686,1.09964014,4.09867717,71,221,827,25,101,818,0.12475889,0.50437964,4.05508325,0.72903965,1.34631896,5.15055630
28153,0,USMississippiWayne,Mississippi,Wayne,2020-07-18 09:52:53.774006,2020-07-21 00:00:00.000000,0.34033863,1.06008822,4.05759912,68,213,818,22,101,810,0.10945147,0.50117971,4.01463169,0.72903967,1.34631896,5.15055649
28153,0,USMississippiWayne,Mississippi,Wayne,2020-07-18 09:52:53.774006,2020-07-22 00:00:00.000000,0.31934671,1.04260121,4.01677661,64,210,810,22,97,802,0.11289296,0.48280678,3.97459917,0.72903970,1.34631896,5.15055661
28153,0,USMississippiWayne,Mississippi,Wayne,2020-07-18 09:52:53.774006,2020-07-23 00:00:00.000000,0.29965674,1.02861019,3.97642794,60,207,802,21,95,794,0.10537273,0.47467052,3.93497925,0.72903971,1.34631896,5.15055668
28153,0,USMississippiWayne,Mississippi,Wayne,2020-07-18 09:52:53.774006,2020-07-24 00:00:00.000000,0.28118816,1.02453533,3.96201110,56,206,799,20,94,786,0.10079566,0.46657314,3.89576587,0.72903972,1.34631896,5.15055672
28153,0,USMississippiWayne,Mississippi,Wayne,2020-07-18 09:52:53.774006,2020-07-25 00:00:00.000000,0.26386535,1.01007152,3.92717325,53,203,792,19,92,778,0.09553373,0.45851959,3.85695335,0.72903973,1.34631896,5.15055675
28153,0,USMississippiWayne,Mississippi,Wayne,2020-07-18 09:52:53.774006,2020-07-26 00:00:00.000000,0.24761730,0.99933187,3.89264321,49,201,785,18,92,770,0.09182409,0.45864659,3.81853628,0.72903973,1.34631896,5.15055676
28153,0,USMississippiWayne,Mississippi,Wayne,2020-07-18 09:52:53.774006,2020-07-27 00:00:00.000000,0.23237734,0.97098419,3.85841808,46,195,778,17,91,763,0.08705433,0.45580968,3.78050952,0.72903973,1.34631896,5.15055677
28153,0,USMississippiWayne,Mississippi,Wayne,2020-07-18 09:52:53.774006,2020-07-28 00:00:00.000000,0.21808290,0.97796854,3.82449501,44,197,771,16,91,755,0.08211385,0.45307176,3.74286815,0.72903973,1.34631896,5.15055678
28153,0,USMississippiWayne,Mississippi,Wayne,2020-07-18 09:52:53.774006,2020-07-29 00:00:00.000000,0.20467525,0.95851434,3.79087121,41,193,765,15,89,747,0.07744940,0.44257890,3.70560746,0.72903974,1.34631896,5.15055678
28153,0,USMississippiWayne,Mississippi,Wayne,2020-07-18 09:52:53.774006,2020-07-30 00:00:00.000000,0.19209929,0.94169171,3.75754392,38,190,758,14,88,740,0.07304607,0.43922172,3.66877734,0.72903974,1.34631896,5.15055679
