FIPS,HR_UID,nameid,province,region,analysisTime,dates,pointprevalence_025,pointprevalence_50,pointprevalence_975,pointinfections_025,pointinfections_50,pointinfections_975,pointinfectious_025,pointinfectious_50,pointinfectious_975,pointinfectiousprevalence_05,pointinfectiousprevalence_50,pointinfectiousprevalence_95,infectrate_025,infectrate_50,infectrate_975
29099,0,USMissouriJefferson,Missouri,Jefferson,2020-07-18 10:10:01.455786,2020-03-09 00:00:00.000000,0.00195347,0.00875346,0.02465435,4,19,55,2,8,28,0.00111615,0.00374051,0.01265623,0.64373611,0.85203115,1.15556214
29099,0,USMissouriJefferson,Missouri,Jefferson,2020-07-18 10:10:01.455786,2020-03-10 00:00:00.000000,0.00226880,0.00960038,0.02799160,5,21,63,2,9,27,0.00122335,0.00429907,0.01203907,0.64373636,0.85204498,1.15556216
29099,0,USMissouriJefferson,Missouri,Jefferson,2020-07-18 10:10:01.455786,2020-03-11 00:00:00.000000,0.00267847,0.01108269,0.03165139,6,24,71,3,10,30,0.00159652,0.00479201,0.01344823,0.64373713,0.85207306,1.15556222
29099,0,USMissouriJefferson,Missouri,Jefferson,2020-07-18 10:10:01.455786,2020-03-12 00:00:00.000000,0.00314937,0.01231658,0.03212471,7,27,72,4,12,32,0.00178587,0.00541809,0.01463554,0.64373941,0.85213052,1.15556237
29099,0,USMissouriJefferson,Missouri,Jefferson,2020-07-18 10:10:01.455786,2020-03-13 00:00:00.000000,0.00372074,0.01336140,0.03244734,8,30,73,4,13,35,0.00215943,0.00591730,0.01555028,0.64374623,0.85224981,1.15556283
29099,0,USMissouriJefferson,Missouri,Jefferson,2020-07-18 10:10:01.455786,2020-03-14 00:00:00.000000,0.00439460,0.01474453,0.03566142,9,33,80,5,14,37,0.00251579,0.00663044,0.01647583,0.64376660,0.85250469,1.15556413
29099,0,USMissouriJefferson,Missouri,Jefferson,2020-07-18 10:10:01.455786,2020-03-15 00:00:00.000000,0.00519901,0.01596971,0.03927659,11,35,88,6,16,41,0.00299417,0.00728311,0.01833250,0.64382740,0.85269841,1.15556786
29099,0,USMissouriJefferson,Missouri,Jefferson,2020-07-18 10:10:01.455786,2020-03-16 00:00:00.000000,0.00619524,0.01803469,0.04422288,13,40,99,7,18,47,0.00353225,0.00831278,0.02097167,0.64342278,0.85290639,1.16441819
29099,0,USMissouriJefferson,Missouri,Jefferson,2020-07-18 10:10:01.455786,2020-03-17 00:00:00.000000,0.00734538,0.02018345,0.04975806,16,45,111,9,20,52,0.00415670,0.00904038,0.02327532,0.64518387,0.85939699,1.16533859
29099,0,USMissouriJefferson,Missouri,Jefferson,2020-07-18 10:10:01.455786,2020-03-18 00:00:00.000000,0.00867110,0.02291642,0.05591699,19,51,125,10,23,54,0.00448709,0.01047380,0.02434718,0.64705914,0.87465181,1.23268805
29099,0,USMissouriJefferson,Missouri,Jefferson,2020-07-18 10:10:01.455786,2020-03-19 00:00:00.000000,0.00994372,0.02510080,0.06241978,22,56,140,10,25,60,0.00469734,0.01132529,0.02667343,0.64821482,0.90050400,1.30665110
29099,0,USMissouriJefferson,Missouri,Jefferson,2020-07-18 10:10:01.455786,2020-03-20 00:00:00.000000,0.01197352,0.02788867,0.06745420,26,62,151,11,28,67,0.00508979,0.01282867,0.02999085,0.65234057,0.91410462,1.35122946
29099,0,USMissouriJefferson,Missouri,Jefferson,2020-07-18 10:10:01.455786,2020-03-21 00:00:00.000000,0.01387126,0.03054382,0.07162979,31,68,161,12,31,75,0.00561032,0.01414371,0.03370242,0.65210716,0.91295949,1.36402430
29099,0,USMissouriJefferson,Missouri,Jefferson,2020-07-18 10:10:01.455786,2020-03-22 00:00:00.000000,0.01636168,0.03426377,0.08082157,36,77,181,14,35,86,0.00637711,0.01585629,0.03822536,0.62004728,0.91842600,1.40710335
29099,0,USMissouriJefferson,Missouri,Jefferson,2020-07-18 10:10:01.455786,2020-03-23 00:00:00.000000,0.01911828,0.03822743,0.09237953,43,86,207,16,38,98,0.00725426,0.01731226,0.04395161,0.60597807,0.91770920,1.42713036
29099,0,USMissouriJefferson,Missouri,Jefferson,2020-07-18 10:10:01.455786,2020-03-24 00:00:00.000000,0.02143321,0.04307405,0.10539918,48,96,237,18,44,113,0.00838195,0.01981464,0.05049390,0.60939347,0.91560991,1.44480489
29099,0,USMissouriJefferson,Missouri,Jefferson,2020-07-18 10:10:01.455786,2020-03-25 00:00:00.000000,0.02401726,0.04800199,0.12016287,54,108,270,21,48,130,0.00945149,0.02165971,0.05787857,0.63608086,0.90722860,1.43937606
29099,0,USMissouriJefferson,Missouri,Jefferson,2020-07-18 10:10:01.455786,2020-03-26 00:00:00.000000,0.02687130,0.05493398,0.13694320,60,123,308,24,55,149,0.01076299,0.02481791,0.06645630,0.64877817,0.90084775,1.43040298
29099,0,USMissouriJefferson,Missouri,Jefferson,2020-07-18 10:10:01.455786,2020-03-27 00:00:00.000000,0.02930202,0.06084634,0.15561769,65,136,350,27,61,173,0.01224640,0.02743357,0.07695531,0.61778410,0.89411928,1.40420854
29099,0,USMissouriJefferson,Missouri,Jefferson,2020-07-18 10:10:01.455786,2020-03-28 00:00:00.000000,0.03223638,0.07005983,0.17385496,72,157,391,30,72,196,0.01363276,0.03227359,0.08746999,0.59847175,0.88213801,1.39145375
29099,0,USMissouriJefferson,Missouri,Jefferson,2020-07-18 10:10:01.455786,2020-03-29 00:00:00.000000,0.03578371,0.07792710,0.18793830,80,175,423,34,83,218,0.01513269,0.03708489,0.09701240,0.58036515,0.86405705,1.34315407
29099,0,USMissouriJefferson,Missouri,Jefferson,2020-07-18 10:10:01.455786,2020-03-30 00:00:00.000000,0.03943923,0.08851668,0.20061196,88,199,451,37,95,242,0.01656613,0.04239236,0.10775234,0.55687100,0.82367898,1.31320341
29099,0,USMissouriJefferson,Missouri,Jefferson,2020-07-18 10:10:01.455786,2020-03-31 00:00:00.000000,0.04323305,0.09869062,0.21257583,97,222,478,40,103,265,0.01815328,0.04597280,0.11794086,0.52691394,0.79644367,1.30592516
29099,0,USMissouriJefferson,Missouri,Jefferson,2020-07-18 10:10:01.455786,2020-04-01 00:00:00.000000,0.04787015,0.11089205,0.22426133,107,249,504,44,114,292,0.01990042,0.05098605,0.12980821,0.50578407,0.79404270,1.31225457
29099,0,USMissouriJefferson,Missouri,Jefferson,2020-07-18 10:10:01.455786,2020-04-02 00:00:00.000000,0.05259866,0.11750828,0.23528472,118,264,529,48,124,320,0.02176400,0.05552377,0.14218514,0.46603224,0.77738545,1.29667010
29099,0,USMissouriJefferson,Missouri,Jefferson,2020-07-18 10:10:01.455786,2020-04-03 00:00:00.000000,0.06037811,0.12655724,0.24559949,135,284,552,55,138,342,0.02486487,0.06174403,0.15208107,0.44080320,0.74828376,1.29574422
29099,0,USMissouriJefferson,Missouri,Jefferson,2020-07-18 10:10:01.455786,2020-04-04 00:00:00.000000,0.06335859,0.13330495,0.25977259,142,300,584,58,149,354,0.02615885,0.06644609,0.15765870,0.41255509,0.70130447,1.24868039
29099,0,USMissouriJefferson,Missouri,Jefferson,2020-07-18 10:10:01.455786,2020-04-05 00:00:00.000000,0.07303173,0.14123790,0.27806402,164,317,625,69,159,379,0.03078653,0.07074251,0.16873230,0.38924187,0.66288074,1.14837123
29099,0,USMissouriJefferson,Missouri,Jefferson,2020-07-18 10:10:01.455786,2020-04-06 00:00:00.000000,0.07525876,0.14752055,0.29607721,169,332,666,66,166,407,0.02967869,0.07395680,0.18086819,0.38648793,0.63813476,1.14514259
29099,0,USMissouriJefferson,Missouri,Jefferson,2020-07-18 10:10:01.455786,2020-04-07 00:00:00.000000,0.08162386,0.15463398,0.31656549,183,348,712,82,176,432,0.03646416,0.07857402,0.19193304,0.37921878,0.61665982,1.14482917
29099,0,USMissouriJefferson,Missouri,Jefferson,2020-07-18 10:10:01.455786,2020-04-08 00:00:00.000000,0.08312607,0.15967509,0.33614621,187,359,756,74,183,451,0.03309852,0.08165525,0.20059547,0.36585884,0.58776921,1.09515516
29099,0,USMissouriJefferson,Missouri,Jefferson,2020-07-18 10:10:01.455786,2020-04-09 00:00:00.000000,0.09218326,0.16197814,0.35293784,207,364,794,87,190,468,0.03866806,0.08470104,0.20795243,0.35111068,0.57538243,1.00362090
29099,0,USMissouriJefferson,Missouri,Jefferson,2020-07-18 10:10:01.455786,2020-04-10 00:00:00.000000,0.08669341,0.16505004,0.37048959,195,371,833,82,196,480,0.03644015,0.08722897,0.21340912,0.33860997,0.55796138,0.97060685
29099,0,USMissouriJefferson,Missouri,Jefferson,2020-07-18 10:10:01.455786,2020-04-11 00:00:00.000000,0.10016931,0.16810668,0.38634451,225,378,869,89,198,487,0.03985601,0.08821523,0.21676104,0.32962093,0.53448941,0.92914832
29099,0,USMissouriJefferson,Missouri,Jefferson,2020-07-18 10:10:01.455786,2020-04-12 00:00:00.000000,0.08609900,0.16815596,0.38833806,193,378,874,86,204,493,0.03843931,0.09072124,0.21925108,0.31558073,0.50736605,0.87282072
29099,0,USMissouriJefferson,Missouri,Jefferson,2020-07-18 10:10:01.455786,2020-04-13 00:00:00.000000,0.09388797,0.16535434,0.39364127,211,372,886,90,205,505,0.04027778,0.09141399,0.22468132,0.30226224,0.48515540,0.83121561
29099,0,USMissouriJefferson,Missouri,Jefferson,2020-07-18 10:10:01.455786,2020-04-14 00:00:00.000000,0.08800074,0.16852237,0.39664515,198,379,892,85,206,511,0.03816274,0.09177775,0.22734712,0.29416125,0.46595203,0.79183549
29099,0,USMissouriJefferson,Missouri,Jefferson,2020-07-18 10:10:01.455786,2020-04-15 00:00:00.000000,0.08872744,0.16572690,0.39505958,199,373,889,90,203,507,0.03999036,0.09057234,0.22530672,0.28437621,0.45047082,0.74732693
29099,0,USMissouriJefferson,Missouri,Jefferson,2020-07-18 10:10:01.455786,2020-04-16 00:00:00.000000,0.08092456,0.16129986,0.39270949,182,363,883,78,200,514,0.03503280,0.08899396,0.22856616,0.27199191,0.42487965,0.72376411
29099,0,USMissouriJefferson,Missouri,Jefferson,2020-07-18 10:10:01.455786,2020-04-17 00:00:00.000000,0.08767944,0.15619446,0.39411937,197,351,887,89,193,522,0.03958943,0.08609120,0.23201473,0.24613004,0.40577693,0.70930211
29099,0,USMissouriJefferson,Missouri,Jefferson,2020-07-18 10:10:01.455786,2020-04-18 00:00:00.000000,0.07252246,0.14909927,0.38564991,163,335,868,69,188,527,0.03088825,0.08363169,0.23416586,0.22646900,0.39084896,0.70090499
29099,0,USMissouriJefferson,Missouri,Jefferson,2020-07-18 10:10:01.455786,2020-04-19 00:00:00.000000,0.08050983,0.14345315,0.36749727,181,322,827,87,183,528,0.03896892,0.08154067,0.23494886,0.22033610,0.38599310,0.69336096
29099,0,USMissouriJefferson,Missouri,Jefferson,2020-07-18 10:10:01.455786,2020-04-20 00:00:00.000000,0.06696879,0.13711704,0.35674604,150,308,802,63,177,526,0.02830470,0.07886157,0.23385654,0.21863129,0.38357893,0.61760923
29099,0,USMissouriJefferson,Missouri,Jefferson,2020-07-18 10:10:01.455786,2020-04-21 00:00:00.000000,0.06972118,0.12959350,0.34873936,156,291,784,84,169,516,0.03744937,0.07529257,0.22948593,0.21538040,0.36949580,0.59129180
29099,0,USMissouriJefferson,Missouri,Jefferson,2020-07-18 10:10:01.455786,2020-04-22 00:00:00.000000,0.06163345,0.12253540,0.34070370,138,275,766,58,160,501,0.02603123,0.07119733,0.22287535,0.21449896,0.36409298,0.56968203
29099,0,USMissouriJefferson,Missouri,Jefferson,2020-07-18 10:10:01.455786,2020-04-23 00:00:00.000000,0.06030279,0.11536089,0.33124962,135,259,745,73,154,482,0.03268068,0.06845274,0.21415735,0.21160270,0.35906747,0.54590874
29099,0,USMissouriJefferson,Missouri,Jefferson,2020-07-18 10:10:01.455786,2020-04-24 00:00:00.000000,0.05377281,0.10794506,0.32030902,121,242,720,53,146,455,0.02379113,0.06491498,0.20231804,0.21137144,0.35737735,0.52709693
29099,0,USMissouriJefferson,Missouri,Jefferson,2020-07-18 10:10:01.455786,2020-04-25 00:00:00.000000,0.05281047,0.10187055,0.30929609,118,229,696,64,138,430,0.02869652,0.06163446,0.19106519,0.20597827,0.35890047,0.52166222
29099,0,USMissouriJefferson,Missouri,Jefferson,2020-07-18 10:10:01.455786,2020-04-26 00:00:00.000000,0.04804917,0.09655527,0.29774368,108,217,670,47,129,413,0.02131723,0.05772109,0.18377305,0.19784826,0.35763301,0.51375003
29099,0,USMissouriJefferson,Missouri,Jefferson,2020-07-18 10:10:01.455786,2020-04-27 00:00:00.000000,0.04683825,0.09060603,0.28348025,105,203,638,56,121,398,0.02497457,0.05402528,0.17692997,0.18852442,0.35633051,0.51364690
29099,0,USMissouriJefferson,Missouri,Jefferson,2020-07-18 10:10:01.455786,2020-04-28 00:00:00.000000,0.04173300,0.08481010,0.26919718,93,190,605,43,114,381,0.01939075,0.05108065,0.16939537,0.18550284,0.34992202,0.51363591
29099,0,USMissouriJefferson,Missouri,Jefferson,2020-07-18 10:10:01.455786,2020-04-29 00:00:00.000000,0.04025946,0.07939977,0.25526972,90,178,574,48,107,363,0.02148228,0.04775955,0.16152501,0.18189938,0.35024687,0.51723172
29099,0,USMissouriJefferson,Missouri,Jefferson,2020-07-18 10:10:01.455786,2020-04-30 00:00:00.000000,0.03618522,0.07401589,0.24186585,81,166,544,39,101,345,0.01754348,0.04527465,0.15360120,0.18169742,0.34605038,0.54466772
29099,0,USMissouriJefferson,Missouri,Jefferson,2020-07-18 10:10:01.455786,2020-05-01 00:00:00.000000,0.03518491,0.06961231,0.22905964,79,156,515,42,95,328,0.01870103,0.04239773,0.14580863,0.18194774,0.34676449,0.57270961
29099,0,USMissouriJefferson,Missouri,Jefferson,2020-07-18 10:10:01.455786,2020-05-02 00:00:00.000000,0.03218728,0.06621971,0.21687906,72,149,488,35,89,311,0.01587190,0.03971350,0.13825723,0.18335714,0.34933899,0.56865666
29099,0,USMissouriJefferson,Missouri,Jefferson,2020-07-18 10:10:01.455786,2020-05-03 00:00:00.000000,0.02977454,0.06384164,0.20532864,67,143,462,35,83,294,0.01571850,0.03708550,0.13100762,0.18555153,0.34542698,0.55756035
29099,0,USMissouriJefferson,Missouri,Jefferson,2020-07-18 10:10:01.455786,2020-05-04 00:00:00.000000,0.02746724,0.06081449,0.19435246,61,136,437,32,79,279,0.01433532,0.03528205,0.12409009,0.18616432,0.34911984,0.57556687
29099,0,USMissouriJefferson,Missouri,Jefferson,2020-07-18 10:10:01.455786,2020-05-05 00:00:00.000000,0.02625665,0.05818624,0.18386758,59,130,413,31,74,264,0.01407518,0.03311694,0.11732789,0.19088762,0.35160400,0.58302194
29099,0,USMissouriJefferson,Missouri,Jefferson,2020-07-18 10:10:01.455786,2020-05-06 00:00:00.000000,0.02414719,0.05559149,0.17444240,54,125,392,28,70,250,0.01287375,0.03116030,0.11150055,0.19427604,0.36062767,0.58437374
29099,0,USMissouriJefferson,Missouri,Jefferson,2020-07-18 10:10:01.455786,2020-05-07 00:00:00.000000,0.02274457,0.05275035,0.16623392,51,118,374,28,66,242,0.01244908,0.02948375,0.10759467,0.19886768,0.36555364,0.59872978
29099,0,USMissouriJefferson,Missouri,Jefferson,2020-07-18 10:10:01.455786,2020-05-08 00:00:00.000000,0.02111032,0.05065014,0.15873554,47,114,357,25,62,233,0.01143704,0.02789392,0.10393739,0.20380757,0.37185262,0.61035310
29099,0,USMissouriJefferson,Missouri,Jefferson,2020-07-18 10:10:01.455786,2020-05-09 00:00:00.000000,0.02036535,0.04849565,0.15176963,45,109,341,24,61,226,0.01103877,0.02728788,0.10046637,0.20684189,0.37879113,0.63913587
29099,0,USMissouriJefferson,Missouri,Jefferson,2020-07-18 10:10:01.455786,2020-05-10 00:00:00.000000,0.01898134,0.04474295,0.14527802,42,100,326,21,58,218,0.00976444,0.02610901,0.09715824,0.20579762,0.38413640,0.69356508
29099,0,USMissouriJefferson,Missouri,Jefferson,2020-07-18 10:10:01.455786,2020-05-11 00:00:00.000000,0.01914848,0.04292260,0.13920631,43,96,313,22,56,211,0.00999941,0.02500597,0.09402649,0.20986017,0.39233945,0.70537136
29099,0,USMissouriJefferson,Missouri,Jefferson,2020-07-18 10:10:01.455786,2020-05-12 00:00:00.000000,0.01779443,0.04204840,0.13349770,40,94,300,19,53,205,0.00868868,0.02366115,0.09112821,0.21088189,0.40166509,0.70651396
29099,0,USMissouriJefferson,Missouri,Jefferson,2020-07-18 10:10:01.455786,2020-05-13 00:00:00.000000,0.01761540,0.04033857,0.12810240,39,90,288,20,50,199,0.00895244,0.02250910,0.08854695,0.21185114,0.40740878,0.71271530
29099,0,USMissouriJefferson,Missouri,Jefferson,2020-07-18 10:10:01.455786,2020-05-14 00:00:00.000000,0.01639440,0.03829979,0.12413796,36,86,279,17,47,194,0.00778916,0.02128315,0.08630064,0.21344526,0.41983226,0.71459617
29099,0,USMissouriJefferson,Missouri,Jefferson,2020-07-18 10:10:01.455786,2020-05-15 00:00:00.000000,0.01626639,0.03893962,0.12134845,36,87,273,18,47,189,0.00818669,0.02096018,0.08428584,0.22309848,0.43085978,0.73255020
29099,0,USMissouriJefferson,Missouri,Jefferson,2020-07-18 10:10:01.455786,2020-05-16 00:00:00.000000,0.01471764,0.03758610,0.11850097,33,84,266,15,46,185,0.00698562,0.02059411,0.08236167,0.22829724,0.44274698,0.76879115
29099,0,USMissouriJefferson,Missouri,Jefferson,2020-07-18 10:10:01.455786,2020-05-17 00:00:00.000000,0.01550970,0.03759860,0.11556417,34,84,260,16,45,181,0.00734608,0.02027809,0.08043225,0.22942167,0.44643354,0.77940537
29099,0,USMissouriJefferson,Missouri,Jefferson,2020-07-18 10:10:01.455786,2020-05-18 00:00:00.000000,0.01544795,0.03675220,0.11259705,34,82,253,14,44,176,0.00636282,0.01972190,0.07846273,0.23250833,0.45527392,0.81421047
29099,0,USMissouriJefferson,Missouri,Jefferson,2020-07-18 10:10:01.455786,2020-05-19 00:00:00.000000,0.01556162,0.03675995,0.11011840,35,82,247,17,43,172,0.00755565,0.01930817,0.07647509,0.24302009,0.46906733,0.81719545
29099,0,USMissouriJefferson,Missouri,Jefferson,2020-07-18 10:10:01.455786,2020-05-20 00:00:00.000000,0.01532727,0.03571428,0.10996754,34,80,247,14,42,167,0.00642007,0.01908421,0.07455809,0.24453898,0.47541683,0.81904544
29099,0,USMissouriJefferson,Missouri,Jefferson,2020-07-18 10:10:01.455786,2020-05-21 00:00:00.000000,0.01522103,0.03583796,0.11061271,34,80,248,15,43,164,0.00710170,0.01919657,0.07287066,0.24711354,0.48174461,0.82832715
29099,0,USMissouriJefferson,Missouri,Jefferson,2020-07-18 10:10:01.455786,2020-05-22 00:00:00.000000,0.01456244,0.03596554,0.11282403,32,80,253,15,42,160,0.00668008,0.01901253,0.07151603,0.25058854,0.48995550,0.82663581
29099,0,USMissouriJefferson,Missouri,Jefferson,2020-07-18 10:10:01.455786,2020-05-23 00:00:00.000000,0.01456760,0.03580066,0.11260965,32,80,253,15,44,157,0.00675755,0.01958657,0.06980118,0.25171666,0.49426552,0.83405506
29099,0,USMissouriJefferson,Missouri,Jefferson,2020-07-18 10:10:01.455786,2020-05-24 00:00:00.000000,0.01423585,0.03551134,0.11153076,32,79,251,14,43,153,0.00652697,0.01924085,0.06839983,0.25639225,0.49719276,0.84527480
29099,0,USMissouriJefferson,Missouri,Jefferson,2020-07-18 10:10:01.455786,2020-05-25 00:00:00.000000,0.01531684,0.03613128,0.11074614,34,81,249,15,44,151,0.00705688,0.01991924,0.06745822,0.26726624,0.50055148,0.85363193
29099,0,USMissouriJefferson,Missouri,Jefferson,2020-07-18 10:10:01.455786,2020-05-26 00:00:00.000000,0.01519336,0.03592217,0.11025431,34,80,248,14,44,153,0.00645893,0.01975514,0.06836905,0.26715296,0.50946103,0.85868338
29099,0,USMissouriJefferson,Missouri,Jefferson,2020-07-18 10:10:01.455786,2020-05-27 00:00:00.000000,0.01741832,0.03768411,0.11007513,39,84,247,17,45,153,0.00765482,0.02000132,0.06815434,0.27130352,0.52160116,0.87691113
29099,0,USMissouriJefferson,Missouri,Jefferson,2020-07-18 10:10:01.455786,2020-05-28 00:00:00.000000,0.01561988,0.03839177,0.10962657,35,86,246,15,44,153,0.00683768,0.01995366,0.06816243,0.27817725,0.53316803,0.88855657
29099,0,USMissouriJefferson,Missouri,Jefferson,2020-07-18 10:10:01.455786,2020-05-29 00:00:00.000000,0.01894857,0.03976987,0.10932592,42,89,246,17,46,154,0.00766677,0.02045664,0.06843833,0.29048467,0.54471566,0.89654627
29099,0,USMissouriJefferson,Missouri,Jefferson,2020-07-18 10:10:01.455786,2020-05-30 00:00:00.000000,0.01651896,0.04004866,0.10908452,37,90,245,15,46,155,0.00707836,0.02046149,0.06899835,0.30015849,0.56689814,0.92808642
29099,0,USMissouriJefferson,Missouri,Jefferson,2020-07-18 10:10:01.455786,2020-05-31 00:00:00.000000,0.01980387,0.04140787,0.10886997,44,93,245,17,46,156,0.00759884,0.02082918,0.06956273,0.30126800,0.55610527,0.94650784
29099,0,USMissouriJefferson,Missouri,Jefferson,2020-07-18 10:10:01.455786,2020-06-01 00:00:00.000000,0.01770480,0.04133092,0.10868666,39,93,244,15,48,158,0.00709071,0.02148447,0.07031825,0.31619104,0.56985086,0.94979680
29099,0,USMissouriJefferson,Missouri,Jefferson,2020-07-18 10:10:01.455786,2020-06-02 00:00:00.000000,0.02021261,0.04276123,0.10856559,45,96,244,18,48,160,0.00803494,0.02165014,0.07125096,0.32477410,0.57053584,0.96347074
29099,0,USMissouriJefferson,Missouri,Jefferson,2020-07-18 10:10:01.455786,2020-06-03 00:00:00.000000,0.01962008,0.04261667,0.10958311,44,95,246,17,50,162,0.00764644,0.02222853,0.07231194,0.32522187,0.57439356,0.99726931
29099,0,USMissouriJefferson,Missouri,Jefferson,2020-07-18 10:10:01.455786,2020-06-04 00:00:00.000000,0.02077418,0.04356736,0.11141261,46,98,250,20,50,165,0.00894898,0.02259816,0.07346465,0.32582653,0.57494308,0.97456443
29099,0,USMissouriJefferson,Missouri,Jefferson,2020-07-18 10:10:01.455786,2020-06-05 00:00:00.000000,0.02107586,0.04353511,0.11330825,47,97,255,18,51,166,0.00816190,0.02303383,0.07414452,0.33190389,0.57962332,0.97014971
29099,0,USMissouriJefferson,Missouri,Jefferson,2020-07-18 10:10:01.455786,2020-06-06 00:00:00.000000,0.02233192,0.04488133,0.11526180,50,101,259,22,52,164,0.00980452,0.02353795,0.07307804,0.33417893,0.57823883,0.98155237
29099,0,USMissouriJefferson,Missouri,Jefferson,2020-07-18 10:10:01.455786,2020-06-07 00:00:00.000000,0.02195097,0.04572442,0.11391927,49,102,256,20,54,162,0.00899295,0.02432464,0.07228721,0.32876611,0.57806154,0.94919968
29099,0,USMissouriJefferson,Missouri,Jefferson,2020-07-18 10:10:01.455786,2020-06-08 00:00:00.000000,0.02295304,0.04807304,0.11779245,51,108,265,23,56,165,0.01044005,0.02527878,0.07340606,0.33659207,0.57853549,0.93003497
29099,0,USMissouriJefferson,Missouri,Jefferson,2020-07-18 10:10:01.455786,2020-06-09 00:00:00.000000,0.02298204,0.04990733,0.12299063,51,112,276,21,58,167,0.00957932,0.02621123,0.07452395,0.33399554,0.58108247,0.93821693
29099,0,USMissouriJefferson,Missouri,Jefferson,2020-07-18 10:10:01.455786,2020-06-10 00:00:00.000000,0.02498684,0.05227148,0.12750439,56,117,286,24,60,170,0.01103754,0.02680225,0.07578881,0.34051676,0.58273463,0.95198736
29099,0,USMissouriJefferson,Missouri,Jefferson,2020-07-18 10:10:01.455786,2020-06-11 00:00:00.000000,0.02326346,0.05252350,0.13297738,52,118,299,22,62,173,0.00988520,0.02774137,0.07728186,0.35162661,0.58601131,0.98431353
29099,0,USMissouriJefferson,Missouri,Jefferson,2020-07-18 10:10:01.455786,2020-06-12 00:00:00.000000,0.02550799,0.05722322,0.13864983,57,128,312,26,64,181,0.01179050,0.02887701,0.08079421,0.35966494,0.58977311,1.00480980
29099,0,USMissouriJefferson,Missouri,Jefferson,2020-07-18 10:10:01.455786,2020-06-13 00:00:00.000000,0.02360341,0.05882669,0.14436872,53,132,324,22,67,192,0.01014575,0.02978016,0.08556909,0.37122532,0.59486329,0.99107820
29099,0,USMissouriJefferson,Missouri,Jefferson,2020-07-18 10:10:01.455786,2020-06-14 00:00:00.000000,0.02699001,0.06193941,0.14992383,60,139,337,26,69,202,0.01175133,0.03105412,0.09017300,0.37397165,0.61119162,0.99430898
29099,0,USMissouriJefferson,Missouri,Jefferson,2020-07-18 10:10:01.455786,2020-06-15 00:00:00.000000,0.02532108,0.06530390,0.15507632,56,146,349,24,72,212,0.01073709,0.03238720,0.09447062,0.37883572,0.61457113,1.04339860
29099,0,USMissouriJefferson,Missouri,Jefferson,2020-07-18 10:10:01.455786,2020-06-16 00:00:00.000000,0.03088626,0.06950150,0.16201326,69,156,364,28,76,221,0.01261099,0.03396061,0.09850782,0.38063749,0.62106385,1.07103321
29099,0,USMissouriJefferson,Missouri,Jefferson,2020-07-18 10:10:01.455786,2020-06-17 00:00:00.000000,0.02818496,0.07263673,0.16936694,63,163,381,27,78,230,0.01218367,0.03480968,0.10241074,0.38635100,0.62830989,1.07571961
29099,0,USMissouriJefferson,Missouri,Jefferson,2020-07-18 10:10:01.455786,2020-06-18 00:00:00.000000,0.03618031,0.07559634,0.17737036,81,170,399,32,81,239,0.01464021,0.03609774,0.10628807,0.39994573,0.63318459,1.07068047
29099,0,USMissouriJefferson,Missouri,Jefferson,2020-07-18 10:10:01.455786,2020-06-19 00:00:00.000000,0.03200748,0.07814461,0.18599265,72,175,418,31,85,248,0.01417304,0.03796652,0.11019212,0.40489086,0.64224916,1.10488833
29099,0,USMissouriJefferson,Missouri,Jefferson,2020-07-18 10:10:01.455786,2020-06-20 00:00:00.000000,0.04052437,0.08131356,0.19509005,91,183,439,37,91,259,0.01685822,0.04047708,0.11521747,0.40485933,0.66138581,1.11068373
29099,0,USMissouriJefferson,Missouri,Jefferson,2020-07-18 10:10:01.455786,2020-06-21 00:00:00.000000,0.03877763,0.08316082,0.20712073,87,187,466,36,95,273,0.01642098,0.04229740,0.12165293,0.41819830,0.66026003,1.11561070
29099,0,USMissouriJefferson,Missouri,Jefferson,2020-07-18 10:10:01.455786,2020-06-22 00:00:00.000000,0.04536818,0.08798643,0.21534935,102,198,484,43,100,283,0.01949305,0.04455430,0.12576096,0.42923516,0.66810298,1.13259656
29099,0,USMissouriJefferson,Missouri,Jefferson,2020-07-18 10:10:01.455786,2020-06-23 00:00:00.000000,0.04703488,0.09123600,0.22651093,105,205,509,42,105,292,0.01898879,0.04678863,0.12987568,0.43606523,0.66736831,1.14653910
29099,0,USMissouriJefferson,Missouri,Jefferson,2020-07-18 10:10:01.455786,2020-06-24 00:00:00.000000,0.05586669,0.09771876,0.24197617,125,219,544,50,113,307,0.02254809,0.05062842,0.13680040,0.44289592,0.67138218,1.12429328
29099,0,USMissouriJefferson,Missouri,Jefferson,2020-07-18 10:10:01.455786,2020-06-25 00:00:00.000000,0.05488361,0.10484444,0.25881555,123,235,582,49,116,331,0.02194940,0.05194757,0.14715528,0.44694713,0.66906964,1.09820020
29099,0,USMissouriJefferson,Missouri,Jefferson,2020-07-18 10:10:01.455786,2020-06-26 00:00:00.000000,0.06477763,0.11437356,0.27116182,145,257,610,59,125,357,0.02623222,0.05586876,0.15869479,0.45566856,0.66820377,1.10297482
29099,0,USMissouriJefferson,Missouri,Jefferson,2020-07-18 10:10:01.455786,2020-06-27 00:00:00.000000,0.06413196,0.12060091,0.28135608,144,271,633,57,128,386,0.02555815,0.05708974,0.17150115,0.45633083,0.67315847,1.07415037
29099,0,USMissouriJefferson,Missouri,Jefferson,2020-07-18 10:10:01.455786,2020-06-28 00:00:00.000000,0.07322643,0.12913912,0.29329147,164,290,660,68,137,412,0.03029938,0.06090765,0.18337984,0.45756681,0.67948914,1.09207774
29099,0,USMissouriJefferson,Missouri,Jefferson,2020-07-18 10:10:01.455786,2020-06-29 00:00:00.000000,0.07439505,0.13733912,0.30864486,167,309,694,66,146,434,0.02941719,0.06512944,0.19302961,0.45768546,0.67400099,1.10463701
29099,0,USMissouriJefferson,Missouri,Jefferson,2020-07-18 10:10:01.455786,2020-06-30 00:00:00.000000,0.08174715,0.14543657,0.32358084,183,327,728,79,155,457,0.03534870,0.06896035,0.20306427,0.45107972,0.67264645,1.09465088
29099,0,USMissouriJefferson,Missouri,Jefferson,2020-07-18 10:10:01.455786,2020-07-01 00:00:00.000000,0.08479516,0.15381081,0.33837976,190,346,761,76,165,480,0.03400743,0.07374355,0.21330720,0.44582864,0.66811752,1.07275051
29099,0,USMissouriJefferson,Missouri,Jefferson,2020-07-18 10:10:01.455786,2020-07-02 00:00:00.000000,0.09130417,0.16466345,0.35385428,205,370,796,85,171,503,0.03817471,0.07627066,0.22375411,0.44547599,0.67240033,1.07153636
29099,0,USMissouriJefferson,Missouri,Jefferson,2020-07-18 10:10:01.455786,2020-07-03 00:00:00.000000,0.09565131,0.17352081,0.37057640,215,390,834,82,182,526,0.03680206,0.08118084,0.23391221,0.43865872,0.66953845,1.06985561
29099,0,USMissouriJefferson,Missouri,Jefferson,2020-07-18 10:10:01.455786,2020-07-04 00:00:00.000000,0.10244417,0.18439906,0.38949722,230,415,876,98,195,550,0.04391727,0.08676718,0.24472699,0.44636836,0.66499460,1.06441392
29099,0,USMissouriJefferson,Missouri,Jefferson,2020-07-18 10:10:01.455786,2020-07-05 00:00:00.000000,0.10752471,0.19780063,0.41430818,242,445,932,91,208,577,0.04074698,0.09283136,0.25677737,0.45354717,0.66225403,1.05651497
29099,0,USMissouriJefferson,Missouri,Jefferson,2020-07-18 10:10:01.455786,2020-07-06 00:00:00.000000,0.11392843,0.20803682,0.44124223,256,468,993,108,223,608,0.04829376,0.09921179,0.27024491,0.44879155,0.65486431,1.07277036
29099,0,USMissouriJefferson,Missouri,Jefferson,2020-07-18 10:10:01.455786,2020-07-07 00:00:00.000000,0.11649351,0.21842670,0.46912298,262,491,1055,103,236,641,0.04579311,0.10501586,0.28487986,0.43855939,0.65597832,1.07310447
29099,0,USMissouriJefferson,Missouri,Jefferson,2020-07-18 10:10:01.455786,2020-07-08 00:00:00.000000,0.12782971,0.22823652,0.49832344,287,513,1121,121,244,675,0.05411952,0.10852420,0.30007250,0.43428433,0.65580940,1.07630697
29099,0,USMissouriJefferson,Missouri,Jefferson,2020-07-18 10:10:01.455786,2020-07-09 00:00:00.000000,0.12869617,0.23613797,0.52915754,289,531,1191,115,257,711,0.05153566,0.11419893,0.31590768,0.43216915,0.65694503,1.08215640
29099,0,USMissouriJefferson,Missouri,Jefferson,2020-07-18 10:10:01.455786,2020-07-10 00:00:00.000000,0.14069369,0.24819005,0.56181725,316,558,1264,132,273,748,0.05892989,0.12132981,0.33256571,0.43113743,0.65631676,1.08217308
29099,0,USMissouriJefferson,Missouri,Jefferson,2020-07-18 10:10:01.455786,2020-07-11 00:00:00.000000,0.13438417,0.26305110,0.59644099,302,592,1342,127,288,787,0.05658545,0.12836864,0.35008113,0.43066066,0.65527454,1.08218184
29099,0,USMissouriJefferson,Missouri,Jefferson,2020-07-18 10:10:01.455786,2020-07-12 00:00:00.000000,0.13899691,0.28020074,0.63315075,312,630,1425,143,309,829,0.06385069,0.13772819,0.36849386,0.43044586,0.65446340,1.08218679
29099,0,USMissouriJefferson,Missouri,Jefferson,2020-07-18 10:10:01.455786,2020-07-13 00:00:00.000000,0.14262515,0.29053156,0.67206591,321,653,1512,134,326,872,0.05986791,0.14507838,0.38784600,0.43035019,0.65446278,1.08218968
29099,0,USMissouriJefferson,Missouri,Jefferson,2020-07-18 10:10:01.455786,2020-07-14 00:00:00.000000,0.14929361,0.30228179,0.71117918,336,680,1600,156,350,902,0.06946764,0.15563999,0.40078743,0.43030780,0.65445176,1.08219138
29099,0,USMissouriJefferson,Missouri,Jefferson,2020-07-18 10:10:01.455786,2020-07-15 00:00:00.000000,0.15427174,0.31816231,0.76047975,347,716,1711,143,368,928,0.06377742,0.16368141,0.41267866,0.43028906,0.65443336,1.08219239
29099,0,USMissouriJefferson,Missouri,Jefferson,2020-07-18 10:10:01.455786,2020-07-16 00:00:00.000000,0.16140415,0.33406196,0.80931653,363,751,1821,169,390,956,0.07513197,0.17344711,0.42489914,0.43028079,0.65442431,1.08219298
29099,0,USMissouriJefferson,Missouri,Jefferson,2020-07-18 10:10:01.455786,2020-07-17 00:00:00.000000,0.16473283,0.34735938,0.87792686,370,781,1976,152,406,1054,0.06794323,0.18072537,0.46829621,0.43027713,0.65441987,1.08219333
29099,0,USMissouriJefferson,Missouri,Jefferson,2020-07-18 10:10:01.455786,2020-07-18 00:00:00.000000,0.17149384,0.36880701,0.94701151,386,830,2131,180,433,1138,0.08005870,0.19238027,0.50584633,0.43027552,0.65441768,1.08219354
29099,0,USMissouriJefferson,Missouri,Jefferson,2020-07-18 10:10:01.455786,2020-07-19 00:00:00.000000,0.17244349,0.38435023,1.01513538,388,865,2284,162,457,1204,0.07230706,0.20307929,0.53528025,0.43027481,0.65441661,1.08219366
29099,0,USMissouriJefferson,Missouri,Jefferson,2020-07-18 10:10:01.455786,2020-07-20 00:00:00.000000,0.18010466,0.41112275,1.08846826,405,925,2449,184,476,1275,0.08190837,0.21159629,0.56660087,0.43027449,0.65441608,1.08219373
29099,0,USMissouriJefferson,Missouri,Jefferson,2020-07-18 10:10:01.455786,2020-07-21 00:00:00.000000,0.18044988,0.42761148,1.19495468,406,962,2689,173,498,1396,0.07695395,0.22145423,0.62034828,0.43027436,0.65441582,1.08219378
29099,0,USMissouriJefferson,Missouri,Jefferson,2020-07-18 10:10:01.455786,2020-07-22 00:00:00.000000,0.18592594,0.45210676,1.31126928,418,1017,2951,188,526,1622,0.08379067,0.23406185,0.72077284,0.43027429,0.65441569,1.08219380
29099,0,USMissouriJefferson,Missouri,Jefferson,2020-07-18 10:10:01.455786,2020-07-23 00:00:00.000000,0.18839730,0.47632715,1.43815957,424,1072,3237,184,549,1760,0.08186345,0.24412547,0.78223347,0.43027427,0.65441563,1.08219382
29099,0,USMissouriJefferson,Missouri,Jefferson,2020-07-18 10:10:01.455786,2020-07-24 00:00:00.000000,0.19732026,0.51049439,1.57639286,444,1149,3548,192,578,1871,0.08570588,0.25707931,0.83168329,0.43027426,0.65441560,1.08219383
29099,0,USMissouriJefferson,Missouri,Jefferson,2020-07-18 10:10:01.455786,2020-07-25 00:00:00.000000,0.19644195,0.53382594,1.67662348,442,1201,3773,194,609,1982,0.08638433,0.27081139,0.88075779,0.43027425,0.65441558,1.08219383
29099,0,USMissouriJefferson,Missouri,Jefferson,2020-07-18 10:10:01.455786,2020-07-26 00:00:00.000000,0.20934955,0.56817180,1.85440510,471,1278,4173,202,644,2116,0.08983118,0.28630068,0.94011882,0.43027425,0.65441558,1.08219383
29099,0,USMissouriJefferson,Missouri,Jefferson,2020-07-18 10:10:01.455786,2020-07-27 00:00:00.000000,0.20474781,0.59215137,2.04969776,460,1332,4613,201,681,2324,0.08930228,0.30263047,1.03263357,0.43027425,0.65441557,1.08219384
29099,0,USMissouriJefferson,Missouri,Jefferson,2020-07-18 10:10:01.455786,2020-07-28 00:00:00.000000,0.21961274,0.62571094,2.26319943,494,1408,5094,214,704,2551,0.09536965,0.31290169,1.13365053,0.43027425,0.65441557,1.08219384
29099,0,USMissouriJefferson,Missouri,Jefferson,2020-07-18 10:10:01.455786,2020-07-29 00:00:00.000000,0.21331504,0.65241234,2.49607504,480,1468,5618,214,735,2799,0.09527374,0.32666834,1.24382246,0.43027425,0.65441557,1.08219384
29099,0,USMissouriJefferson,Missouri,Jefferson,2020-07-18 10:10:01.455786,2020-07-30 00:00:00.000000,0.22115603,0.70201026,2.73086420,497,1580,6146,227,776,3069,0.10129204,0.34477330,1.36382452,0.43027425,0.65441557,1.08219384
