FIPS,HR_UID,nameid,province,region,analysisTime,dates,pointprevalence_025,pointprevalence_50,pointprevalence_975,pointinfections_025,pointinfections_50,pointinfections_975,pointinfectious_025,pointinfectious_50,pointinfectious_975,pointinfectiousprevalence_05,pointinfectiousprevalence_50,pointinfectiousprevalence_95,infectrate_025,infectrate_50,infectrate_975
21217,0,USKentuckyTaylor,Kentucky,Taylor,2020-07-18 14:35:40.466489,2020-03-09 00:00:00.000000,0.00942647,0.04077580,0.24728605,2,10,63,0,1,14,0.00000000,0.00742908,0.05813911,0.53307912,0.73348315,1.17522324
21217,0,USKentuckyTaylor,Kentucky,Taylor,2020-07-18 14:35:40.466489,2020-03-10 00:00:00.000000,0.01106456,0.04589575,0.23020436,2,11,59,0,1,11,0.00003909,0.00675449,0.04632790,0.53306091,0.73346453,1.17519642
21217,0,USKentuckyTaylor,Kentucky,Taylor,2020-07-18 14:35:40.466489,2020-03-11 00:00:00.000000,0.00981477,0.04856950,0.25650177,2,12,66,0,1,9,0.00050224,0.00641448,0.03859969,0.53303273,0.73341029,1.17514657
21217,0,USKentuckyTaylor,Kentucky,Taylor,2020-07-18 14:35:40.466489,2020-03-12 00:00:00.000000,0.01088420,0.05154778,0.26635030,2,13,68,0,1,11,0.00172909,0.00679805,0.04507790,0.53298952,0.73325240,1.17505397
21217,0,USKentuckyTaylor,Kentucky,Taylor,2020-07-18 14:35:40.466489,2020-03-13 00:00:00.000000,0.01053299,0.05245401,0.28489372,2,13,73,0,1,10,0.00114232,0.00674343,0.04116441,0.53292423,0.73317440,1.17488208
21217,0,USKentuckyTaylor,Kentucky,Taylor,2020-07-18 14:35:40.466489,2020-03-14 00:00:00.000000,0.01130785,0.05571835,0.28360499,2,14,73,0,1,13,0.00190300,0.00732509,0.05323392,0.53282777,0.73366914,1.17456363
21217,0,USKentuckyTaylor,Kentucky,Taylor,2020-07-18 14:35:40.466489,2020-03-15 00:00:00.000000,0.01126950,0.05804581,0.31833962,2,14,82,0,2,12,0.00185874,0.00779706,0.04937191,0.53269011,0.73401825,1.17397568
21217,0,USKentuckyTaylor,Kentucky,Taylor,2020-07-18 14:35:40.466489,2020-03-16 00:00:00.000000,0.01192629,0.06116065,0.30372798,3,15,78,0,2,16,0.00202656,0.00872683,0.06230448,0.53250413,0.73557086,1.17289704
21217,0,USKentuckyTaylor,Kentucky,Taylor,2020-07-18 14:35:40.466489,2020-03-17 00:00:00.000000,0.01207986,0.06384845,0.32985082,3,16,84,0,2,15,0.00209152,0.00878097,0.05827023,0.52926312,0.73932283,1.17094132
21217,0,USKentuckyTaylor,Kentucky,Taylor,2020-07-18 14:35:40.466489,2020-03-18 00:00:00.000000,0.01273701,0.06667677,0.33275210,3,17,85,0,2,18,0.00215916,0.00965522,0.07296093,0.52357818,0.74190648,1.16747073
21217,0,USKentuckyTaylor,Kentucky,Taylor,2020-07-18 14:35:40.466489,2020-03-19 00:00:00.000000,0.01285119,0.07061637,0.35430483,3,18,91,0,2,17,0.00223033,0.00953926,0.06829354,0.51707067,0.74962407,1.16155039
21217,0,USKentuckyTaylor,Kentucky,Taylor,2020-07-18 14:35:40.466489,2020-03-20 00:00:00.000000,0.01379983,0.07438729,0.38074138,3,19,98,0,2,22,0.00230508,0.01110219,0.08562814,0.50458969,0.74952418,1.15221750
21217,0,USKentuckyTaylor,Kentucky,Taylor,2020-07-18 14:35:40.466489,2020-03-21 00:00:00.000000,0.01398823,0.07829742,0.40835467,3,20,105,0,2,20,0.00243841,0.01113007,0.07977509,0.47977494,0.74156190,1.14047272
21217,0,USKentuckyTaylor,Kentucky,Taylor,2020-07-18 14:35:40.466489,2020-03-22 00:00:00.000000,0.01491503,0.08223832,0.43654281,3,21,112,0,3,25,0.00246346,0.01232398,0.10041276,0.46437274,0.73979861,1.15119216
21217,0,USKentuckyTaylor,Kentucky,Taylor,2020-07-18 14:35:40.466489,2020-03-23 00:00:00.000000,0.01510502,0.08407263,0.46518657,3,21,119,0,3,23,0.00260397,0.01217391,0.09289736,0.45490409,0.74253352,1.16739904
21217,0,USKentuckyTaylor,Kentucky,Taylor,2020-07-18 14:35:40.466489,2020-03-24 00:00:00.000000,0.01628154,0.09160635,0.49454766,4,23,127,0,3,30,0.00269093,0.01368980,0.11691865,0.45270196,0.72988213,1.17037060
21217,0,USKentuckyTaylor,Kentucky,Taylor,2020-07-18 14:35:40.466489,2020-03-25 00:00:00.000000,0.01649374,0.09615455,0.52453856,4,24,135,0,3,27,0.00278079,0.01327774,0.10771368,0.45144538,0.74093329,1.16590024
21217,0,USKentuckyTaylor,Kentucky,Taylor,2020-07-18 14:35:40.466489,2020-03-26 00:00:00.000000,0.01750730,0.10084881,0.55474635,4,25,142,0,3,34,0.00287365,0.01521493,0.13482980,0.45085292,0.72782930,1.19457954
21217,0,USKentuckyTaylor,Kentucky,Taylor,2020-07-18 14:35:40.466489,2020-03-27 00:00:00.000000,0.01813654,0.10569810,0.58545349,4,27,150,0,3,31,0.00296963,0.01445237,0.12411264,0.44758912,0.72682055,1.21201922
21217,0,USKentuckyTaylor,Kentucky,Taylor,2020-07-18 14:35:40.466489,2020-03-28 00:00:00.000000,0.01879622,0.11071147,0.61706402,4,28,159,0,4,39,0.00306890,0.01690822,0.15395133,0.43973746,0.72400323,1.23089908
21217,0,USKentuckyTaylor,Kentucky,Taylor,2020-07-18 14:35:40.466489,2020-03-29 00:00:00.000000,0.01949194,0.11590083,0.65507066,5,29,168,0,4,36,0.00317184,0.01571139,0.14190349,0.42044749,0.72331349,1.25799832
21217,0,USKentuckyTaylor,Kentucky,Taylor,2020-07-18 14:35:40.466489,2020-03-30 00:00:00.000000,0.02024023,0.12244233,0.69794346,5,31,179,0,4,44,0.00329295,0.01878655,0.17433851,0.40876616,0.72654418,1.27695723
21217,0,USKentuckyTaylor,Kentucky,Taylor,2020-07-18 14:35:40.466489,2020-03-31 00:00:00.000000,0.02106986,0.12993978,0.74372959,5,33,191,0,4,41,0.00345279,0.01707598,0.16155160,0.40608619,0.71745558,1.29833653
21217,0,USKentuckyTaylor,Kentucky,Taylor,2020-07-18 14:35:40.466489,2020-04-01 00:00:00.000000,0.02198851,0.14167108,0.79262283,5,36,204,0,5,50,0.00362682,0.02075220,0.19609748,0.40283821,0.70424576,1.32135593
21217,0,USKentuckyTaylor,Kentucky,Taylor,2020-07-18 14:35:40.466489,2020-04-02 00:00:00.000000,0.02296784,0.14354721,0.84481513,5,36,217,0,5,47,0.00378528,0.01958220,0.18366078,0.40041030,0.68901551,1.33002536
21217,0,USKentuckyTaylor,Kentucky,Taylor,2020-07-18 14:35:40.466489,2020-04-03 00:00:00.000000,0.02396296,0.15603775,0.90037876,6,40,232,1,5,56,0.00393545,0.02248682,0.21953024,0.40190995,0.69969058,1.33592047
21217,0,USKentuckyTaylor,Kentucky,Taylor,2020-07-18 14:35:40.466489,2020-04-04 00:00:00.000000,0.02489929,0.15800562,0.95863362,6,40,247,1,5,53,0.00408778,0.02278396,0.20874031,0.40966579,0.69832119,1.33638664
21217,0,USKentuckyTaylor,Kentucky,Taylor,2020-07-18 14:35:40.466489,2020-04-05 00:00:00.000000,0.02572738,0.16720044,1.01728752,6,43,262,1,6,63,0.00423044,0.02432135,0.24511145,0.40464099,0.67548409,1.32471498
21217,0,USKentuckyTaylor,Kentucky,Taylor,2020-07-18 14:35:40.466489,2020-04-06 00:00:00.000000,0.02645067,0.17070511,1.07673296,6,43,277,1,6,61,0.00435939,0.02527199,0.23676191,0.38173457,0.64556158,1.29856992
21217,0,USKentuckyTaylor,Kentucky,Taylor,2020-07-18 14:35:40.466489,2020-04-07 00:00:00.000000,0.02711426,0.18709360,1.14192831,6,48,294,1,6,70,0.00448244,0.02624368,0.27223316,0.37603591,0.63545400,1.27232771
21217,0,USKentuckyTaylor,Kentucky,Taylor,2020-07-18 14:35:40.466489,2020-04-08 00:00:00.000000,0.02779283,0.18384892,1.23420079,7,47,318,1,7,68,0.00460550,0.02723400,0.26697344,0.37448843,0.62741166,1.26845180
21217,0,USKentuckyTaylor,Kentucky,Taylor,2020-07-18 14:35:40.466489,2020-04-09 00:00:00.000000,0.02853121,0.19662614,1.33460164,7,50,343,1,7,77,0.00473083,0.02824039,0.30069335,0.37375650,0.62372445,1.26013656
21217,0,USKentuckyTaylor,Kentucky,Taylor,2020-07-18 14:35:40.466489,2020-04-10 00:00:00.000000,0.02937428,0.20198841,1.44359478,7,52,371,1,7,77,0.00485907,0.02926205,0.29992555,0.37349050,0.62357299,1.23266742
21217,0,USKentuckyTaylor,Kentucky,Taylor,2020-07-18 14:35:40.466489,2020-04-11 00:00:00.000000,0.03034669,0.21551338,1.56270096,7,55,402,1,7,85,0.00498964,0.03030077,0.33075744,0.37420438,0.61409766,1.18444955
21217,0,USKentuckyTaylor,Kentucky,Taylor,2020-07-18 14:35:40.466489,2020-04-12 00:00:00.000000,0.03141616,0.22706021,1.69225489,8,58,436,1,8,86,0.00511547,0.03202613,0.33578543,0.36798251,0.61056966,1.14396941
21217,0,USKentuckyTaylor,Kentucky,Taylor,2020-07-18 14:35:40.466489,2020-04-13 00:00:00.000000,0.03254338,0.24099922,1.83182934,8,62,472,1,8,95,0.00523106,0.03397688,0.37072449,0.35645358,0.61169848,1.14277172
21217,0,USKentuckyTaylor,Kentucky,Taylor,2020-07-18 14:35:40.466489,2020-04-14 00:00:00.000000,0.03331510,0.24294718,1.98227324,8,62,510,1,9,96,0.00534560,0.03595502,0.37413508,0.35108024,0.61226954,1.14184856
21217,0,USKentuckyTaylor,Kentucky,Taylor,2020-07-18 14:35:40.466489,2020-04-15 00:00:00.000000,0.03391487,0.26787399,2.14612311,8,69,553,1,9,107,0.00548150,0.03776049,0.41657137,0.34394473,0.59706267,1.13452876
21217,0,USKentuckyTaylor,Kentucky,Taylor,2020-07-18 14:35:40.466489,2020-04-16 00:00:00.000000,0.03463391,0.26695983,2.32389937,8,68,598,1,10,105,0.00562360,0.03948867,0.40947802,0.33885975,0.60068895,1.13757182
21217,0,USKentuckyTaylor,Kentucky,Taylor,2020-07-18 14:35:40.466489,2020-04-17 00:00:00.000000,0.03573111,0.28732788,2.51457353,9,74,647,1,10,120,0.00577149,0.04119629,0.46826801,0.33437657,0.59374357,1.17438767
21217,0,USKentuckyTaylor,Kentucky,Taylor,2020-07-18 14:35:40.466489,2020-04-18 00:00:00.000000,0.03701356,0.29826891,2.71835667,9,76,700,1,11,116,0.00593551,0.04349390,0.45362119,0.32855059,0.57698090,1.16185520
21217,0,USKentuckyTaylor,Kentucky,Taylor,2020-07-18 14:35:40.466489,2020-04-19 00:00:00.000000,0.03834259,0.31883492,2.93582342,9,82,756,1,11,131,0.00612032,0.04591664,0.50989381,0.31919248,0.59393741,1.14717908
21217,0,USKentuckyTaylor,Kentucky,Taylor,2020-07-18 14:35:40.466489,2020-04-20 00:00:00.000000,0.03969502,0.32569794,3.10217318,10,83,799,1,12,133,0.00631273,0.04818701,0.51694419,0.31511492,0.59448407,1.12300828
21217,0,USKentuckyTaylor,Kentucky,Taylor,2020-07-18 14:35:40.466489,2020-04-21 00:00:00.000000,0.04106699,0.34796344,3.25984826,10,89,840,1,12,142,0.00651050,0.05035924,0.55391025,0.31349883,0.60428226,1.07700661
21217,0,USKentuckyTaylor,Kentucky,Taylor,2020-07-18 14:35:40.466489,2020-04-22 00:00:00.000000,0.04244967,0.35645527,3.42369383,10,91,882,1,13,148,0.00671426,0.05229351,0.57723143,0.31435656,0.60493204,1.05631011
21217,0,USKentuckyTaylor,Kentucky,Taylor,2020-07-18 14:35:40.466489,2020-04-23 00:00:00.000000,0.04381801,0.37276218,3.58955700,11,96,924,1,14,162,0.00692274,0.05437161,0.62872260,0.32019315,0.61198519,1.03205360
21217,0,USKentuckyTaylor,Kentucky,Taylor,2020-07-18 14:35:40.466489,2020-04-24 00:00:00.000000,0.04513267,0.38464500,3.75651119,11,99,968,1,14,161,0.00713830,0.05668239,0.62694997,0.31976891,0.62985752,0.98805979
21217,0,USKentuckyTaylor,Kentucky,Taylor,2020-07-18 14:35:40.466489,2020-04-25 00:00:00.000000,0.04638161,0.40749838,3.92799657,11,105,1012,1,15,184,0.00736264,0.05933370,0.71546839,0.31896147,0.62623381,0.93639315
21217,0,USKentuckyTaylor,Kentucky,Taylor,2020-07-18 14:35:40.466489,2020-04-26 00:00:00.000000,0.04760728,0.41492112,4.10698950,12,106,1058,1,15,175,0.00758082,0.06107735,0.68108670,0.32134695,0.63263192,0.92045497
21217,0,USKentuckyTaylor,Kentucky,Taylor,2020-07-18 14:35:40.466489,2020-04-27 00:00:00.000000,0.04887396,0.44842566,4.29497041,12,115,1106,2,16,208,0.00779638,0.06535321,0.80923246,0.31927053,0.61957059,0.89516753
21217,0,USKentuckyTaylor,Kentucky,Taylor,2020-07-18 14:35:40.466489,2020-04-28 00:00:00.000000,0.05025401,0.46430028,4.49264651,12,119,1157,2,17,190,0.00801616,0.06756506,0.74000193,0.31872646,0.61365432,0.90119285
21217,0,USKentuckyTaylor,Kentucky,Taylor,2020-07-18 14:35:40.466489,2020-04-29 00:00:00.000000,0.05183519,0.49357006,4.70041710,13,127,1211,2,18,234,0.00824832,0.07003843,0.90929560,0.31694766,0.60081267,0.91697047
21217,0,USKentuckyTaylor,Kentucky,Taylor,2020-07-18 14:35:40.466489,2020-04-30 00:00:00.000000,0.05369243,0.52219355,4.92184339,13,134,1268,2,18,208,0.00850218,0.07220943,0.80795194,0.31104007,0.61442411,0.93394346
21217,0,USKentuckyTaylor,Kentucky,Taylor,2020-07-18 14:35:40.466489,2020-05-01 00:00:00.000000,0.05583050,0.54239342,5.19806536,14,139,1339,2,19,260,0.00878513,0.07539854,1.01035497,0.30702517,0.61505690,0.95298588
21217,0,USKentuckyTaylor,Kentucky,Taylor,2020-07-18 14:35:40.466489,2020-05-02 00:00:00.000000,0.05819238,0.55647306,5.49023128,14,143,1414,2,19,234,0.00909811,0.07709762,0.91184818,0.29919149,0.64037476,0.96979796
21217,0,USKentuckyTaylor,Kentucky,Taylor,2020-07-18 14:35:40.466489,2020-05-03 00:00:00.000000,0.06072525,0.57410661,5.79902381,15,147,1494,2,20,286,0.00943741,0.07961286,1.11009144,0.29632678,0.62307936,0.98315746
21217,0,USKentuckyTaylor,Kentucky,Taylor,2020-07-18 14:35:40.466489,2020-05-04 00:00:00.000000,0.06341754,0.60237952,6.12529255,16,155,1578,2,21,266,0.00979993,0.08218059,1.03399811,0.29563165,0.62486172,0.99318690
21217,0,USKentuckyTaylor,Kentucky,Taylor,2020-07-18 14:35:40.466489,2020-05-05 00:00:00.000000,0.06630033,0.62077464,6.47014877,17,159,1667,2,22,319,0.01018611,0.08596428,1.24143225,0.29565682,0.63207421,0.99917390
21217,0,USKentuckyTaylor,Kentucky,Taylor,2020-07-18 14:35:40.466489,2020-05-06 00:00:00.000000,0.06943274,0.63761805,6.83537555,17,164,1761,2,22,303,0.01060055,0.08748640,1.17719903,0.29653510,0.64079332,1.00109236
21217,0,USKentuckyTaylor,Kentucky,Taylor,2020-07-18 14:35:40.466489,2020-05-07 00:00:00.000000,0.07287091,0.66806272,7.22390050,18,172,1861,2,24,362,0.01105143,0.09360445,1.40773957,0.30022639,0.64862055,1.00065731
21217,0,USKentuckyTaylor,Kentucky,Taylor,2020-07-18 14:35:40.466489,2020-05-08 00:00:00.000000,0.07649369,0.68555494,7.63832121,19,176,1968,2,23,346,0.01154753,0.09298280,1.34355149,0.30444107,0.64340932,1.00485301
21217,0,USKentuckyTaylor,Kentucky,Taylor,2020-07-18 14:35:40.466489,2020-05-09 00:00:00.000000,0.08029252,0.72651323,8.07725960,20,187,2081,3,26,412,0.01209366,0.10172387,1.59981758,0.31418897,0.64281935,1.07906825
21217,0,USKentuckyTaylor,Kentucky,Taylor,2020-07-18 14:35:40.466489,2020-05-10 00:00:00.000000,0.08429367,0.73869497,8.53818671,21,190,2200,3,25,395,0.01268896,0.09976725,1.53393394,0.30491134,0.65249778,1.10416593
21217,0,USKentuckyTaylor,Kentucky,Taylor,2020-07-18 14:35:40.466489,2020-05-11 00:00:00.000000,0.08847589,0.76295212,9.02174655,22,196,2324,3,28,469,0.01332956,0.10899401,1.82091057,0.30181835,0.67422548,1.11353949
21217,0,USKentuckyTaylor,Kentucky,Taylor,2020-07-18 14:35:40.466489,2020-05-12 00:00:00.000000,0.09282806,0.81270972,9.53025092,23,209,2455,3,28,450,0.01401184,0.10968918,1.74870992,0.30360573,0.68311147,1.13189801
21217,0,USKentuckyTaylor,Kentucky,Taylor,2020-07-18 14:35:40.466489,2020-05-13 00:00:00.000000,0.09734320,0.85082459,10.06701207,25,219,2594,3,30,535,0.01473374,0.11705948,2.07683771,0.31576539,0.68041282,1.18341318
21217,0,USKentuckyTaylor,Kentucky,Taylor,2020-07-18 14:35:40.466489,2020-05-14 00:00:00.000000,0.10200943,0.89842726,10.83288609,26,231,2791,3,31,514,0.01549463,0.12042349,1.99619157,0.32075122,0.66811762,1.19281990
21217,0,USKentuckyTaylor,Kentucky,Taylor,2020-07-18 14:35:40.466489,2020-05-15 00:00:00.000000,0.10679956,0.93329023,11.71803908,27,240,3019,4,32,613,0.01629447,0.12712073,2.38029425,0.31424882,0.65560519,1.20274527
21217,0,USKentuckyTaylor,Kentucky,Taylor,2020-07-18 14:35:40.466489,2020-05-16 00:00:00.000000,0.11166449,0.97318958,12.65510165,28,250,3261,4,34,590,0.01713286,0.13212290,2.28965341,0.31080866,0.64603432,1.21091868
21217,0,USKentuckyTaylor,Kentucky,Taylor,2020-07-18 14:35:40.466489,2020-05-17 00:00:00.000000,0.11654643,1.00775127,13.63432690,30,259,3513,4,35,696,0.01800791,0.13844993,2.70128317,0.31138697,0.64027689,1.21716842
21217,0,USKentuckyTaylor,Kentucky,Taylor,2020-07-18 14:35:40.466489,2020-05-18 00:00:00.000000,0.12141912,1.05351189,14.66598522,31,271,3779,4,37,655,0.01891628,0.14529095,2.54339542,0.30543700,0.63477989,1.22342387
21217,0,USKentuckyTaylor,Kentucky,Taylor,2020-07-18 14:35:40.466489,2020-05-19 00:00:00.000000,0.12631542,1.08384576,15.76034289,32,279,4061,5,39,770,0.01985628,0.15281605,2.98841594,0.30127343,0.63718733,1.23161748
21217,0,USKentuckyTaylor,Kentucky,Taylor,2020-07-18 14:35:40.466489,2020-05-20 00:00:00.000000,0.13169196,1.12498349,16.92219543,33,289,4360,5,41,726,0.02083091,0.16097477,2.81842840,0.30095793,0.65187702,1.24391415
21217,0,USKentuckyTaylor,Kentucky,Taylor,2020-07-18 14:35:40.466489,2020-05-21 00:00:00.000000,0.13746068,1.18930016,18.15424598,35,306,4678,5,43,851,0.02184619,0.16964098,3.30611212,0.30126702,0.65119937,1.34621710
21217,0,USKentuckyTaylor,Kentucky,Taylor,2020-07-18 14:35:40.466489,2020-05-22 00:00:00.000000,0.14351111,1.23177185,19.45856355,36,317,5014,5,46,805,0.02290829,0.17872667,3.12565605,0.29842371,0.64761046,1.35134740
21217,0,USKentuckyTaylor,Kentucky,Taylor,2020-07-18 14:35:40.466489,2020-05-23 00:00:00.000000,0.14989495,1.26768956,20.83689745,38,326,5369,6,48,945,0.02402292,0.18816713,3.67099511,0.30083568,0.65481731,1.35898543
21217,0,USKentuckyTaylor,Kentucky,Taylor,2020-07-18 14:35:40.466489,2020-05-24 00:00:00.000000,0.15666451,1.30783211,22.29068634,40,337,5744,6,50,892,0.02519363,0.19790018,3.46405998,0.28682679,0.64316085,1.36899152
21217,0,USKentuckyTaylor,Kentucky,Taylor,2020-07-18 14:35:40.466489,2020-05-25 00:00:00.000000,0.16311096,1.35802220,23.78790243,42,349,6129,6,53,1048,0.02639201,0.20786855,4.06811573,0.28215377,0.64322526,1.37944526
21217,0,USKentuckyTaylor,Kentucky,Taylor,2020-07-18 14:35:40.466489,2020-05-26 00:00:00.000000,0.16879651,1.44557826,25.17933703,43,372,6488,7,56,987,0.02762576,0.21803816,3.83394009,0.28622726,0.67444951,1.38800851
21217,0,USKentuckyTaylor,Kentucky,Taylor,2020-07-18 14:35:40.466489,2020-05-27 00:00:00.000000,0.17527870,1.52554083,26.48426453,45,393,6824,7,58,1158,0.02889668,0.22771376,4.49502942,0.29343532,0.66285642,1.39233441
21217,0,USKentuckyTaylor,Kentucky,Taylor,2020-07-18 14:35:40.466489,2020-05-28 00:00:00.000000,0.18399311,1.60327870,27.71894216,47,413,7142,7,61,1091,0.03023881,0.23905038,4.23390601,0.29799702,0.64330859,1.38616080
21217,0,USKentuckyTaylor,Kentucky,Taylor,2020-07-18 14:35:40.466489,2020-05-29 00:00:00.000000,0.19652665,1.71456839,28.98404736,50,441,7468,8,63,1275,0.03165347,0.24632491,4.94870942,0.29709987,0.64925414,1.35213142
21217,0,USKentuckyTaylor,Kentucky,Taylor,2020-07-18 14:35:40.466489,2020-05-30 00:00:00.000000,0.20681750,1.78308406,30.28758890,53,459,7804,8,67,1201,0.03314146,0.26142816,4.66213388,0.32236473,0.65283565,1.25620603
21217,0,USKentuckyTaylor,Kentucky,Taylor,2020-07-18 14:35:40.466489,2020-05-31 00:00:00.000000,0.21691104,1.90467545,31.64390764,55,490,8154,8,69,1397,0.03470536,0.26821626,5.42336402,0.32185968,0.67067525,1.20405661
21217,0,USKentuckyTaylor,Kentucky,Taylor,2020-07-18 14:35:40.466489,2020-06-01 00:00:00.000000,0.22789865,2.00519534,33.05370174,58,516,8517,9,73,1318,0.03635420,0.28588210,5.11814969,0.32198569,0.68898087,1.19407295
21217,0,USKentuckyTaylor,Kentucky,Taylor,2020-07-18 14:35:40.466489,2020-06-02 00:00:00.000000,0.24016487,2.11024199,34.49185333,61,543,8888,9,75,1525,0.03811473,0.29372941,5.91829090,0.32255651,0.70241196,1.19086019
21217,0,USKentuckyTaylor,Kentucky,Taylor,2020-07-18 14:35:40.466489,2020-06-03 00:00:00.000000,0.25358435,2.21822579,35.93059127,65,571,9258,10,80,1444,0.04002344,0.31292342,5.60492423,0.32457947,0.73925259,1.18684867
21217,0,USKentuckyTaylor,Kentucky,Taylor,2020-07-18 14:35:40.466489,2020-06-04 00:00:00.000000,0.26849444,2.30206261,37.34856254,69,593,9624,10,83,1660,0.04207940,0.32283219,6.44200551,0.32660426,0.74007363,1.16262645
21217,0,USKentuckyTaylor,Kentucky,Taylor,2020-07-18 14:35:40.466489,2020-06-05 00:00:00.000000,0.28310339,2.39940151,38.72753372,72,618,9979,11,88,1576,0.04426950,0.34271823,6.11914747,0.33377765,0.73041865,1.13051473
21217,0,USKentuckyTaylor,Kentucky,Taylor,2020-07-18 14:35:40.466489,2020-06-06 00:00:00.000000,0.29868738,2.54285020,40.05030131,76,655,10320,12,91,1802,0.04659802,0.35576088,6.99471130,0.36771771,0.72919517,1.19311901
21217,0,USKentuckyTaylor,Kentucky,Taylor,2020-07-18 14:35:40.466489,2020-06-07 00:00:00.000000,0.31560106,2.69119616,41.30728312,81,693,10644,12,96,1714,0.04907859,0.37502001,6.65254272,0.39283744,0.77947595,1.25294440
21217,0,USKentuckyTaylor,Kentucky,Taylor,2020-07-18 14:35:40.466489,2020-06-08 00:00:00.000000,0.33389954,2.79215806,42.50784897,86,719,10953,13,101,1948,0.05175807,0.39199297,7.56055613,0.37156402,0.79589911,1.27818781
21217,0,USKentuckyTaylor,Kentucky,Taylor,2020-07-18 14:35:40.466489,2020-06-09 00:00:00.000000,0.35308177,2.95274254,43.67790432,90,760,11255,14,105,1854,0.05464921,0.40956158,7.19688731,0.35424883,0.79746047,1.28806647
21217,0,USKentuckyTaylor,Kentucky,Taylor,2020-07-18 14:35:40.466489,2020-06-10 00:00:00.000000,0.37315767,3.03036183,44.89611335,96,780,11569,14,110,2094,0.05757382,0.42782154,8.12922178,0.34853732,0.83744559,1.29162658
21217,0,USKentuckyTaylor,Kentucky,Taylor,2020-07-18 14:35:40.466489,2020-06-11 00:00:00.000000,0.39423330,3.21577696,46.29197884,101,828,11928,15,114,1996,0.06042565,0.44549477,7.74705646,0.34704090,0.84058669,1.29331855
21217,0,USKentuckyTaylor,Kentucky,Taylor,2020-07-18 14:35:40.466489,2020-06-12 00:00:00.000000,0.41639813,3.32793006,47.71776718,107,857,12296,16,119,2240,0.06344302,0.46363504,8.69531681,0.34951377,0.84989524,1.29588967
21217,0,USKentuckyTaylor,Kentucky,Taylor,2020-07-18 14:35:40.466489,2020-06-13 00:00:00.000000,0.43972907,3.59358750,48.79845824,113,926,12574,17,124,2137,0.06662198,0.48240716,8.29658876,0.31826780,0.85743891,1.30106259
21217,0,USKentuckyTaylor,Kentucky,Taylor,2020-07-18 14:35:40.466489,2020-06-14 00:00:00.000000,0.45951679,3.69432423,50.18765924,118,951,12932,18,129,2383,0.06996459,0.50237549,9.24760614,0.32091929,0.86904076,1.30907638
21217,0,USKentuckyTaylor,Kentucky,Taylor,2020-07-18 14:35:40.466489,2020-06-15 00:00:00.000000,0.48026847,3.91394396,49.54197335,123,1008,12766,18,134,2275,0.07347603,0.52202037,8.83006795,0.32390503,0.87085616,1.31562923
21217,0,USKentuckyTaylor,Kentucky,Taylor,2020-07-18 14:35:40.466489,2020-06-16 00:00:00.000000,0.50176072,4.14566699,52.21828853,129,1068,13456,19,139,2518,0.07716304,0.54296412,9.77240300,0.32353897,0.86538923,1.29062679
21217,0,USKentuckyTaylor,Kentucky,Taylor,2020-07-18 14:35:40.466489,2020-06-17 00:00:00.000000,0.52475149,4.38765900,49.96102183,135,1130,12874,20,143,2407,0.08096922,0.55639814,9.34181831,0.32350574,0.83355691,1.28595802
21217,0,USKentuckyTaylor,Kentucky,Taylor,2020-07-18 14:35:40.466489,2020-06-18 00:00:00.000000,0.54911116,4.64003753,53.89437758,141,1195,13888,21,151,2646,0.08486400,0.58734291,10.27109464,0.32247337,0.83561517,1.31941882
21217,0,USKentuckyTaylor,Kentucky,Taylor,2020-07-18 14:35:40.466489,2020-06-19 00:00:00.000000,0.57571840,4.87688774,50.13777394,148,1256,12920,22,153,2534,0.08892353,0.59507953,9.83562050,0.31119784,0.82598487,1.33454839
21217,0,USKentuckyTaylor,Kentucky,Taylor,2020-07-18 14:35:40.466489,2020-06-20 00:00:00.000000,0.60461485,5.10882586,55.29161069,155,1316,14248,23,163,2769,0.09308122,0.63527902,10.74868459,0.30645030,0.86222272,1.28821296
21217,0,USKentuckyTaylor,Kentucky,Taylor,2020-07-18 14:35:40.466489,2020-06-21 00:00:00.000000,0.63655106,5.39891130,49.95600506,164,1391,12873,25,170,2657,0.09719431,0.66063431,10.31378601,0.30722088,0.84003456,1.27934135
21217,0,USKentuckyTaylor,Kentucky,Taylor,2020-07-18 14:35:40.466489,2020-06-22 00:00:00.000000,0.67042119,5.83058817,56.36262071,172,1502,14524,26,181,2886,0.10127433,0.70575147,11.20251099,0.31003802,0.82631689,1.29918602
21217,0,USKentuckyTaylor,Kentucky,Taylor,2020-07-18 14:35:40.466489,2020-06-23 00:00:00.000000,0.69620133,6.08710569,49.81341651,179,1568,12836,27,192,2776,0.10538643,0.74849674,10.77361104,0.31265979,0.82793524,1.33238992
21217,0,USKentuckyTaylor,Kentucky,Taylor,2020-07-18 14:35:40.466489,2020-06-24 00:00:00.000000,0.71587942,6.36739404,57.53960217,184,1640,14827,28,213,2997,0.10945705,0.82724194,11.63322240,0.30143680,0.80165882,1.35406856
21217,0,USKentuckyTaylor,Kentucky,Taylor,2020-07-18 14:35:40.466489,2020-06-25 00:00:00.000000,0.72735173,6.76158482,49.90664973,187,1742,12860,29,218,2889,0.11322947,0.84699435,11.21339049,0.29384623,0.73936277,1.37779001
21217,0,USKentuckyTaylor,Kentucky,Taylor,2020-07-18 14:35:40.466489,2020-06-26 00:00:00.000000,0.73093985,7.10690125,58.23106648,188,1831,15005,29,241,3103,0.11631194,0.93815729,12.04262653,0.28636658,0.75083665,1.43595217
21217,0,USKentuckyTaylor,Kentucky,Taylor,2020-07-18 14:35:40.466489,2020-06-27 00:00:00.000000,0.72922410,7.56262670,49.79921771,187,1948,12832,30,246,2997,0.11851242,0.95806441,11.63155219,0.31017968,0.73344990,1.43344151
21217,0,USKentuckyTaylor,Kentucky,Taylor,2020-07-18 14:35:40.466489,2020-06-28 00:00:00.000000,0.72448230,7.79165177,58.49070840,186,2007,15072,30,258,3202,0.12002642,1.00438801,12.42884381,0.32076919,0.73048441,1.45658725
21217,0,USKentuckyTaylor,Kentucky,Taylor,2020-07-18 14:35:40.466489,2020-06-29 00:00:00.000000,0.71954480,8.19647211,49.56380345,185,2112,12772,31,272,3098,0.12114869,1.05631942,12.02462297,0.31648706,0.74971656,1.51633938
21217,0,USKentuckyTaylor,Kentucky,Taylor,2020-07-18 14:35:40.466489,2020-06-30 00:00:00.000000,0.71588090,8.47949817,58.34223545,184,2185,15034,31,289,3295,0.12208039,1.12399319,12.78880153,0.31549056,0.76431787,1.55236737
21217,0,USKentuckyTaylor,Kentucky,Taylor,2020-07-18 14:35:40.466489,2020-07-01 00:00:00.000000,0.71480270,8.95516082,49.23870923,184,2307,12688,31,308,3192,0.12295666,1.19615465,12.39066504,0.31527378,0.77414289,1.56675877
21217,0,USKentuckyTaylor,Kentucky,Taylor,2020-07-18 14:35:40.466489,2020-07-02 00:00:00.000000,0.71783226,9.44487066,57.87409685,184,2433,14913,31,327,3381,0.12392566,1.27270545,13.12221076,0.31494786,0.77648139,1.57941647
21217,0,USKentuckyTaylor,Kentucky,Taylor,2020-07-18 14:35:40.466489,2020-07-03 00:00:00.000000,0.72527745,9.91142751,48.77700976,186,2554,12569,32,348,3280,0.12516423,1.35097071,12.73160037,0.30578602,0.78731324,1.58710591
21217,0,USKentuckyTaylor,Kentucky,Taylor,2020-07-18 14:35:40.466489,2020-07-04 00:00:00.000000,0.73568116,10.31206299,57.07537870,189,2657,14707,32,364,3461,0.12674261,1.41290197,13.43101137,0.28391099,0.80508958,1.62283854
21217,0,USKentuckyTaylor,Kentucky,Taylor,2020-07-18 14:35:40.466489,2020-07-05 00:00:00.000000,0.74748102,10.68242591,48.05378615,192,2752,12382,33,388,3362,0.12856706,1.50626542,13.04954002,0.26251729,0.80406206,1.72498516
21217,0,USKentuckyTaylor,Kentucky,Taylor,2020-07-18 14:35:40.466489,2020-07-06 00:00:00.000000,0.75913635,11.05746501,55.95260602,195,2849,14418,33,413,3534,0.13052435,1.60474252,13.71712797,0.25106328,0.82820324,1.81527731
21217,0,USKentuckyTaylor,Kentucky,Taylor,2020-07-18 14:35:40.466489,2020-07-07 00:00:00.000000,0.77031416,11.44649701,49.85150602,198,2949,12846,34,443,3439,0.13255312,1.72235092,13.34591192,0.24763601,0.81185423,1.85149796
21217,0,USKentuckyTaylor,Kentucky,Taylor,2020-07-18 14:35:40.466489,2020-07-08 00:00:00.000000,0.78158448,11.98765339,55.90975858,201,3089,14407,34,468,3603,0.13462850,1.81675802,13.98226037,0.24639264,0.81194253,1.86434632
21217,0,USKentuckyTaylor,Kentucky,Taylor,2020-07-18 14:35:40.466489,2020-07-09 00:00:00.000000,0.79292418,13.21776648,52.28975313,204,3406,13474,35,496,3510,0.13674137,1.92661641,13.62179528,0.24615917,0.81195094,1.86870432
21217,0,USKentuckyTaylor,Kentucky,Taylor,2020-07-18 14:35:40.466489,2020-07-10 00:00:00.000000,0.80433274,14.15350698,56.32675999,207,3647,14514,35,523,3666,0.13888837,2.03073940,14.22788617,0.24621217,0.81194602,1.87016078
21217,0,USKentuckyTaylor,Kentucky,Taylor,2020-07-18 14:35:40.466489,2020-07-11 00:00:00.000000,0.81581599,14.52593550,55.40326474,210,3743,14276,36,551,3576,0.14106816,2.13945962,13.87813918,0.24630128,0.81193992,1.87064544
21217,0,USKentuckyTaylor,Kentucky,Taylor,2020-07-18 14:35:40.466489,2020-07-12 00:00:00.000000,0.82738085,14.51196048,56.79537489,213,3739,14635,36,580,3724,0.14328014,2.25250368,14.45510476,0.24636797,0.81193481,1.87080661
21217,0,USKentuckyTaylor,Kentucky,Taylor,2020-07-18 14:35:40.466489,2020-07-13 00:00:00.000000,0.83903376,14.77209283,56.10787818,216,3806,14458,37,604,3648,0.14552399,2.34483273,14.15778651,0.24640916,0.81193090,1.87086022
21217,0,USKentuckyTaylor,Kentucky,Taylor,2020-07-18 14:35:40.466489,2020-07-14 00:00:00.000000,0.85078025,16.15972969,59.35203529,219,4164,15294,38,641,3778,0.14779952,2.49076834,14.66486354,0.24643260,0.81192802,1.87087807
21217,0,USKentuckyTaylor,Kentucky,Taylor,2020-07-18 14:35:40.466489,2020-07-15 00:00:00.000000,0.86262497,17.54429196,58.50666823,222,4520,15076,38,674,3772,0.15010661,2.61564695,14.63801871,0.24644539,0.81192595,1.87088402
21217,0,USKentuckyTaylor,Kentucky,Taylor,2020-07-18 14:35:40.466489,2020-07-16 00:00:00.000000,0.87457177,18.72592794,62.03409085,225,4825,15985,39,706,3832,0.15244519,2.74078093,14.87061000,0.24645220,0.81192448,1.87088600
21217,0,USKentuckyTaylor,Kentucky,Taylor,2020-07-18 14:35:40.466489,2020-07-17 00:00:00.000000,0.88662380,18.27028074,60.70220806,228,4708,15642,39,729,3890,0.15481525,2.83186718,15.09748998,0.24645578,0.81192345,1.87088667
21217,0,USKentuckyTaylor,Kentucky,Taylor,2020-07-18 14:35:40.466489,2020-07-18 00:00:00.000000,0.89878364,19.62962261,65.51189882,231,5058,16881,40,775,3947,0.15721677,3.01112892,15.31819815,0.24645764,0.81192272,1.87088689
21217,0,USKentuckyTaylor,Kentucky,Taylor,2020-07-18 14:35:40.466489,2020-07-19 00:00:00.000000,0.91105336,20.01527894,62.62648643,234,5157,16138,41,811,4002,0.15964978,3.14920733,15.53231812,0.24645861,0.81192222,1.87088696
21217,0,USKentuckyTaylor,Kentucky,Taylor,2020-07-18 14:35:40.466489,2020-07-20 00:00:00.000000,0.92343461,21.13574454,68.80491624,237,5446,17730,41,847,4055,0.16211431,3.29000173,15.73947647,0.24645911,0.81192188,1.87088699
21217,0,USKentuckyTaylor,Kentucky,Taylor,2020-07-18 14:35:40.466489,2020-07-21 00:00:00.000000,0.93592870,20.79859930,64.26177751,241,5359,16559,42,884,4107,0.16453145,3.43322670,15.93934301,0.24645936,0.81192164,1.87088700
21217,0,USKentuckyTaylor,Kentucky,Taylor,2020-07-18 14:35:40.466489,2020-07-22 00:00:00.000000,0.94853660,22.13164628,71.87364395,244,5703,18521,42,922,4156,0.16677884,3.57857029,16.13163156,0.24645950,0.81192147,1.87088700
21217,0,USKentuckyTaylor,Kentucky,Taylor,2020-07-18 14:35:40.466489,2020-07-23 00:00:00.000000,0.96125903,22.63060435,65.63529161,247,5831,16913,43,984,4204,0.16904911,3.82102894,16.31610095,0.24645956,0.81192136,1.87088700
21217,0,USKentuckyTaylor,Kentucky,Taylor,2020-07-18 14:35:40.466489,2020-07-24 00:00:00.000000,0.97409648,24.00229850,73.23911278,251,6185,18872,44,1025,4249,0.17134217,3.97915167,16.49255593,0.24645960,0.81192128,1.87088700
21217,0,USKentuckyTaylor,Kentucky,Taylor,2020-07-18 14:35:40.466489,2020-07-25 00:00:00.000000,0.98704924,25.33341736,68.86749101,254,6528,17746,44,1056,4293,0.17365797,4.09960073,16.66084780,0.24645962,0.81192123,1.87088700
21217,0,USKentuckyTaylor,Kentucky,Taylor,2020-07-18 14:35:40.466489,2020-07-26 00:00:00.000000,1.00011741,25.78839519,73.37228920,257,6645,18907,45,1101,4344,0.17599641,4.27527269,16.85814036,0.24645963,0.81192119,1.87088700
21217,0,USKentuckyTaylor,Kentucky,Taylor,2020-07-18 14:35:40.466489,2020-07-27 00:00:00.000000,1.01330094,26.34084966,71.04633858,261,6787,18307,45,1155,4457,0.17835743,4.48346962,17.29951051,0.24645963,0.81192117,1.87088700
21217,0,USKentuckyTaylor,Kentucky,Taylor,2020-07-18 14:35:40.466489,2020-07-28 00:00:00.000000,1.02659964,27.41867193,71.82293891,264,7065,18508,46,1209,4570,0.18074095,4.69224284,17.73481820,0.24645963,0.81192115,1.87088700
21217,0,USKentuckyTaylor,Kentucky,Taylor,2020-07-18 14:35:40.466489,2020-07-29 00:00:00.000000,1.04001318,28.21676005,71.75938188,268,7271,18491,47,1251,4680,0.18314686,4.85645011,18.16316857,0.24645963,0.81192114,1.87088700
21217,0,USKentuckyTaylor,Kentucky,Taylor,2020-07-18 14:35:40.466489,2020-07-30 00:00:00.000000,1.05354110,28.96114669,72.01562030,271,7462,18557,47,1282,4788,0.18557508,4.97734338,18.58369182,0.24645963,0.81192113,1.87088700
