FIPS,HR_UID,nameid,province,region,analysisTime,dates,pointprevalence_025,pointprevalence_50,pointprevalence_975,pointinfections_025,pointinfections_50,pointinfections_975,pointinfectious_025,pointinfectious_50,pointinfectious_975,pointinfectiousprevalence_05,pointinfectiousprevalence_50,pointinfectiousprevalence_95,infectrate_025,infectrate_50,infectrate_975
13191,0,USGeorgiaMcIntosh,Georgia,McIntosh,2020-07-16 22:33:36.004081,2020-03-09 00:00:00.000000,0.01025565,0.08681391,115.69420939,1,12,16634,0,2,14385,0.00000000,0.01400443,100.05067332,0.49632583,0.74760861,0.91129289
13191,0,USGeorgiaMcIntosh,Georgia,McIntosh,2020-07-16 22:33:36.004081,2020-03-10 00:00:00.000000,0.01686182,0.09290425,99.58961882,2,13,14318,0,2,13439,0.00473155,0.01481903,93.47003242,0.49632578,0.74760810,0.91128678
13191,0,USGeorgiaMcIntosh,Georgia,McIntosh,2020-07-16 22:33:36.004081,2020-03-11 00:00:00.000000,0.01559268,0.08661703,93.06166813,2,12,13380,0,1,12559,0.00312931,0.01146355,87.35348665,0.49632565,0.74760661,0.91127759
13191,0,USGeorgiaMcIntosh,Georgia,McIntosh,2020-07-16 22:33:36.004081,2020-03-12 00:00:00.000000,0.01840273,0.09580951,86.97188094,2,13,12504,0,2,11738,0.00338870,0.01551743,81.64166794,0.49632538,0.74760265,0.91126432
13191,0,USGeorgiaMcIntosh,Georgia,McIntosh,2020-07-16 22:33:36.004081,2020-03-13 00:00:00.000000,0.01842476,0.09166637,81.28546697,2,13,11687,0,1,10971,0.00362034,0.01258918,76.30566871,0.49632479,0.74759119,0.91124700
13191,0,USGeorgiaMcIntosh,Georgia,McIntosh,2020-07-16 22:33:36.004081,2020-03-14 00:00:00.000000,0.01870793,0.10292038,75.97336387,2,14,10923,0,2,10254,0.00387668,0.01609513,71.31986057,0.49632349,0.74754857,0.91123073
13191,0,USGeorgiaMcIntosh,Georgia,McIntosh,2020-07-16 22:33:36.004081,2020-03-15 00:00:00.000000,0.01976781,0.10130000,71.00990835,2,14,10209,0,1,9584,0.00379732,0.01316438,66.66085374,0.49485015,0.74733690,0.91123992
13191,0,USGeorgiaMcIntosh,Georgia,McIntosh,2020-07-16 22:33:36.004081,2020-03-16 00:00:00.000000,0.02096804,0.11532669,66.37175154,3,16,9542,0,2,8958,0.00402191,0.01731392,62.30702703,0.48658219,0.74608863,0.91136448
13191,0,USGeorgiaMcIntosh,Georgia,McIntosh,2020-07-16 22:33:36.004081,2020-03-17 00:00:00.000000,0.02230610,0.10862537,62.03734681,3,15,8919,0,2,8373,0.00422963,0.01399416,58.23827757,0.48639906,0.73540105,0.91189857
13191,0,USGeorgiaMcIntosh,Georgia,McIntosh,2020-07-16 22:33:36.004081,2020-03-18 00:00:00.000000,0.02384111,0.12293648,57.98667882,3,17,8337,0,2,7826,0.00433861,0.01974855,54.43586541,0.48266333,0.73523923,0.91366610
13191,0,USGeorgiaMcIntosh,Georgia,McIntosh,2020-07-16 22:33:36.004081,2020-03-19 00:00:00.000000,0.02551673,0.11719465,54.20109771,3,16,7793,0,2,7315,0.00447834,0.01566717,50.88230066,0.48224294,0.72379130,0.92198895
13191,0,USGeorgiaMcIntosh,Georgia,McIntosh,2020-07-16 22:33:36.004081,2020-03-20 00:00:00.000000,0.02708303,0.12982661,50.66320174,3,18,7284,0,3,6838,0.00463324,0.02219242,47.56125151,0.46531204,0.71271876,0.93752335
13191,0,USGeorgiaMcIntosh,Georgia,McIntosh,2020-07-16 22:33:36.004081,2020-03-21 00:00:00.000000,0.02822935,0.12218998,47.35674369,4,17,6808,0,2,6392,0.00479655,0.01757193,44.45746389,0.43916022,0.71972460,0.95158615
13191,0,USGeorgiaMcIntosh,Georgia,McIntosh,2020-07-16 22:33:36.004081,2020-03-22 00:00:00.000000,0.02905233,0.13813497,44.26654818,4,19,6364,0,3,5975,0.00497043,0.02439820,41.55668882,0.41188745,0.72966167,0.95901784
13191,0,USGeorgiaMcIntosh,Georgia,McIntosh,2020-07-16 22:33:36.004081,2020-03-23 00:00:00.000000,0.02989986,0.13246387,41.37843850,4,19,5949,0,2,5585,0.00515265,0.01967208,38.84561520,0.39225722,0.72461184,0.99855956
13191,0,USGeorgiaMcIntosh,Georgia,McIntosh,2020-07-16 22:33:36.004081,2020-03-24 00:00:00.000000,0.03134916,0.15201407,38.67917016,4,21,5561,0,3,5220,0.00537034,0.02726765,36.31180748,0.36192469,0.72250566,1.04085778
13191,0,USGeorgiaMcIntosh,Georgia,McIntosh,2020-07-16 22:33:36.004081,2020-03-25 00:00:00.000000,0.03345994,0.14388809,36.15636903,4,20,5198,0,3,4880,0.00556462,0.02257563,33.94364765,0.36129537,0.72557748,1.05636140
13191,0,USGeorgiaMcIntosh,Georgia,McIntosh,2020-07-16 22:33:36.004081,2020-03-26 00:00:00.000000,0.03616449,0.16501201,33.79847385,5,23,4859,0,4,4562,0.00596871,0.03046678,31.73028133,0.36079410,0.72498780,1.05423043
13191,0,USGeorgiaMcIntosh,Georgia,McIntosh,2020-07-16 22:33:36.004081,2020-03-27 00:00:00.000000,0.03933778,0.16486802,31.59468254,5,23,4542,0,3,4264,0.00567458,0.02555713,29.66156731,0.35983523,0.71528080,1.04093909
13191,0,USGeorgiaMcIntosh,Georgia,McIntosh,2020-07-16 22:33:36.004081,2020-03-28 00:00:00.000000,0.04263247,0.17783357,29.53490218,6,25,4246,0,4,3986,0.00663189,0.03255249,27.72803052,0.35813417,0.70367783,1.02199408
13191,0,USGeorgiaMcIntosh,Georgia,McIntosh,2020-07-16 22:33:36.004081,2020-03-29 00:00:00.000000,0.04616028,0.17580387,27.60970227,6,25,3969,0,4,3726,0.00605032,0.02861782,25.92081814,0.34919572,0.69918639,1.00563973
13191,0,USGeorgiaMcIntosh,Georgia,McIntosh,2020-07-16 22:33:36.004081,2020-03-30 00:00:00.000000,0.04791524,0.19457399,25.81027112,6,27,3711,1,5,3484,0.00736572,0.03649123,24.23165853,0.34401831,0.70131241,1.02397037
13191,0,USGeorgiaMcIntosh,Georgia,McIntosh,2020-07-16 22:33:36.004081,2020-03-31 00:00:00.000000,0.04977869,0.19192325,24.12837528,7,27,3469,0,4,3257,0.00645092,0.03259530,22.65282298,0.34715846,0.71242241,1.06929601
13191,0,USGeorgiaMcIntosh,Georgia,McIntosh,2020-07-16 22:33:36.004081,2020-04-01 00:00:00.000000,0.05179672,0.21596832,22.55632156,7,31,3243,1,5,3044,0.00817821,0.04070499,21.17708999,0.33477945,0.71479755,1.12562360
13191,0,USGeorgiaMcIntosh,Georgia,McIntosh,2020-07-16 22:33:36.004081,2020-04-02 00:00:00.000000,0.05477838,0.21051411,21.08692134,7,30,3031,0,5,2846,0.00687626,0.03591233,19.79771187,0.32930475,0.75098163,1.11545565
13191,0,USGeorgiaMcIntosh,Georgia,McIntosh,2020-07-16 22:33:36.004081,2020-04-03 00:00:00.000000,0.05800154,0.24319172,19.71345737,8,34,2834,1,6,2661,0.00907984,0.04503860,18.50838358,0.31432132,0.74714745,1.04197345
13191,0,USGeorgiaMcIntosh,Georgia,McIntosh,2020-07-16 22:33:36.004081,2020-04-04 00:00:00.000000,0.06141228,0.23544364,18.42965274,8,33,2649,1,5,2487,0.00735557,0.04006734,17.30321357,0.30642120,0.75522251,1.05820549
13191,0,USGeorgiaMcIntosh,Georgia,McIntosh,2020-07-16 22:33:36.004081,2020-04-05 00:00:00.000000,0.06285390,0.27295400,17.22964198,9,39,2477,1,7,2325,0.01007053,0.04983217,16.17669661,0.30357274,0.73609122,1.05887447
13191,0,USGeorgiaMcIntosh,Georgia,McIntosh,2020-07-16 22:33:36.004081,2020-04-06 00:00:00.000000,0.06431632,0.26251098,16.10794417,9,37,2316,1,6,2174,0.00738903,0.04436801,15.12368833,0.30208554,0.72601906,1.05569837
13191,0,USGeorgiaMcIntosh,Georgia,McIntosh,2020-07-16 22:33:36.004081,2020-04-07 00:00:00.000000,0.06692109,0.29794273,15.05943765,9,42,2165,1,7,2032,0.01067209,0.05383539,14.13938158,0.29112122,0.72089290,1.05557058
13191,0,USGeorgiaMcIntosh,Georgia,McIntosh,2020-07-16 22:33:36.004081,2020-04-08 00:00:00.000000,0.06548545,0.28726008,14.07933643,9,41,2024,1,7,1900,0.00715084,0.04933387,13.21928423,0.28522435,0.71776099,1.05226720
13191,0,USGeorgiaMcIntosh,Georgia,McIntosh,2020-07-16 22:33:36.004081,2020-04-09 00:00:00.000000,0.07244732,0.33025174,13.16316809,10,47,1892,1,8,1777,0.01133932,0.06024275,12.35919855,0.28112796,0.71919793,1.04419173
13191,0,USGeorgiaMcIntosh,Georgia,McIntosh,2020-07-16 22:33:36.004081,2020-04-10 00:00:00.000000,0.06741770,0.31231352,12.30675324,9,44,1769,1,7,1661,0.00722357,0.05516512,11.55520178,0.27949181,0.72340503,1.06025254
13191,0,USGeorgiaMcIntosh,Georgia,McIntosh,2020-07-16 22:33:36.004081,2020-04-11 00:00:00.000000,0.07596696,0.36401717,11.50618623,10,52,1654,1,9,1553,0.01205941,0.06464032,10.80362816,0.27560996,0.72658518,1.06954683
13191,0,USGeorgiaMcIntosh,Georgia,McIntosh,2020-07-16 22:33:36.004081,2020-04-12 00:00:00.000000,0.06996312,0.33389836,10.75781726,10,48,1546,1,8,1452,0.00771504,0.05982559,10.10105200,0.26477679,0.72429116,1.06836510
13191,0,USGeorgiaMcIntosh,Georgia,McIntosh,2020-07-16 22:33:36.004081,2020-04-13 00:00:00.000000,0.08008202,0.39788203,10.05823551,11,57,1446,1,9,1357,0.01281935,0.06746536,9.44427195,0.26180256,0.72257769,1.06760954
13191,0,USGeorgiaMcIntosh,Georgia,McIntosh,2020-07-16 22:33:36.004081,2020-04-14 00:00:00.000000,0.06601167,0.36224860,9.40425353,9,52,1352,1,9,1269,0.00823837,0.06678102,8.83029627,0.26032314,0.69355250,1.06428450
13191,0,USGeorgiaMcIntosh,Georgia,McIntosh,2020-07-16 22:33:36.004081,2020-04-15 00:00:00.000000,0.08510431,0.44207041,8.79289252,12,63,1264,1,10,1187,0.01362292,0.07408178,8.25632908,0.26066798,0.63522413,1.06789138
13191,0,USGeorgiaMcIntosh,Georgia,McIntosh,2020-07-16 22:33:36.004081,2020-04-16 00:00:00.000000,0.06606391,0.41001026,8.22136866,9,58,1182,1,10,1109,0.00881656,0.07407032,7.71975751,0.26107083,0.62919748,1.07671042
13191,0,USGeorgiaMcIntosh,Georgia,McIntosh,2020-07-16 22:33:36.004081,2020-04-17 00:00:00.000000,0.09035190,0.46271382,7.68708034,12,66,1105,2,11,1037,0.01447695,0.08293508,7.21813968,0.25554858,0.62942134,1.09372882
13191,0,USGeorgiaMcIntosh,Georgia,McIntosh,2020-07-16 22:33:36.004081,2020-04-18 00:00:00.000000,0.06612192,0.41502714,7.18759623,9,59,1033,1,11,970,0.00954754,0.08131401,6.74919350,0.25026818,0.62923051,1.10163501
13191,0,USGeorgiaMcIntosh,Georgia,McIntosh,2020-07-16 22:33:36.004081,2020-04-19 00:00:00.000000,0.09887760,0.49568854,6.72064408,14,71,966,2,12,907,0.01538417,0.08785537,6.31078620,0.24635250,0.62918369,1.11353088
13191,0,USGeorgiaMcIntosh,Georgia,McIntosh,2020-07-16 22:33:36.004081,2020-04-20 00:00:00.000000,0.06665214,0.45462393,6.28410028,9,65,903,1,12,848,0.01030801,0.08891087,5.90092454,0.24415108,0.62913265,1.11395287
13191,0,USGeorgiaMcIntosh,Georgia,McIntosh,2020-07-16 22:33:36.004081,2020-04-21 00:00:00.000000,0.10644717,0.50980368,5.87598018,15,73,844,2,13,793,0.01633406,0.09345350,5.51774564,0.24424091,0.62864867,1.15798474
13191,0,USGeorgiaMcIntosh,Georgia,McIntosh,2020-07-16 22:33:36.004081,2020-04-22 00:00:00.000000,0.06597423,0.47869164,5.49442889,9,68,789,1,14,741,0.01016288,0.09768172,5.15950845,0.24416688,0.62400932,1.17172811
13191,0,USGeorgiaMcIntosh,Georgia,McIntosh,2020-07-16 22:33:36.004081,2020-04-23 00:00:00.000000,0.10973611,0.53656908,5.13771285,15,77,738,2,14,693,0.01734108,0.10243514,4.82458578,0.24412606,0.61273140,1.18973728
13191,0,USGeorgiaMcIntosh,Georgia,McIntosh,2020-07-16 22:33:36.004081,2020-04-24 00:00:00.000000,0.06136568,0.52408643,4.80421186,8,75,690,1,15,648,0.00974375,0.10903082,4.51145682,0.23997746,0.58405736,1.16568957
13191,0,USGeorgiaMcIntosh,Georgia,McIntosh,2020-07-16 22:33:36.004081,2020-04-25 00:00:00.000000,0.12270351,0.56850200,4.49241163,17,81,645,2,16,606,0.01889760,0.11612064,4.21870018,0.23536832,0.56035476,1.25118897
13191,0,USGeorgiaMcIntosh,Georgia,McIntosh,2020-07-16 22:33:36.004081,2020-04-26 00:00:00.000000,0.06118006,0.53211019,4.20089685,8,76,604,1,16,567,0.00932862,0.11821583,3.94498738,0.23235573,0.55725662,1.23199257
13191,0,USGeorgiaMcIntosh,Georgia,McIntosh,2020-07-16 22:33:36.004081,2020-04-27 00:00:00.000000,0.11558929,0.56887588,3.92834475,16,81,564,2,18,530,0.02060449,0.12640539,3.68907674,0.23128345,0.55798762,1.18687575
13191,0,USGeorgiaMcIntosh,Georgia,McIntosh,2020-07-16 22:33:36.004081,2020-04-28 00:00:00.000000,0.06274752,0.55448746,3.67351896,9,79,528,1,19,496,0.00892252,0.13312064,3.44980774,0.23156165,0.56108377,1.15433977
13191,0,USGeorgiaMcIntosh,Georgia,McIntosh,2020-07-16 22:33:36.004081,2020-04-29 00:00:00.000000,0.09658449,0.59884477,3.43526392,13,86,493,3,20,463,0.02247067,0.14212177,3.22609566,0.22909949,0.56524247,1.18399693
13191,0,USGeorgiaMcIntosh,Georgia,McIntosh,2020-07-16 22:33:36.004081,2020-04-30 00:00:00.000000,0.06286369,0.58434100,3.21249957,9,84,461,1,20,433,0.00853623,0.13911362,3.01692666,0.22907450,0.57393408,1.18683698
13191,0,USGeorgiaMcIntosh,Georgia,McIntosh,2020-07-16 22:33:36.004081,2020-05-01 00:00:00.000000,0.09230588,0.63546052,3.00421639,13,91,431,3,21,405,0.02452028,0.14993827,2.82135308,0.22865228,0.59397864,1.22403323
13191,0,USGeorgiaMcIntosh,Georgia,McIntosh,2020-07-16 22:33:36.004081,2020-05-02 00:00:00.000000,0.05773820,0.59480714,3.05911809,8,85,439,1,22,379,0.00818054,0.15460610,2.63848920,0.22913749,0.61614455,1.26781319
13191,0,USGeorgiaMcIntosh,Georgia,McIntosh,2020-07-16 22:33:36.004081,2020-05-03 00:00:00.000000,0.09018823,0.66705934,3.16214267,12,95,454,3,23,354,0.02693123,0.16451079,2.46750709,0.22949085,0.63311476,1.28751818
13191,0,USGeorgiaMcIntosh,Georgia,McIntosh,2020-07-16 22:33:36.004081,2020-05-04 00:00:00.000000,0.05776861,0.65235791,3.27725448,8,93,471,1,24,331,0.00803161,0.17094052,2.30763290,0.23222445,0.64323093,1.31369814
13191,0,USGeorgiaMcIntosh,Georgia,McIntosh,2020-07-16 22:33:36.004081,2020-05-05 00:00:00.000000,0.07425681,0.69721422,3.13547801,10,100,450,4,25,310,0.02966915,0.17526276,2.15814327,0.22930589,0.64720466,1.36305751
13191,0,USGeorgiaMcIntosh,Georgia,McIntosh,2020-07-16 22:33:36.004081,2020-05-06 00:00:00.000000,0.06094737,0.69943856,3.15644669,8,100,453,1,25,290,0.00829119,0.17629461,2.01836206,0.22783187,0.64943319,1.40095259
13191,0,USGeorgiaMcIntosh,Georgia,McIntosh,2020-07-16 22:33:36.004081,2020-05-07 00:00:00.000000,0.05743952,0.73957960,3.33686319,8,106,479,3,26,271,0.02556490,0.18381448,1.88765728,0.22776956,0.65148141,1.41948984
13191,0,USGeorgiaMcIntosh,Georgia,McIntosh,2020-07-16 22:33:36.004081,2020-05-08 00:00:00.000000,0.05051822,0.72830177,3.49070116,7,104,501,1,26,253,0.00879441,0.18296058,1.76543813,0.22082273,0.65107035,1.40267607
13191,0,USGeorgiaMcIntosh,Georgia,McIntosh,2020-07-16 22:33:36.004081,2020-05-09 00:00:00.000000,0.04443093,0.77147774,3.69449527,6,110,531,3,27,237,0.02732764,0.19288672,1.65115239,0.22406419,0.65000169,1.39951667
13191,0,USGeorgiaMcIntosh,Georgia,McIntosh,2020-07-16 22:33:36.004081,2020-05-10 00:00:00.000000,0.03907713,0.76053324,3.87750751,5,109,557,1,28,222,0.00937963,0.19554114,1.54428383,0.24498796,0.65180014,1.38211664
13191,0,USGeorgiaMcIntosh,Georgia,McIntosh,2020-07-16 22:33:36.004081,2020-05-11 00:00:00.000000,0.03436846,0.79888997,4.08888956,4,114,587,4,30,207,0.03013798,0.21041912,1.44434992,0.24444286,0.65302380,1.37260927
13191,0,USGeorgiaMcIntosh,Georgia,McIntosh,2020-07-16 22:33:36.004081,2020-05-12 00:00:00.000000,0.03022716,0.79253571,4.29143691,4,113,617,1,29,194,0.00995971,0.20386797,1.35089955,0.24751178,0.65413660,1.36729690
13191,0,USGeorgiaMcIntosh,Georgia,McIntosh,2020-07-16 22:33:36.004081,2020-05-13 00:00:00.000000,0.02658489,0.82619682,4.52248516,3,118,650,3,31,197,0.02372637,0.22251677,1.37192396,0.25554833,0.65461767,1.38104323
13191,0,USGeorgiaMcIntosh,Georgia,McIntosh,2020-07-16 22:33:36.004081,2020-05-14 00:00:00.000000,0.02338149,0.81708169,4.75827762,3,117,684,1,32,206,0.00883992,0.22643782,1.43358598,0.26219654,0.65346461,1.40079953
13191,0,USGeorgiaMcIntosh,Georgia,McIntosh,2020-07-16 22:33:36.004081,2020-05-15 00:00:00.000000,0.02056410,0.83770923,5.05605449,2,120,726,2,34,216,0.01835295,0.23853881,1.50542312,0.26795542,0.65006227,1.42705326
13191,0,USGeorgiaMcIntosh,Georgia,McIntosh,2020-07-16 22:33:36.004081,2020-05-16 00:00:00.000000,0.01808619,0.84872086,5.39319102,2,122,775,1,34,215,0.00710091,0.23852184,1.49968421,0.25409047,0.64210234,1.52271823
13191,0,USGeorgiaMcIntosh,Georgia,McIntosh,2020-07-16 22:33:36.004081,2020-05-17 00:00:00.000000,0.01590686,0.88571582,5.76785076,2,127,829,2,36,205,0.01419647,0.25191634,1.42965829,0.25450880,0.62135365,1.67173801
13191,0,USGeorgiaMcIntosh,Georgia,McIntosh,2020-07-16 22:33:36.004081,2020-05-18 00:00:00.000000,0.01399014,0.88151262,6.21008286,2,126,892,0,37,193,0.00555924,0.26379675,1.34431180,0.25662114,0.61048589,1.69350756
13191,0,USGeorgiaMcIntosh,Georgia,McIntosh,2020-07-16 22:33:36.004081,2020-05-19 00:00:00.000000,0.01230437,0.93284287,6.69958986,1,134,963,1,40,181,0.01098134,0.27881534,1.26406043,0.25785793,0.60853582,1.73650861
13191,0,USGeorgiaMcIntosh,Georgia,McIntosh,2020-07-16 22:33:36.004081,2020-05-20 00:00:00.000000,0.01082174,0.94390015,7.22001335,1,135,1038,0,38,170,0.00497813,0.26966271,1.18859999,0.25297446,0.61137800,1.79203009
13191,0,USGeorgiaMcIntosh,Georgia,McIntosh,2020-07-16 22:33:36.004081,2020-05-21 00:00:00.000000,0.00951776,1.01475612,7.79546343,1,145,1120,1,44,170,0.00849435,0.30956844,1.18776608,0.25025852,0.61352717,1.79353252
13191,0,USGeorgiaMcIntosh,Georgia,McIntosh,2020-07-16 22:33:36.004081,2020-05-22 00:00:00.000000,0.00837090,1.07081632,8.40371692,1,153,1208,0,42,180,0.00528443,0.29376485,1.25585683,0.24664888,0.62256907,1.78790129
13191,0,USGeorgiaMcIntosh,Georgia,McIntosh,2020-07-16 22:33:36.004081,2020-05-23 00:00:00.000000,0.00736224,1.07805187,9.15597812,1,155,1316,0,47,193,0.00657060,0.33153804,1.34297814,0.24275053,0.63078678,1.77959451
13191,0,USGeorgiaMcIntosh,Georgia,McIntosh,2020-07-16 22:33:36.004081,2020-05-24 00:00:00.000000,0.00647511,1.07688322,9.97447926,0,154,1434,0,47,206,0.00502283,0.32773410,1.43532399,0.24191978,0.65606481,1.78278314
13191,0,USGeorgiaMcIntosh,Georgia,McIntosh,2020-07-16 22:33:36.004081,2020-05-25 00:00:00.000000,0.00569488,1.17043257,10.86352689,0,168,1561,0,48,220,0.00508253,0.34032619,1.53247949,0.25202043,0.66840197,1.80204138
13191,0,USGeorgiaMcIntosh,Georgia,McIntosh,2020-07-16 22:33:36.004081,2020-05-26 00:00:00.000000,0.00500867,1.17757686,11.80401222,0,169,1697,0,45,235,0.00404549,0.31382629,1.63451144,0.25624332,0.67339229,1.89284058
13191,0,USGeorgiaMcIntosh,Georgia,McIntosh,2020-07-16 22:33:36.004081,2020-05-27 00:00:00.000000,0.00440514,1.29346315,12.81700558,0,185,1842,0,50,249,0.00393147,0.34853935,1.73382352,0.25923794,0.67458682,1.98420208
13191,0,USGeorgiaMcIntosh,Georgia,McIntosh,2020-07-16 22:33:36.004081,2020-05-28 00:00:00.000000,0.00387434,1.29175422,13.87393972,0,185,1994,0,48,263,0.00345774,0.33844159,1.83602436,0.27324242,0.67311446,2.09755619
13191,0,USGeorgiaMcIntosh,Georgia,McIntosh,2020-07-16 22:33:36.004081,2020-05-29 00:00:00.000000,0.00340749,1.43566438,14.88501445,0,206,2140,0,52,283,0.00304110,0.36489266,1.97406297,0.32087757,0.68832644,2.13984869
13191,0,USGeorgiaMcIntosh,Georgia,McIntosh,2020-07-16 22:33:36.004081,2020-05-30 00:00:00.000000,0.00299690,1.47196012,16.10335230,0,211,2315,0,52,307,0.00267465,0.36396717,2.13909709,0.36885438,0.73061646,2.11601312
13191,0,USGeorgiaMcIntosh,Georgia,McIntosh,2020-07-16 22:33:36.004081,2020-05-31 00:00:00.000000,0.00263579,1.64029501,17.60138490,0,235,2530,0,58,331,0.00235237,0.40577258,2.30532583,0.38923867,0.72831841,2.06421704
13191,0,USGeorgiaMcIntosh,Georgia,McIntosh,2020-07-16 22:33:36.004081,2020-06-01 00:00:00.000000,0.00231818,1.72311184,19.29286395,0,247,2773,0,59,357,0.00206892,0.41477991,2.48863583,0.39823648,0.72939731,2.18558556
13191,0,USGeorgiaMcIntosh,Georgia,McIntosh,2020-07-16 22:33:36.004081,2020-06-02 00:00:00.000000,0.00203885,1.88879586,20.92444224,0,271,3008,0,67,386,0.00181962,0.46893167,2.69048904,0.40109559,0.74475198,2.28469824
13191,0,USGeorgiaMcIntosh,Georgia,McIntosh,2020-07-16 22:33:36.004081,2020-06-03 00:00:00.000000,0.00179318,1.99437220,22.57480407,0,286,3245,0,67,418,0.00160036,0.47115143,2.91148000,0.40269641,0.75722436,2.39426415
13191,0,USGeorgiaMcIntosh,Georgia,McIntosh,2020-07-16 22:33:36.004081,2020-06-04 00:00:00.000000,0.00157711,2.16507512,24.38711393,0,311,3506,0,67,453,0.00140752,0.46795440,3.15171034,0.40406332,0.76628051,2.39388147
13191,0,USGeorgiaMcIntosh,Georgia,McIntosh,2020-07-16 22:33:36.004081,2020-06-05 00:00:00.000000,0.00138707,2.32191344,26.37420596,0,333,3792,0,69,490,0.00123792,0.48024270,3.41108009,0.40409158,0.78816754,2.34890143
13191,0,USGeorgiaMcIntosh,Georgia,McIntosh,2020-07-16 22:33:36.004081,2020-06-06 00:00:00.000000,0.00121993,2.55998142,28.52782632,0,368,4101,0,76,530,0.00108876,0.53334212,3.68929047,0.40409527,0.81730421,2.36078249
13191,0,USGeorgiaMcIntosh,Georgia,McIntosh,2020-07-16 22:33:36.004081,2020-06-07 00:00:00.000000,0.00107294,2.67831524,30.69924497,0,385,4413,0,79,573,0.00095757,0.55048911,3.98541694,0.40395307,0.81501543,2.44663045
13191,0,USGeorgiaMcIntosh,Georgia,McIntosh,2020-07-16 22:33:36.004081,2020-06-08 00:00:00.000000,0.00094365,3.04775397,32.41868752,0,438,4661,0,91,617,0.00084218,0.63387779,4.29713513,0.40214955,0.86602984,2.51948034
13191,0,USGeorgiaMcIntosh,Georgia,McIntosh,2020-07-16 22:33:36.004081,2020-06-09 00:00:00.000000,0.00082995,3.07961781,34.49604173,0,442,4959,0,89,664,0.00074070,0.62272299,4.62290713,0.39574160,0.89682135,2.56733095
13191,0,USGeorgiaMcIntosh,Georgia,McIntosh,2020-07-16 22:33:36.004081,2020-06-10 00:00:00.000000,0.00072994,3.48682483,36.96001600,0,501,5314,0,103,713,0.00065145,0.72215738,4.96332394,0.39240851,0.92892805,2.58367580
13191,0,USGeorgiaMcIntosh,Georgia,McIntosh,2020-07-16 22:33:36.004081,2020-06-11 00:00:00.000000,0.00064198,3.53254365,39.49378614,0,507,5678,0,101,764,0.00057295,0.70425687,5.31865023,0.39086543,0.98836283,2.61730443
13191,0,USGeorgiaMcIntosh,Georgia,McIntosh,2020-07-16 22:33:36.004081,2020-06-12 00:00:00.000000,0.00056463,4.01741269,42.07768413,0,577,6049,0,117,817,0.00050391,0.81658955,5.68892158,0.38597612,1.00169369,2.79066620
13191,0,USGeorgiaMcIntosh,Georgia,McIntosh,2020-07-16 22:33:36.004081,2020-06-13 00:00:00.000000,0.00049659,4.15760222,44.68384503,0,597,6424,0,114,873,0.00044319,0.79615901,6.07465659,0.38404588,0.99940276,3.01209853
13191,0,USGeorgiaMcIntosh,Georgia,McIntosh,2020-07-16 22:33:36.004081,2020-06-14 00:00:00.000000,0.00043676,4.77715187,47.28207459,0,686,6798,0,133,931,0.00038979,0.92815552,6.47661800,0.40962943,0.99978737,3.10819281
13191,0,USGeorgiaMcIntosh,Georgia,McIntosh,2020-07-16 22:33:36.004081,2020-06-15 00:00:00.000000,0.00038413,5.12752129,49.84500992,0,737,7166,0,129,991,0.00034282,0.90023548,6.89420896,0.43142436,1.04502769,3.18139309
13191,0,USGeorgiaMcIntosh,Georgia,McIntosh,2020-07-16 22:33:36.004081,2020-06-16 00:00:00.000000,0.00033784,5.78478386,52.35014116,0,831,7526,0,152,1053,0.00030151,1.05816587,7.32468436,0.43654822,1.04670996,3.22863494
13191,0,USGeorgiaMcIntosh,Georgia,McIntosh,2020-07-16 22:33:36.004081,2020-06-17 00:00:00.000000,0.00029713,6.23571725,54.48599006,0,896,7833,0,146,1157,0.00026518,1.02113488,8.04753086,0.44193702,1.04899514,3.25761744
13191,0,USGeorgiaMcIntosh,Georgia,McIntosh,2020-07-16 22:33:36.004081,2020-06-18 00:00:00.000000,0.00026133,6.81556497,56.49369787,0,979,8122,0,173,1273,0.00023323,1.20821621,8.85892654,0.45076965,1.05367794,3.28283088
13191,0,USGeorgiaMcIntosh,Georgia,McIntosh,2020-07-16 22:33:36.004081,2020-06-19 00:00:00.000000,0.00022984,7.58891022,58.41232314,0,1091,8398,0,167,1401,0.00020513,1.16631507,9.75048512,0.46553954,1.06777320,3.33721542
13191,0,USGeorgiaMcIntosh,Georgia,McIntosh,2020-07-16 22:33:36.004081,2020-06-20 00:00:00.000000,0.00020215,8.43986335,60.28775771,0,1213,8668,0,198,1542,0.00018041,1.37742611,10.72691397,0.47901028,1.05639619,3.39309439
13191,0,USGeorgiaMcIntosh,Georgia,McIntosh,2020-07-16 22:33:36.004081,2020-06-21 00:00:00.000000,0.00017779,9.28984136,62.12706376,0,1335,8932,0,191,1690,0.00015867,1.33531940,11.75549144,0.48398934,1.05160800,3.40746182
13191,0,USGeorgiaMcIntosh,Georgia,McIntosh,2020-07-16 22:33:36.004081,2020-06-22 00:00:00.000000,0.00015637,10.16506040,63.85340930,0,1461,9180,0,224,1759,0.00013955,1.56375382,12.23782868,0.49491532,1.06181469,3.43372785
13191,0,USGeorgiaMcIntosh,Georgia,McIntosh,2020-07-16 22:33:36.004081,2020-06-23 00:00:00.000000,0.00013752,11.08638931,65.39898542,0,1594,9403,0,220,1815,0.00012274,1.53635376,12.62403123,0.50487351,1.06548955,3.46975400
13191,0,USGeorgiaMcIntosh,Georgia,McIntosh,2020-07-16 22:33:36.004081,2020-06-24 00:00:00.000000,0.00012095,12.32330434,66.42331516,0,1771,9550,0,252,1930,0.00010795,1.75708709,13.42498878,0.51448412,1.06425961,3.47931922
13191,0,USGeorgiaMcIntosh,Georgia,McIntosh,2020-07-16 22:33:36.004081,2020-06-25 00:00:00.000000,0.00010638,13.25223623,67.25043808,0,1905,9669,0,254,2009,0.00009494,1.77309383,13.97389937,0.52022063,1.05502016,3.47001864
13191,0,USGeorgiaMcIntosh,Georgia,McIntosh,2020-07-16 22:33:36.004081,2020-06-26 00:00:00.000000,0.00009356,14.34142909,68.13841584,0,2062,9796,0,279,2083,0.00008350,1.94424174,14.48999836,0.51498682,1.03022926,3.40668432
13191,0,USGeorgiaMcIntosh,Georgia,McIntosh,2020-07-16 22:33:36.004081,2020-06-27 00:00:00.000000,0.00008229,15.69895053,69.76430537,0,2257,10030,0,292,2290,0.00007344,2.03658035,15.92839038,0.50777038,1.02721779,3.22514435
13191,0,USGeorgiaMcIntosh,Georgia,McIntosh,2020-07-16 22:33:36.004081,2020-06-28 00:00:00.000000,0.00007237,16.55715897,71.54493526,0,2380,10286,0,318,2523,0.00006459,2.21735182,17.55150996,0.50077428,1.04412333,3.02857944
13191,0,USGeorgiaMcIntosh,Georgia,McIntosh,2020-07-16 22:33:36.004081,2020-06-29 00:00:00.000000,0.00006365,17.60491755,72.12012083,0,2531,10369,0,340,2737,0.00005681,2.36732254,19.04239848,0.49761540,1.04501664,3.01840000
13191,0,USGeorgiaMcIntosh,Georgia,McIntosh,2020-07-16 22:33:36.004081,2020-06-30 00:00:00.000000,0.00005598,19.01224760,72.44673312,0,2733,10416,0,377,3038,0.00004996,2.62408731,21.13199485,0.49852939,1.06154671,3.04428399
13191,0,USGeorgiaMcIntosh,Georgia,McIntosh,2020-07-16 22:33:36.004081,2020-07-01 00:00:00.000000,0.00004924,19.55947204,72.53446110,0,2812,10429,0,395,3354,0.00004394,2.74945908,23.32915512,0.51405440,1.06317033,3.05043993
13191,0,USGeorgiaMcIntosh,Georgia,McIntosh,2020-07-16 22:33:36.004081,2020-07-02 00:00:00.000000,0.00004330,20.90182955,72.39425455,0,3005,10408,0,449,3583,0.00003865,3.12939765,24.92185078,0.54161779,1.05643660,3.19846353
13191,0,USGeorgiaMcIntosh,Georgia,McIntosh,2020-07-16 22:33:36.004081,2020-07-03 00:00:00.000000,0.00003809,20.59531589,72.02017214,0,2961,10355,0,469,4007,0.00003399,3.26375266,27.87445675,0.50989826,1.04314021,3.28371700
13191,0,USGeorgiaMcIntosh,Georgia,McIntosh,2020-07-16 22:33:36.004081,2020-07-04 00:00:00.000000,0.00003350,22.62337070,71.54451089,0,3252,10286,0,524,4359,0.00002989,3.65040335,30.32287837,0.53917808,1.02455275,3.23328220
13191,0,USGeorgiaMcIntosh,Georgia,McIntosh,2020-07-16 22:33:36.004081,2020-07-05 00:00:00.000000,0.00002946,22.47427755,70.98387877,0,3231,10206,0,551,4585,0.00002629,3.83307755,31.89034247,0.54097174,1.04455190,3.26469833
13191,0,USGeorgiaMcIntosh,Georgia,McIntosh,2020-07-16 22:33:36.004081,2020-07-06 00:00:00.000000,0.00002591,23.58744161,70.28620749,0,3391,10105,0,593,4581,0.00002312,4.12719050,31.86634486,0.53906362,1.18907613,3.23286845
13191,0,USGeorgiaMcIntosh,Georgia,McIntosh,2020-07-16 22:33:36.004081,2020-07-07 00:00:00.000000,0.00002279,23.72738550,69.51029073,0,3411,9994,0,615,4444,0.00002034,4.27992817,30.91390396,0.52817627,1.29718171,3.24991373
13191,0,USGeorgiaMcIntosh,Georgia,McIntosh,2020-07-16 22:33:36.004081,2020-07-08 00:00:00.000000,0.00002004,25.57920507,69.19614978,0,3677,9949,0,640,4213,0.00001789,4.45590289,29.30498262,0.52358692,1.34445634,3.25105244
13191,0,USGeorgiaMcIntosh,Georgia,McIntosh,2020-07-16 22:33:36.004081,2020-07-09 00:00:00.000000,0.00001763,25.54452320,68.52980189,0,3672,9853,0,665,3996,0.00001573,4.63036101,27.79531861,0.52196737,1.33026990,3.25112394
13191,0,USGeorgiaMcIntosh,Georgia,McIntosh,2020-07-16 22:33:36.004081,2020-07-10 00:00:00.000000,0.00001550,26.32014504,67.69411695,0,3784,9733,0,689,3927,0.00001384,4.79673017,27.31655775,0.52148349,1.32098957,3.25112865
13191,0,USGeorgiaMcIntosh,Georgia,McIntosh,2020-07-16 22:33:36.004081,2020-07-11 00:00:00.000000,0.00001363,25.85927837,66.83872076,0,3718,9610,0,713,3756,0.00001217,4.96118345,26.12660224,0.52138980,1.32344619,3.25112902
13191,0,USGeorgiaMcIntosh,Georgia,McIntosh,2020-07-16 22:33:36.004081,2020-07-12 00:00:00.000000,0.00001199,25.96360449,66.13651256,0,3733,9509,0,750,3511,0.00001070,5.21666814,24.42375044,0.52141533,1.32424750,3.25112907
13191,0,USGeorgiaMcIntosh,Georgia,McIntosh,2020-07-16 22:33:36.004081,2020-07-13 00:00:00.000000,0.00001055,25.04855653,66.37862240,0,3601,9543,0,802,3273,0.00000941,5.57971306,22.76910352,0.52146752,1.32482285,3.25112909
13191,0,USGeorgiaMcIntosh,Georgia,McIntosh,2020-07-16 22:33:36.004081,2020-07-14 00:00:00.000000,0.00000928,24.59957317,66.74707946,0,3536,9596,0,855,3262,0.00000828,5.94872765,22.69056169,0.52151729,1.32503274,3.25112910
13191,0,USGeorgiaMcIntosh,Georgia,McIntosh,2020-07-16 22:33:36.004081,2020-07-15 00:00:00.000000,0.00000816,24.93349619,66.96869352,0,3584,9628,0,908,3322,0.00000728,6.32029645,23.10519573,0.52155740,1.32510795,3.25112911
13191,0,USGeorgiaMcIntosh,Georgia,McIntosh,2020-07-16 22:33:36.004081,2020-07-16 00:00:00.000000,0.00000718,25.83330642,66.95053677,0,3714,9626,0,952,3376,0.00000640,6.62766734,23.48451174,0.52158767,1.32513495,3.25112911
13191,0,USGeorgiaMcIntosh,Georgia,McIntosh,2020-07-16 22:33:36.004081,2020-07-17 00:00:00.000000,0.00000631,25.79693205,66.84362166,0,3709,9610,0,989,3426,0.00000563,6.88081609,23.82820765,0.52160980,1.32514467,3.25112911
13191,0,USGeorgiaMcIntosh,Georgia,McIntosh,2020-07-16 22:33:36.004081,2020-07-18 00:00:00.000000,0.00000555,25.66983353,66.65377546,0,3690,9583,0,1023,3470,0.00000495,7.11765345,24.13599736,0.52162572,1.32514817,3.25112911
13191,0,USGeorgiaMcIntosh,Georgia,McIntosh,2020-07-16 22:33:36.004081,2020-07-19 00:00:00.000000,0.00000488,25.21515700,66.38716884,0,3625,9545,0,1036,3485,0.00000436,7.20986089,24.24486092,0.52163706,1.32514943,3.25112911
13191,0,USGeorgiaMcIntosh,Georgia,McIntosh,2020-07-16 22:33:36.004081,2020-07-20 00:00:00.000000,0.00000429,25.53246719,66.05017703,0,3671,9496,0,1059,3449,0.00000383,7.36644180,23.98995439,0.52164509,1.32514989,3.25112911
13191,0,USGeorgiaMcIntosh,Georgia,McIntosh,2020-07-16 22:33:36.004081,2020-07-21 00:00:00.000000,0.00000378,25.35238638,65.64925285,0,3645,9439,0,1079,3410,0.00000337,7.51067747,23.72231343,0.52165077,1.32515006,3.25112911
13191,0,USGeorgiaMcIntosh,Georgia,McIntosh,2020-07-16 22:33:36.004081,2020-07-22 00:00:00.000000,0.00000332,25.83754891,65.68267506,0,3714,9443,0,1099,3370,0.00000296,7.64912822,23.44484531,0.52165477,1.32515012,3.25112911
13191,0,USGeorgiaMcIntosh,Georgia,McIntosh,2020-07-16 22:33:36.004081,2020-07-23 00:00:00.000000,0.00000292,25.43957747,66.04500474,0,3657,9495,0,1119,3329,0.00000261,7.78463707,23.16007064,0.52165759,1.32515014,3.25112911
13191,0,USGeorgiaMcIntosh,Georgia,McIntosh,2020-07-16 22:33:36.004081,2020-07-24 00:00:00.000000,0.00000257,25.63454447,66.01484408,0,3685,9491,0,1126,3303,0.00000229,7.83442739,22.97437397,0.52165957,1.32515015,3.25112911
13191,0,USGeorgiaMcIntosh,Georgia,McIntosh,2020-07-16 22:33:36.004081,2020-07-25 00:00:00.000000,0.00000226,24.75321047,66.75249729,0,3559,9597,0,1139,3323,0.00000202,7.92797866,23.11459142,0.52166096,1.32515015,3.25112911
13191,0,USGeorgiaMcIntosh,Georgia,McIntosh,2020-07-16 22:33:36.004081,2020-07-26 00:00:00.000000,0.00000199,25.67862713,66.80885364,0,3692,9605,0,1140,3352,0.00000177,7.92925541,23.31598193,0.52166194,1.32515015,3.25112911
13191,0,USGeorgiaMcIntosh,Georgia,McIntosh,2020-07-16 22:33:36.004081,2020-07-27 00:00:00.000000,0.00000175,24.89324547,66.65780996,0,3579,9584,0,1129,3386,0.00000156,7.85735238,23.55136836,0.52166262,1.32515015,3.25112911
