FIPS,HR_UID,nameid,province,region,analysisTime,dates,pointprevalence_025,pointprevalence_50,pointprevalence_975,pointinfections_025,pointinfections_50,pointinfections_975,pointinfectious_025,pointinfectious_50,pointinfectious_975,pointinfectiousprevalence_05,pointinfectiousprevalence_50,pointinfectiousprevalence_95,infectrate_025,infectrate_50,infectrate_975
8083,0,USColoradoMontezuma,Colorado,Montezuma,2020-07-18 19:02:48.988263,2020-03-09 00:00:00.000000,0.01148611,0.06590551,0.26723982,3,17,69,0,2,10,0.00000000,0.00976875,0.03830839,0.47440402,0.73180894,1.12386443
8083,0,USColoradoMontezuma,Colorado,Montezuma,2020-07-18 19:02:48.988263,2020-03-10 00:00:00.000000,0.00689653,0.08048039,0.33485353,1,21,87,0,3,14,0.00327818,0.01411389,0.05526774,0.47439477,0.73181036,1.12387796
8083,0,USColoradoMontezuma,Colorado,Montezuma,2020-07-18 19:02:48.988263,2020-03-11 00:00:00.000000,0.01073052,0.07667493,0.27125520,2,20,71,0,2,9,0.00000000,0.01089801,0.03635876,0.47436682,0.73181332,1.12390206
8083,0,USColoradoMontezuma,Colorado,Montezuma,2020-07-18 19:02:48.988263,2020-03-12 00:00:00.000000,0.01225287,0.08570132,0.35586027,3,22,93,0,3,13,0.00342387,0.01373208,0.05005608,0.47428271,0.73181945,1.12394533
8083,0,USColoradoMontezuma,Colorado,Montezuma,2020-07-18 19:02:48.988263,2020-03-13 00:00:00.000000,0.01359431,0.08319512,0.29383673,3,21,76,0,3,9,0.00058419,0.01189994,0.03573201,0.47403131,0.73183217,1.12402405
8083,0,USColoradoMontezuma,Colorado,Montezuma,2020-07-18 19:02:48.988263,2020-03-14 00:00:00.000000,0.01433724,0.09218883,0.37668063,3,24,98,1,3,11,0.00389161,0.01442347,0.04579517,0.47329175,0.73185852,1.12417072
8083,0,USColoradoMontezuma,Colorado,Montezuma,2020-07-18 19:02:48.988263,2020-03-15 00:00:00.000000,0.01544623,0.08611435,0.33154810,4,22,86,0,3,9,0.00097591,0.01225615,0.03643483,0.47121062,0.73191303,1.12445554
8083,0,USColoradoMontezuma,Colorado,Montezuma,2020-07-18 19:02:48.988263,2020-03-16 00:00:00.000000,0.01661878,0.09965976,0.41229655,4,26,107,1,4,11,0.00449148,0.01536197,0.04411133,0.46601193,0.73202529,1.12504739
8083,0,USColoradoMontezuma,Colorado,Montezuma,2020-07-18 19:02:48.988263,2020-03-17 00:00:00.000000,0.01804267,0.09266501,0.37255387,4,24,97,0,3,9,0.00117520,0.01367800,0.03787225,0.45614103,0.73260275,1.12640252
8083,0,USColoradoMontezuma,Colorado,Montezuma,2020-07-18 19:02:48.988263,2020-03-18 00:00:00.000000,0.01966101,0.10809959,0.46203913,5,28,120,1,4,11,0.00512672,0.01685642,0.04564785,0.44203731,0.73271465,1.12987745
8083,0,USColoradoMontezuma,Colorado,Montezuma,2020-07-18 19:02:48.988263,2020-03-19 00:00:00.000000,0.02167361,0.09993898,0.38514582,5,26,100,0,3,11,0.00142430,0.01425666,0.04387248,0.43202370,0.72760304,1.17516587
8083,0,USColoradoMontezuma,Colorado,Montezuma,2020-07-18 19:02:48.988263,2020-03-20 00:00:00.000000,0.02542294,0.11567910,0.51582820,6,30,135,1,4,14,0.00570949,0.01815647,0.05484597,0.43206079,0.72760048,1.17178864
8083,0,USColoradoMontezuma,Colorado,Montezuma,2020-07-18 19:02:48.988263,2020-03-21 00:00:00.000000,0.03107426,0.10707695,0.39210872,8,28,102,0,4,14,0.00189525,0.01554263,0.05462010,0.43980496,0.71729931,1.16181857
8083,0,USColoradoMontezuma,Colorado,Montezuma,2020-07-18 19:02:48.988263,2020-03-22 00:00:00.000000,0.03686797,0.12277404,0.57216077,9,32,149,1,5,17,0.00608443,0.01948846,0.06506454,0.46444990,0.71515117,1.17593971
8083,0,USColoradoMontezuma,Colorado,Montezuma,2020-07-18 19:02:48.988263,2020-03-23 00:00:00.000000,0.03920881,0.11705817,0.40749579,10,30,106,0,4,15,0.00230284,0.01627415,0.05982888,0.48633700,0.69840044,1.18263685
8083,0,USColoradoMontezuma,Colorado,Montezuma,2020-07-18 19:02:48.988263,2020-03-24 00:00:00.000000,0.05112236,0.12825789,0.62491832,13,33,163,1,5,20,0.00647372,0.02032736,0.07813109,0.49219090,0.69360807,1.18471463
8083,0,USColoradoMontezuma,Colorado,Montezuma,2020-07-18 19:02:48.988263,2020-03-25 00:00:00.000000,0.04153586,0.12662234,0.46425872,10,33,121,0,4,17,0.00270665,0.01679457,0.06552424,0.49202329,0.68277434,1.20420548
8083,0,USColoradoMontezuma,Colorado,Montezuma,2020-07-18 19:02:48.988263,2020-03-26 00:00:00.000000,0.05841605,0.13962326,0.65093197,15,36,170,1,5,26,0.00689402,0.02140900,0.10061603,0.49024904,0.67678515,1.20946729
8083,0,USColoradoMontezuma,Colorado,Montezuma,2020-07-18 19:02:48.988263,2020-03-27 00:00:00.000000,0.04452826,0.13783439,0.56440736,11,36,147,0,4,27,0.00322914,0.01730045,0.10413407,0.49463377,0.67847317,1.20113239
8083,0,USColoradoMontezuma,Colorado,Montezuma,2020-07-18 19:02:48.988263,2020-03-28 00:00:00.000000,0.06372039,0.15161024,0.77782157,16,39,203,1,5,36,0.00733964,0.02259514,0.14002690,0.49351425,0.69693027,1.19442803
8083,0,USColoradoMontezuma,Colorado,Montezuma,2020-07-18 19:02:48.988263,2020-03-29 00:00:00.000000,0.04876528,0.14753707,0.69080528,12,38,180,0,4,39,0.00378616,0.01834856,0.14953449,0.49151135,0.71326716,1.18246457
8083,0,USColoradoMontezuma,Colorado,Montezuma,2020-07-18 19:02:48.988263,2020-03-30 00:00:00.000000,0.06761692,0.15989076,0.92140482,17,41,241,2,6,47,0.00782228,0.02415654,0.18194140,0.49066493,0.70753501,1.17555153
8083,0,USColoradoMontezuma,Colorado,Montezuma,2020-07-18 19:02:48.988263,2020-03-31 00:00:00.000000,0.05316466,0.16050491,0.86553791,13,42,226,1,5,56,0.00439262,0.01949973,0.21671216,0.48413050,0.69717534,1.19161026
8083,0,USColoradoMontezuma,Colorado,Montezuma,2020-07-18 19:02:48.988263,2020-04-01 00:00:00.000000,0.07190407,0.17716321,0.98788080,18,46,258,2,6,68,0.00835728,0.02626808,0.26173102,0.46920140,0.68505535,1.21522466
8083,0,USColoradoMontezuma,Colorado,Montezuma,2020-07-18 19:02:48.988263,2020-04-02 00:00:00.000000,0.05756204,0.17002110,0.92702826,15,44,242,1,5,83,0.00486596,0.02031487,0.31713480,0.44242516,0.71635316,1.25015467
8083,0,USColoradoMontezuma,Colorado,Montezuma,2020-07-18 19:02:48.988263,2020-04-03 00:00:00.000000,0.07633772,0.18993999,1.03934728,19,49,272,2,7,101,0.00884518,0.02788818,0.38633522,0.41824853,0.71598070,1.28175044
8083,0,USColoradoMontezuma,Colorado,Montezuma,2020-07-18 19:02:48.988263,2020-04-04 00:00:00.000000,0.06202033,0.18205925,0.98732168,16,47,258,1,5,124,0.00533816,0.02197149,0.47388189,0.39637614,0.69039962,1.29810024
8083,0,USColoradoMontezuma,Colorado,Montezuma,2020-07-18 19:02:48.988263,2020-04-05 00:00:00.000000,0.08229147,0.20455930,1.09167829,21,53,285,2,7,153,0.00942573,0.02898975,0.58627458,0.38895199,0.66895631,1.30198032
8083,0,USColoradoMontezuma,Colorado,Montezuma,2020-07-18 19:02:48.988263,2020-04-06 00:00:00.000000,0.06658698,0.19715181,1.22164661,17,51,319,1,6,191,0.00578861,0.02295962,0.73175783,0.38220421,0.66216719,1.31628054
8083,0,USColoradoMontezuma,Colorado,Montezuma,2020-07-18 19:02:48.988263,2020-04-07 00:00:00.000000,0.08802820,0.21167421,1.40406948,23,55,367,2,8,241,0.01010014,0.03106877,0.92059165,0.37806709,0.70317353,1.34447365
8083,0,USColoradoMontezuma,Colorado,Montezuma,2020-07-18 19:02:48.988263,2020-04-08 00:00:00.000000,0.07127780,0.21034708,1.64024933,18,55,429,1,6,305,0.00634030,0.02422867,1.16622669,0.37607135,0.67359083,1.35504057
8083,0,USColoradoMontezuma,Colorado,Montezuma,2020-07-18 19:02:48.988263,2020-04-09 00:00:00.000000,0.09165743,0.22786553,1.93778779,23,59,507,2,8,389,0.01086576,0.03334581,1.48925464,0.36302921,0.67090954,1.35276867
8083,0,USColoradoMontezuma,Colorado,Montezuma,2020-07-18 19:02:48.988263,2020-04-10 00:00:00.000000,0.07596871,0.22170243,2.52542329,19,58,661,1,6,504,0.00702016,0.02612725,1.92495084,0.35974590,0.67034877,1.34230052
8083,0,USColoradoMontezuma,Colorado,Montezuma,2020-07-18 19:02:48.988263,2020-04-11 00:00:00.000000,0.09480443,0.24524883,3.40934196,24,64,892,3,9,664,0.01171010,0.03581968,2.53762170,0.35715377,0.67757316,1.32342183
8083,0,USColoradoMontezuma,Colorado,Montezuma,2020-07-18 19:02:48.988263,2020-04-12 00:00:00.000000,0.07909330,0.23310848,4.79808315,20,61,1256,2,7,904,0.00783320,0.02805544,3.45455240,0.35577842,0.65240514,1.38952037
8083,0,USColoradoMontezuma,Colorado,Montezuma,2020-07-18 19:02:48.988263,2020-04-13 00:00:00.000000,0.09816937,0.25514010,6.99997433,25,66,1832,3,9,1288,0.01262068,0.03811178,4.92023840,0.35513751,0.64925567,1.49923866
8083,0,USColoradoMontezuma,Colorado,Montezuma,2020-07-18 19:02:48.988263,2020-04-14 00:00:00.000000,0.08160452,0.24528583,10.48562744,21,64,2745,2,7,1894,0.00868532,0.03038659,7.23537086,0.35483757,0.64464523,1.59149250
8083,0,USColoradoMontezuma,Colorado,Montezuma,2020-07-18 19:02:48.988263,2020-04-15 00:00:00.000000,0.10139891,0.26773741,12.41862711,26,70,3251,3,10,2356,0.01359381,0.03964748,9.00201300,0.35467968,0.63779338,1.73601069
8083,0,USColoradoMontezuma,Colorado,Montezuma,2020-07-18 19:02:48.988263,2020-04-16 00:00:00.000000,0.08432100,0.26091450,14.94606744,22,68,3913,2,8,2776,0.00953977,0.03269672,10.60529257,0.35454125,0.63316132,1.85250508
8083,0,USColoradoMontezuma,Colorado,Montezuma,2020-07-18 19:02:48.988263,2020-04-17 00:00:00.000000,0.10458819,0.28530484,19.65261113,27,74,5145,3,10,3637,0.01463071,0.04133760,13.89178462,0.35419470,0.62014956,1.92069260
8083,0,USColoradoMontezuma,Colorado,Montezuma,2020-07-18 19:02:48.988263,2020-04-18 00:00:00.000000,0.08703586,0.27276289,26.65549466,22,71,6979,2,8,5034,0.01045314,0.03429367,19.22795997,0.35303306,0.62830812,1.95669019
8083,0,USColoradoMontezuma,Colorado,Montezuma,2020-07-18 19:02:48.988263,2020-04-19 00:00:00.000000,0.10785480,0.30807173,35.34619209,28,80,9254,4,11,6990,0.01571070,0.04312680,26.69700352,0.35089182,0.62864863,1.97375194
8083,0,USColoradoMontezuma,Colorado,Montezuma,2020-07-18 19:02:48.988263,2020-04-20 00:00:00.000000,0.09047247,0.28181083,43.89543732,23,73,11493,2,9,9309,0.01141777,0.03663462,35.55592017,0.34885473,0.61977577,1.98062855
8083,0,USColoradoMontezuma,Colorado,Montezuma,2020-07-18 19:02:48.988263,2020-04-21 00:00:00.000000,0.11128857,0.32091505,47.68399260,29,84,12485,4,11,11201,0.01683585,0.04579158,42.78180999,0.34795103,0.61994226,1.97308335
8083,0,USColoradoMontezuma,Colorado,Montezuma,2020-07-18 19:02:48.988263,2020-04-22 00:00:00.000000,0.09588860,0.30523953,46.82263494,25,79,12259,3,10,11373,0.01239627,0.03905538,43.43872105,0.34776049,0.61996007,1.96351926
8083,0,USColoradoMontezuma,Colorado,Montezuma,2020-07-18 19:02:48.988263,2020-04-23 00:00:00.000000,0.12013179,0.33593552,44.75953485,31,87,11719,4,12,10969,0.01801232,0.04701242,41.89369276,0.34763889,0.61988552,1.94060696
8083,0,USColoradoMontezuma,Colorado,Montezuma,2020-07-18 19:02:48.988263,2020-04-24 00:00:00.000000,0.10255656,0.32980028,42.60006649,26,86,11153,3,10,10451,0.01332366,0.04056029,39.91708491,0.34427162,0.64535757,1.89736171
8083,0,USColoradoMontezuma,Colorado,Montezuma,2020-07-18 19:02:48.988263,2020-04-25 00:00:00.000000,0.13082859,0.34520240,40.56964774,34,90,10622,5,12,9935,0.01915779,0.04888491,37.94601956,0.32966758,0.67491531,1.82933659
8083,0,USColoradoMontezuma,Colorado,Montezuma,2020-07-18 19:02:48.988263,2020-04-26 00:00:00.000000,0.10857824,0.31792319,38.65336738,28,83,10120,3,11,9441,0.01398406,0.04287894,36.06134293,0.31776490,0.64846462,1.57283443
8083,0,USColoradoMontezuma,Colorado,Montezuma,2020-07-18 19:02:48.988263,2020-04-27 00:00:00.000000,0.14179373,0.34291606,36.83577928,37,89,9644,5,13,8978,0.02041796,0.05088511,34.29258831,0.32425300,0.64351936,1.49608221
8083,0,USColoradoMontezuma,Colorado,Montezuma,2020-07-18 19:02:48.988263,2020-04-28 00:00:00.000000,0.11485608,0.32022071,35.10990139,30,83,9192,3,11,8535,0.01462881,0.04488431,32.60125124,0.32605088,0.61700322,1.45761101
8083,0,USColoradoMontezuma,Colorado,Montezuma,2020-07-18 19:02:48.988263,2020-04-29 00:00:00.000000,0.12683667,0.34857180,33.47110585,33,91,8763,5,13,8123,0.02164334,0.05281724,31.02678768,0.31779516,0.61019863,1.40929856
8083,0,USColoradoMontezuma,Colorado,Montezuma,2020-07-18 19:02:48.988263,2020-04-30 00:00:00.000000,0.10172468,0.32855887,31.91521679,26,86,8356,3,12,7722,0.01526376,0.04828536,29.49568902,0.31032035,0.60788590,1.30450655
8083,0,USColoradoMontezuma,Colorado,Montezuma,2020-07-18 19:02:48.988263,2020-05-01 00:00:00.000000,0.12560809,0.36172242,30.43827646,32,94,7969,6,14,7350,0.02292047,0.05424126,28.07173315,0.30867119,0.60783029,1.17502304
8083,0,USColoradoMontezuma,Colorado,Montezuma,2020-07-18 19:02:48.988263,2020-05-02 00:00:00.000000,0.10448873,0.34398288,29.03639519,27,90,7602,4,12,6987,0.01589312,0.04742335,26.68731323,0.31586212,0.61883193,1.13679312
8083,0,USColoradoMontezuma,Colorado,Montezuma,2020-07-18 19:02:48.988263,2020-05-03 00:00:00.000000,0.13339625,0.37401984,27.70544284,34,97,7254,5,14,6650,0.02286199,0.05630810,25.39962486,0.34014090,0.61376805,1.04406473
8083,0,USColoradoMontezuma,Colorado,Montezuma,2020-07-18 19:02:48.988263,2020-05-04 00:00:00.000000,0.10784522,0.35812373,26.44029928,28,93,6922,4,13,6322,0.01543062,0.05026579,24.14852076,0.36440910,0.59542186,0.98733610
8083,0,USColoradoMontezuma,Colorado,Montezuma,2020-07-18 19:02:48.988263,2020-05-05 00:00:00.000000,0.14176058,0.37919690,25.23576589,37,99,6607,5,15,6017,0.02250859,0.05851369,22.98416634,0.35873722,0.59024302,0.95534083
8083,0,USColoradoMontezuma,Colorado,Montezuma,2020-07-18 19:02:48.988263,2020-05-06 00:00:00.000000,0.11387351,0.37282104,24.08965104,29,97,6307,3,13,5721,0.01424892,0.05278262,21.85359467,0.35598797,0.57882447,0.94233016
8083,0,USColoradoMontezuma,Colorado,Montezuma,2020-07-18 19:02:48.988263,2020-05-07 00:00:00.000000,0.15063389,0.38305665,23.00005979,39,100,6022,6,15,5446,0.02354137,0.06082700,20.80080578,0.35611254,0.56887769,0.93217499
8083,0,USColoradoMontezuma,Colorado,Montezuma,2020-07-18 19:02:48.988263,2020-05-08 00:00:00.000000,0.12053074,0.38839745,21.96353705,31,101,5750,3,14,5178,0.01506953,0.05541802,19.77898991,0.35534177,0.55615063,0.91288051
8083,0,USColoradoMontezuma,Colorado,Montezuma,2020-07-18 19:02:48.988263,2020-05-09 00:00:00.000000,0.15920179,0.39598029,20.97640816,41,103,5492,6,16,4929,0.02402990,0.06265631,18.82721415,0.34781143,0.54778246,0.89393529
8083,0,USColoradoMontezuma,Colorado,Montezuma,2020-07-18 19:02:48.988263,2020-05-10 00:00:00.000000,0.12652200,0.39891931,20.03644842,33,104,5246,4,15,4687,0.01580286,0.05761116,17.90348097,0.34539826,0.53445542,0.88467680
8083,0,USColoradoMontezuma,Colorado,Montezuma,2020-07-18 19:02:48.988263,2020-05-11 00:00:00.000000,0.16221290,0.40995748,19.14247215,42,107,5012,6,17,4462,0.02449519,0.06510536,17.04342135,0.33999194,0.51954153,0.86833889
8083,0,USColoradoMontezuma,Colorado,Montezuma,2020-07-18 19:02:48.988263,2020-05-12 00:00:00.000000,0.13193036,0.40380665,18.29311623,34,105,4789,4,15,4243,0.01659672,0.06020211,16.20783693,0.33581117,0.51355405,0.84869025
8083,0,USColoradoMontezuma,Colorado,Montezuma,2020-07-18 19:02:48.988263,2020-05-13 00:00:00.000000,0.16361842,0.42468835,17.48663583,42,111,4578,6,17,4040,0.02493276,0.06817589,15.43131317,0.32907971,0.50886497,0.82069150
8083,0,USColoradoMontezuma,Colorado,Montezuma,2020-07-18 19:02:48.988263,2020-05-14 00:00:00.000000,0.13673754,0.41689071,16.72111738,35,109,4378,4,16,3842,0.01744033,0.06261228,14.67483442,0.31992346,0.50862080,0.79493039
8083,0,USColoradoMontezuma,Colorado,Montezuma,2020-07-18 19:02:48.988263,2020-05-15 00:00:00.000000,0.16499228,0.43776464,15.99462395,43,114,4187,6,18,3658,0.02527274,0.07145178,13.97434859,0.31011709,0.50624539,0.77004302
8083,0,USColoradoMontezuma,Colorado,Montezuma,2020-07-18 19:02:48.988263,2020-05-16 00:00:00.000000,0.14016756,0.43871847,15.30522210,36,114,4007,4,16,3479,0.01833000,0.06480377,13.28898898,0.29165107,0.50399840,0.75816441
8083,0,USColoradoMontezuma,Colorado,Montezuma,2020-07-18 19:02:48.988263,2020-05-17 00:00:00.000000,0.16584729,0.45162217,14.65086845,43,118,3836,6,19,3313,0.02553958,0.07371029,12.65677329,0.27450504,0.50329278,0.74037591
8083,0,USColoradoMontezuma,Colorado,Montezuma,2020-07-18 19:02:48.988263,2020-05-18 00:00:00.000000,0.14339865,0.45536779,14.02925614,37,119,3673,4,17,3151,0.01901308,0.06718845,12.03628862,0.26424133,0.49326729,0.73183671
8083,0,USColoradoMontezuma,Colorado,Montezuma,2020-07-18 19:02:48.988263,2020-05-19 00:00:00.000000,0.16575781,0.47868089,13.43856634,43,125,3518,6,19,3001,0.02577781,0.07360065,11.46536147,0.26325369,0.48671374,0.73319778
8083,0,USColoradoMontezuma,Colorado,Montezuma,2020-07-18 19:02:48.988263,2020-05-20 00:00:00.000000,0.14517194,0.47554384,12.87834513,38,124,3371,5,18,2854,0.01960459,0.06916756,10.90399588,0.26238225,0.48291001,0.73772954
8083,0,USColoradoMontezuma,Colorado,Montezuma,2020-07-18 19:02:48.988263,2020-05-21 00:00:00.000000,0.16527638,0.49629006,12.34864164,43,129,3233,6,19,2720,0.02599958,0.07550848,10.38861652,0.25699637,0.48023612,0.74365993
8083,0,USColoradoMontezuma,Colorado,Montezuma,2020-07-18 19:02:48.988263,2020-05-22 00:00:00.000000,0.14467607,0.47645218,11.84932582,37,124,3102,5,18,2587,0.02023012,0.06968565,9.88061838,0.25041839,0.47297039,0.74646052
8083,0,USColoradoMontezuma,Colorado,Montezuma,2020-07-18 19:02:48.988263,2020-05-23 00:00:00.000000,0.16445752,0.52377335,11.37921036,43,137,2979,6,20,2465,0.02618769,0.07909797,9.41559651,0.24289268,0.46485337,0.74029017
8083,0,USColoradoMontezuma,Colorado,Montezuma,2020-07-18 19:02:48.988263,2020-05-24 00:00:00.000000,0.14447549,0.48439585,10.93609793,37,126,2863,5,18,2344,0.02089698,0.07148799,8.95597311,0.23458185,0.46310883,0.74360418
8083,0,USColoradoMontezuma,Colorado,Montezuma,2020-07-18 19:02:48.988263,2020-05-25 00:00:00.000000,0.16148219,0.49927935,10.51785749,42,130,2753,6,21,2235,0.02632206,0.08038051,8.53623199,0.22555354,0.45215537,0.74621167
8083,0,USColoradoMontezuma,Colorado,Montezuma,2020-07-18 19:02:48.988263,2020-05-26 00:00:00.000000,0.14459255,0.49411946,10.12284315,37,129,2650,5,19,2126,0.02158692,0.07322764,8.12083679,0.21597588,0.42262721,0.74978591
8083,0,USColoradoMontezuma,Colorado,Montezuma,2020-07-18 19:02:48.988263,2020-05-27 00:00:00.000000,0.15754339,0.51479978,9.74976402,41,134,2552,6,21,2026,0.02643930,0.08249613,7.74117093,0.20643415,0.42224421,0.75513546
8083,0,USColoradoMontezuma,Colorado,Montezuma,2020-07-18 19:02:48.988263,2020-05-28 00:00:00.000000,0.14182266,0.51113290,9.39753622,37,133,2460,5,19,1928,0.02227694,0.07509252,7.36670368,0.20089112,0.40801570,0.76257191
8083,0,USColoradoMontezuma,Colorado,Montezuma,2020-07-18 19:02:48.988263,2020-05-29 00:00:00.000000,0.15372328,0.52049039,9.06523401,40,136,2373,6,22,1838,0.02654598,0.08470679,7.02256117,0.19983088,0.39633436,0.76242884
8083,0,USColoradoMontezuma,Colorado,Montezuma,2020-07-18 19:02:48.988263,2020-05-30 00:00:00.000000,0.13751649,0.51025231,8.75210443,36,133,2291,6,20,1750,0.02296004,0.07666226,6.68583266,0.19977397,0.38443189,0.73443547
8083,0,USColoradoMontezuma,Colorado,Montezuma,2020-07-18 19:02:48.988263,2020-05-31 00:00:00.000000,0.14997364,0.53889993,8.45746756,39,141,2214,6,23,1668,0.02665681,0.08865882,6.37323601,0.20022002,0.37527887,0.73102362
8083,0,USColoradoMontezuma,Colorado,Montezuma,2020-07-18 19:02:48.988263,2020-06-01 00:00:00.000000,0.13356780,0.50621238,8.18043982,34,132,2141,6,20,1589,0.02363313,0.07774492,6.07124210,0.20060300,0.36462430,0.76424004
8083,0,USColoradoMontezuma,Colorado,Montezuma,2020-07-18 19:02:48.988263,2020-06-02 00:00:00.000000,0.14629764,0.54614352,7.92001933,38,142,2073,7,23,1515,0.02680504,0.09084583,5.78681274,0.20047202,0.36266982,0.77124016
8083,0,USColoradoMontezuma,Colorado,Montezuma,2020-07-18 19:02:48.988263,2020-06-03 00:00:00.000000,0.12888227,0.50824545,7.67531867,33,133,2009,6,20,1444,0.02372338,0.07927155,5.51664137,0.20046355,0.35730545,0.77048001
8083,0,USColoradoMontezuma,Colorado,Montezuma,2020-07-18 19:02:48.988263,2020-06-04 00:00:00.000000,0.14323351,0.54242727,7.44556702,37,142,1949,7,23,1377,0.02696325,0.08965251,5.26003178,0.20066338,0.35619750,0.77933369
8083,0,USColoradoMontezuma,Colorado,Montezuma,2020-07-18 19:02:48.988263,2020-06-05 00:00:00.000000,0.12378271,0.51058784,7.23004726,32,133,1893,6,21,1313,0.02344045,0.08133267,5.01632164,0.20131848,0.35568039,0.81836906
8083,0,USColoradoMontezuma,Colorado,Montezuma,2020-07-18 19:02:48.988263,2020-06-06 00:00:00.000000,0.14083103,0.54325058,7.02800515,36,142,1840,7,23,1252,0.02691286,0.08840093,4.78488115,0.20349838,0.36176267,0.84882247
8083,0,USColoradoMontezuma,Colorado,Montezuma,2020-07-18 19:02:48.988263,2020-06-07 00:00:00.000000,0.11905238,0.51357051,6.83836674,31,134,1790,6,21,1195,0.02302409,0.08283647,4.56511047,0.20302731,0.34372212,0.84426816
8083,0,USColoradoMontezuma,Colorado,Montezuma,2020-07-18 19:02:48.988263,2020-06-08 00:00:00.000000,0.13920951,0.54764032,6.65916418,36,143,1743,7,22,1140,0.02683983,0.08710728,4.35643392,0.19898883,0.34257942,0.80039079
8083,0,USColoradoMontezuma,Colorado,Montezuma,2020-07-18 19:02:48.988263,2020-06-09 00:00:00.000000,0.11474317,0.51742890,6.48870747,30,135,1698,5,22,1088,0.02259799,0.08435639,4.15828769,0.19826693,0.34471925,0.78076760
8083,0,USColoradoMontezuma,Colorado,Montezuma,2020-07-18 19:02:48.988263,2020-06-10 00:00:00.000000,0.13827076,0.55229099,6.32772954,36,144,1656,6,23,1039,0.02664026,0.09070031,3.97012384,0.19824330,0.34038549,0.79130344
8083,0,USColoradoMontezuma,Colorado,Montezuma,2020-07-18 19:02:48.988263,2020-06-11 00:00:00.000000,0.11075176,0.52236622,6.17692852,28,136,1617,5,22,992,0.02217635,0.08434717,3.79144058,0.19920421,0.34207615,0.82958707
8083,0,USColoradoMontezuma,Colorado,Montezuma,2020-07-18 19:02:48.988263,2020-06-12 00:00:00.000000,0.13850973,0.55363076,6.03616542,36,144,1580,6,25,948,0.02628354,0.09624775,3.62177717,0.20136743,0.33203199,0.84967185
8083,0,USColoradoMontezuma,Colorado,Montezuma,2020-07-18 19:02:48.988263,2020-06-13 00:00:00.000000,0.10659685,0.51627559,5.90435218,27,135,1545,5,21,906,0.02158883,0.08377248,3.46069947,0.20662220,0.32514889,0.85270633
8083,0,USColoradoMontezuma,Colorado,Montezuma,2020-07-18 19:02:48.988263,2020-06-14 00:00:00.000000,0.13978970,0.55459091,5.77455930,36,145,1511,6,26,866,0.02594725,0.10195440,3.30778605,0.21123907,0.32167020,0.83706455
8083,0,USColoradoMontezuma,Colorado,Montezuma,2020-07-18 19:02:48.988263,2020-06-15 00:00:00.000000,0.10259886,0.52535826,5.67074502,26,137,1484,5,22,828,0.02049538,0.08556013,3.16255484,0.20158105,0.30803287,0.83016141
8083,0,USColoradoMontezuma,Colorado,Montezuma,2020-07-18 19:02:48.988263,2020-06-16 00:00:00.000000,0.13902692,0.55484162,5.58496829,36,145,1462,6,26,791,0.02564489,0.10200688,3.02456654,0.19207477,0.30458850,0.82714308
8083,0,USColoradoMontezuma,Colorado,Montezuma,2020-07-18 19:02:48.988263,2020-06-17 00:00:00.000000,0.09889925,0.54172730,5.50577415,25,141,1441,5,22,757,0.01935796,0.08723982,2.89347865,0.18578491,0.30706201,0.82500095
8083,0,USColoradoMontezuma,Colorado,Montezuma,2020-07-18 19:02:48.988263,2020-06-18 00:00:00.000000,0.13925415,0.56616808,5.43292716,36,148,1422,6,26,724,0.02537680,0.10157548,2.76897008,0.18224945,0.31459197,0.79190656
8083,0,USColoradoMontezuma,Colorado,Montezuma,2020-07-18 19:02:48.988263,2020-06-19 00:00:00.000000,0.09609021,0.52609894,5.49012224,25,137,1437,4,23,694,0.01826828,0.08880625,2.65073375,0.17687740,0.31768601,0.76902029
8083,0,USColoradoMontezuma,Colorado,Montezuma,2020-07-18 19:02:48.988263,2020-06-20 00:00:00.000000,0.14125493,0.58815577,5.55111796,36,153,1453,6,27,664,0.02518373,0.10346340,2.53847832,0.17696771,0.31577945,0.76849182
8083,0,USColoradoMontezuma,Colorado,Montezuma,2020-07-18 19:02:48.988263,2020-06-21 00:00:00.000000,0.09536176,0.51048884,5.61692500,24,133,1470,4,23,636,0.01723913,0.08909345,2.43194071,0.18128177,0.30800644,0.73037601
8083,0,USColoradoMontezuma,Colorado,Montezuma,2020-07-18 19:02:48.988263,2020-06-22 00:00:00.000000,0.14616114,0.58267266,5.68666887,38,152,1488,6,26,610,0.02518090,0.10124903,2.33087431,0.18031491,0.30459863,0.66318755
8083,0,USColoradoMontezuma,Colorado,Montezuma,2020-07-18 19:02:48.988263,2020-06-23 00:00:00.000000,0.09562999,0.51349181,5.76046627,25,134,1508,4,23,585,0.01629340,0.08873865,2.23601819,0.17881055,0.30359114,0.66428011
8083,0,USColoradoMontezuma,Colorado,Montezuma,2020-07-18 19:02:48.988263,2020-06-24 00:00:00.000000,0.15292740,0.57832823,5.83799571,40,151,1528,6,27,561,0.02535813,0.10520019,2.14626367,0.17758014,0.30328740,0.69687522
8083,0,USColoradoMontezuma,Colorado,Montezuma,2020-07-18 19:02:48.988263,2020-06-25 00:00:00.000000,0.09284769,0.50585920,5.91931209,24,132,1549,4,23,539,0.01544576,0.08827082,2.06129160,0.17695185,0.30515249,0.72880393
8083,0,USColoradoMontezuma,Colorado,Montezuma,2020-07-18 19:02:48.988263,2020-06-26 00:00:00.000000,0.15826749,0.57469371,6.00458178,41,150,1572,6,28,518,0.02564207,0.10944198,1.98087380,0.17654482,0.30321689,0.75289964
8083,0,USColoradoMontezuma,Colorado,Montezuma,2020-07-18 19:02:48.988263,2020-06-27 00:00:00.000000,0.09045889,0.49671776,6.09129438,23,130,1594,3,22,498,0.01469687,0.08775094,1.90479634,0.17607154,0.30217133,0.76987593
8083,0,USColoradoMontezuma,Colorado,Montezuma,2020-07-18 19:02:48.988263,2020-06-28 00:00:00.000000,0.15895983,0.56908653,6.17758446,41,149,1617,6,28,479,0.02607719,0.10864774,1.83285849,0.17553320,0.30015400,0.77685985
8083,0,USColoradoMontezuma,Colorado,Montezuma,2020-07-18 19:02:48.988263,2020-06-29 00:00:00.000000,0.08821129,0.48739112,6.26513255,23,127,1640,3,22,462,0.01403696,0.08719729,1.76486875,0.17510568,0.30207870,0.77924210
8083,0,USColoradoMontezuma,Colorado,Montezuma,2020-07-18 19:02:48.988263,2020-06-30 00:00:00.000000,0.16051366,0.56376022,6.35458707,42,147,1663,6,28,445,0.02671842,0.10701771,1.70063747,0.17500550,0.30662822,0.77659342
8083,0,USColoradoMontezuma,Colorado,Montezuma,2020-07-18 19:02:48.988263,2020-07-01 00:00:00.000000,0.08598799,0.47993428,6.44660977,22,125,1687,3,22,429,0.01344903,0.08661775,1.63997085,0.17635733,0.31353508,0.77487935
8083,0,USColoradoMontezuma,Colorado,Montezuma,2020-07-18 19:02:48.988263,2020-07-02 00:00:00.000000,0.16295767,0.55862941,6.54236527,42,146,1712,7,27,414,0.02680014,0.10441972,1.58265081,0.17674443,0.31580180,0.81240411
8083,0,USColoradoMontezuma,Colorado,Montezuma,2020-07-18 19:02:48.988263,2020-07-03 00:00:00.000000,0.08506263,0.47552690,6.64346278,22,124,1739,3,22,400,0.01291694,0.08601778,1.52837236,0.17510165,0.31767107,0.88437688
8083,0,USColoradoMontezuma,Colorado,Montezuma,2020-07-18 19:02:48.988263,2020-07-04 00:00:00.000000,0.16662372,0.55396359,6.75128216,43,145,1767,7,26,386,0.02692861,0.10190220,1.47673433,0.16536640,0.32205376,0.92812008
8083,0,USColoradoMontezuma,Colorado,Montezuma,2020-07-18 19:02:48.988263,2020-07-05 00:00:00.000000,0.08874311,0.49390048,6.86608927,23,129,1797,3,22,373,0.01251219,0.08674402,1.42756006,0.15784638,0.32893629,0.94436544
8083,0,USColoradoMontezuma,Colorado,Montezuma,2020-07-18 19:02:48.988263,2020-07-06 00:00:00.000000,0.16335088,0.55173688,6.98699372,42,144,1829,7,26,361,0.02709854,0.09953130,1.38091994,0.15173280,0.34164227,0.94746144
8083,0,USColoradoMontezuma,Colorado,Montezuma,2020-07-18 19:02:48.988263,2020-07-07 00:00:00.000000,0.09122953,0.50866854,7.11265636,23,133,1862,3,22,350,0.01233196,0.08484068,1.33679066,0.14807653,0.34003459,0.94874390
8083,0,USColoradoMontezuma,Colorado,Montezuma,2020-07-18 19:02:48.988263,2020-07-08 00:00:00.000000,0.15374810,0.55025035,7.24190976,40,144,1896,7,25,339,0.02730008,0.09742518,1.29508235,0.14685104,0.32971673,0.94942113
8083,0,USColoradoMontezuma,Colorado,Montezuma,2020-07-18 19:02:48.988263,2020-07-09 00:00:00.000000,0.09290640,0.52958675,7.37397547,24,138,1930,3,22,328,0.01227998,0.08601958,1.25568929,0.14617547,0.32964423,0.94983916
8083,0,USColoradoMontezuma,Colorado,Montezuma,2020-07-18 19:02:48.988263,2020-07-10 00:00:00.000000,0.14455663,0.56116109,7.50841346,37,146,1965,7,24,319,0.02701104,0.09545600,1.21850504,0.14582315,0.32958323,0.95011599
8083,0,USColoradoMontezuma,Colorado,Montezuma,2020-07-18 19:02:48.988263,2020-07-11 00:00:00.000000,0.09412135,0.53750692,7.64500207,24,140,2001,3,23,309,0.01229891,0.08987576,1.18342674,0.14564481,0.32953323,0.95030426
8083,0,USColoradoMontezuma,Colorado,Montezuma,2020-07-18 19:02:48.988263,2020-07-12 00:00:00.000000,0.13591467,0.56590604,7.78364149,35,148,2037,6,24,301,0.02619259,0.09353935,1.15035607,0.14555591,0.32949241,0.95043351
8083,0,USColoradoMontezuma,Colorado,Montezuma,2020-07-18 19:02:48.988263,2020-07-13 00:00:00.000000,0.09507001,0.53382904,7.92429504,24,139,2074,3,23,293,0.01235653,0.09125915,1.11919928,0.14551194,0.32945910,0.95052252
8083,0,USColoradoMontezuma,Colorado,Montezuma,2020-07-18 19:02:48.988263,2020-07-14 00:00:00.000000,0.12784281,0.58559972,8.06695740,33,153,2112,6,25,285,0.02539444,0.09891815,1.08986706,0.14549028,0.32943194,0.95058390
8083,0,USColoradoMontezuma,Colorado,Montezuma,2020-07-18 19:02:48.988263,2020-07-15 00:00:00.000000,0.09586233,0.53018635,8.21163826,25,138,2150,3,24,278,0.01243476,0.09234816,1.06227439,0.14547963,0.32940978,0.95062624
8083,0,USColoradoMontezuma,Colorado,Montezuma,2020-07-18 19:02:48.988263,2020-07-16 00:00:00.000000,0.12030928,0.60058572,8.35835430,31,157,2188,6,25,271,0.02462174,0.09751221,1.03634033,0.14547440,0.32939171,0.95065546
8083,0,USColoradoMontezuma,Colorado,Montezuma,2020-07-18 19:02:48.988263,2020-07-17 00:00:00.000000,0.09604592,0.52832619,8.50712517,25,138,2227,3,24,264,0.01252344,0.09298542,1.01198780,0.14547183,0.32937697,0.95067562
8083,0,USColoradoMontezuma,Colorado,Montezuma,2020-07-18 19:02:48.988263,2020-07-18 00:00:00.000000,0.11326934,0.59014711,8.65797154,29,154,2266,6,25,258,0.02387760,0.09558271,0.98914343,0.14547057,0.32936496,0.95068955
8083,0,USColoradoMontezuma,Colorado,Montezuma,2020-07-18 19:02:48.988263,2020-07-19 00:00:00.000000,0.09362759,0.52296558,8.81091423,24,136,2306,3,24,255,0.01261687,0.09252708,0.97722081,0.14546995,0.32935516,0.95069917
8083,0,USColoradoMontezuma,Colorado,Montezuma,2020-07-18 19:02:48.988263,2020-07-20 00:00:00.000000,0.10667960,0.58116987,8.96597367,27,152,2347,6,24,259,0.02316365,0.09424719,0.99140059,0.14546965,0.32934718,0.95070581
8083,0,USColoradoMontezuma,Colorado,Montezuma,2020-07-18 19:02:48.988263,2020-07-21 00:00:00.000000,0.09137207,0.51938069,9.12316977,23,135,2388,3,24,263,0.01271188,0.09236039,1.00574460,0.14546950,0.32934067,0.95071040
8083,0,USColoradoMontezuma,Colorado,Montezuma,2020-07-18 19:02:48.988263,2020-07-22 00:00:00.000000,0.10050165,0.59857290,9.28252177,26,156,2430,5,24,267,0.02248055,0.09420934,1.02025416,0.14546943,0.32933536,0.95071358
8083,0,USColoradoMontezuma,Colorado,Montezuma,2020-07-18 19:02:48.988263,2020-07-23 00:00:00.000000,0.08926906,0.52654407,9.44404820,23,137,2472,3,23,270,0.01280667,0.09134372,1.03493069,0.14546939,0.32933103,0.95071577
8083,0,USColoradoMontezuma,Colorado,Montezuma,2020-07-18 19:02:48.988263,2020-07-24 00:00:00.000000,0.09470228,0.58972869,9.60776687,24,154,2515,5,23,274,0.02182824,0.09115863,1.05008679,0.14546937,0.32932750,0.95071729
8083,0,USColoradoMontezuma,Colorado,Montezuma,2020-07-18 19:02:48.988263,2020-07-25 00:00:00.000000,0.08730777,0.53652658,9.77369485,22,140,2559,3,23,278,0.01290027,0.09024682,1.06548975,0.14546936,0.32932463,0.95071834
8083,0,USColoradoMontezuma,Colorado,Montezuma,2020-07-18 19:02:48.988263,2020-07-26 00:00:00.000000,0.08925269,0.58100813,9.94184845,23,152,2603,5,24,283,0.02119082,0.09426354,1.08107633,0.14546936,0.32932229,0.95071906
8083,0,USColoradoMontezuma,Colorado,Montezuma,2020-07-18 19:02:48.988263,2020-07-27 00:00:00.000000,0.08512501,0.54629186,10.11224321,22,143,2647,3,23,287,0.01299213,0.08960457,1.09684771,0.14546936,0.32932038,0.95071957
8083,0,USColoradoMontezuma,Colorado,Montezuma,2020-07-18 19:02:48.988263,2020-07-28 00:00:00.000000,0.08412765,0.57241054,10.28489390,22,149,2692,5,25,291,0.02049187,0.09809310,1.11280505,0.14546936,0.32931882,0.95071992
8083,0,USColoradoMontezuma,Colorado,Montezuma,2020-07-18 19:02:48.988263,2020-07-29 00:00:00.000000,0.08167976,0.56259212,10.45981447,21,147,2738,3,23,295,0.01308195,0.09070678,1.12894951,0.14546936,0.32931755,0.95072016
8083,0,USColoradoMontezuma,Colorado,Montezuma,2020-07-18 19:02:48.988263,2020-07-30 00:00:00.000000,0.07930483,0.57584638,10.63701808,20,150,2785,5,25,299,0.01982757,0.09691002,1.14528225,0.14546936,0.32931651,0.95072032
