FIPS,HR_UID,nameid,province,region,analysisTime,dates,pointprevalence_025,pointprevalence_50,pointprevalence_975,pointinfections_025,pointinfections_50,pointinfections_975,pointinfectious_025,pointinfectious_50,pointinfectious_975,pointinfectiousprevalence_05,pointinfectiousprevalence_50,pointinfectiousprevalence_95,infectrate_025,infectrate_50,infectrate_975
27143,0,USMinnesotaSibley,Minnesota,Sibley,2020-07-16 14:49:02.387713,2020-03-09 00:00:00.000000,0.07978087,0.11003691,0.29334267,11,16,43,3,4,12,0.02407697,0.03282974,0.08697423,0.72147273,0.76477024,0.79929668
27143,0,USMinnesotaSibley,Minnesota,Sibley,2020-07-16 14:49:02.387713,2020-03-10 00:00:00.000000,0.00000000,0.00219670,0.15755394,0,0,23,0,0,6,0.00000000,0.00000000,0.04049515,0.72149832,0.76477044,0.79932694
27143,0,USMinnesotaSibley,Minnesota,Sibley,2020-07-16 14:49:02.387713,2020-03-11 00:00:00.000000,0.02333626,0.06474608,0.13490248,3,9,20,0,2,7,0.00446349,0.02005298,0.04762646,0.72153071,0.76477081,0.79937055
27143,0,USMinnesotaSibley,Minnesota,Sibley,2020-07-16 14:49:02.387713,2020-03-12 00:00:00.000000,0.00000000,0.00000000,0.11115663,0,0,16,0,0,4,0.00000000,0.00000000,0.03058151,0.72157135,0.76477152,0.79943440
27143,0,USMinnesotaSibley,Minnesota,Sibley,2020-07-16 14:49:02.387713,2020-03-13 00:00:00.000000,0.00984074,0.05748617,0.08712509,1,8,12,0,2,4,0.00000000,0.01813401,0.03207049,0.72162106,0.76477289,0.79952934
27143,0,USMinnesotaSibley,Minnesota,Sibley,2020-07-16 14:49:02.387713,2020-03-14 00:00:00.000000,0.00000000,0.00000000,0.08176249,0,0,12,0,0,3,0.00000000,0.00000000,0.02292922,0.72167723,0.76477552,0.79967256
27143,0,USMinnesotaSibley,Minnesota,Sibley,2020-07-16 14:49:02.387713,2020-03-15 00:00:00.000000,0.00394939,0.05567968,0.07131718,0,8,10,0,2,3,0.00000000,0.01767172,0.02510646,0.72172344,0.76478057,0.79989141
27143,0,USMinnesotaSibley,Minnesota,Sibley,2020-07-16 14:49:02.387713,2020-03-16 00:00:00.000000,0.00000000,0.00000000,0.06713384,0,0,9,0,0,2,0.00000000,0.00000000,0.01884505,0.72169204,0.76479026,0.80022923
27143,0,USMinnesotaSibley,Minnesota,Sibley,2020-07-16 14:49:02.387713,2020-03-17 00:00:00.000000,0.00122529,0.05513121,0.06805196,0,8,10,0,2,3,0.00000000,0.01752081,0.02213448,0.72133112,0.76480882,0.80075326
27143,0,USMinnesotaSibley,Minnesota,Sibley,2020-07-16 14:49:02.387713,2020-03-18 00:00:00.000000,0.00000000,0.00000000,0.06012952,0,0,8,0,0,2,0.00000000,0.00000000,0.01682740,0.71975115,0.76484445,0.80155866
27143,0,USMinnesotaSibley,Minnesota,Sibley,2020-07-16 14:49:02.387713,2020-03-19 00:00:00.000000,0.00000000,0.05458580,0.06673373,0,8,9,0,2,3,0.00000000,0.01748755,0.02120192,0.71408511,0.76491334,0.80271775
27143,0,USMinnesotaSibley,Minnesota,Sibley,2020-07-16 14:49:02.387713,2020-03-20 00:00:00.000000,0.00000000,0.00000000,0.05664003,0,0,8,0,0,2,0.00000000,0.00000000,0.01577739,0.69740570,0.76505511,0.80376707
27143,0,USMinnesotaSibley,Minnesota,Sibley,2020-07-16 14:49:02.387713,2020-03-21 00:00:00.000000,0.00000000,0.05455095,0.06605024,0,8,9,0,2,3,0.00000000,0.01746879,0.02089888,0.66465845,0.76545882,0.79965774
27143,0,USMinnesotaSibley,Minnesota,Sibley,2020-07-16 14:49:02.387713,2020-03-22 00:00:00.000000,0.00000000,0.00000000,0.05352395,0,0,7,0,0,2,0.00000000,0.00000000,0.01476229,0.63177919,0.76216232,0.77579512
27143,0,USMinnesotaSibley,Minnesota,Sibley,2020-07-16 14:49:02.387713,2020-03-23 00:00:00.000000,0.00000000,0.05408354,0.06564962,0,8,9,0,2,3,0.00000000,0.01727747,0.02073272,0.60849661,0.74131410,0.78590362
27143,0,USMinnesotaSibley,Minnesota,Sibley,2020-07-16 14:49:02.387713,2020-03-24 00:00:00.000000,0.00000000,0.00000000,0.05073216,0,0,7,0,0,2,0.00000000,0.00000000,0.01385759,0.60113715,0.72855116,0.82120213
27143,0,USMinnesotaSibley,Minnesota,Sibley,2020-07-16 14:49:02.387713,2020-03-25 00:00:00.000000,0.00000000,0.05294588,0.06689888,0,7,9,0,2,3,0.00000000,0.01688661,0.02116720,0.60172030,0.72517462,0.85142651
27143,0,USMinnesotaSibley,Minnesota,Sibley,2020-07-16 14:49:02.387713,2020-03-26 00:00:00.000000,0.00000000,0.00000000,0.04950951,0,0,7,0,0,2,0.00000000,0.00000000,0.01346437,0.60242768,0.72587464,0.85358964
27143,0,USMinnesotaSibley,Minnesota,Sibley,2020-07-16 14:49:02.387713,2020-03-27 00:00:00.000000,0.00000000,0.05239186,0.06866750,0,7,10,0,2,3,0.00000000,0.01669533,0.02174000,0.60238027,0.74098629,0.85031512
27143,0,USMinnesotaSibley,Minnesota,Sibley,2020-07-16 14:49:02.387713,2020-03-28 00:00:00.000000,0.00000000,0.00000000,0.04901318,0,0,7,0,0,1,0.00000000,0.00000000,0.01330730,0.59690259,0.76456715,0.85131159
27143,0,USMinnesotaSibley,Minnesota,Sibley,2020-07-16 14:49:02.387713,2020-03-29 00:00:00.000000,0.00000000,0.05226012,0.06903956,0,7,10,0,2,3,0.00000000,0.01667313,0.02189518,0.57508081,0.78617303,0.85292972
27143,0,USMinnesotaSibley,Minnesota,Sibley,2020-07-16 14:49:02.387713,2020-03-30 00:00:00.000000,0.00000000,0.00000000,0.04816180,0,0,7,0,0,1,0.00000000,0.00000000,0.01298567,0.53997689,0.80385047,0.85397024
27143,0,USMinnesotaSibley,Minnesota,Sibley,2020-07-16 14:49:02.387713,2020-03-31 00:00:00.000000,0.00000000,0.05231766,0.06883096,0,7,10,0,2,3,0.00000000,0.01680006,0.02185423,0.52018234,0.81702537,0.85457137
27143,0,USMinnesotaSibley,Minnesota,Sibley,2020-07-16 14:49:02.387713,2020-04-01 00:00:00.000000,0.00000000,0.00000000,0.04635660,0,0,6,0,0,1,0.00000000,0.00000000,0.01239078,0.51577613,0.81709335,0.85490114
27143,0,USMinnesotaSibley,Minnesota,Sibley,2020-07-16 14:49:02.387713,2020-04-02 00:00:00.000000,0.00000000,0.05243740,0.06858074,0,7,10,0,2,3,0.00000000,0.01694268,0.02178488,0.51555746,0.81737885,0.85511064
27143,0,USMinnesotaSibley,Minnesota,Sibley,2020-07-16 14:49:02.387713,2020-04-03 00:00:00.000000,0.00000000,0.00000000,0.04570214,0,0,6,0,0,1,0.00000000,0.00000000,0.01218224,0.51568070,0.84078258,0.85589681
27143,0,USMinnesotaSibley,Minnesota,Sibley,2020-07-16 14:49:02.387713,2020-04-04 00:00:00.000000,0.00000000,0.05201167,0.06898733,0,7,10,0,2,3,0.00000000,0.01692886,0.02202413,0.51754255,0.85237480,0.91159418
27143,0,USMinnesotaSibley,Minnesota,Sibley,2020-07-16 14:49:02.387713,2020-04-05 00:00:00.000000,0.00000000,0.00000000,0.04575073,0,0,6,0,0,1,0.00000000,0.00000000,0.01215756,0.52036411,0.85707563,0.92568288
27143,0,USMinnesotaSibley,Minnesota,Sibley,2020-07-16 14:49:02.387713,2020-04-06 00:00:00.000000,0.00000000,0.05169551,0.07215248,0,7,10,0,2,3,0.00000000,0.01692631,0.02302833,0.52336859,0.85849826,0.92469317
27143,0,USMinnesotaSibley,Minnesota,Sibley,2020-07-16 14:49:02.387713,2020-04-07 00:00:00.000000,0.00000000,0.00000000,0.04590252,0,0,6,0,0,1,0.00000000,0.00000000,0.01219357,0.52635486,0.86086972,0.92057754
27143,0,USMinnesotaSibley,Minnesota,Sibley,2020-07-16 14:49:02.387713,2020-04-08 00:00:00.000000,0.00000000,0.05187870,0.07357078,0,7,10,0,2,3,0.00000000,0.01695898,0.02353723,0.52925920,0.86648372,0.91249004
27143,0,USMinnesotaSibley,Minnesota,Sibley,2020-07-16 14:49:02.387713,2020-04-09 00:00:00.000000,0.00000000,0.00000000,0.04605372,0,0,6,0,0,1,0.00000000,0.00000000,0.01224832,0.53215060,0.87767700,0.90466576
27143,0,USMinnesotaSibley,Minnesota,Sibley,2020-07-16 14:49:02.387713,2020-04-10 00:00:00.000000,0.00000000,0.05238800,0.07379399,0,7,10,0,2,3,0.00000000,0.01700646,0.02365539,0.53553743,0.84033903,0.91427613
27143,0,USMinnesotaSibley,Minnesota,Sibley,2020-07-16 14:49:02.387713,2020-04-11 00:00:00.000000,0.00000000,0.00000000,0.04618418,0,0,6,0,0,1,0.00000000,0.00000000,0.01230443,0.54095749,0.77880939,0.92596387
27143,0,USMinnesotaSibley,Minnesota,Sibley,2020-07-16 14:49:02.387713,2020-04-12 00:00:00.000000,0.00000000,0.05350385,0.07331458,0,7,10,0,2,3,0.00000000,0.01722133,0.02353311,0.54269186,0.78666062,0.93249678
27143,0,USMinnesotaSibley,Minnesota,Sibley,2020-07-16 14:49:02.387713,2020-04-13 00:00:00.000000,0.00000000,0.00000000,0.04639066,0,0,6,0,0,1,0.00000000,0.00000000,0.01236192,0.54739478,0.80430596,0.93460024
27143,0,USMinnesotaSibley,Minnesota,Sibley,2020-07-16 14:49:02.387713,2020-04-14 00:00:00.000000,0.00000000,0.05443896,0.07285008,0,8,10,0,2,3,0.00000000,0.01771494,0.02339103,0.57190268,0.81223765,0.93374180
27143,0,USMinnesotaSibley,Minnesota,Sibley,2020-07-16 14:49:02.387713,2020-04-15 00:00:00.000000,0.00000000,0.00000000,0.04704287,0,0,6,0,0,1,0.00000000,0.00000000,0.01264761,0.63062152,0.81375879,0.93019945
27143,0,USMinnesotaSibley,Minnesota,Sibley,2020-07-16 14:49:02.387713,2020-04-16 00:00:00.000000,0.00000000,0.05501092,0.07249306,0,8,10,0,2,3,0.00000000,0.01800602,0.02345213,0.68568987,0.81295852,0.92295322
27143,0,USMinnesotaSibley,Minnesota,Sibley,2020-07-16 14:49:02.387713,2020-04-17 00:00:00.000000,0.00000000,0.00000000,0.05005698,0,0,7,0,0,2,0.00000000,0.00000000,0.01370136,0.70646746,0.81005578,0.90975345
27143,0,USMinnesotaSibley,Minnesota,Sibley,2020-07-16 14:49:02.387713,2020-04-18 00:00:00.000000,0.00000000,0.05545614,0.07196645,0,8,10,0,2,3,0.00000000,0.01811565,0.02330700,0.70761630,0.80350866,0.88735211
27143,0,USMinnesotaSibley,Minnesota,Sibley,2020-07-16 14:49:02.387713,2020-04-19 00:00:00.000000,0.00000000,0.00000000,0.05274135,0,0,7,0,0,2,0.00000000,0.00000000,0.01461447,0.70512286,0.79103680,0.85277662
27143,0,USMinnesotaSibley,Minnesota,Sibley,2020-07-16 14:49:02.387713,2020-04-20 00:00:00.000000,0.00000000,0.05521809,0.07056788,0,8,10,0,2,3,0.00000000,0.01799486,0.02255866,0.69963384,0.77236739,0.80661488
27143,0,USMinnesotaSibley,Minnesota,Sibley,2020-07-16 14:49:02.387713,2020-04-21 00:00:00.000000,0.00000000,0.00000000,0.05423806,0,0,8,0,0,2,0.00000000,0.00000000,0.01515050,0.68922352,0.75080969,0.76005145
27143,0,USMinnesotaSibley,Minnesota,Sibley,2020-07-16 14:49:02.387713,2020-04-22 00:00:00.000000,0.00000000,0.05408296,0.06724277,0,8,9,0,2,3,0.00000000,0.01750720,0.02133423,0.67427967,0.70966006,0.75765420
27143,0,USMinnesotaSibley,Minnesota,Sibley,2020-07-16 14:49:02.387713,2020-04-23 00:00:00.000000,0.00000000,0.00000000,0.05490754,0,0,8,0,0,2,0.00000000,0.00000000,0.01542136,0.65760067,0.67378981,0.75692754
27143,0,USMinnesotaSibley,Minnesota,Sibley,2020-07-16 14:49:02.387713,2020-04-24 00:00:00.000000,0.00000000,0.05295450,0.06278558,0,7,9,0,2,2,0.00000000,0.01688883,0.01975409,0.63073897,0.65663604,0.75718357
27143,0,USMinnesotaSibley,Minnesota,Sibley,2020-07-16 14:49:02.387713,2020-04-25 00:00:00.000000,0.00000000,0.00000000,0.05533998,0,0,8,0,0,2,0.00000000,0.00000000,0.01556887,0.61239584,0.65255837,0.75869548
27143,0,USMinnesotaSibley,Minnesota,Sibley,2020-07-16 14:49:02.387713,2020-04-26 00:00:00.000000,0.00000000,0.05232158,0.05957842,0,7,8,0,2,2,0.00000000,0.01666594,0.01855814,0.60178832,0.65023606,0.76241928
27143,0,USMinnesotaSibley,Minnesota,Sibley,2020-07-16 14:49:02.387713,2020-04-27 00:00:00.000000,0.00000000,0.00000000,0.05571287,0,0,8,0,0,2,0.00000000,0.00000000,0.01570008,0.59479826,0.64933775,0.76962410
27143,0,USMinnesotaSibley,Minnesota,Sibley,2020-07-16 14:49:02.387713,2020-04-28 00:00:00.000000,0.00000000,0.05202401,0.05790222,0,7,8,0,2,2,0.00000000,0.01653284,0.01786378,0.58649606,0.64962947,0.77973115
27143,0,USMinnesotaSibley,Minnesota,Sibley,2020-07-16 14:49:02.387713,2020-04-29 00:00:00.000000,0.00000000,0.00000000,0.05642745,0,0,8,0,0,2,0.00000000,0.00000000,0.01594508,0.57331747,0.64994883,0.78901822
27143,0,USMinnesotaSibley,Minnesota,Sibley,2020-07-16 14:49:02.387713,2020-04-30 00:00:00.000000,0.00000000,0.05156369,0.05682195,0,7,8,0,2,2,0.00000000,0.01650945,0.01736813,0.56005828,0.64787056,0.79454929
27143,0,USMinnesotaSibley,Minnesota,Sibley,2020-07-16 14:49:02.387713,2020-05-01 00:00:00.000000,0.00000000,0.00000000,0.05729081,0,0,8,0,0,2,0.00000000,0.00000000,0.01621415,0.56345750,0.65659836,0.79543681
27143,0,USMinnesotaSibley,Minnesota,Sibley,2020-07-16 14:49:02.387713,2020-05-02 00:00:00.000000,0.00000000,0.05048301,0.05665613,0,7,8,0,2,2,0.00000000,0.01617742,0.01728821,0.58619367,0.69311021,0.78881408
27143,0,USMinnesotaSibley,Minnesota,Sibley,2020-07-16 14:49:02.387713,2020-05-03 00:00:00.000000,0.00000000,0.00000000,0.05756390,0,0,8,0,0,2,0.00000000,0.00000000,0.01625725,0.62520769,0.73368957,0.77196298
27143,0,USMinnesotaSibley,Minnesota,Sibley,2020-07-16 14:49:02.387713,2020-05-04 00:00:00.000000,0.00000000,0.05127942,0.05834850,0,7,8,0,2,2,0.00000000,0.01645626,0.01787482,0.66603949,0.73910358,0.76226855
27143,0,USMinnesotaSibley,Minnesota,Sibley,2020-07-16 14:49:02.387713,2020-05-05 00:00:00.000000,0.00000000,0.00000000,0.05670970,0,0,8,0,0,2,0.00000000,0.00000000,0.01592437,0.72913846,0.75621557,0.81425593
27143,0,USMinnesotaSibley,Minnesota,Sibley,2020-07-16 14:49:02.387713,2020-05-06 00:00:00.000000,0.00000000,0.05250526,0.06242788,0,7,9,0,2,2,0.00000000,0.01681056,0.01934055,0.75674298,0.82761465,0.86794767
27143,0,USMinnesotaSibley,Minnesota,Sibley,2020-07-16 14:49:02.387713,2020-05-07 00:00:00.000000,0.00000000,0.00000000,0.05612949,0,0,8,0,0,2,0.00000000,0.00000000,0.01567939,0.75963265,0.86154887,0.88878826
27143,0,USMinnesotaSibley,Minnesota,Sibley,2020-07-16 14:49:02.387713,2020-05-08 00:00:00.000000,0.00000000,0.05512288,0.06659516,0,8,9,0,2,3,0.00000000,0.01770872,0.02082430,0.75713868,0.86608166,0.89213064
27143,0,USMinnesotaSibley,Minnesota,Sibley,2020-07-16 14:49:02.387713,2020-05-09 00:00:00.000000,0.00000000,0.00000000,0.05570560,0,0,8,0,0,2,0.00000000,0.00000000,0.01550567,0.75116907,0.86668527,0.89265804
27143,0,USMinnesotaSibley,Minnesota,Sibley,2020-07-16 14:49:02.387713,2020-05-10 00:00:00.000000,0.00000000,0.05662077,0.06882387,0,8,10,0,2,3,0.00000000,0.01822998,0.02169115,0.74086388,0.86678467,0.89275461
27143,0,USMinnesotaSibley,Minnesota,Sibley,2020-07-16 14:49:02.387713,2020-05-11 00:00:00.000000,0.00000000,0.00000000,0.05504023,0,0,8,0,0,2,0.00000000,0.00000000,0.01525436,0.72584288,0.86672933,0.89273082
27143,0,USMinnesotaSibley,Minnesota,Sibley,2020-07-16 14:49:02.387713,2020-05-12 00:00:00.000000,0.00000000,0.05737612,0.07008992,0,8,10,0,2,3,0.00000000,0.01849476,0.02221469,0.70835832,0.86623158,0.89249827
27143,0,USMinnesotaSibley,Minnesota,Sibley,2020-07-16 14:49:02.387713,2020-05-13 00:00:00.000000,0.00000000,0.00000000,0.05375903,0,0,7,0,0,2,0.00000000,0.00000000,0.01481111,0.69262272,0.86361225,0.89145656
27143,0,USMinnesotaSibley,Minnesota,Sibley,2020-07-16 14:49:02.387713,2020-05-14 00:00:00.000000,0.00000000,0.05775137,0.07077354,0,8,10,0,2,3,0.00000000,0.01870968,0.02249743,0.68142081,0.85256846,0.88763266
27143,0,USMinnesotaSibley,Minnesota,Sibley,2020-07-16 14:49:02.387713,2020-05-15 00:00:00.000000,0.00000000,0.00000000,0.05232553,0,0,7,0,0,2,0.00000000,0.00000000,0.01436440,0.67318484,0.82805200,0.87925770
27143,0,USMinnesotaSibley,Minnesota,Sibley,2020-07-16 14:49:02.387713,2020-05-16 00:00:00.000000,0.00000000,0.05781050,0.06993490,0,8,10,0,2,3,0.00000000,0.01862389,0.02220633,0.66781760,0.79539316,0.86126359
27143,0,USMinnesotaSibley,Minnesota,Sibley,2020-07-16 14:49:02.387713,2020-05-17 00:00:00.000000,0.00000000,0.00000000,0.05143174,0,0,7,0,0,2,0.00000000,0.00000000,0.01415108,0.68234302,0.77203998,0.83423167
27143,0,USMinnesotaSibley,Minnesota,Sibley,2020-07-16 14:49:02.387713,2020-05-18 00:00:00.000000,0.00000000,0.05669612,0.06724869,0,8,9,0,2,3,0.00000000,0.01809689,0.02134405,0.72888501,0.75556965,0.81638984
27143,0,USMinnesotaSibley,Minnesota,Sibley,2020-07-16 14:49:02.387713,2020-05-19 00:00:00.000000,0.00000000,0.00000000,0.05271463,0,0,7,0,0,2,0.00000000,0.00000000,0.01467846,0.75356115,0.77708912,0.81469469
27143,0,USMinnesotaSibley,Minnesota,Sibley,2020-07-16 14:49:02.387713,2020-05-20 00:00:00.000000,0.00000000,0.05546478,0.06624167,0,8,9,0,2,3,0.00000000,0.01763825,0.02099655,0.76241324,0.79005625,0.82923972
27143,0,USMinnesotaSibley,Minnesota,Sibley,2020-07-16 14:49:02.387713,2020-05-21 00:00:00.000000,0.00000000,0.00000000,0.05562950,0,0,8,0,0,2,0.00000000,0.00000000,0.01561661,0.78525755,0.81273830,0.85379714
27143,0,USMinnesotaSibley,Minnesota,Sibley,2020-07-16 14:49:02.387713,2020-05-22 00:00:00.000000,0.00021801,0.05549773,0.06732255,0,8,10,0,2,3,0.00000000,0.01770957,0.02137291,0.82968604,0.84833461,0.89304624
27143,0,USMinnesotaSibley,Minnesota,Sibley,2020-07-16 14:49:02.387713,2020-05-23 00:00:00.000000,0.00000000,0.00000000,0.05788020,0,0,8,0,0,2,0.00000000,0.00000000,0.01627034,0.85130361,0.89791430,0.93809968
27143,0,USMinnesotaSibley,Minnesota,Sibley,2020-07-16 14:49:02.387713,2020-05-24 00:00:00.000000,0.00097316,0.05850569,0.07087482,0,8,10,0,2,3,0.00000000,0.01883031,0.02259674,0.86671193,0.96175290,1.00033431
27143,0,USMinnesotaSibley,Minnesota,Sibley,2020-07-16 14:49:02.387713,2020-05-25 00:00:00.000000,0.00000000,0.00000000,0.05982738,0,0,8,0,0,2,0.00000000,0.00000000,0.01680390,0.87934210,0.99430785,1.04004578
27143,0,USMinnesotaSibley,Minnesota,Sibley,2020-07-16 14:49:02.387713,2020-05-26 00:00:00.000000,0.00171933,0.06318835,0.07549043,0,9,11,0,3,3,0.00000000,0.02044278,0.02419284,0.88872543,1.00601527,1.05875895
27143,0,USMinnesotaSibley,Minnesota,Sibley,2020-07-16 14:49:02.387713,2020-05-27 00:00:00.000000,0.00000000,0.00000000,0.06147801,0,0,9,0,0,2,0.00000000,0.00000000,0.01725463,0.89697020,1.01246037,1.06667644
27143,0,USMinnesotaSibley,Minnesota,Sibley,2020-07-16 14:49:02.387713,2020-05-28 00:00:00.000000,0.00244930,0.06671926,0.07940976,0,9,11,0,3,3,0.00000000,0.02164496,0.02559353,0.91148944,1.01953594,1.07065327
27143,0,USMinnesotaSibley,Minnesota,Sibley,2020-07-16 14:49:02.387713,2020-05-29 00:00:00.000000,0.00000000,0.00000000,0.06307708,0,0,9,0,0,2,0.00000000,0.00000000,0.01773886,0.93954802,1.04321496,1.07929157
27143,0,USMinnesotaSibley,Minnesota,Sibley,2020-07-16 14:49:02.387713,2020-05-30 00:00:00.000000,0.00348242,0.06930855,0.08224850,0,10,12,0,3,3,0.00000000,0.02268115,0.02667970,0.97008369,1.07056690,1.15447850
27143,0,USMinnesotaSibley,Minnesota,Sibley,2020-07-16 14:49:02.387713,2020-05-31 00:00:00.000000,0.00000000,0.00033858,0.06597922,0,0,9,0,0,2,0.00000000,0.00000000,0.01857069,0.98451706,1.17377675,1.27163086
27143,0,USMinnesotaSibley,Minnesota,Sibley,2020-07-16 14:49:02.387713,2020-06-01 00:00:00.000000,0.00473597,0.07764347,0.08671853,0,11,12,0,3,4,0.00000000,0.02567873,0.02825466,0.99089824,1.20862287,1.30151156
27143,0,USMinnesotaSibley,Minnesota,Sibley,2020-07-16 14:49:02.387713,2020-06-02 00:00:00.000000,0.00000000,0.00155457,0.06837512,0,0,10,0,0,2,0.00000000,0.00000000,0.01915103,0.99237968,1.21373199,1.30769564
27143,0,USMinnesotaSibley,Minnesota,Sibley,2020-07-16 14:49:02.387713,2020-06-03 00:00:00.000000,0.00578788,0.08397047,0.09164269,0,12,13,0,4,4,0.00000000,0.02798953,0.02985284,0.99360368,1.21880545,1.31320328
27143,0,USMinnesotaSibley,Minnesota,Sibley,2020-07-16 14:49:02.387713,2020-06-04 00:00:00.000000,0.00000000,0.00277331,0.06997212,0,0,10,0,0,2,0.00000000,0.00000000,0.01950484,0.99627475,1.23073880,1.32303358
27143,0,USMinnesotaSibley,Minnesota,Sibley,2020-07-16 14:49:02.387713,2020-06-05 00:00:00.000000,0.00664055,0.08906890,0.09581077,0,13,14,0,4,4,0.00000000,0.02990295,0.03157307,1.00345400,1.25918660,1.34127955
27143,0,USMinnesotaSibley,Minnesota,Sibley,2020-07-16 14:49:02.387713,2020-06-06 00:00:00.000000,0.00056899,0.00530491,0.07125922,0,0,10,0,0,2,0.00000000,0.00000000,0.01976914,1.02437679,1.28899167,1.37364269
27143,0,USMinnesotaSibley,Minnesota,Sibley,2020-07-16 14:49:02.387713,2020-06-07 00:00:00.000000,0.00823253,0.09627928,0.10410796,1,14,15,0,4,5,0.00000000,0.03206620,0.03433016,1.08252144,1.37267381,1.43260487
27143,0,USMinnesotaSibley,Minnesota,Sibley,2020-07-16 14:49:02.387713,2020-06-08 00:00:00.000000,0.00354345,0.01095256,0.07462439,0,1,11,0,0,3,0.00000000,0.00000000,0.02072823,1.18974674,1.45637593,1.55793577
27143,0,USMinnesotaSibley,Minnesota,Sibley,2020-07-16 14:49:02.387713,2020-06-09 00:00:00.000000,0.01234008,0.10779898,0.11937651,1,16,17,0,5,6,0.00000000,0.03806868,0.04044388,1.28547630,1.54384145,1.68625341
27143,0,USMinnesotaSibley,Minnesota,Sibley,2020-07-16 14:49:02.387713,2020-06-10 00:00:00.000000,0.00958747,0.02086640,0.08529326,1,3,12,0,0,3,0.00000000,0.00000000,0.02371822,1.34963662,1.68225177,1.79062864
27143,0,USMinnesotaSibley,Minnesota,Sibley,2020-07-16 14:49:02.387713,2020-06-11 00:00:00.000000,0.01871232,0.13689497,0.15422990,2,20,22,0,7,7,0.00000000,0.04710231,0.05175573,1.41796485,1.82485458,1.87635549
27143,0,USMinnesotaSibley,Minnesota,Sibley,2020-07-16 14:49:02.387713,2020-06-12 00:00:00.000000,0.01997084,0.03543914,0.09946410,2,5,14,0,0,4,0.00000000,0.00000000,0.02750259,1.51532025,1.91225173,1.97723949
27143,0,USMinnesotaSibley,Minnesota,Sibley,2020-07-16 14:49:02.387713,2020-06-13 00:00:00.000000,0.03004569,0.18317544,0.20277100,4,27,30,0,9,10,0.00091214,0.06173482,0.06768998,1.64304083,1.99070298,2.06961538
27143,0,USMinnesotaSibley,Minnesota,Sibley,2020-07-16 14:49:02.387713,2020-06-14 00:00:00.000000,0.03402285,0.05500549,0.12395155,5,8,18,0,0,5,0.00000000,0.00000000,0.03435494,1.77117910,2.01256091,2.10550977
27143,0,USMinnesotaSibley,Minnesota,Sibley,2020-07-16 14:49:02.387713,2020-06-15 00:00:00.000000,0.04800021,0.24243894,0.26444188,7,36,39,0,12,13,0.00344186,0.08090586,0.08775053,1.86912962,2.02239033,2.11810579
27143,0,USMinnesotaSibley,Minnesota,Sibley,2020-07-16 14:49:02.387713,2020-06-16 00:00:00.000000,0.05143709,0.07877077,0.16610765,7,11,24,0,0,6,0.00000000,0.00000000,0.04618528,1.92699792,2.04193640,2.12331781
27143,0,USMinnesotaSibley,Minnesota,Sibley,2020-07-16 14:49:02.387713,2020-06-17 00:00:00.000000,0.07182777,0.31526324,0.34249587,10,46,50,1,15,16,0.00695069,0.10493568,0.11112525,1.95571527,2.05750019,2.12616397
27143,0,USMinnesotaSibley,Minnesota,Sibley,2020-07-16 14:49:02.387713,2020-06-18 00:00:00.000000,0.07385926,0.10572864,0.22341824,10,15,33,0,0,9,0.00000000,0.00000000,0.06209322,1.96771987,2.08293664,2.13389044
27143,0,USMinnesotaSibley,Minnesota,Sibley,2020-07-16 14:49:02.387713,2020-06-19 00:00:00.000000,0.10140962,0.39601972,0.44259332,15,58,65,1,20,20,0.01180300,0.13593215,0.14048661,1.96220203,2.10613015,2.15573166
27143,0,USMinnesotaSibley,Minnesota,Sibley,2020-07-16 14:49:02.387713,2020-06-20 00:00:00.000000,0.10809413,0.14230700,0.29317844,16,21,43,0,0,12,0.00000000,0.00000000,0.08112540,1.94613899,2.15665579,2.20602743
27143,0,USMinnesotaSibley,Minnesota,Sibley,2020-07-16 14:49:02.387713,2020-06-21 00:00:00.000000,0.13809138,0.47826283,0.57412515,20,71,85,2,24,26,0.01907416,0.16290838,0.17982962,1.92128939,2.19048785,2.25952738
27143,0,USMinnesotaSibley,Minnesota,Sibley,2020-07-16 14:49:02.387713,2020-06-22 00:00:00.000000,0.15760987,0.18374772,0.37104701,23,27,55,0,0,15,0.00000000,0.00000000,0.10164143,1.89109165,2.19245953,2.32653304
27143,0,USMinnesotaSibley,Minnesota,Sibley,2020-07-16 14:49:02.387713,2020-06-23 00:00:00.000000,0.18111759,0.63708783,0.74701616,26,94,111,4,30,34,0.02874576,0.20248224,0.23447580,1.86176359,2.18702430,2.35477013
27143,0,USMinnesotaSibley,Minnesota,Sibley,2020-07-16 14:49:02.387713,2020-06-24 00:00:00.000000,0.19401954,0.24399824,0.44955072,28,36,66,0,0,18,0.00000000,0.00000000,0.12173273,1.83694226,2.16546768,2.35546056
27143,0,USMinnesotaSibley,Minnesota,Sibley,2020-07-16 14:49:02.387713,2020-06-25 00:00:00.000000,0.22412463,0.81052865,0.96856543,33,120,143,5,39,45,0.03461489,0.26330892,0.30284249,1.81137790,2.10186729,2.33578741
27143,0,USMinnesotaSibley,Minnesota,Sibley,2020-07-16 14:49:02.387713,2020-06-26 00:00:00.000000,0.20599369,0.27373097,0.52490871,30,40,78,0,0,20,0.00000000,0.00000000,0.14089203,1.76093949,1.90218025,2.26524475
27143,0,USMinnesotaSibley,Minnesota,Sibley,2020-07-16 14:49:02.387713,2020-06-27 00:00:00.000000,0.23627698,0.86574215,1.19777217,35,128,178,5,44,55,0.03791615,0.29808500,0.37520085,1.60019482,1.64258655,2.07880208
27143,0,USMinnesotaSibley,Minnesota,Sibley,2020-07-16 14:49:02.387713,2020-06-28 00:00:00.000000,0.17563627,0.24685427,0.54221686,26,36,80,0,0,21,0.00000000,0.00000000,0.14704922,1.39835641,1.49238219,1.77150770
27143,0,USMinnesotaSibley,Minnesota,Sibley,2020-07-16 14:49:02.387713,2020-06-29 00:00:00.000000,0.20012195,0.74376784,1.12955549,29,110,167,5,37,52,0.03426026,0.25413349,0.35414361,1.28975837,1.40661340,1.55938326
27143,0,USMinnesotaSibley,Minnesota,Sibley,2020-07-16 14:49:02.387713,2020-06-30 00:00:00.000000,0.13670912,0.21037635,0.45560547,20,31,67,0,0,18,0.00000000,0.00000000,0.12355695,1.26308552,1.36381779,1.52030922
27143,0,USMinnesotaSibley,Minnesota,Sibley,2020-07-16 14:49:02.387713,2020-07-01 00:00:00.000000,0.16166833,0.59521897,0.88461756,24,88,131,4,29,41,0.02744921,0.20093053,0.27878877,1.25771181,1.35076738,1.49865069
27143,0,USMinnesotaSibley,Minnesota,Sibley,2020-07-16 14:49:02.387713,2020-07-02 00:00:00.000000,0.10569201,0.17312514,0.37825728,15,25,56,0,0,15,0.00000000,0.00000000,0.10299537,1.25688962,1.34168677,1.46519795
27143,0,USMinnesotaSibley,Minnesota,Sibley,2020-07-16 14:49:02.387713,2020-07-03 00:00:00.000000,0.13117377,0.47704619,0.68082035,19,70,101,3,23,32,0.02151528,0.15975626,0.21528421,1.25858690,1.33619943,1.41132741
27143,0,USMinnesotaSibley,Minnesota,Sibley,2020-07-16 14:49:02.387713,2020-07-04 00:00:00.000000,0.08164060,0.13043628,0.32025647,12,19,47,0,0,12,0.00000000,0.00000000,0.08712292,1.25994688,1.35764092,1.46301107
27143,0,USMinnesotaSibley,Minnesota,Sibley,2020-07-16 14:49:02.387713,2020-07-05 00:00:00.000000,0.10831713,0.37940741,0.57083153,16,56,84,2,20,27,0.01681439,0.13457829,0.18198033,1.26802578,1.34119400,1.58747528
27143,0,USMinnesotaSibley,Minnesota,Sibley,2020-07-16 14:49:02.387713,2020-07-06 00:00:00.000000,0.06371885,0.09739976,0.28025985,9,14,41,0,0,11,0.00000000,0.00000000,0.07555966,1.28513603,1.33507445,1.63782019
27143,0,USMinnesotaSibley,Minnesota,Sibley,2020-07-16 14:49:02.387713,2020-07-07 00:00:00.000000,0.09467418,0.31393085,0.54110237,14,46,80,1,18,25,0.01329672,0.12514647,0.17280793,1.28860367,1.35068544,1.64821009
27143,0,USMinnesotaSibley,Minnesota,Sibley,2020-07-16 14:49:02.387713,2020-07-08 00:00:00.000000,0.05080617,0.08439132,0.26125464,7,12,38,0,0,10,0.00000000,0.00000000,0.07036076,1.28839808,1.37021488,1.64999721
27143,0,USMinnesotaSibley,Minnesota,Sibley,2020-07-16 14:49:02.387713,2020-07-09 00:00:00.000000,0.08518238,0.29382314,0.51815000,12,43,77,1,15,24,0.01090049,0.10631811,0.16570781,1.28835256,1.37465242,1.65029396
27143,0,USMinnesotaSibley,Minnesota,Sibley,2020-07-16 14:49:02.387713,2020-07-10 00:00:00.000000,0.04126903,0.07827886,0.24832127,6,11,36,0,0,9,0.00000000,0.00000000,0.06692586,1.28834243,1.37550302,1.65034283
27143,0,USMinnesotaSibley,Minnesota,Sibley,2020-07-16 14:49:02.387713,2020-07-11 00:00:00.000000,0.07785672,0.27623908,0.49744358,11,41,73,1,13,23,0.00920565,0.09072144,0.15927993,1.28834015,1.37566041,1.65035083
27143,0,USMinnesotaSibley,Minnesota,Sibley,2020-07-16 14:49:02.387713,2020-07-12 00:00:00.000000,0.03374265,0.07279375,0.23729077,5,10,35,0,0,9,0.00000000,0.00000000,0.06397014,1.28833962,1.37568931,1.65035213
27143,0,USMinnesotaSibley,Minnesota,Sibley,2020-07-16 14:49:02.387713,2020-07-13 00:00:00.000000,0.07212274,0.24900826,0.47859138,10,37,71,1,11,22,0.00795261,0.07984930,0.15342704,1.28833950,1.37569459,1.65035234
27143,0,USMinnesotaSibley,Minnesota,Sibley,2020-07-16 14:49:02.387713,2020-07-14 00:00:00.000000,0.02849474,0.06785340,0.22777665,4,10,33,0,0,9,0.00000000,0.00000000,0.06141917,1.28833947,1.37569555,1.65035237
27143,0,USMinnesotaSibley,Minnesota,Sibley,2020-07-16 14:49:02.387713,2020-07-15 00:00:00.000000,0.06759718,0.22311218,0.46142961,10,33,68,1,10,22,0.00692783,0.07227444,0.14809992,1.28833946,1.37569572,1.65035237
27143,0,USMinnesotaSibley,Minnesota,Sibley,2020-07-16 14:49:02.387713,2020-07-16 00:00:00.000000,0.02515835,0.06340569,0.21956542,3,9,32,0,0,8,0.00000000,0.00000000,0.05922554,1.28833946,1.37569574,1.65035237
27143,0,USMinnesotaSibley,Minnesota,Sibley,2020-07-16 14:49:02.387713,2020-07-17 00:00:00.000000,0.06403381,0.20507136,0.44581351,9,30,66,0,9,21,0.00615231,0.06699732,0.14325357,1.28833946,1.37569575,1.65035237
27143,0,USMinnesotaSibley,Minnesota,Sibley,2020-07-16 14:49:02.387713,2020-07-18 00:00:00.000000,0.02273249,0.05940450,0.21247471,3,8,31,0,0,8,0.00000000,0.00000000,0.05734137,1.28833946,1.37569575,1.65035237
27143,0,USMinnesotaSibley,Minnesota,Sibley,2020-07-16 14:49:02.387713,2020-07-19 00:00:00.000000,0.06111415,0.19251736,0.43160749,9,28,64,0,9,20,0.00553528,0.06330836,0.13884573,1.28833946,1.37569575,1.65035237
27143,0,USMinnesotaSibley,Minnesota,Sibley,2020-07-16 14:49:02.387713,2020-07-20 00:00:00.000000,0.02083991,0.05580742,0.20634653,3,8,30,0,0,8,0.00000000,0.00000000,0.05572287,1.28833946,1.37569575,1.65035237
27143,0,USMinnesotaSibley,Minnesota,Sibley,2020-07-16 14:49:02.387713,2020-07-21 00:00:00.000000,0.05866325,0.18395659,0.41868479,8,27,62,0,9,20,0.00503532,0.06057253,0.13483688,1.28833946,1.37569575,1.65035237
27143,0,USMinnesotaSibley,Minnesota,Sibley,2020-07-16 14:49:02.387713,2020-07-22 00:00:00.000000,0.01933204,0.05257548,0.20104442,2,7,29,0,0,8,0.00000000,0.00000000,0.05433164,1.28833946,1.37569575,1.65035237
27143,0,USMinnesotaSibley,Minnesota,Sibley,2020-07-16 14:49:02.387713,2020-07-23 00:00:00.000000,0.05659096,0.17740092,0.40692753,8,26,60,0,8,19,0.00462769,0.05841059,0.13119031,1.28833946,1.37569575,1.65035237
27143,0,USMinnesotaSibley,Minnesota,Sibley,2020-07-16 14:49:02.387713,2020-07-24 00:00:00.000000,0.01812301,0.04967291,0.19646696,2,7,29,0,0,7,0.00000000,0.00000000,0.05313450,1.28833946,1.37569575,1.65035237
27143,0,USMinnesotaSibley,Minnesota,Sibley,2020-07-16 14:49:02.387713,2020-07-25 00:00:00.000000,0.05483355,0.17215988,0.39631828,8,25,58,0,8,19,0.00429430,0.05666419,0.12783663,1.28833946,1.37569575,1.65035237
27143,0,USMinnesotaSibley,Minnesota,Sibley,2020-07-16 14:49:02.387713,2020-07-26 00:00:00.000000,0.01715119,0.04706705,0.19249190,2,6,28,0,0,7,0.00000000,0.00000000,0.05210292,1.28833946,1.37569575,1.65035237
27143,0,USMinnesotaSibley,Minnesota,Sibley,2020-07-16 14:49:02.387713,2020-07-27 00:00:00.000000,0.05333996,0.16790733,0.38651166,7,24,57,0,8,18,0.00402098,0.05524268,0.12471209,1.28833946,1.37569575,1.65035237
