FIPS,HR_UID,nameid,province,region,analysisTime,dates,pointprevalence_025,pointprevalence_50,pointprevalence_975,pointinfections_025,pointinfections_50,pointinfections_975,pointinfectious_025,pointinfectious_50,pointinfectious_975,pointinfectiousprevalence_05,pointinfectiousprevalence_50,pointinfectiousprevalence_95,infectrate_025,infectrate_50,infectrate_975
20079,0,USKansasHarvey,Kansas,Harvey,2020-07-18 16:21:38.812942,2020-03-09 00:00:00.000000,0.00558436,0.01960207,0.06472294,1,6,22,0,1,7,0.00000000,0.00540535,0.02087206,0.44261089,0.62400962,1.06221582
20079,0,USKansasHarvey,Kansas,Harvey,2020-07-18 16:21:38.812942,2020-03-10 00:00:00.000000,0.00570980,0.01867849,0.06490100,1,6,22,0,1,8,0.00163520,0.00528013,0.02471413,0.44262166,0.62399296,1.06221567
20079,0,USKansasHarvey,Kansas,Harvey,2020-07-18 16:21:38.812942,2020-03-11 00:00:00.000000,0.00552228,0.01922463,0.06874902,1,6,23,0,1,9,0.00156424,0.00524869,0.02716913,0.44264051,0.62396407,1.06221540
20079,0,USKansasHarvey,Kansas,Harvey,2020-07-18 16:21:38.812942,2020-03-12 00:00:00.000000,0.00584293,0.01861529,0.07363069,2,6,25,0,1,10,0.00194706,0.00538782,0.02949786,0.44267362,0.62391249,1.06221490
20079,0,USKansasHarvey,Kansas,Harvey,2020-07-18 16:21:38.812942,2020-03-13 00:00:00.000000,0.00609695,0.02006621,0.07922526,2,6,27,0,1,10,0.00171616,0.00564721,0.03194344,0.44273282,0.62381793,1.06221396
20079,0,USKansasHarvey,Kansas,Harvey,2020-07-18 16:21:38.812942,2020-03-14 00:00:00.000000,0.00652595,0.02048732,0.08431209,2,7,29,0,1,11,0.00186873,0.00579196,0.03470742,0.44284613,0.62349616,1.06221222
20079,0,USKansasHarvey,Kansas,Harvey,2020-07-18 16:21:38.812942,2020-03-15 00:00:00.000000,0.00669147,0.02117836,0.09132605,2,7,31,0,2,13,0.00180927,0.00597547,0.03776694,0.44311070,0.62209500,1.06220901
20079,0,USKansasHarvey,Kansas,Harvey,2020-07-18 16:21:38.812942,2020-03-16 00:00:00.000000,0.00668760,0.02066811,0.09921504,2,7,34,0,2,14,0.00187845,0.00602624,0.04123554,0.43032340,0.61698713,1.06220311
20079,0,USKansasHarvey,Kansas,Harvey,2020-07-18 16:21:38.812942,2020-03-17 00:00:00.000000,0.00677201,0.02318889,0.10800079,2,7,37,0,2,15,0.00185798,0.00618309,0.04475373,0.40784156,0.61086807,1.06219207
20079,0,USKansasHarvey,Kansas,Harvey,2020-07-18 16:21:38.812942,2020-03-18 00:00:00.000000,0.00680054,0.02330137,0.11774083,2,8,40,0,2,16,0.00181469,0.00623543,0.04883479,0.40361007,0.59821808,1.06216010
20079,0,USKansasHarvey,Kansas,Harvey,2020-07-18 16:21:38.812942,2020-03-19 00:00:00.000000,0.00686239,0.02453986,0.12851032,2,8,44,0,2,18,0.00178475,0.00633701,0.05332777,0.39898834,0.59193407,1.06150477
20079,0,USKansasHarvey,Kansas,Harvey,2020-07-18 16:21:38.812942,2020-03-20 00:00:00.000000,0.00704452,0.02464074,0.14040579,2,8,48,0,2,20,0.00173586,0.00638560,0.05826900,0.39752593,0.59121569,1.04758408
20079,0,USKansasHarvey,Kansas,Harvey,2020-07-18 16:21:38.812942,2020-03-21 00:00:00.000000,0.00697998,0.02536914,0.15351178,2,8,52,0,2,21,0.00176580,0.00647754,0.06370810,0.38668678,0.58474650,1.04576520
20079,0,USKansasHarvey,Kansas,Harvey,2020-07-18 16:21:38.812942,2020-03-22 00:00:00.000000,0.00674989,0.02545638,0.16897611,2,8,58,0,2,24,0.00167118,0.00654882,0.06973365,0.38104549,0.57465021,1.07392237
20079,0,USKansasHarvey,Kansas,Harvey,2020-07-18 16:21:38.812942,2020-03-23 00:00:00.000000,0.00658112,0.02598246,0.18693191,2,8,64,0,2,26,0.00175662,0.00674257,0.07652740,0.37854829,0.57362966,1.07626782
20079,0,USKansasHarvey,Kansas,Harvey,2020-07-18 16:21:38.812942,2020-03-24 00:00:00.000000,0.00641732,0.02622943,0.20741157,2,9,71,0,2,29,0.00160734,0.00697688,0.08432216,0.37375889,0.57230100,1.13212705
20079,0,USKansasHarvey,Kansas,Harvey,2020-07-18 16:21:38.812942,2020-03-25 00:00:00.000000,0.00626412,0.02633475,0.23010370,2,9,79,0,2,32,0.00174470,0.00722029,0.09319020,0.37389653,0.56686180,1.13274589
20079,0,USKansasHarvey,Kansas,Harvey,2020-07-18 16:21:38.812942,2020-03-26 00:00:00.000000,0.00610385,0.02621234,0.25488576,2,9,87,0,2,35,0.00154397,0.00739153,0.10308877,0.37435076,0.55168573,1.12254079
20079,0,USKansasHarvey,Kansas,Harvey,2020-07-18 16:21:38.812942,2020-03-27 00:00:00.000000,0.00589013,0.02700642,0.28135327,2,9,96,0,2,39,0.00163985,0.00779728,0.11398277,0.36578227,0.53776765,1.10719014
20079,0,USKansasHarvey,Kansas,Harvey,2020-07-18 16:21:38.812942,2020-03-28 00:00:00.000000,0.00563400,0.02609794,0.30787358,1,8,105,0,2,43,0.00146829,0.00788749,0.12576883,0.35475507,0.52913008,1.08647335
20079,0,USKansasHarvey,Kansas,Harvey,2020-07-18 16:21:38.812942,2020-03-29 00:00:00.000000,0.00535178,0.02666657,0.33186371,1,9,114,0,2,47,0.00150319,0.00819850,0.13799106,0.33912916,0.51079619,1.07950054
20079,0,USKansasHarvey,Kansas,Harvey,2020-07-18 16:21:38.812942,2020-03-30 00:00:00.000000,0.00511492,0.02608017,0.35354482,1,8,121,0,2,51,0.00144559,0.00838326,0.14981676,0.32174743,0.49416142,1.05858919
20079,0,USKansasHarvey,Kansas,Harvey,2020-07-18 16:21:38.812942,2020-03-31 00:00:00.000000,0.00491548,0.02651424,0.37539597,1,9,129,0,3,55,0.00144427,0.00871944,0.16111542,0.30289876,0.48608792,1.03176608
20079,0,USKansasHarvey,Kansas,Harvey,2020-07-18 16:21:38.812942,2020-04-01 00:00:00.000000,0.00474203,0.02571783,0.39930910,1,8,137,0,2,59,0.00144438,0.00862733,0.17254557,0.29611218,0.46558495,0.98939538
20079,0,USKansasHarvey,Kansas,Harvey,2020-07-18 16:21:38.812942,2020-04-02 00:00:00.000000,0.00458625,0.02553116,0.42617276,1,8,146,0,3,63,0.00145976,0.00890661,0.18473060,0.29300104,0.44695096,0.92781514
20079,0,USKansasHarvey,Kansas,Harvey,2020-07-18 16:21:38.812942,2020-04-03 00:00:00.000000,0.00443470,0.02491148,0.45757686,1,8,157,0,2,68,0.00147904,0.00862830,0.19813495,0.29238028,0.43684555,0.87331192
20079,0,USKansasHarvey,Kansas,Harvey,2020-07-18 16:21:38.812942,2020-04-04 00:00:00.000000,0.00425859,0.02566963,0.49494161,1,8,170,0,2,73,0.00150024,0.00858769,0.21330356,0.29225685,0.43154451,0.85534107
20079,0,USKansasHarvey,Kansas,Harvey,2020-07-18 16:21:38.812942,2020-04-05 00:00:00.000000,0.00411137,0.02552355,0.53748192,1,8,185,0,2,79,0.00152399,0.00817369,0.23070622,0.29421238,0.43187163,0.85527750
20079,0,USKansasHarvey,Kansas,Harvey,2020-07-18 16:21:38.812942,2020-04-06 00:00:00.000000,0.00397473,0.02524943,0.58443429,1,8,201,0,2,86,0.00155129,0.00847496,0.25029553,0.29289140,0.43952092,0.85482612
20079,0,USKansasHarvey,Kansas,Harvey,2020-07-18 16:21:38.812942,2020-04-07 00:00:00.000000,0.00384664,0.02497614,0.63543070,1,8,218,0,2,93,0.00153908,0.00812613,0.27186238,0.29467962,0.43587028,0.85558290
20079,0,USKansasHarvey,Kansas,Harvey,2020-07-18 16:21:38.812942,2020-04-08 00:00:00.000000,0.00370611,0.02470679,0.69035932,1,8,237,0,2,101,0.00150915,0.00822410,0.29532874,0.29799094,0.43761579,0.85557103
20079,0,USKansasHarvey,Kansas,Harvey,2020-07-18 16:21:38.812942,2020-04-09 00:00:00.000000,0.00357310,0.02444461,0.74847538,1,8,257,0,2,110,0.00146655,0.00793602,0.32070044,0.29668556,0.44402470,0.86856153
20079,0,USKansasHarvey,Kansas,Harvey,2020-07-18 16:21:38.812942,2020-04-10 00:00:00.000000,0.00345319,0.02419361,0.80525827,1,8,277,0,2,119,0.00142660,0.00788747,0.34780413,0.29586850,0.45284812,0.88658790
20079,0,USKansasHarvey,Kansas,Harvey,2020-07-18 16:21:38.812942,2020-04-11 00:00:00.000000,0.00335522,0.02395870,0.84847479,1,8,292,0,2,129,0.00138880,0.00753121,0.37533920,0.29352902,0.44886402,0.90910222
20079,0,USKansasHarvey,Kansas,Harvey,2020-07-18 16:21:38.812942,2020-04-12 00:00:00.000000,0.00329453,0.02297791,0.87486884,1,7,301,0,2,137,0.00135268,0.00744284,0.39959607,0.29621597,0.43132025,0.92902208
20079,0,USKansasHarvey,Kansas,Harvey,2020-07-18 16:21:38.812942,2020-04-13 00:00:00.000000,0.00327526,0.02175105,0.89525266,1,7,308,0,2,144,0.00131783,0.00702610,0.41908141,0.29385609,0.42655200,0.92736516
20079,0,USKansasHarvey,Kansas,Harvey,2020-07-18 16:21:38.812942,2020-04-14 00:00:00.000000,0.00323436,0.02059138,0.91715258,1,7,315,0,2,150,0.00128393,0.00698235,0.43653207,0.29347482,0.42453441,0.90621714
20079,0,USKansasHarvey,Kansas,Harvey,2020-07-18 16:21:38.812942,2020-04-15 00:00:00.000000,0.00314956,0.02009765,0.94317072,1,6,324,0,2,156,0.00125084,0.00671886,0.45429010,0.29282986,0.42360232,0.89989719
20079,0,USKansasHarvey,Kansas,Harvey,2020-07-18 16:21:38.812942,2020-04-16 00:00:00.000000,0.00307700,0.01961210,0.97348025,1,6,335,0,2,162,0.00121872,0.00667660,0.47335165,0.29289686,0.42314748,0.89212932
20079,0,USKansasHarvey,Kansas,Harvey,2020-07-18 16:21:38.812942,2020-04-17 00:00:00.000000,0.00303611,0.01878191,1.00721004,1,6,346,0,2,170,0.00118785,0.00637876,0.49392105,0.29140012,0.41582905,0.86218565
20079,0,USKansasHarvey,Kansas,Harvey,2020-07-18 16:21:38.812942,2020-04-18 00:00:00.000000,0.00303720,0.01811408,1.04302966,1,6,359,0,2,177,0.00115831,0.00639262,0.51582570,0.28787368,0.40920559,0.83508769
20079,0,USKansasHarvey,Kansas,Harvey,2020-07-18 16:21:38.812942,2020-04-19 00:00:00.000000,0.00306100,0.01735845,1.07952428,1,5,371,0,2,185,0.00113558,0.00605170,0.53870925,0.28470821,0.40504471,0.85026322
20079,0,USKansasHarvey,Kansas,Harvey,2020-07-18 16:21:38.812942,2020-04-20 00:00:00.000000,0.00301313,0.01701395,1.11563187,1,5,384,0,2,193,0.00111425,0.00601576,0.56215243,0.28477883,0.40524850,0.82777848
20079,0,USKansasHarvey,Kansas,Harvey,2020-07-18 16:21:38.812942,2020-04-21 00:00:00.000000,0.00297002,0.01691545,1.15104048,1,5,396,0,1,201,0.00109361,0.00573447,0.58581078,0.28384615,0.40430206,0.84640991
20079,0,USKansasHarvey,Kansas,Harvey,2020-07-18 16:21:38.812942,2020-04-22 00:00:00.000000,0.00293166,0.01708921,1.18627485,1,5,408,0,1,209,0.00107359,0.00569913,0.60954880,0.28373902,0.39954226,0.85390078
20079,0,USKansasHarvey,Kansas,Harvey,2020-07-18 16:21:38.812942,2020-04-23 00:00:00.000000,0.00288741,0.01734234,1.22264399,0,5,420,0,1,218,0.00104407,0.00557942,0.63348927,0.28655706,0.39456610,0.85876886
20079,0,USKansasHarvey,Kansas,Harvey,2020-07-18 16:21:38.812942,2020-04-24 00:00:00.000000,0.00285318,0.01758892,1.26423067,0,6,435,0,1,226,0.00101353,0.00567815,0.65801551,0.26980060,0.39687802,0.86033773
20079,0,USKansasHarvey,Kansas,Harvey,2020-07-18 16:21:38.812942,2020-04-25 00:00:00.000000,0.00287194,0.01744990,1.32943761,0,6,457,0,1,235,0.00098415,0.00552446,0.68436395,0.26254357,0.41255125,0.91175347
20079,0,USKansasHarvey,Kansas,Harvey,2020-07-18 16:21:38.812942,2020-04-26 00:00:00.000000,0.00293388,0.01719981,1.43247649,1,5,493,0,1,247,0.00095579,0.00556226,0.71808159,0.26397240,0.41893395,0.94100830
20079,0,USKansasHarvey,Kansas,Harvey,2020-07-18 16:21:38.812942,2020-04-27 00:00:00.000000,0.00293205,0.01685164,1.55281822,1,5,534,0,1,263,0.00092858,0.00533871,0.76412173,0.26729101,0.41927762,0.95858045
20079,0,USKansasHarvey,Kansas,Harvey,2020-07-18 16:21:38.812942,2020-04-28 00:00:00.000000,0.00295251,0.01655203,1.67847279,1,5,577,0,1,281,0.00090263,0.00523027,0.81751974,0.26613449,0.42233784,0.96018712
20079,0,USKansasHarvey,Kansas,Harvey,2020-07-18 16:21:38.812942,2020-04-29 00:00:00.000000,0.00296314,0.01630942,1.80601649,1,5,621,0,1,301,0.00087832,0.00513078,0.87457530,0.26617296,0.42000907,0.96040756
20079,0,USKansasHarvey,Kansas,Harvey,2020-07-18 16:21:38.812942,2020-04-30 00:00:00.000000,0.00296934,0.01611387,1.93463987,1,5,666,0,1,321,0.00085568,0.00510635,0.93399120,0.26958244,0.41560457,0.96068038
20079,0,USKansasHarvey,Kansas,Harvey,2020-07-18 16:21:38.812942,2020-05-01 00:00:00.000000,0.00300785,0.01580649,2.06329008,1,5,710,0,1,342,0.00083460,0.00512225,0.99539845,0.29872165,0.41075951,0.96152750
20079,0,USKansasHarvey,Kansas,Harvey,2020-07-18 16:21:38.812942,2020-05-02 00:00:00.000000,0.00303490,0.01539582,2.18845304,1,5,753,0,1,364,0.00082841,0.00509655,1.05843226,0.31001623,0.40888308,0.96443502
20079,0,USKansasHarvey,Kansas,Harvey,2020-07-18 16:21:38.812942,2020-05-03 00:00:00.000000,0.00305212,0.01511508,2.30207800,1,5,792,0,1,386,0.00082382,0.00508908,1.12199741,0.31748013,0.41333884,0.97387305
20079,0,USKansasHarvey,Kansas,Harvey,2020-07-18 16:21:38.812942,2020-05-04 00:00:00.000000,0.00299104,0.01487381,2.39360714,1,5,824,0,1,407,0.00082275,0.00509963,1.18356244,0.33147582,0.42051755,0.98178595
20079,0,USKansasHarvey,Kansas,Harvey,2020-07-18 16:21:38.812942,2020-05-05 00:00:00.000000,0.00291839,0.01480300,2.45978205,1,5,846,0,1,426,0.00082296,0.00512757,1.23962813,0.31795720,0.42272724,0.99627471
20079,0,USKansasHarvey,Kansas,Harvey,2020-07-18 16:21:38.812942,2020-05-06 00:00:00.000000,0.00285890,0.01477677,2.50915267,0,5,863,0,1,443,0.00082434,0.00506943,1.28858627,0.29804565,0.42641360,0.99448158
20079,0,USKansasHarvey,Kansas,Harvey,2020-07-18 16:21:38.812942,2020-05-07 00:00:00.000000,0.00271467,0.01466962,2.55372488,0,5,879,0,1,458,0.00082853,0.00498714,1.33238275,0.28796462,0.43195422,0.94938352
20079,0,USKansasHarvey,Kansas,Harvey,2020-07-18 16:21:38.812942,2020-05-08 00:00:00.000000,0.00257580,0.01466109,2.60172534,0,5,895,0,1,473,0.00083703,0.00493262,1.37442167,0.28313587,0.43774846,0.93114608
20079,0,USKansasHarvey,Kansas,Harvey,2020-07-18 16:21:38.812942,2020-05-09 00:00:00.000000,0.00244029,0.01466116,2.65613921,0,5,914,0,1,487,0.00084719,0.00498131,1.41733184,0.27986953,0.44129651,0.97784431
20079,0,USKansasHarvey,Kansas,Harvey,2020-07-18 16:21:38.812942,2020-05-10 00:00:00.000000,0.00230716,0.01448264,2.71484151,0,4,934,0,1,503,0.00086007,0.00509603,1.46227602,0.27553294,0.45086622,0.99815521
20079,0,USKansasHarvey,Kansas,Harvey,2020-07-18 16:21:38.812942,2020-05-11 00:00:00.000000,0.00217737,0.01455090,2.77247147,0,5,954,0,1,519,0.00087715,0.00512490,1.50884135,0.26823178,0.46247201,1.02137715
20079,0,USKansasHarvey,Kansas,Harvey,2020-07-18 16:21:38.812942,2020-05-12 00:00:00.000000,0.00207150,0.01462511,2.82808133,0,5,973,0,1,535,0.00089047,0.00505859,1.55549132,0.26056937,0.45643086,1.03601462
20079,0,USKansasHarvey,Kansas,Harvey,2020-07-18 16:21:38.812942,2020-05-13 00:00:00.000000,0.00196518,0.01469887,2.88608742,0,5,993,0,1,551,0.00086387,0.00512132,1.60178090,0.25663950,0.45320384,1.04452652
20079,0,USKansasHarvey,Kansas,Harvey,2020-07-18 16:21:38.812942,2020-05-14 00:00:00.000000,0.00184456,0.01479028,2.95011872,0,5,1015,0,1,567,0.00084261,0.00515751,1.64891864,0.25530286,0.44676924,1.05209336
20079,0,USKansasHarvey,Kansas,Harvey,2020-07-18 16:21:38.812942,2020-05-15 00:00:00.000000,0.00172981,0.01502550,3.02155404,0,5,1040,0,1,584,0.00079695,0.00516925,1.69810513,0.25491402,0.44767244,1.07540215
20079,0,USKansasHarvey,Kansas,Harvey,2020-07-18 16:21:38.812942,2020-05-16 00:00:00.000000,0.00163553,0.01591567,3.10059723,0,5,1067,0,1,602,0.00074751,0.00516474,1.74993623,0.25495006,0.44492614,1.07579534
20079,0,USKansasHarvey,Kansas,Harvey,2020-07-18 16:21:38.812942,2020-05-17 00:00:00.000000,0.00160490,0.01565338,3.18755048,0,5,1097,0,1,621,0.00070070,0.00521621,1.80462753,0.25562015,0.44986388,1.08514215
20079,0,USKansasHarvey,Kansas,Harvey,2020-07-18 16:21:38.812942,2020-05-18 00:00:00.000000,0.00150524,0.01554794,3.28444487,0,5,1130,0,1,641,0.00065662,0.00525663,1.86238779,0.25802871,0.45065736,1.10364366
20079,0,USKansasHarvey,Kansas,Harvey,2020-07-18 16:21:38.812942,2020-05-19 00:00:00.000000,0.00141162,0.01609838,3.39795002,0,5,1169,0,1,662,0.00061520,0.00528713,1.92392875,0.26460030,0.45189090,1.14062457
20079,0,USKansasHarvey,Kansas,Harvey,2020-07-18 16:21:38.812942,2020-05-20 00:00:00.000000,0.00132384,0.01666629,3.54255688,0,5,1219,0,1,685,0.00057635,0.00546733,1.99138437,0.28121952,0.45336302,1.14605050
20079,0,USKansasHarvey,Kansas,Harvey,2020-07-18 16:21:38.812942,2020-05-21 00:00:00.000000,0.00126388,0.01725325,3.73502621,0,5,1285,0,1,712,0.00055483,0.00556616,2.06939424,0.30283968,0.45448995,1.15236296
20079,0,USKansasHarvey,Kansas,Harvey,2020-07-18 16:21:38.812942,2020-05-22 00:00:00.000000,0.00120245,0.01785994,3.97760433,0,6,1369,0,1,744,0.00052009,0.00560484,2.16370464,0.30094591,0.45562640,1.16159519
20079,0,USKansasHarvey,Kansas,Harvey,2020-07-18 16:21:38.812942,2020-05-23 00:00:00.000000,0.00113714,0.01848398,4.25668025,0,6,1465,0,1,783,0.00048789,0.00580225,2.27616578,0.30477115,0.47504584,1.18561231
20079,0,USKansasHarvey,Kansas,Harvey,2020-07-18 16:21:38.812942,2020-05-24 00:00:00.000000,0.00110351,0.01912219,4.55342604,0,6,1567,0,1,827,0.00048229,0.00566592,2.40366173,0.29484238,0.51729542,1.21107011
20079,0,USKansasHarvey,Kansas,Harvey,2020-07-18 16:21:38.812942,2020-05-25 00:00:00.000000,0.00109612,0.01978017,4.84941268,0,6,1669,0,1,874,0.00046400,0.00553180,2.54089642,0.28757874,0.57275072,1.27126967
20079,0,USKansasHarvey,Kansas,Harvey,2020-07-18 16:21:38.812942,2020-05-26 00:00:00.000000,0.00109802,0.02009422,5.13044034,0,6,1766,0,1,923,0.00045711,0.00573576,2.68220986,0.27346246,0.57483253,1.33857345
20079,0,USKansasHarvey,Kansas,Harvey,2020-07-18 16:21:38.812942,2020-05-27 00:00:00.000000,0.00110778,0.02010764,5.38778897,0,6,1854,0,2,971,0.00046049,0.00609707,2.82286069,0.26184462,0.58641297,1.43492509
20079,0,USKansasHarvey,Kansas,Harvey,2020-07-18 16:21:38.812942,2020-05-28 00:00:00.000000,0.00114007,0.02018260,5.61745043,0,6,1934,0,2,1018,0.00046605,0.00630862,2.95957316,0.25534526,0.58791990,1.49170761
20079,0,USKansasHarvey,Kansas,Harvey,2020-07-18 16:21:38.812942,2020-05-29 00:00:00.000000,0.00120266,0.02136102,5.81919972,0,7,2003,0,2,1064,0.00047602,0.00634273,3.09045353,0.24985267,0.59591840,1.55451187
20079,0,USKansasHarvey,Kansas,Harvey,2020-07-18 16:21:38.812942,2020-05-30 00:00:00.000000,0.00127961,0.02191931,5.99585814,0,7,2064,0,2,1106,0.00049753,0.00639287,3.21478785,0.25161555,0.61336054,1.55758027
20079,0,USKansasHarvey,Kansas,Harvey,2020-07-18 16:21:38.812942,2020-05-31 00:00:00.000000,0.00136458,0.02265696,6.15242268,0,7,2118,0,2,1147,0.00052645,0.00662285,3.33286684,0.26728422,0.61726986,1.55357401
20079,0,USKansasHarvey,Kansas,Harvey,2020-07-18 16:21:38.812942,2020-06-01 00:00:00.000000,0.00145579,0.02351002,6.29496381,0,8,2167,0,2,1186,0.00055971,0.00665019,3.44576096,0.28530231,0.63149760,1.61071054
20079,0,USKansasHarvey,Kansas,Harvey,2020-07-18 16:21:38.812942,2020-06-02 00:00:00.000000,0.00155301,0.02442701,6.42952347,0,8,2213,0,2,1223,0.00059622,0.00686369,3.55500938,0.28132261,0.65224670,1.66223219
20079,0,USKansasHarvey,Kansas,Harvey,2020-07-18 16:21:38.812942,2020-06-03 00:00:00.000000,0.00165638,0.02541914,6.56129777,0,8,2258,0,2,1260,0.00063556,0.00731072,3.66228406,0.27902653,0.68983863,1.74971963
20079,0,USKansasHarvey,Kansas,Harvey,2020-07-18 16:21:38.812942,2020-06-04 00:00:00.000000,0.00176581,0.02658008,6.69422991,0,9,2304,0,2,1297,0.00067765,0.00776628,3.76911796,0.27786139,0.70611578,1.80471233
20079,0,USKansasHarvey,Kansas,Harvey,2020-07-18 16:21:38.812942,2020-06-05 00:00:00.000000,0.00188115,0.02811709,6.88442592,0,9,2370,0,2,1334,0.00072239,0.00833362,3.87674655,0.27573000,0.74235372,1.83647710
20079,0,USKansasHarvey,Kansas,Harvey,2020-07-18 16:21:38.812942,2020-06-06 00:00:00.000000,0.00200318,0.03012412,7.16354673,0,10,2466,0,3,1372,0.00076967,0.00892869,3.98605952,0.27420608,0.78416098,1.96652333
20079,0,USKansasHarvey,Kansas,Harvey,2020-07-18 16:21:38.812942,2020-06-07 00:00:00.000000,0.00213333,0.03247703,7.31264932,0,11,2517,0,3,1410,0.00081971,0.00978991,4.09762935,0.27250794,0.84828052,2.05548760
20079,0,USKansasHarvey,Kansas,Harvey,2020-07-18 16:21:38.812942,2020-06-08 00:00:00.000000,0.00227329,0.03566630,7.55550773,0,12,2601,0,3,1450,0.00087299,0.01077144,4.21177800,0.27119234,0.86836649,2.18286003
20079,0,USKansasHarvey,Kansas,Harvey,2020-07-18 16:21:38.812942,2020-06-09 00:00:00.000000,0.00242547,0.03781901,7.71966459,0,13,2657,0,4,1490,0.00093014,0.01184237,4.32865149,0.27015823,0.87586287,2.23120262
20079,0,USKansasHarvey,Kansas,Harvey,2020-07-18 16:21:38.812942,2020-06-10 00:00:00.000000,0.00259395,0.04094858,7.94402247,0,14,2735,0,4,1531,0.00099207,0.01301021,4.44828420,0.26932651,0.88850850,2.28311726
20079,0,USKansasHarvey,Kansas,Harvey,2020-07-18 16:21:38.812942,2020-06-11 00:00:00.000000,0.00278596,0.04332515,8.52955214,0,14,2936,0,4,1573,0.00106024,0.01392466,4.57064746,0.26847615,0.91083595,2.39762813
20079,0,USKansasHarvey,Kansas,Harvey,2020-07-18 16:21:38.812942,2020-06-12 00:00:00.000000,0.00301444,0.04726987,8.96393935,1,16,3086,0,5,1616,0.00113726,0.01508652,4.69569618,0.26911192,0.94855951,2.47173027
20079,0,USKansasHarvey,Kansas,Harvey,2020-07-18 16:21:38.812942,2020-06-13 00:00:00.000000,0.00330144,0.05156663,9.48048685,1,17,3264,0,5,1660,0.00122776,0.01645424,4.82350841,0.26968303,0.99882547,2.44585657
20079,0,USKansasHarvey,Kansas,Harvey,2020-07-18 16:21:38.812942,2020-06-14 00:00:00.000000,0.00368109,0.05608648,10.17842561,1,19,3504,0,5,1705,0.00133969,0.01739111,4.95472641,0.27109675,1.01905149,2.49900014
20079,0,USKansasHarvey,Kansas,Harvey,2020-07-18 16:21:38.812942,2020-06-15 00:00:00.000000,0.00419863,0.06176917,10.91658860,1,21,3758,0,6,1752,0.00148553,0.01864633,5.08977979,0.27132929,1.04575397,2.67515992
20079,0,USKansasHarvey,Kansas,Harvey,2020-07-18 16:21:38.812942,2020-06-16 00:00:00.000000,0.00490352,0.07198938,11.69216393,1,24,4025,0,6,1799,0.00168235,0.01989625,5.22778224,0.27123650,1.04527700,2.84100494
20079,0,USKansasHarvey,Kansas,Harvey,2020-07-18 16:21:38.812942,2020-06-17 00:00:00.000000,0.00584290,0.08004166,12.50515033,2,27,4305,0,7,1848,0.00194967,0.02220052,5.36794439,0.27092964,1.07958647,2.85337569
20079,0,USKansasHarvey,Kansas,Harvey,2020-07-18 16:21:38.812942,2020-06-18 00:00:00.000000,0.00704012,0.08897961,13.35644985,2,30,4598,0,8,1896,0.00231810,0.02426136,5.50970758,0.26946324,1.17540821,2.85634798
20079,0,USKansasHarvey,Kansas,Harvey,2020-07-18 16:21:38.812942,2020-06-19 00:00:00.000000,0.00868229,0.09890809,14.24898308,2,34,4905,0,9,1945,0.00280542,0.02705313,5.65179232,0.26508504,1.20049144,2.78870901
20079,0,USKansasHarvey,Kansas,Harvey,2020-07-18 16:21:38.812942,2020-06-20 00:00:00.000000,0.01090594,0.10718868,15.19644033,3,36,5231,1,10,1993,0.00344963,0.03072230,5.79131368,0.25931818,1.19728154,2.82673868
20079,0,USKansasHarvey,Kansas,Harvey,2020-07-18 16:21:38.812942,2020-06-21 00:00:00.000000,0.01386401,0.11870112,16.24007175,4,40,5591,1,12,2041,0.00432764,0.03499431,5.92867902,0.25978364,1.18882466,2.91616250
20079,0,USKansasHarvey,Kansas,Harvey,2020-07-18 16:21:38.812942,2020-06-22 00:00:00.000000,0.01743244,0.13865321,17.43410889,6,47,6002,1,13,2088,0.00549893,0.03899449,6.06613005,0.25490556,1.19773643,3.02549180
20079,0,USKansasHarvey,Kansas,Harvey,2020-07-18 16:21:38.812942,2020-06-23 00:00:00.000000,0.02192217,0.15765103,18.92457243,7,54,6515,2,15,2199,0.00681037,0.04429643,6.38962758,0.25494474,1.19638961,3.12013013
20079,0,USKansasHarvey,Kansas,Harvey,2020-07-18 16:21:38.812942,2020-06-24 00:00:00.000000,0.02777004,0.18203878,20.70415255,9,62,7128,2,17,2297,0.00865316,0.04944714,6.67415252,0.25507819,1.20344677,3.17800349
20079,0,USKansasHarvey,Kansas,Harvey,2020-07-18 16:21:38.812942,2020-06-25 00:00:00.000000,0.03490081,0.21263772,22.58358791,12,73,7775,3,19,2349,0.01095518,0.05698882,6.82356591,0.25543327,1.21268598,3.22654027
20079,0,USKansasHarvey,Kansas,Harvey,2020-07-18 16:21:38.812942,2020-06-26 00:00:00.000000,0.04346558,0.24859502,24.56011498,14,85,8455,4,21,2401,0.01304118,0.06303122,6.97444279,0.25636122,1.23485913,3.19539449
20079,0,USKansasHarvey,Kansas,Harvey,2020-07-18 16:21:38.812942,2020-06-27 00:00:00.000000,0.05375103,0.29226780,26.62793325,18,100,9167,5,25,2489,0.01546561,0.07320772,7.22986829,0.25872966,1.29258037,3.24569612
20079,0,USKansasHarvey,Kansas,Harvey,2020-07-18 16:21:38.812942,2020-06-28 00:00:00.000000,0.06616374,0.33646477,28.77783763,22,115,9907,6,28,2576,0.01836751,0.08209761,7.48451664,0.27123598,1.31276882,3.26536431
20079,0,USKansasHarvey,Kansas,Harvey,2020-07-18 16:21:38.812942,2020-06-29 00:00:00.000000,0.08127421,0.38666101,30.99720910,27,133,10672,7,33,2681,0.02206201,0.09702665,7.78747879,0.28279019,1.32098794,3.29427172
20079,0,USKansasHarvey,Kansas,Harvey,2020-07-18 16:21:38.812942,2020-06-30 00:00:00.000000,0.09975005,0.43964404,33.27092195,34,151,11454,9,38,2787,0.02659397,0.11109479,8.09708698,0.29911302,1.32977896,3.30072173
20079,0,USKansasHarvey,Kansas,Harvey,2020-07-18 16:21:38.812942,2020-07-01 00:00:00.000000,0.12237896,0.50739085,35.58267363,42,174,12250,11,44,2890,0.03210598,0.12951099,8.39686361,0.31545572,1.33405450,3.26607653
20079,0,USKansasHarvey,Kansas,Harvey,2020-07-18 16:21:38.812942,2020-07-02 00:00:00.000000,0.15178839,0.57568074,37.91616875,52,198,13054,13,50,2994,0.03798043,0.14718136,8.69838086,0.32365713,1.33522948,3.23257667
20079,0,USKansasHarvey,Kansas,Harvey,2020-07-18 16:21:38.812942,2020-07-03 00:00:00.000000,0.18823878,0.66589960,40.25556384,64,229,13859,14,59,3090,0.04317621,0.17368258,8.97721034,0.32844089,1.32308564,3.26133113
20079,0,USKansasHarvey,Kansas,Harvey,2020-07-18 16:21:38.812942,2020-07-04 00:00:00.000000,0.23070418,0.77453455,42.58465172,79,266,14661,17,65,3186,0.05063335,0.19071694,9.25575359,0.33250201,1.32212958,3.28380263
20079,0,USKansasHarvey,Kansas,Harvey,2020-07-18 16:21:38.812942,2020-07-05 00:00:00.000000,0.28178903,0.89498615,44.50112645,97,308,15321,20,81,3282,0.05818700,0.23577606,9.53422636,0.33787638,1.29744944,3.23661418
20079,0,USKansasHarvey,Kansas,Harvey,2020-07-18 16:21:38.812942,2020-07-06 00:00:00.000000,0.33452086,1.03617772,44.85280274,115,356,15442,22,89,3378,0.06623065,0.25926059,9.81409997,0.34254070,1.30002376,3.16508959
20079,0,USKansasHarvey,Kansas,Harvey,2020-07-18 16:21:38.812942,2020-07-07 00:00:00.000000,0.40403222,1.17335033,44.59624267,139,403,15354,25,102,3475,0.07493210,0.29773582,10.09550279,0.34641069,1.26799570,3.15059333
20079,0,USKansasHarvey,Kansas,Harvey,2020-07-18 16:21:38.812942,2020-07-08 00:00:00.000000,0.48689367,1.35029203,43.03029365,167,464,14814,28,119,3536,0.08249048,0.34664573,10.27122956,0.34847354,1.24592370,3.14439742
20079,0,USKansasHarvey,Kansas,Harvey,2020-07-18 16:21:38.812942,2020-07-09 00:00:00.000000,0.58077964,1.55328995,41.20364600,199,534,14186,31,141,3580,0.09077138,0.41021370,10.39826157,0.34938143,1.23957287,3.14401161
20079,0,USKansasHarvey,Kansas,Harvey,2020-07-18 16:21:38.812942,2020-07-10 00:00:00.000000,0.68839133,1.78813378,39.38583623,237,615,13560,34,163,3641,0.09999457,0.47470858,10.57722956,0.34974683,1.23835926,3.14381575
20079,0,USKansasHarvey,Kansas,Harvey,2020-07-18 16:21:38.812942,2020-07-11 00:00:00.000000,0.81069776,2.03034254,37.59981704,279,699,12945,37,191,3725,0.11034842,0.55581767,10.81981333,0.34988858,1.23813008,3.14371769
20079,0,USKansasHarvey,Kansas,Harvey,2020-07-18 16:21:38.812942,2020-07-12 00:00:00.000000,0.90131323,2.28460161,35.86316514,310,786,12347,41,214,3814,0.12175953,0.62221740,11.07994998,0.34994279,1.23808687,3.14366899
20079,0,USKansasHarvey,Kansas,Harvey,2020-07-18 16:21:38.812942,2020-07-13 00:00:00.000000,0.99744744,2.57538244,34.65383169,343,886,11930,46,249,3902,0.13433381,0.72354965,11.33472653,0.34996340,1.23807871,3.14364492
20079,0,USKansasHarvey,Kansas,Harvey,2020-07-18 16:21:38.812942,2020-07-14 00:00:00.000000,1.10169774,2.94410062,35.23372256,379,1013,12130,51,280,3988,0.14818589,0.81491554,11.58404468,0.34997122,1.23807717,3.14363308
20079,0,USKansasHarvey,Kansas,Harvey,2020-07-18 16:21:38.812942,2020-07-15 00:00:00.000000,1.21581357,3.35757400,35.51255203,418,1155,12226,56,327,4072,0.16496871,0.95189911,11.82780974,0.34997418,1.23807688,3.14362726
20079,0,USKansasHarvey,Kansas,Harvey,2020-07-18 16:21:38.812942,2020-07-16 00:00:00.000000,1.33581266,3.77276121,35.47276544,459,1298,12212,63,373,4154,0.18495078,1.08562641,12.06589693,0.34997530,1.23807683,3.14362441
20079,0,USKansasHarvey,Kansas,Harvey,2020-07-18 16:21:38.812942,2020-07-17 00:00:00.000000,1.46737171,4.19000542,36.42650242,505,1442,12541,71,436,4234,0.20636329,1.26686201,12.29814630,0.34997571,1.23807681,3.14362301
20079,0,USKansasHarvey,Kansas,Harvey,2020-07-18 16:21:38.812942,2020-07-18 00:00:00.000000,1.61090765,4.81135532,39.04497132,554,1656,13442,78,479,4312,0.22805144,1.39233451,12.52436981,0.34997587,1.23807681,3.14362233
20079,0,USKansasHarvey,Kansas,Harvey,2020-07-18 16:21:38.812942,2020-07-19 00:00:00.000000,1.76727582,5.65850434,42.43403969,608,1948,14609,86,575,4387,0.25193593,1.67210516,12.74436240,0.34997593,1.23807681,3.14362200
20079,0,USKansasHarvey,Kansas,Harvey,2020-07-18 16:21:38.812942,2020-07-20 00:00:00.000000,1.93737022,6.52016766,45.91405924,667,2244,15807,95,641,4461,0.27822019,1.86244289,12.95791324,0.34997595,1.23807681,3.14362184
20079,0,USKansasHarvey,Kansas,Harvey,2020-07-18 16:21:38.812942,2020-07-21 00:00:00.000000,2.12209705,7.07368724,49.43199114,730,2435,17018,105,752,4532,0.30712214,2.18515248,13.16481568,0.34997595,1.23807681,3.14362176
20079,0,USKansasHarvey,Kansas,Harvey,2020-07-18 16:21:38.812942,2020-07-22 00:00:00.000000,2.32236288,7.64211037,52.62479394,799,2631,18118,116,868,4602,0.33887428,2.52226235,13.36816347,0.34997595,1.23807681,3.14362172
20079,0,USKansasHarvey,Kansas,Harvey,2020-07-18 16:21:38.812942,2020-07-23 00:00:00.000000,2.53906031,8.54421980,55.60921782,874,2941,19145,128,1007,4719,0.37372335,2.92692520,13.70925980,0.34997595,1.23807681,3.14362170
20079,0,USKansasHarvey,Kansas,Harvey,2020-07-18 16:21:38.812942,2020-07-24 00:00:00.000000,2.77305123,9.62126692,58.44180853,954,3312,20120,141,1146,4833,0.41192974,3.33022577,14.04035354,0.34997595,1.23807681,3.14362169
20079,0,USKansasHarvey,Kansas,Harvey,2020-07-18 16:21:38.812942,2020-07-25 00:00:00.000000,3.02514735,10.61317246,59.39574606,1041,3654,20449,156,1298,4944,0.45376636,3.77134307,14.36063802,0.34997595,1.23807681,3.14362169
20079,0,USKansasHarvey,Kansas,Harvey,2020-07-18 16:21:38.812942,2020-07-26 00:00:00.000000,3.29608806,11.84036895,60.26073127,1134,4076,20747,171,1418,5142,0.49951704,4.12010131,14.93688189,0.34997595,1.23807681,3.14362169
20079,0,USKansasHarvey,Kansas,Harvey,2020-07-18 16:21:38.812942,2020-07-27 00:00:00.000000,3.58651573,13.18958328,60.50000083,1234,4541,20829,189,1580,5314,0.54947414,4.58928348,15.43544019,0.34997595,1.23807681,3.14362169
20079,0,USKansasHarvey,Kansas,Harvey,2020-07-18 16:21:38.812942,2020-07-28 00:00:00.000000,3.84186192,14.99098593,60.65240954,1322,5161,20882,207,1812,5431,0.60393547,5.26569401,15.77482939,0.34997595,1.23807681,3.14362168
20079,0,USKansasHarvey,Kansas,Harvey,2020-07-18 16:21:38.812942,2020-07-29 00:00:00.000000,4.03582359,16.46931048,60.54067208,1389,5670,20843,224,1923,5493,0.65157920,5.58566803,15.95490830,0.34997595,1.23807681,3.14362168
20079,0,USKansasHarvey,Kansas,Harvey,2020-07-18 16:21:38.812942,2020-07-30 00:00:00.000000,4.23503893,16.67177734,59.65134653,1458,5739,20537,237,2024,5726,0.69073203,5.88108356,16.63371691,0.34997595,1.23807681,3.14362168
