FIPS,HR_UID,nameid,province,region,analysisTime,dates,pointprevalence_025,pointprevalence_50,pointprevalence_975,pointinfections_025,pointinfections_50,pointinfections_975,pointinfectious_025,pointinfectious_50,pointinfectious_975,pointinfectiousprevalence_05,pointinfectiousprevalence_50,pointinfectiousprevalence_95,infectrate_025,infectrate_50,infectrate_975
13145,0,USGeorgiaHarris,Georgia,Harris,2020-07-18 18:14:48.564648,2020-03-09 00:00:00.000000,0.01986215,0.05343086,0.21382300,6,18,75,1,5,18,0.00320192,0.01526544,0.05167478,0.52780892,0.76242639,1.10276373
13145,0,USGeorgiaHarris,Georgia,Harris,2020-07-18 18:14:48.564648,2020-03-10 00:00:00.000000,0.01911570,0.05634833,0.21698261,6,19,76,2,5,17,0.00634132,0.01612994,0.04910283,0.52780705,0.76242606,1.10276773
13145,0,USGeorgiaHarris,Georgia,Harris,2020-07-18 18:14:48.564648,2020-03-11 00:00:00.000000,0.02054029,0.05915907,0.21899784,7,20,77,1,5,16,0.00487000,0.01661224,0.04655317,0.52780361,0.76242550,1.10277630
13145,0,USGeorgiaHarris,Georgia,Harris,2020-07-18 18:14:48.564648,2020-03-12 00:00:00.000000,0.02218997,0.06296409,0.22109575,7,22,77,2,6,18,0.00711697,0.01749425,0.05289122,0.52779725,0.76242458,1.10279460
13145,0,USGeorgiaHarris,Georgia,Harris,2020-07-18 18:14:48.564648,2020-03-13 00:00:00.000000,0.02400446,0.06679801,0.22365935,8,23,78,2,6,20,0.00643437,0.01791809,0.05697255,0.52778552,0.76242299,1.10283357
13145,0,USGeorgiaHarris,Georgia,Harris,2020-07-18 18:14:48.564648,2020-03-14 00:00:00.000000,0.02602576,0.07123000,0.22680028,9,25,79,2,6,21,0.00817704,0.01895972,0.05996579,0.52776393,0.76242016,1.10291645
13145,0,USGeorgiaHarris,Georgia,Harris,2020-07-18 18:14:48.564648,2020-03-15 00:00:00.000000,0.02907561,0.07543617,0.23052072,10,26,81,2,6,22,0.00753572,0.01934444,0.06290344,0.52772472,0.76266329,1.10309238
13145,0,USGeorgiaHarris,Georgia,Harris,2020-07-18 18:14:48.564648,2020-03-16 00:00:00.000000,0.03245040,0.08012107,0.23477457,11,28,82,3,7,23,0.00872599,0.02063687,0.06591509,0.52765794,0.76265807,1.10346502
13145,0,USGeorgiaHarris,Georgia,Harris,2020-07-18 18:14:48.564648,2020-03-17 00:00:00.000000,0.03340610,0.08313301,0.23947807,11,29,84,3,7,23,0.00863828,0.02143057,0.06754444,0.52758351,0.76234959,1.10425161
13145,0,USGeorgiaHarris,Georgia,Harris,2020-07-18 18:14:48.564648,2020-03-18 00:00:00.000000,0.04024604,0.08549665,0.24447837,14,30,86,3,8,24,0.00989149,0.02273468,0.06901632,0.52780810,0.76212530,1.10590142
13145,0,USGeorgiaHarris,Georgia,Harris,2020-07-18 18:14:48.564648,2020-03-19 00:00:00.000000,0.03822649,0.08870706,0.24947612,13,31,87,3,8,24,0.00913997,0.02441181,0.07054702,0.52901077,0.76377091,1.10955840
13145,0,USGeorgiaHarris,Georgia,Harris,2020-07-18 18:14:48.564648,2020-03-20 00:00:00.000000,0.04677483,0.09425894,0.25785303,16,33,90,4,9,25,0.01186011,0.02645639,0.07217382,0.53770283,0.75667003,1.11688542
13145,0,USGeorgiaHarris,Georgia,Harris,2020-07-18 18:14:48.564648,2020-03-21 00:00:00.000000,0.04455306,0.09620477,0.27365678,15,33,96,3,9,26,0.00981057,0.02824597,0.07393354,0.54108570,0.75289796,1.12341356
13145,0,USGeorgiaHarris,Georgia,Harris,2020-07-18 18:14:48.564648,2020-03-22 00:00:00.000000,0.05090543,0.10240138,0.29345748,17,36,103,4,10,26,0.01395172,0.03062082,0.07574340,0.52479232,0.75098885,1.15717861
13145,0,USGeorgiaHarris,Georgia,Harris,2020-07-18 18:14:48.564648,2020-03-23 00:00:00.000000,0.05194343,0.10911178,0.30841599,18,38,108,3,11,27,0.01082218,0.03316942,0.07773470,0.51958013,0.74710194,1.19207416
13145,0,USGeorgiaHarris,Georgia,Harris,2020-07-18 18:14:48.564648,2020-03-24 00:00:00.000000,0.05660259,0.11698024,0.31641455,19,41,111,5,12,28,0.01536556,0.03595073,0.08014316,0.50757530,0.72993407,1.16847669
13145,0,USGeorgiaHarris,Georgia,Harris,2020-07-18 18:14:48.564648,2020-03-25 00:00:00.000000,0.05929950,0.12256574,0.34086411,20,43,120,4,13,31,0.01203357,0.03853502,0.08895752,0.50276271,0.73513832,1.13363870
13145,0,USGeorgiaHarris,Georgia,Harris,2020-07-18 18:14:48.564648,2020-03-26 00:00:00.000000,0.06703746,0.13153341,0.36568874,23,46,128,5,14,32,0.01549134,0.04068559,0.09225605,0.47473492,0.73407148,1.11669219
13145,0,USGeorgiaHarris,Georgia,Harris,2020-07-18 18:14:48.564648,2020-03-27 00:00:00.000000,0.06618881,0.13504500,0.38973834,23,47,137,4,14,35,0.01316107,0.04204230,0.09982701,0.47249752,0.72491989,1.13004769
13145,0,USGeorgiaHarris,Georgia,Harris,2020-07-18 18:14:48.564648,2020-03-28 00:00:00.000000,0.07033092,0.14390269,0.41291708,24,50,145,5,15,39,0.01565711,0.04408554,0.11080233,0.45695545,0.70009691,1.10940956
13145,0,USGeorgiaHarris,Georgia,Harris,2020-07-18 18:14:48.564648,2020-03-29 00:00:00.000000,0.06986242,0.14434864,0.43549424,24,50,153,5,16,42,0.01419698,0.04626377,0.12160134,0.45302264,0.67799974,1.12691854
13145,0,USGeorgiaHarris,Georgia,Harris,2020-07-18 18:14:48.564648,2020-03-30 00:00:00.000000,0.07496515,0.15307100,0.45718885,26,53,161,5,17,44,0.01568995,0.04856114,0.12502394,0.42685714,0.67386464,1.14382923
13145,0,USGeorgiaHarris,Georgia,Harris,2020-07-18 18:14:48.564648,2020-03-31 00:00:00.000000,0.07679556,0.15438572,0.47601064,27,54,167,5,17,45,0.01529719,0.05086816,0.12771691,0.40202761,0.67176097,1.14283734
13145,0,USGeorgiaHarris,Georgia,Harris,2020-07-18 18:14:48.564648,2020-04-01 00:00:00.000000,0.07833088,0.16688307,0.48957157,27,58,172,5,18,45,0.01671841,0.05353541,0.13029046,0.37934679,0.66489578,1.12853136
13145,0,USGeorgiaHarris,Georgia,Harris,2020-07-18 18:14:48.564648,2020-04-02 00:00:00.000000,0.07908492,0.17158847,0.49681246,27,60,175,5,19,47,0.01637242,0.05612155,0.13433719,0.37223941,0.65093242,1.10617547
13145,0,USGeorgiaHarris,Georgia,Harris,2020-07-18 18:14:48.564648,2020-04-03 00:00:00.000000,0.08100003,0.17755357,0.49941155,28,62,175,6,20,49,0.01827176,0.05773841,0.14099231,0.37008556,0.64159988,1.07814250
13145,0,USGeorgiaHarris,Georgia,Harris,2020-07-18 18:14:48.564648,2020-04-04 00:00:00.000000,0.08211020,0.18258353,0.49960804,28,64,176,6,21,51,0.01746081,0.06060841,0.14744796,0.37015615,0.63392045,1.04668526
13145,0,USGeorgiaHarris,Georgia,Harris,2020-07-18 18:14:48.564648,2020-04-05 00:00:00.000000,0.08316337,0.19312073,0.49877154,29,68,175,6,21,54,0.01938270,0.06235654,0.15340522,0.37032743,0.61616403,1.05896198
13145,0,USGeorgiaHarris,Georgia,Harris,2020-07-18 18:14:48.564648,2020-04-06 00:00:00.000000,0.08412253,0.19248963,0.49754684,29,67,175,6,22,56,0.01818980,0.06485676,0.15904581,0.36353147,0.60341603,1.03024750
13145,0,USGeorgiaHarris,Georgia,Harris,2020-07-18 18:14:48.564648,2020-04-07 00:00:00.000000,0.08505112,0.20394126,0.50301593,29,71,177,6,23,57,0.01985462,0.06707579,0.16451095,0.36245267,0.58733113,1.02106363
13145,0,USGeorgiaHarris,Georgia,Harris,2020-07-18 18:14:48.564648,2020-04-08 00:00:00.000000,0.08598040,0.20416008,0.52313539,30,71,184,6,24,59,0.01842524,0.06882245,0.16987036,0.36627209,0.57716277,1.02835039
13145,0,USGeorgiaHarris,Georgia,Harris,2020-07-18 18:14:48.564648,2020-04-09 00:00:00.000000,0.08692761,0.21250008,0.55378539,30,74,195,7,25,61,0.02019754,0.07095998,0.17539652,0.36785359,0.57322647,1.02921774
13145,0,USGeorgiaHarris,Georgia,Harris,2020-07-18 18:14:48.564648,2020-04-10 00:00:00.000000,0.08789192,0.21087618,0.56309990,30,74,198,6,25,64,0.01874514,0.07272982,0.18302747,0.36385277,0.56475655,1.02289885
13145,0,USGeorgiaHarris,Georgia,Harris,2020-07-18 18:14:48.564648,2020-04-11 00:00:00.000000,0.08882735,0.21864554,0.58539990,31,77,206,7,26,68,0.02049977,0.07404902,0.19304819,0.34842840,0.55679473,1.00456772
13145,0,USGeorgiaHarris,Georgia,Harris,2020-07-18 18:14:48.564648,2020-04-12 00:00:00.000000,0.08955323,0.21836354,0.61732771,31,76,217,6,26,71,0.01955761,0.07546197,0.20212852,0.35071439,0.55021423,0.97365704
13145,0,USGeorgiaHarris,Georgia,Harris,2020-07-18 18:14:48.564648,2020-04-13 00:00:00.000000,0.08984488,0.22139153,0.64980771,31,78,228,7,27,74,0.02078908,0.07890671,0.21007097,0.34062964,0.54274587,0.91890165
13145,0,USGeorgiaHarris,Georgia,Harris,2020-07-18 18:14:48.564648,2020-04-14 00:00:00.000000,0.08985744,0.22302807,0.68243960,31,78,240,7,27,76,0.01999898,0.07843816,0.21684836,0.32793518,0.53169792,0.90632215
13145,0,USGeorgiaHarris,Georgia,Harris,2020-07-18 18:14:48.564648,2020-04-15 00:00:00.000000,0.08987603,0.22295734,0.71496421,31,78,251,7,27,78,0.02110711,0.07886717,0.22250239,0.31359472,0.52675684,0.89405716
13145,0,USGeorgiaHarris,Georgia,Harris,2020-07-18 18:14:48.564648,2020-04-16 00:00:00.000000,0.09002409,0.21983224,0.74742416,31,77,263,7,28,81,0.02122906,0.08031016,0.23034126,0.29819355,0.52120324,0.88473708
13145,0,USGeorgiaHarris,Georgia,Harris,2020-07-18 18:14:48.564648,2020-04-17 00:00:00.000000,0.09287268,0.22194253,0.77869125,32,78,274,7,28,83,0.02242570,0.08060369,0.23676679,0.28103378,0.50758641,0.89420202
13145,0,USGeorgiaHarris,Georgia,Harris,2020-07-18 18:14:48.564648,2020-04-18 00:00:00.000000,0.09644143,0.21569615,0.81043384,33,76,285,7,28,83,0.02152527,0.07987511,0.23599769,0.26315250,0.50174943,0.90579366
13145,0,USGeorgiaHarris,Georgia,Harris,2020-07-18 18:14:48.564648,2020-04-19 00:00:00.000000,0.10044487,0.22353376,0.84313685,35,78,297,8,28,83,0.02422938,0.08061946,0.23677903,0.25240271,0.50087789,0.92482352
13145,0,USGeorgiaHarris,Georgia,Harris,2020-07-18 18:14:48.564648,2020-04-20 00:00:00.000000,0.10489811,0.22093124,0.87593349,36,77,308,7,28,84,0.02182877,0.08222397,0.24018838,0.24752384,0.50092948,0.92412311
13145,0,USGeorgiaHarris,Georgia,Harris,2020-07-18 18:14:48.564648,2020-04-21 00:00:00.000000,0.10324458,0.22524242,0.89200529,36,79,314,8,29,86,0.02302661,0.08372986,0.24495946,0.24506137,0.50175067,0.93094225
13145,0,USGeorgiaHarris,Georgia,Harris,2020-07-18 18:14:48.564648,2020-04-22 00:00:00.000000,0.10509070,0.22136800,0.93649782,37,78,329,7,29,87,0.02215958,0.08377054,0.24964666,0.24407338,0.49706396,0.95081160
13145,0,USGeorgiaHarris,Georgia,Harris,2020-07-18 18:14:48.564648,2020-04-23 00:00:00.000000,0.10506915,0.22509026,0.99320293,37,79,349,7,29,89,0.02233569,0.08364669,0.25439207,0.24544501,0.49559891,0.95113893
13145,0,USGeorgiaHarris,Georgia,Harris,2020-07-18 18:14:48.564648,2020-04-24 00:00:00.000000,0.09934027,0.22461419,1.04888356,35,79,369,7,29,91,0.02181757,0.08334016,0.25826681,0.25469106,0.49078660,0.95162869
13145,0,USGeorgiaHarris,Georgia,Harris,2020-07-18 18:14:48.564648,2020-04-25 00:00:00.000000,0.09875452,0.22390260,1.10318152,34,78,388,7,29,90,0.02162910,0.08242317,0.25812584,0.26402794,0.49635950,0.97837809
13145,0,USGeorgiaHarris,Georgia,Harris,2020-07-18 18:14:48.564648,2020-04-26 00:00:00.000000,0.09936802,0.22311338,1.16098134,35,78,409,7,28,90,0.02196605,0.08102155,0.25820363,0.26484980,0.49698445,0.99238783
13145,0,USGeorgiaHarris,Georgia,Harris,2020-07-18 18:14:48.564648,2020-04-27 00:00:00.000000,0.10103923,0.22642498,1.22186353,35,79,430,7,28,90,0.02188487,0.08150878,0.25722119,0.26627207,0.49998110,1.01614787
13145,0,USGeorgiaHarris,Georgia,Harris,2020-07-18 18:14:48.564648,2020-04-28 00:00:00.000000,0.10164064,0.22308586,1.28571445,35,78,453,7,28,91,0.02185560,0.08102043,0.25939788,0.26719064,0.50588532,1.03819141
13145,0,USGeorgiaHarris,Georgia,Harris,2020-07-18 18:14:48.564648,2020-04-29 00:00:00.000000,0.09804241,0.22742598,1.35256483,34,80,476,7,27,95,0.02186936,0.07918933,0.27193501,0.26790444,0.50259651,1.04208884
13145,0,USGeorgiaHarris,Georgia,Harris,2020-07-18 18:14:48.564648,2020-04-30 00:00:00.000000,0.09492684,0.22679187,1.42248700,33,79,501,7,27,100,0.02191026,0.07909461,0.28500367,0.26874900,0.51866825,1.04394657
13145,0,USGeorgiaHarris,Georgia,Harris,2020-07-18 18:14:48.564648,2020-05-01 00:00:00.000000,0.09242398,0.23075479,1.49554269,32,81,526,7,27,105,0.02198345,0.07926964,0.29863663,0.27085349,0.52561455,1.04485879
13145,0,USGeorgiaHarris,Georgia,Harris,2020-07-18 18:14:48.564648,2020-05-02 00:00:00.000000,0.09100675,0.23217415,1.57177765,32,81,553,7,27,110,0.02209311,0.07888258,0.31262793,0.27787161,0.53218705,1.04540070
13145,0,USGeorgiaHarris,Georgia,Harris,2020-07-18 18:14:48.564648,2020-05-03 00:00:00.000000,0.09306489,0.23608758,1.65123769,32,83,581,7,27,113,0.02232219,0.07903104,0.32105034,0.29946462,0.54651124,1.10141296
13145,0,USGeorgiaHarris,Georgia,Harris,2020-07-18 18:14:48.564648,2020-05-04 00:00:00.000000,0.09567070,0.23684170,1.73401795,33,83,610,8,28,116,0.02284505,0.07984579,0.32998172,0.30153620,0.55901196,1.11827162
13145,0,USGeorgiaHarris,Georgia,Harris,2020-07-18 18:14:48.564648,2020-05-05 00:00:00.000000,0.09768505,0.23974133,1.82042260,34,84,641,8,28,120,0.02368568,0.08140227,0.34067914,0.31095834,0.56589263,1.12760569
13145,0,USGeorgiaHarris,Georgia,Harris,2020-07-18 18:14:48.564648,2020-05-06 00:00:00.000000,0.10031131,0.24311231,1.91106106,35,85,673,8,29,125,0.02475191,0.08231523,0.35675624,0.31582093,0.56654904,1.13888519
13145,0,USGeorgiaHarris,Georgia,Harris,2020-07-18 18:14:48.564648,2020-05-07 00:00:00.000000,0.10172727,0.24205661,2.00678715,35,85,707,9,29,129,0.02594566,0.08464748,0.36816180,0.31286095,0.58039249,1.14535110
13145,0,USGeorgiaHarris,Georgia,Harris,2020-07-18 18:14:48.564648,2020-05-08 00:00:00.000000,0.10438393,0.25044967,2.10858272,36,88,742,9,30,133,0.02723305,0.08688913,0.37986461,0.31779557,0.60018911,1.22302352
13145,0,USGeorgiaHarris,Georgia,Harris,2020-07-18 18:14:48.564648,2020-05-09 00:00:00.000000,0.10639192,0.26011968,2.21727139,37,91,781,9,31,138,0.02836416,0.08947487,0.39190333,0.31967493,0.60368830,1.26175620
13145,0,USGeorgiaHarris,Georgia,Harris,2020-07-18 18:14:48.564648,2020-05-10 00:00:00.000000,0.10970929,0.26940935,2.33315088,38,94,822,10,32,142,0.02885549,0.09156282,0.40582515,0.34307692,0.62648416,1.28218497
13145,0,USGeorgiaHarris,Georgia,Harris,2020-07-18 18:14:48.564648,2020-05-11 00:00:00.000000,0.11581612,0.27839501,2.45600812,40,98,865,10,33,148,0.02976741,0.09491973,0.42279366,0.33407317,0.65761448,1.31809995
13145,0,USGeorgiaHarris,Georgia,Harris,2020-07-18 18:14:48.564648,2020-05-12 00:00:00.000000,0.12332574,0.28728437,2.58546693,43,101,911,10,34,155,0.03087965,0.09797063,0.44084873,0.32942809,0.67836746,1.36620479
13145,0,USGeorgiaHarris,Georgia,Harris,2020-07-18 18:14:48.564648,2020-05-13 00:00:00.000000,0.12823740,0.29627747,2.72090001,45,104,958,11,36,162,0.03240186,0.10324123,0.45995223,0.32918151,0.68943446,1.39086851
13145,0,USGeorgiaHarris,Georgia,Harris,2020-07-18 18:14:48.564648,2020-05-14 00:00:00.000000,0.13364770,0.30554493,2.84386622,47,107,1002,12,37,169,0.03459587,0.10656293,0.48015698,0.33729850,0.69365495,1.40986748
13145,0,USGeorgiaHarris,Georgia,Harris,2020-07-18 18:14:48.564648,2020-05-15 00:00:00.000000,0.13975347,0.31529366,2.96736928,49,111,1045,13,38,176,0.03742925,0.11044044,0.50170235,0.33886207,0.70292598,1.42953637
13145,0,USGeorgiaHarris,Georgia,Harris,2020-07-18 18:14:48.564648,2020-05-16 00:00:00.000000,0.14671308,0.32635020,3.09457890,51,114,1090,13,40,184,0.03764680,0.11620721,0.52494946,0.34336052,0.72343928,1.45227019
13145,0,USGeorgiaHarris,Georgia,Harris,2020-07-18 18:14:48.564648,2020-05-17 00:00:00.000000,0.15502635,0.35199775,3.22364828,54,124,1135,14,43,193,0.04167724,0.12204559,0.55006562,0.35890053,0.74305318,1.47590295
13145,0,USGeorgiaHarris,Georgia,Harris,2020-07-18 18:14:48.564648,2020-05-18 00:00:00.000000,0.16525109,0.36798722,3.35036403,58,129,1180,14,44,203,0.04053177,0.12651183,0.57702225,0.37574833,0.77937254,1.50013827
13145,0,USGeorgiaHarris,Georgia,Harris,2020-07-18 18:14:48.564648,2020-05-19 00:00:00.000000,0.17039647,0.40627877,3.47472647,60,143,1224,17,48,213,0.04835792,0.13672264,0.60574513,0.39762561,0.78650607,1.51897771
13145,0,USGeorgiaHarris,Georgia,Harris,2020-07-18 18:14:48.564648,2020-05-20 00:00:00.000000,0.17698075,0.41039214,3.59949095,62,144,1268,16,49,224,0.04674534,0.13914369,0.63620983,0.42168875,0.79871890,1.52889365
13145,0,USGeorgiaHarris,Georgia,Harris,2020-07-18 18:14:48.564648,2020-05-21 00:00:00.000000,0.18658725,0.47038281,3.72530813,65,165,1312,19,52,235,0.05644809,0.14974305,0.66850378,0.44045346,0.83156768,1.53138286
13145,0,USGeorgiaHarris,Georgia,Harris,2020-07-18 18:14:48.564648,2020-05-22 00:00:00.000000,0.19986844,0.47019162,3.85205846,70,165,1357,19,55,247,0.05477465,0.15656606,0.70277597,0.45599248,0.84169442,1.60251902
13145,0,USGeorgiaHarris,Georgia,Harris,2020-07-18 18:14:48.564648,2020-05-23 00:00:00.000000,0.21610917,0.52539250,3.97953889,76,185,1402,22,58,260,0.06455441,0.16587501,0.73909498,0.47556946,0.86101129,1.72775254
13145,0,USGeorgiaHarris,Georgia,Harris,2020-07-18 18:14:48.564648,2020-05-24 00:00:00.000000,0.23475424,0.54816201,4.10762911,82,193,1447,21,60,273,0.06115884,0.17259189,0.77746687,0.48242220,0.88037262,1.70348428
13145,0,USGeorgiaHarris,Georgia,Harris,2020-07-18 18:14:48.564648,2020-05-25 00:00:00.000000,0.25505799,0.58446023,4.23635026,89,205,1492,25,65,288,0.07304732,0.18526180,0.81789131,0.48227684,0.88494483,1.67502432
13145,0,USGeorgiaHarris,Georgia,Harris,2020-07-18 18:14:48.564648,2020-05-26 00:00:00.000000,0.28144352,0.61261859,4.36587237,99,215,1538,24,67,301,0.06892922,0.19293212,0.85536175,0.47880737,0.88992688,1.65293190
13145,0,USGeorgiaHarris,Georgia,Harris,2020-07-18 18:14:48.564648,2020-05-27 00:00:00.000000,0.31383348,0.66643622,4.49647187,110,234,1584,30,72,311,0.08682578,0.20716408,0.88530363,0.47274971,0.88760281,1.63499442
13145,0,USGeorgiaHarris,Georgia,Harris,2020-07-18 18:14:48.564648,2020-05-28 00:00:00.000000,0.34798407,0.71589860,4.62839479,122,252,1630,27,77,322,0.07872828,0.22033187,0.91554707,0.46873928,0.88895988,1.60340123
13145,0,USGeorgiaHarris,Georgia,Harris,2020-07-18 18:14:48.564648,2020-05-29 00:00:00.000000,0.37519604,0.78857651,4.76225419,132,277,1678,35,84,333,0.09945805,0.23858045,0.94613216,0.46856313,0.90086500,1.58048255
13145,0,USGeorgiaHarris,Georgia,Harris,2020-07-18 18:14:48.564648,2020-05-30 00:00:00.000000,0.40838000,0.84874938,4.90158498,143,299,1727,33,90,344,0.09505507,0.25720567,0.97716178,0.47879978,0.90399647,1.56193326
13145,0,USGeorgiaHarris,Georgia,Harris,2020-07-18 18:14:48.564648,2020-05-31 00:00:00.000000,0.45291210,0.94349626,5.05087327,159,332,1779,39,99,355,0.11283427,0.28189104,1.00885935,0.48700023,0.91113157,1.54935515
13145,0,USGeorgiaHarris,Georgia,Harris,2020-07-18 18:14:48.564648,2020-06-01 00:00:00.000000,0.50445040,0.99768328,5.20907802,177,351,1835,39,105,366,0.11277368,0.30070445,1.04154204,0.49491723,0.91791460,1.54105836
13145,0,USGeorgiaHarris,Georgia,Harris,2020-07-18 18:14:48.564648,2020-06-02 00:00:00.000000,0.56016345,1.11675575,5.37098285,197,393,1892,44,114,378,0.12684464,0.32549843,1.07539921,0.49324417,0.88825804,1.64226192
13145,0,USGeorgiaHarris,Georgia,Harris,2020-07-18 18:14:48.564648,2020-06-03 00:00:00.000000,0.62096059,1.23922155,5.53175130,218,436,1949,45,120,402,0.12807491,0.34221332,1.14368361,0.49248735,0.88103638,1.58281413
13145,0,USGeorgiaHarris,Georgia,Harris,2020-07-18 18:14:48.564648,2020-06-04 00:00:00.000000,0.67533312,1.34655083,5.68863800,237,474,2004,50,129,424,0.14450754,0.36786807,1.20548059,0.47124444,0.84939707,1.52879674
13145,0,USGeorgiaHarris,Georgia,Harris,2020-07-18 18:14:48.564648,2020-06-05 00:00:00.000000,0.74931686,1.40496134,5.84166729,264,495,2058,53,134,438,0.15092894,0.38071251,1.24427087,0.46237429,0.85125927,1.45302516
13145,0,USGeorgiaHarris,Georgia,Harris,2020-07-18 18:14:48.564648,2020-06-06 00:00:00.000000,0.80837637,1.49990035,5.99256143,284,528,2111,58,145,448,0.16472109,0.41368820,1.27382582,0.45114998,0.81915620,1.39929103
13145,0,USGeorgiaHarris,Georgia,Harris,2020-07-18 18:14:48.564648,2020-06-07 00:00:00.000000,0.85920725,1.52560638,6.14525092,302,537,2165,58,150,463,0.16710830,0.42809210,1.31615082,0.42529408,0.78063053,1.37045363
13145,0,USGeorgiaHarris,Georgia,Harris,2020-07-18 18:14:48.564648,2020-06-08 00:00:00.000000,0.88355449,1.60332991,6.30382766,311,564,2221,65,159,487,0.18588800,0.45167014,1.38407653,0.41188547,0.76512781,1.34227718
13145,0,USGeorgiaHarris,Georgia,Harris,2020-07-18 18:14:48.564648,2020-06-09 00:00:00.000000,0.89119193,1.65627564,6.47599177,314,583,2281,64,172,508,0.18247822,0.48853731,1.44414075,0.40248360,0.72860192,1.32934992
13145,0,USGeorgiaHarris,Georgia,Harris,2020-07-18 18:14:48.564648,2020-06-10 00:00:00.000000,0.90438970,1.71102213,6.68725572,318,602,2356,72,183,526,0.20653033,0.51938230,1.49390231,0.38497075,0.71213520,1.27975640
13145,0,USGeorgiaHarris,Georgia,Harris,2020-07-18 18:14:48.564648,2020-06-11 00:00:00.000000,0.91892718,1.76450688,6.87901934,323,621,2423,70,191,538,0.20052596,0.54239426,1.52961306,0.35459353,0.69037868,1.27907857
13145,0,USGeorgiaHarris,Georgia,Harris,2020-07-18 18:14:48.564648,2020-06-12 00:00:00.000000,0.93481507,1.81051269,7.05238631,329,637,2484,79,200,552,0.22491133,0.56864962,1.56848168,0.32304416,0.67709150,1.26369137
13145,0,USGeorgiaHarris,Georgia,Harris,2020-07-18 18:14:48.564648,2020-06-13 00:00:00.000000,0.95025461,1.88059719,7.27658035,334,662,2563,75,207,572,0.21491243,0.58891000,1.62537338,0.30311971,0.66376977,1.18808512
13145,0,USGeorgiaHarris,Georgia,Harris,2020-07-18 18:14:48.564648,2020-06-14 00:00:00.000000,0.93697676,1.88734016,7.51648587,330,665,2648,84,213,592,0.24096582,0.60506476,1.68142017,0.29451908,0.66548310,1.16230118
13145,0,USGeorgiaHarris,Georgia,Harris,2020-07-18 18:14:48.564648,2020-06-15 00:00:00.000000,0.95176421,1.87067249,7.74174098,335,659,2727,79,218,612,0.22632695,0.61974122,1.73689855,0.29152039,0.65195609,1.07876963
13145,0,USGeorgiaHarris,Georgia,Harris,2020-07-18 18:14:48.564648,2020-06-16 00:00:00.000000,0.98257182,1.89857469,7.85026696,346,668,2766,91,223,631,0.25925421,0.63341335,1.79208351,0.29054245,0.63321538,1.05079255
13145,0,USGeorgiaHarris,Georgia,Harris,2020-07-18 18:14:48.564648,2020-06-17 00:00:00.000000,0.99373711,1.91242266,7.96264560,350,673,2805,85,228,650,0.24211641,0.64713732,1.84721928,0.29023560,0.60622320,1.05102425
13145,0,USGeorgiaHarris,Georgia,Harris,2020-07-18 18:14:48.564648,2020-06-18 00:00:00.000000,0.99363945,1.96072420,8.07997420,350,690,2847,98,234,670,0.27972708,0.66607622,1.90249522,0.29019068,0.58751451,1.02955514
13145,0,USGeorgiaHarris,Georgia,Harris,2020-07-18 18:14:48.564648,2020-06-19 00:00:00.000000,0.99151227,1.96682017,8.20350580,349,693,2890,89,236,689,0.25384930,0.67153060,1.95804173,0.29066527,0.58163031,1.02772231
13145,0,USGeorgiaHarris,Georgia,Harris,2020-07-18 18:14:48.564648,2020-06-20 00:00:00.000000,0.99186765,2.03289901,8.33395094,349,716,2936,105,244,709,0.30001720,0.69458189,2.01393920,0.29474518,0.57752116,1.02319448
13145,0,USGeorgiaHarris,Georgia,Harris,2020-07-18 18:14:48.564648,2020-06-21 00:00:00.000000,1.00643016,1.99774010,8.47075993,354,703,2984,89,247,729,0.25379791,0.70229120,2.07018664,0.30740602,0.56008225,1.01734339
13145,0,USGeorgiaHarris,Georgia,Harris,2020-07-18 18:14:48.564648,2020-06-22 00:00:00.000000,1.01576397,2.06549723,8.61259785,357,727,3034,110,258,749,0.31423087,0.73497166,2.12640280,0.31381785,0.56319506,0.99216008
13145,0,USGeorgiaHarris,Georgia,Harris,2020-07-18 18:14:48.564648,2020-06-23 00:00:00.000000,1.01879311,2.07580715,8.75824624,358,731,3086,93,264,768,0.26647029,0.75159206,2.18094976,0.31341946,0.55518113,1.00603073
13145,0,USGeorgiaHarris,Georgia,Harris,2020-07-18 18:14:48.564648,2020-06-24 00:00:00.000000,1.02044111,2.13590392,8.90696659,359,752,3138,114,274,774,0.32464769,0.77892451,2.19777131,0.31306471,0.55258522,0.99374054
13145,0,USGeorgiaHarris,Georgia,Harris,2020-07-18 18:14:48.564648,2020-06-25 00:00:00.000000,1.02282363,2.10074523,9.05851117,360,740,3191,98,275,775,0.27935861,0.78232649,2.20026157,0.31227313,0.53538502,1.00467200
13145,0,USGeorgiaHarris,Georgia,Harris,2020-07-18 18:14:48.564648,2020-06-26 00:00:00.000000,1.02591778,2.18313830,9.21303604,361,769,3246,117,280,799,0.33313431,0.79504068,2.26946794,0.31044959,0.53492197,1.00502204
13145,0,USGeorgiaHarris,Georgia,Harris,2020-07-18 18:14:48.564648,2020-06-27 00:00:00.000000,1.02920634,2.12921001,9.37092745,362,750,3301,102,283,827,0.29068312,0.80532367,2.34889430,0.30155410,0.53543476,1.00478869
13145,0,USGeorgiaHarris,Georgia,Harris,2020-07-18 18:14:48.564648,2020-06-28 00:00:00.000000,1.03224244,2.23000129,9.53313483,363,785,3359,116,288,849,0.32986061,0.81898981,2.41042182,0.28683038,0.53223303,1.00002363
13145,0,USGeorgiaHarris,Georgia,Harris,2020-07-18 18:14:48.564648,2020-06-29 00:00:00.000000,1.03464783,2.13964486,9.69875452,364,753,3417,105,290,863,0.29898705,0.82391687,2.45085366,0.28412066,0.53824946,0.99911014
13145,0,USGeorgiaHarris,Georgia,Harris,2020-07-18 18:14:48.564648,2020-06-30 00:00:00.000000,1.03579146,2.18661005,9.84157647,364,770,3467,114,289,877,0.32438414,0.82253839,2.49060774,0.28107396,0.53237816,0.95581413
13145,0,USGeorgiaHarris,Georgia,Harris,2020-07-18 18:14:48.564648,2020-07-01 00:00:00.000000,1.03427291,2.14365673,9.96164606,364,755,3510,107,286,891,0.30520104,0.81212045,2.53033813,0.27514734,0.52528332,0.92203798
13145,0,USGeorgiaHarris,Georgia,Harris,2020-07-18 18:14:48.564648,2020-07-02 00:00:00.000000,1.02911766,2.23761518,10.07923884,362,788,3551,111,288,905,0.31731392,0.81988350,2.57051235,0.27712178,0.52923375,0.92460632
13145,0,USGeorgiaHarris,Georgia,Harris,2020-07-18 18:14:48.564648,2020-07-03 00:00:00.000000,1.02148171,2.15546256,10.19837660,359,759,3593,108,291,920,0.30934269,0.82689689,2.61146019,0.27304306,0.52317521,0.92430781
13145,0,USGeorgiaHarris,Georgia,Harris,2020-07-18 18:14:48.564648,2020-07-04 00:00:00.000000,1.01304599,2.28035124,10.30071678,356,803,3629,114,290,934,0.32429666,0.82545115,2.65350114,0.27132399,0.52275268,0.91923011
13145,0,USGeorgiaHarris,Georgia,Harris,2020-07-18 18:14:48.564648,2020-07-05 00:00:00.000000,1.01882028,2.18386901,10.49888492,358,769,3699,111,290,950,0.31532900,0.82345220,2.69701407,0.27096672,0.51599144,0.89143947
13145,0,USGeorgiaHarris,Georgia,Harris,2020-07-18 18:14:48.564648,2020-07-06 00:00:00.000000,1.01055683,2.28621533,10.86312984,356,805,3827,116,290,966,0.33045327,0.82323318,2.74237848,0.27235970,0.51743970,0.89595804
13145,0,USGeorgiaHarris,Georgia,Harris,2020-07-18 18:14:48.564648,2020-07-07 00:00:00.000000,1.00054920,2.23370959,11.23268086,352,787,3957,111,289,983,0.31570314,0.82025751,2.78984558,0.27277278,0.51765175,0.90976830
13145,0,USGeorgiaHarris,Georgia,Harris,2020-07-18 18:14:48.564648,2020-07-08 00:00:00.000000,0.99921951,2.24792517,11.60352487,352,792,4088,110,289,1000,0.31465560,0.82202705,2.83946664,0.27085773,0.50836304,0.91988990
13145,0,USGeorgiaHarris,Georgia,Harris,2020-07-18 18:14:48.564648,2020-07-09 00:00:00.000000,1.00076640,2.23033600,11.97613638,352,785,4219,110,285,1018,0.31280736,0.81109468,2.89112960,0.27039132,0.50337280,0.91968609
13145,0,USGeorgiaHarris,Georgia,Harris,2020-07-18 18:14:48.564648,2020-07-10 00:00:00.000000,0.98329728,2.23755789,12.35513945,346,788,4353,112,293,1037,0.32000133,0.83214714,2.94357554,0.26977180,0.50288163,0.92533494
13145,0,USGeorgiaHarris,Georgia,Harris,2020-07-18 18:14:48.564648,2020-07-11 00:00:00.000000,0.96123098,2.24286968,12.74127637,338,790,4489,109,296,1054,0.31036210,0.84076308,2.99227518,0.26932107,0.50518518,0.94788374
13145,0,USGeorgiaHarris,Georgia,Harris,2020-07-18 18:14:48.564648,2020-07-12 00:00:00.000000,0.95403892,2.24377258,13.13525476,336,790,4628,108,295,1071,0.30819327,0.83870486,3.04201015,0.26921306,0.50611964,0.94587249
13145,0,USGeorgiaHarris,Georgia,Harris,2020-07-18 18:14:48.564648,2020-07-13 00:00:00.000000,0.94674168,2.22191892,13.53766864,333,782,4770,107,291,1089,0.30596879,0.82695050,3.09264549,0.26915964,0.50648218,0.94480720
13145,0,USGeorgiaHarris,Georgia,Harris,2020-07-18 18:14:48.564648,2020-07-14 00:00:00.000000,0.93419544,2.22683441,13.94897767,329,784,4915,107,292,1107,0.30370123,0.83010737,3.14406196,0.26913267,0.50662036,0.94435201
13145,0,USGeorgiaHarris,Georgia,Harris,2020-07-18 18:14:48.564648,2020-07-15 00:00:00.000000,0.90995854,2.19496972,14.36951509,320,773,5063,106,290,1126,0.30139930,0.82326398,3.19615460,0.26911873,0.50667267,0.94416151
13145,0,USGeorgiaHarris,Georgia,Harris,2020-07-18 18:14:48.564648,2020-07-16 00:00:00.000000,0.89616160,2.18307308,14.79950623,315,769,5214,105,287,1144,0.29906918,0.81571834,3.24883065,0.26911134,0.50669242,0.94408268
13145,0,USGeorgiaHarris,Georgia,Harris,2020-07-18 18:14:48.564648,2020-07-17 00:00:00.000000,0.88376461,2.22630223,15.15096494,311,784,5338,104,284,1163,0.29671532,0.80619184,3.30200750,0.26910732,0.50669987,0.94405025
13145,0,USGeorgiaHarris,Georgia,Harris,2020-07-18 18:14:48.564648,2020-07-18 00:00:00.000000,0.87203576,2.24725636,15.08022254,307,791,5313,103,281,1182,0.29434104,0.79755457,3.35561081,0.26910508,0.50670268,0.94403696
13145,0,USGeorgiaHarris,Georgia,Harris,2020-07-18 18:14:48.564648,2020-07-19 00:00:00.000000,0.83927814,2.24564758,15.00424806,295,791,5286,102,277,1208,0.29194884,0.78895878,3.43081267,0.26910381,0.50670373,0.94403153
13145,0,USGeorgiaHarris,Georgia,Harris,2020-07-18 18:14:48.564648,2020-07-20 00:00:00.000000,0.79162456,2.24822964,14.92346069,278,792,5258,102,274,1247,0.28954068,0.78036156,3.54138339,0.26910306,0.50670413,0.94402930
13145,0,USGeorgiaHarris,Georgia,Harris,2020-07-18 18:14:48.564648,2020-07-21 00:00:00.000000,0.74764577,2.24941962,14.83826614,263,792,5228,101,271,1287,0.28711811,0.76937927,3.65461631,0.26910262,0.50670428,0.94402839
13145,0,USGeorgiaHarris,Georgia,Harris,2020-07-18 18:14:48.564648,2020-07-22 00:00:00.000000,0.73588161,2.21796893,14.74241311,259,781,5194,98,268,1328,0.27813212,0.76206592,3.77053548,0.26910236,0.50670434,0.94402802
13145,0,USGeorgiaHarris,Georgia,Harris,2020-07-18 18:14:48.564648,2020-07-23 00:00:00.000000,0.72419458,2.20954749,14.62870682,255,778,5154,91,266,1370,0.26085617,0.75517422,3.88916010,0.26910220,0.50670436,0.94402787
13145,0,USGeorgiaHarris,Georgia,Harris,2020-07-18 18:14:48.564648,2020-07-24 00:00:00.000000,0.71258836,2.20069990,14.51109835,251,775,5113,86,265,1413,0.24463501,0.75252705,4.01050416,0.26910210,0.50670437,0.94402781
13145,0,USGeorgiaHarris,Georgia,Harris,2020-07-18 18:14:48.564648,2020-07-25 00:00:00.000000,0.70106657,2.19114802,14.38994847,247,772,5070,80,264,1456,0.22940899,0.74973175,4.13457610,0.26910204,0.50670437,0.94402779
13145,0,USGeorgiaHarris,Georgia,Harris,2020-07-18 18:14:48.564648,2020-07-26 00:00:00.000000,0.68963273,2.17356200,14.26560577,242,765,5026,75,263,1501,0.21512120,0.74765946,4.26137848,0.26910200,0.50670437,0.94402778
13145,0,USGeorgiaHarris,Georgia,Harris,2020-07-18 18:14:48.564648,2020-07-27 00:00:00.000000,0.67759136,2.17167519,14.13840646,238,765,4981,71,260,1547,0.20171738,0.74019604,4.39090769,0.26910198,0.50670437,0.94402777
13145,0,USGeorgiaHarris,Georgia,Harris,2020-07-18 18:14:48.564648,2020-07-28 00:00:00.000000,0.66704222,2.15826529,14.00867409,235,760,4936,67,258,1583,0.19030160,0.73295206,4.49437614,0.26910196,0.50670437,0.94402777
13145,0,USGeorgiaHarris,Georgia,Harris,2020-07-18 18:14:48.564648,2020-07-29 00:00:00.000000,0.64267651,2.11953394,13.87671942,226,746,4889,65,259,1596,0.18683499,0.73648280,4.53018850,0.26910195,0.50670437,0.94402777
13145,0,USGeorgiaHarris,Georgia,Harris,2020-07-18 18:14:48.564648,2020-07-30 00:00:00.000000,0.62626226,2.08125255,13.76876040,220,733,4851,64,258,1608,0.18342825,0.73362479,4.56545706,0.26910195,0.50670437,0.94402777
