FIPS,HR_UID,nameid,province,region,analysisTime,dates,pointprevalence_025,pointprevalence_50,pointprevalence_975,pointinfections_025,pointinfections_50,pointinfections_975,pointinfectious_025,pointinfectious_50,pointinfectious_975,pointinfectiousprevalence_05,pointinfectiousprevalence_50,pointinfectiousprevalence_95,infectrate_025,infectrate_50,infectrate_975
37081,0,USNorthCarolinaGuilford,North Carolina,Guilford,2020-07-15 23:03:25.249522,2020-03-09 00:00:00.000000,0.00230136,0.00854587,0.04792374,12,45,257,0,11,90,0.00002895,0.00218711,0.01685990,0.57435594,0.92608517,1.19566195
37081,0,USNorthCarolinaGuilford,North Carolina,Guilford,2020-07-15 23:03:25.249522,2020-03-10 00:00:00.000000,0.00452907,0.01271221,2.80050011,24,68,15043,6,17,137,0.00122362,0.00326167,0.02550760,0.57435532,0.92608517,1.19566203
37081,0,USNorthCarolinaGuilford,North Carolina,Guilford,2020-07-15 23:03:25.249522,2020-03-11 00:00:00.000000,0.00502594,0.01168734,0.06221205,26,62,334,0,12,77,0.00011435,0.00241850,0.01443085,0.57435364,0.92608517,1.19566221
37081,0,USNorthCarolinaGuilford,North Carolina,Guilford,2020-07-15 23:03:25.249522,2020-03-12 00:00:00.000000,0.00539990,0.01485089,2.84489491,29,79,15282,8,21,140,0.00163848,0.00396202,0.02617752,0.57434897,0.92608518,1.19566258
37081,0,USNorthCarolinaGuilford,North Carolina,Guilford,2020-07-15 23:03:25.249522,2020-03-13 00:00:00.000000,0.00587517,0.01402932,0.07454487,31,75,400,1,14,71,0.00027295,0.00278971,0.01330856,0.57433560,0.92608522,1.19566345
37081,0,USNorthCarolinaGuilford,North Carolina,Guilford,2020-07-15 23:03:25.249522,2020-03-14 00:00:00.000000,0.00634945,0.01808262,2.88559631,34,97,15500,10,25,145,0.00190997,0.00470701,0.02700714,0.57429669,0.92608548,1.19565517
37081,0,USNorthCarolinaGuilford,North Carolina,Guilford,2020-07-15 23:03:25.249522,2020-03-15 00:00:00.000000,0.00686479,0.01716253,0.08607677,36,92,462,3,17,79,0.00059957,0.00322736,0.01479773,0.57418208,0.92608698,1.19552223
37081,0,USNorthCarolinaGuilford,North Carolina,Guilford,2020-07-15 23:03:25.249522,2020-03-16 00:00:00.000000,0.00741987,0.02143539,2.92417796,39,115,15707,12,27,150,0.00230993,0.00521183,0.02795580,0.57384365,0.92609586,1.19187550
37081,0,USNorthCarolinaGuilford,North Carolina,Guilford,2020-07-15 23:03:25.249522,2020-03-17 00:00:00.000000,0.00803267,0.02043343,0.10014435,43,109,537,4,20,104,0.00091461,0.00377761,0.01952916,0.57285971,0.92670660,1.19576605
37081,0,USNorthCarolinaGuilford,North Carolina,Guilford,2020-07-15 23:03:25.249522,2020-03-18 00:00:00.000000,0.00872410,0.02564496,2.96216978,46,137,15912,14,31,157,0.00274009,0.00586679,0.02929051,0.57016737,0.92700940,1.19777952
37081,0,USNorthCarolinaGuilford,North Carolina,Guilford,2020-07-15 23:03:25.249522,2020-03-19 00:00:00.000000,0.00943692,0.02456268,0.11586798,50,131,622,6,24,126,0.00127092,0.00454108,0.02349986,0.56394029,0.92876704,1.20210827
37081,0,USNorthCarolinaGuilford,North Carolina,Guilford,2020-07-15 23:03:25.249522,2020-03-20 00:00:00.000000,0.01022560,0.03050356,3.00291805,54,163,16130,17,35,187,0.00318153,0.00669205,0.03491821,0.55386560,0.93690646,1.27723433
37081,0,USNorthCarolinaGuilford,North Carolina,Guilford,2020-07-15 23:03:25.249522,2020-03-21 00:00:00.000000,0.01116125,0.02864388,0.13223407,59,153,710,8,29,149,0.00167308,0.00548349,0.02781342,0.54419072,0.96248628,1.29324794
37081,0,USNorthCarolinaGuilford,North Carolina,Guilford,2020-07-15 23:03:25.249522,2020-03-22 00:00:00.000000,0.01252594,0.03536456,3.04850700,67,189,16375,19,41,208,0.00369006,0.00776640,0.03889320,0.49289111,0.98923351,1.34153492
37081,0,USNorthCarolinaGuilford,North Carolina,Guilford,2020-07-15 23:03:25.249522,2020-03-23 00:00:00.000000,0.01372363,0.03391352,0.14992480,73,182,805,11,34,174,0.00214076,0.00643886,0.03244354,0.46545331,1.00051954,1.34628294
37081,0,USNorthCarolinaGuilford,North Carolina,Guilford,2020-07-15 23:03:25.249522,2020-03-24 00:00:00.000000,0.01556076,0.04146722,3.09605500,83,222,16631,23,47,261,0.00435662,0.00877104,0.04867596,0.45861824,1.00001995,1.38066504
37081,0,USNorthCarolinaGuilford,North Carolina,Guilford,2020-07-15 23:03:25.249522,2020-03-25 00:00:00.000000,0.01697998,0.03971925,0.16979277,91,213,912,14,41,201,0.00269589,0.00769662,0.03743820,0.45074941,0.99765956,1.37926229
37081,0,USNorthCarolinaGuilford,North Carolina,Guilford,2020-07-15 23:03:25.249522,2020-03-26 00:00:00.000000,0.01884083,0.04740490,3.14420946,101,254,16889,28,52,313,0.00530651,0.00981436,0.05835189,0.44749093,1.00673899,1.35795711
37081,0,USNorthCarolinaGuilford,North Carolina,Guilford,2020-07-15 23:03:25.249522,2020-03-27 00:00:00.000000,0.02049027,0.04545676,0.19178569,110,244,1030,17,50,230,0.00316482,0.00945581,0.04285190,0.43716904,0.94969706,1.34258761
37081,0,USNorthCarolinaGuilford,North Carolina,Guilford,2020-07-15 23:03:25.249522,2020-03-28 00:00:00.000000,0.02204093,0.05536764,3.19306176,118,297,17152,33,59,363,0.00617327,0.01112707,0.06759329,0.41512849,0.86672572,1.30628015
37081,0,USNorthCarolinaGuilford,North Carolina,Guilford,2020-07-15 23:03:25.249522,2020-03-29 00:00:00.000000,0.02340871,0.05135514,0.21486791,125,275,1154,20,59,261,0.00375107,0.01101453,0.04877099,0.41328641,0.83877548,1.33859735
37081,0,USNorthCarolinaGuilford,North Carolina,Guilford,2020-07-15 23:03:25.249522,2020-03-30 00:00:00.000000,0.02504148,0.06332798,3.24311075,134,340,17421,39,70,413,0.00736016,0.01312085,0.07700261,0.41679667,0.83323060,1.34517223
37081,0,USNorthCarolinaGuilford,North Carolina,Guilford,2020-07-15 23:03:25.249522,2020-03-31 00:00:00.000000,0.02629616,0.05757443,0.23818324,141,309,1279,23,66,308,0.00441102,0.01233995,0.05737408,0.41844155,0.83158717,1.35637043
37081,0,USNorthCarolinaGuilford,North Carolina,Guilford,2020-07-15 23:03:25.249522,2020-04-01 00:00:00.000000,0.02806390,0.07343507,3.29455216,150,394,17697,46,81,467,0.00865960,0.01515376,0.08694740,0.41894882,0.83017279,1.37915779
37081,0,USNorthCarolinaGuilford,North Carolina,Guilford,2020-07-15 23:03:25.249522,2020-04-02 00:00:00.000000,0.02953035,0.06639882,0.26306209,158,356,1413,26,74,382,0.00501992,0.01385396,0.07115318,0.41837213,0.82797787,1.41510671
37081,0,USNorthCarolinaGuilford,North Carolina,Guilford,2020-07-15 23:03:25.249522,2020-04-03 00:00:00.000000,0.03139190,0.08515766,3.34879227,168,457,17988,54,94,524,0.01005813,0.01765966,0.09770499,0.41503277,0.82124171,1.46053702
37081,0,USNorthCarolinaGuilford,North Carolina,Guilford,2020-07-15 23:03:25.249522,2020-04-04 00:00:00.000000,0.03292857,0.07704647,0.29171539,176,413,1567,29,82,482,0.00552776,0.01540541,0.08979095,0.40286404,0.80910767,1.50518033
37081,0,USNorthCarolinaGuilford,North Carolina,Guilford,2020-07-15 23:03:25.249522,2020-04-05 00:00:00.000000,0.03472066,0.09564101,3.42226175,186,513,18383,62,108,589,0.01160474,0.02011033,0.10983223,0.39312902,0.78514409,1.51256099
37081,0,USNorthCarolinaGuilford,North Carolina,Guilford,2020-07-15 23:03:25.249522,2020-04-06 00:00:00.000000,0.03578610,0.08622581,0.33026233,192,463,1774,32,91,613,0.00609098,0.01699523,0.11413551,0.39647475,0.75339321,1.51350821
37081,0,USNorthCarolinaGuilford,North Carolina,Guilford,2020-07-15 23:03:25.249522,2020-04-07 00:00:00.000000,0.03727056,0.10708949,3.52043347,200,575,18910,71,121,691,0.01334229,0.02270602,0.12881169,0.38937086,0.71982591,1.51387795
37081,0,USNorthCarolinaGuilford,North Carolina,Guilford,2020-07-15 23:03:25.249522,2020-04-08 00:00:00.000000,0.03817895,0.09710903,0.37378118,205,521,2007,37,102,710,0.00692694,0.01906581,0.13231721,0.38396612,0.69318299,1.51414628
37081,0,USNorthCarolinaGuilford,North Carolina,Guilford,2020-07-15 23:03:25.249522,2020-04-09 00:00:00.000000,0.03896630,0.12041866,3.62467200,209,646,19470,81,137,758,0.01519787,0.02554972,0.14125260,0.37965154,0.68723253,1.51447335
37081,0,USNorthCarolinaGuilford,North Carolina,Guilford,2020-07-15 23:03:25.249522,2020-04-10 00:00:00.000000,0.03961152,0.10963566,0.42249961,212,588,2269,42,119,808,0.00800257,0.02220911,0.15059114,0.37336156,0.68737457,1.51521947
37081,0,USNorthCarolinaGuilford,North Carolina,Guilford,2020-07-15 23:03:25.249522,2020-04-11 00:00:00.000000,0.04023124,0.13551618,3.73440182,216,727,20060,91,153,861,0.01706275,0.02862410,0.16038996,0.36080275,0.69597279,1.51715993
37081,0,USNorthCarolinaGuilford,North Carolina,Guilford,2020-07-15 23:03:25.249522,2020-04-12 00:00:00.000000,0.04120528,0.12553556,0.47548183,221,674,2554,49,137,916,0.00921630,0.02551469,0.17059702,0.35352771,0.73609984,1.53029360
37081,0,USNorthCarolinaGuilford,North Carolina,Guilford,2020-07-15 23:03:25.249522,2020-04-13 00:00:00.000000,0.04294481,0.15119242,3.91710948,230,812,21041,100,171,972,0.01865731,0.03193057,0.18105739,0.35116421,0.79322500,1.53301752
37081,0,USNorthCarolinaGuilford,North Carolina,Guilford,2020-07-15 23:03:25.249522,2020-04-14 00:00:00.000000,0.04572892,0.14063444,0.53429640,245,755,2870,55,157,1029,0.01035964,0.02936530,0.19173418,0.35278713,0.85474675,1.54803859
37081,0,USNorthCarolinaGuilford,North Carolina,Guilford,2020-07-15 23:03:25.249522,2020-04-15 00:00:00.000000,0.04942624,0.17143437,4.21136126,265,920,22622,110,188,1088,0.02058265,0.03501166,0.20267719,0.35621443,0.92010107,1.57376202
37081,0,USNorthCarolinaGuilford,North Carolina,Guilford,2020-07-15 23:03:25.249522,2020-04-16 00:00:00.000000,0.05376926,0.15898446,0.59943893,288,854,3220,62,179,1149,0.01162678,0.03335681,0.21395947,0.36178872,0.94637129,1.55415507
37081,0,USNorthCarolinaGuilford,North Carolina,Guilford,2020-07-15 23:03:25.249522,2020-04-17 00:00:00.000000,0.05860176,0.19395540,4.52815588,314,1041,24324,126,213,1212,0.02363340,0.03966866,0.22564986,0.34924192,0.95711050,1.51191606
37081,0,USNorthCarolinaGuilford,North Carolina,Guilford,2020-07-15 23:03:25.249522,2020-04-18 00:00:00.000000,0.06389074,0.17690854,0.67439874,343,950,3622,70,203,1277,0.01311853,0.03780171,0.23779462,0.34299910,0.96173854,1.49137206
37081,0,USNorthCarolinaGuilford,North Carolina,Guilford,2020-07-15 23:03:25.249522,2020-04-19 00:00:00.000000,0.06966466,0.21590861,4.84796440,374,1159,26042,141,235,1344,0.02639822,0.04387469,0.25036276,0.32788433,0.93702390,1.48358677
37081,0,USNorthCarolinaGuilford,North Carolina,Guilford,2020-07-15 23:03:25.249522,2020-04-20 00:00:00.000000,0.07596287,0.19699372,0.76061306,408,1058,4085,79,226,1406,0.01474435,0.04216769,0.26175665,0.32290179,0.92238082,1.45785358
37081,0,USNorthCarolinaGuilford,North Carolina,Guilford,2020-07-15 23:03:25.249522,2020-04-21 00:00:00.000000,0.08277834,0.24119559,5.14906582,444,1295,27659,160,263,1468,0.02988246,0.04912305,0.27345885,0.30599974,0.90478958,1.40956941
37081,0,USNorthCarolinaGuilford,North Carolina,Guilford,2020-07-15 23:03:25.249522,2020-04-22 00:00:00.000000,0.08993516,0.21900006,0.82562401,483,1176,4435,88,251,1534,0.01651292,0.04676909,0.28572577,0.29499135,0.89023183,1.37864258
37081,0,USNorthCarolinaGuilford,North Carolina,Guilford,2020-07-15 23:03:25.249522,2020-04-23 00:00:00.000000,0.09736812,0.26301874,5.37465353,523,1412,28871,182,293,1611,0.03401583,0.05455210,0.29995434,0.28683395,0.86582120,1.41165011
37081,0,USNorthCarolinaGuilford,North Carolina,Guilford,2020-07-15 23:03:25.249522,2020-04-24 00:00:00.000000,0.10491242,0.24412634,0.87175771,563,1311,4682,101,277,1683,0.01881004,0.05174286,0.31339925,0.26548122,0.87398294,1.45657246
37081,0,USNorthCarolinaGuilford,North Carolina,Guilford,2020-07-15 23:03:25.249522,2020-04-25 00:00:00.000000,0.11292893,0.28455343,5.53492525,606,1528,29732,208,329,1750,0.03883725,0.06134007,0.32579677,0.25222308,0.86185549,1.48538911
37081,0,USNorthCarolinaGuilford,North Carolina,Guilford,2020-07-15 23:03:25.249522,2020-04-26 00:00:00.000000,0.12137205,0.27056515,0.91304606,651,1453,4904,110,316,1825,0.02057514,0.05888581,0.33983451,0.24857623,0.81991196,1.49219084
37081,0,USNorthCarolinaGuilford,North Carolina,Guilford,2020-07-15 23:03:25.249522,2020-04-27 00:00:00.000000,0.13036428,0.30683622,5.70033819,700,1648,30620,224,364,1902,0.04184424,0.06781493,0.35414005,0.24354066,0.79850839,1.48522072
37081,0,USNorthCarolinaGuilford,North Carolina,Guilford,2020-07-15 23:03:25.249522,2020-04-28 00:00:00.000000,0.13758910,0.29501942,0.94839575,739,1584,5094,120,350,1980,0.02234128,0.06529619,0.36872695,0.24152261,0.79394260,1.45087126
37081,0,USNorthCarolinaGuilford,North Carolina,Guilford,2020-07-15 23:03:25.249522,2020-04-29 00:00:00.000000,0.14643585,0.33035208,5.88795607,786,1774,31628,249,402,2060,0.04645232,0.07485419,0.38361524,0.24267762,0.79219947,1.29881366
37081,0,USNorthCarolinaGuilford,North Carolina,Guilford,2020-07-15 23:03:25.249522,2020-04-30 00:00:00.000000,0.15093388,0.30826618,0.97908265,810,1655,5259,127,392,2123,0.02372646,0.07304282,0.39538776,0.23932247,0.75901411,1.25785479
37081,0,USNorthCarolinaGuilford,North Carolina,Guilford,2020-07-15 23:03:25.249522,2020-05-01 00:00:00.000000,0.15860109,0.36561030,6.10512026,851,1963,32795,273,434,2184,0.05088318,0.08085434,0.40657358,0.23532512,0.74418562,1.25123519
37081,0,USNorthCarolinaGuilford,North Carolina,Guilford,2020-07-15 23:03:25.249522,2020-05-02 00:00:00.000000,0.16310705,0.32656988,1.01247373,876,1754,5438,138,431,2242,0.02576111,0.08024809,0.41741281,0.23094664,0.74110528,1.19892821
37081,0,USNorthCarolinaGuilford,North Carolina,Guilford,2020-07-15 23:03:25.249522,2020-05-03 00:00:00.000000,0.17109854,0.39785178,6.40181903,919,2137,34388,289,471,2299,0.05394531,0.08777316,0.42808977,0.22650770,0.72650588,1.17934268
37081,0,USNorthCarolinaGuilford,North Carolina,Guilford,2020-07-15 23:03:25.249522,2020-05-04 00:00:00.000000,0.17625095,0.35079417,1.06928261,946,1884,5743,153,472,2357,0.02853212,0.08791156,0.43878484,0.22269431,0.70719792,1.14109202
37081,0,USNorthCarolinaGuilford,North Carolina,Guilford,2020-07-15 23:03:25.249522,2020-05-05 00:00:00.000000,0.18312358,0.42567287,6.84187420,983,2286,36752,306,508,2415,0.05697269,0.09460673,0.44967690,0.22449548,0.69981273,1.12775894
37081,0,USNorthCarolinaGuilford,North Carolina,Guilford,2020-07-15 23:03:25.249522,2020-05-06 00:00:00.000000,0.18993652,0.37736612,1.13433744,1020,2027,6093,168,507,2476,0.03132718,0.09438286,0.46093114,0.22521787,0.67260416,1.09834179
37081,0,USNorthCarolinaGuilford,North Carolina,Guilford,2020-07-15 23:03:25.249522,2020-05-07 00:00:00.000000,0.19613691,0.45624514,7.31498336,1053,2450,39294,322,552,2539,0.06008396,0.10292515,0.47267492,0.22515576,0.63955046,1.07288249
37081,0,USNorthCarolinaGuilford,North Carolina,Guilford,2020-07-15 23:03:25.249522,2020-05-08 00:00:00.000000,0.20139417,0.39588544,1.19981157,1081,2126,6445,183,544,2605,0.03414426,0.10143090,0.48496965,0.22462645,0.62642895,1.09156001
37081,0,USNorthCarolinaGuilford,North Carolina,Guilford,2020-07-15 23:03:25.249522,2020-05-09 00:00:00.000000,0.20607968,0.48926355,7.49322633,1107,2628,40251,339,591,2673,0.06317316,0.11012545,0.49778311,0.22358614,0.62055586,1.00819661
37081,0,USNorthCarolinaGuilford,North Carolina,Guilford,2020-07-15 23:03:25.249522,2020-05-10 00:00:00.000000,0.21058641,0.41715595,1.26062535,1131,2240,6771,198,582,2744,0.03700481,0.10850508,0.51098853,0.21702262,0.59904977,0.98295890
37081,0,USNorthCarolinaGuilford,North Carolina,Guilford,2020-07-15 23:03:25.249522,2020-05-11 00:00:00.000000,0.21508516,0.51280226,7.67200657,1155,2754,41212,360,633,2817,0.06710840,0.11802085,0.52444892,0.21487154,0.59264221,0.98065872
37081,0,USNorthCarolinaGuilford,North Carolina,Guilford,2020-07-15 23:03:25.249522,2020-05-12 00:00:00.000000,0.21952197,0.43785826,1.31456303,1179,2352,7061,214,621,2890,0.03989274,0.11568530,0.53810197,0.21420699,0.58867374,0.97929374
37081,0,USNorthCarolinaGuilford,North Carolina,Guilford,2020-07-15 23:03:25.249522,2020-05-13 00:00:00.000000,0.22358231,0.54593865,7.84290781,1201,2932,42130,381,676,2964,0.07107980,0.12599194,0.55194542,0.21388889,0.57445543,0.94155902
37081,0,USNorthCarolinaGuilford,North Carolina,Guilford,2020-07-15 23:03:25.249522,2020-05-14 00:00:00.000000,0.22661532,0.45927770,1.36493760,1217,2467,7332,229,656,3040,0.04275749,0.12218659,0.56599112,0.21347427,0.57615478,0.92876572
37081,0,USNorthCarolinaGuilford,North Carolina,Guilford,2020-07-15 23:03:25.249522,2020-05-15 00:00:00.000000,0.22818379,0.57867979,7.99191386,1225,3108,42930,398,711,3116,0.07414980,0.13238212,0.58021262,0.21256062,0.58019032,0.91781680
37081,0,USNorthCarolinaGuilford,North Carolina,Guilford,2020-07-15 23:03:25.249522,2020-05-16 00:00:00.000000,0.22866917,0.48105012,1.41376056,1228,2584,7594,240,688,3193,0.04486300,0.12823077,0.59446962,0.21050184,0.57789297,0.92375131
37081,0,USNorthCarolinaGuilford,North Carolina,Guilford,2020-07-15 23:03:25.249522,2020-05-17 00:00:00.000000,0.22864511,0.60553897,8.11084150,1228,3252,43569,409,741,3269,0.07614259,0.13804308,0.60859037,0.20524956,0.56498572,0.93047198
37081,0,USNorthCarolinaGuilford,North Carolina,Guilford,2020-07-15 23:03:25.249522,2020-05-18 00:00:00.000000,0.22845486,0.51044979,1.46147702,1227,2742,7850,247,719,3344,0.04607607,0.13386949,0.62254988,0.20159864,0.55222738,0.93366344
37081,0,USNorthCarolinaGuilford,North Carolina,Guilford,2020-07-15 23:03:25.249522,2020-05-19 00:00:00.000000,0.22822347,0.62886883,8.20840003,1225,3378,44093,434,775,3418,0.08081591,0.14439825,0.63639961,0.19838438,0.54647134,0.94484052
37081,0,USNorthCarolinaGuilford,North Carolina,Guilford,2020-07-15 23:03:25.249522,2020-05-20 00:00:00.000000,0.22798041,0.52923570,1.50695495,1224,2842,8094,253,739,3492,0.04716963,0.13775107,0.65018832,0.19708053,0.53886463,0.94925110
37081,0,USNorthCarolinaGuilford,North Carolina,Guilford,2020-07-15 23:03:25.249522,2020-05-21 00:00:00.000000,0.22773092,0.63818352,8.29678701,1223,3428,44568,452,810,3566,0.08432222,0.15080650,0.66393049,0.19335683,0.54181150,0.96977722
37081,0,USNorthCarolinaGuilford,North Carolina,Guilford,2020-07-15 23:03:25.249522,2020-05-22 00:00:00.000000,0.22799040,0.55931222,1.54696116,1224,3004,8309,258,762,3639,0.04814517,0.14198621,0.67758507,0.19156162,0.54148547,0.96320674
37081,0,USNorthCarolinaGuilford,North Carolina,Guilford,2020-07-15 23:03:25.249522,2020-05-23 00:00:00.000000,0.22769634,0.65923868,8.38292607,1223,3541,45030,468,838,3712,0.08721920,0.15606370,0.69103910,0.19097236,0.56183285,0.93598675
37081,0,USNorthCarolinaGuilford,North Carolina,Guilford,2020-07-15 23:03:25.249522,2020-05-24 00:00:00.000000,0.22826699,0.58442048,1.58641428,1226,3139,8521,267,796,3782,0.04986303,0.14820851,0.70411899,0.18944773,0.55518586,0.93621338
37081,0,USNorthCarolinaGuilford,North Carolina,Guilford,2020-07-15 23:03:25.249522,2020-05-25 00:00:00.000000,0.22786764,0.69536566,8.47449611,1224,3735,45522,478,868,3849,0.08910557,0.16165475,0.71665603,0.18203800,0.54576318,0.91646054
37081,0,USNorthCarolinaGuilford,North Carolina,Guilford,2020-07-15 23:03:25.249522,2020-05-26 00:00:00.000000,0.22744760,0.61569552,1.63837257,1221,3307,8800,282,840,3913,0.05263262,0.15652675,0.72855872,0.19053174,0.54734304,0.90425610
37081,0,USNorthCarolinaGuilford,North Carolina,Guilford,2020-07-15 23:03:25.249522,2020-05-27 00:00:00.000000,0.22700784,0.72215109,8.58831480,1219,3879,46134,489,891,3974,0.09107665,0.16599212,0.73982164,0.18993947,0.54259791,0.89382141
37081,0,USNorthCarolinaGuilford,North Carolina,Guilford,2020-07-15 23:03:25.249522,2020-05-28 00:00:00.000000,0.22657643,0.63347553,1.69925863,1217,3402,9127,295,881,4031,0.05505012,0.16409045,0.75048380,0.18932315,0.54417671,0.84687655
37081,0,USNorthCarolinaGuilford,North Carolina,Guilford,2020-07-15 23:03:25.249522,2020-05-29 00:00:00.000000,0.22631741,0.74639039,8.75096734,1215,4009,47007,502,926,4085,0.09348043,0.17240684,0.76058148,0.18820151,0.54505522,0.87664429
37081,0,USNorthCarolinaGuilford,North Carolina,Guilford,2020-07-15 23:03:25.249522,2020-05-30 00:00:00.000000,0.22697848,0.65456797,1.77186556,1219,3516,9518,307,920,4136,0.05716052,0.17139280,0.77011344,0.18082276,0.54558198,0.89099698
37081,0,USNorthCarolinaGuilford,North Carolina,Guilford,2020-07-15 23:03:25.249522,2020-05-31 00:00:00.000000,0.23078257,0.78515940,8.96040839,1239,4217,48132,529,961,4184,0.09864871,0.17905970,0.77902428,0.17257489,0.54915188,0.90499758
37081,0,USNorthCarolinaGuilford,North Carolina,Guilford,2020-07-15 23:03:25.249522,2020-06-01 00:00:00.000000,0.24008516,0.67263065,1.86329258,1289,3613,10009,315,967,4228,0.05880851,0.18019245,0.78721605,0.16889419,0.56050840,0.90614407
37081,0,USNorthCarolinaGuilford,North Carolina,Guilford,2020-07-15 23:03:25.249522,2020-06-02 00:00:00.000000,0.25227488,0.80184192,9.18939389,1355,4307,49363,550,1003,4268,0.10243989,0.18675365,0.79458822,0.17223671,0.56635215,0.89956329
37081,0,USNorthCarolinaGuilford,North Carolina,Guilford,2020-07-15 23:03:25.249522,2020-06-03 00:00:00.000000,0.26558877,0.69323140,1.95741358,1426,3723,10514,321,1018,4302,0.05988909,0.18963487,0.80096959,0.17645119,0.56746307,0.89358122
37081,0,USNorthCarolinaGuilford,North Carolina,Guilford,2020-07-15 23:03:25.249522,2020-06-04 00:00:00.000000,0.27918665,0.82052886,9.42147372,1499,4407,50609,566,1050,4331,0.10552025,0.19549569,0.80642323,0.17451969,0.55369031,0.89289009
37081,0,USNorthCarolinaGuilford,North Carolina,Guilford,2020-07-15 23:03:25.249522,2020-06-05 00:00:00.000000,0.29279598,0.70735008,2.04347509,1572,3799,10977,324,1052,4357,0.06045452,0.19594499,0.81112788,0.17277168,0.54156106,0.88747836
37081,0,USNorthCarolinaGuilford,North Carolina,Guilford,2020-07-15 23:03:25.249522,2020-06-06 00:00:00.000000,0.30620047,0.83908445,9.63694894,1644,4507,51767,566,1111,4378,0.10551280,0.20684427,0.81518549,0.17788495,0.52489454,0.85251270
37081,0,USNorthCarolinaGuilford,North Carolina,Guilford,2020-07-15 23:03:25.249522,2020-06-07 00:00:00.000000,0.31239499,0.72487967,2.11676242,1678,3893,11370,325,1084,4397,0.06064363,0.20180051,0.81870550,0.18275279,0.51108416,0.82529813
37081,0,USNorthCarolinaGuilford,North Carolina,Guilford,2020-07-15 23:03:25.249522,2020-06-08 00:00:00.000000,0.33048998,0.86182977,9.81846799,1775,4629,52742,568,1161,4414,0.10581576,0.21624797,0.82180412,0.18568024,0.50912045,0.79271632
37081,0,USNorthCarolinaGuilford,North Carolina,Guilford,2020-07-15 23:03:25.249522,2020-06-09 00:00:00.000000,0.33349175,0.75982072,2.19421743,1791,4081,11786,325,1117,4429,0.06058869,0.20794843,0.82462042,0.17976910,0.50709967,0.75532004
37081,0,USNorthCarolinaGuilford,North Carolina,Guilford,2020-07-15 23:03:25.249522,2020-06-10 00:00:00.000000,0.34204893,0.88769360,9.98394835,1837,4768,53631,581,1198,4492,0.10827886,0.22312354,0.83637785,0.17636815,0.48931141,0.74306394
37081,0,USNorthCarolinaGuilford,North Carolina,Guilford,2020-07-15 23:03:25.249522,2020-06-11 00:00:00.000000,0.34737818,0.78587228,2.25611922,1866,4221,12119,333,1151,4564,0.06203693,0.21433995,0.84969084,0.17662789,0.48261173,0.73821173
37081,0,USNorthCarolinaGuilford,North Carolina,Guilford,2020-07-15 23:03:25.249522,2020-06-12 00:00:00.000000,0.35352526,0.90136631,10.13693675,1899,4841,54452,595,1226,4629,0.11086839,0.22827597,0.86178043,0.17675696,0.47231184,0.74457620
37081,0,USNorthCarolinaGuilford,North Carolina,Guilford,2020-07-15 23:03:25.249522,2020-06-13 00:00:00.000000,0.35370655,0.78976609,2.26304445,1900,4242,12156,342,1186,4688,0.06375519,0.22094705,0.87275384,0.17240537,0.47026659,0.74960648
37081,0,USNorthCarolinaGuilford,North Carolina,Guilford,2020-07-15 23:03:25.249522,2020-06-14 00:00:00.000000,0.35837998,0.91933125,10.25359403,1925,4938,55079,610,1245,4741,0.11364003,0.23195104,0.88276530,0.16679818,0.47236457,0.75174160
37081,0,USNorthCarolinaGuilford,North Carolina,Guilford,2020-07-15 23:03:25.249522,2020-06-15 00:00:00.000000,0.35922507,0.80343500,2.27127610,1929,4315,12200,352,1213,4791,0.06555010,0.22581461,0.89197261,0.16576050,0.46831498,0.75243663
37081,0,USNorthCarolinaGuilford,North Carolina,Guilford,2020-07-15 23:03:25.249522,2020-06-16 00:00:00.000000,0.36459324,0.92839395,10.33557113,1958,4987,55520,626,1265,4837,0.11654197,0.23552932,0.90051794,0.16509651,0.46637924,0.75510616
37081,0,USNorthCarolinaGuilford,North Carolina,Guilford,2020-07-15 23:03:25.249522,2020-06-17 00:00:00.000000,0.35976673,0.79293513,2.28146421,1932,4259,12255,362,1220,4880,0.06742607,0.22712646,0.90852227,0.16485786,0.45547875,0.76649003
37081,0,USNorthCarolinaGuilford,North Carolina,Guilford,2020-07-15 23:03:25.249522,2020-06-18 00:00:00.000000,0.36549596,0.92814248,10.41213327,1963,4985,55931,642,1290,4920,0.11957460,0.24022087,0.91608420,0.16534033,0.45908175,0.78966223
37081,0,USNorthCarolinaGuilford,North Carolina,Guilford,2020-07-15 23:03:25.249522,2020-06-19 00:00:00.000000,0.35865122,0.78240920,2.29664245,1926,4202,12336,367,1197,4959,0.06838297,0.22298514,0.92327992,0.16762519,0.46425750,0.81755314
37081,0,USNorthCarolinaGuilford,North Carolina,Guilford,2020-07-15 23:03:25.249522,2020-06-20 00:00:00.000000,0.36679611,0.94240726,10.49937437,1970,5062,56399,660,1307,4996,0.12288067,0.24348286,0.93016013,0.17423685,0.46558629,0.84914993
37081,0,USNorthCarolinaGuilford,North Carolina,Guilford,2020-07-15 23:03:25.249522,2020-06-21 00:00:00.000000,0.35571031,0.79669943,2.32510454,1910,4279,12489,372,1195,5031,0.06926991,0.22260685,0.93673578,0.17326728,0.47089308,0.85790968
37081,0,USNorthCarolinaGuilford,North Carolina,Guilford,2020-07-15 23:03:25.249522,2020-06-22 00:00:00.000000,0.36181391,0.95047604,10.61418510,1943,5105,57016,680,1314,5065,0.12660126,0.24474125,0.94295760,0.17439718,0.46857004,0.87074698
37081,0,USNorthCarolinaGuilford,North Carolina,Guilford,2020-07-15 23:03:25.249522,2020-06-23 00:00:00.000000,0.35075358,0.81687211,2.37364021,1884,4388,12750,379,1215,5096,0.07073114,0.22618687,0.94874663,0.17970119,0.47199927,0.87570294
37081,0,USNorthCarolinaGuilford,North Carolina,Guilford,2020-07-15 23:03:25.249522,2020-06-24 00:00:00.000000,0.35504825,0.95410995,10.77913969,1907,5125,57902,698,1315,5125,0.13001570,0.24480864,0.95407903,0.18035746,0.47019550,0.87664505
37081,0,USNorthCarolinaGuilford,North Carolina,Guilford,2020-07-15 23:03:25.249522,2020-06-25 00:00:00.000000,0.34483566,0.83856438,2.43737948,1852,4504,13092,393,1234,5151,0.07322000,0.22980633,0.95899565,0.18183035,0.48089056,0.87690739
37081,0,USNorthCarolinaGuilford,North Carolina,Guilford,2020-07-15 23:03:25.249522,2020-06-26 00:00:00.000000,0.34800513,0.97540106,11.02026953,1869,5239,59198,697,1333,5176,0.12987349,0.24817891,0.96356433,0.18218559,0.47723817,0.87720944
37081,0,USNorthCarolinaGuilford,North Carolina,Guilford,2020-07-15 23:03:25.249522,2020-06-27 00:00:00.000000,0.33954610,0.85937637,2.51543508,1823,4616,13512,393,1254,5222,0.07328467,0.23350697,0.97224661,0.18635024,0.47085346,0.88528521
37081,0,USNorthCarolinaGuilford,North Carolina,Guilford,2020-07-15 23:03:25.249522,2020-06-28 00:00:00.000000,0.34270402,0.99759731,11.38402710,1840,5358,61152,698,1354,5299,0.12998802,0.25218249,0.98647864,0.17859703,0.48019947,0.92367533
37081,0,USNorthCarolinaGuilford,North Carolina,Guilford,2020-07-15 23:03:25.249522,2020-06-29 00:00:00.000000,0.33742589,0.90274910,2.61353126,1812,4849,14039,406,1308,5377,0.07575508,0.24356443,1.00108166,0.17790866,0.48909396,0.93301208
37081,0,USNorthCarolinaGuilford,North Carolina,Guilford,2020-07-15 23:03:25.249522,2020-06-30 00:00:00.000000,0.34285726,1.05561893,11.88062635,1841,5670,63819,720,1399,5457,0.13403682,0.26049560,1.01604715,0.17800617,0.49649395,0.96208135
37081,0,USNorthCarolinaGuilford,North Carolina,Guilford,2020-07-15 23:03:25.249522,2020-07-01 00:00:00.000000,0.34519314,0.91556999,2.73048595,1854,4918,14667,433,1346,5540,0.08060831,0.25069646,1.03138659,0.17018992,0.49758302,0.98884697
37081,0,USNorthCarolinaGuilford,North Carolina,Guilford,2020-07-15 23:03:25.249522,2020-07-02 00:00:00.000000,0.35491711,1.09324823,12.47529633,1906,5872,67014,758,1471,5625,0.14122718,0.27400840,1.04718440,0.16163402,0.50040190,0.99679818
37081,0,USNorthCarolinaGuilford,North Carolina,Guilford,2020-07-15 23:03:25.249522,2020-07-03 00:00:00.000000,0.36714657,0.93593103,2.82013429,1972,5027,15149,460,1388,5713,0.08574025,0.25851823,1.06370679,0.15499691,0.50881361,1.08528616
37081,0,USNorthCarolinaGuilford,North Carolina,Guilford,2020-07-15 23:03:25.249522,2020-07-04 00:00:00.000000,0.38253346,1.13521172,13.21812874,2054,6098,71004,820,1538,5808,0.15267506,0.28645599,1.08136355,0.14710328,0.52072061,1.13197435
37081,0,USNorthCarolinaGuilford,North Carolina,Guilford,2020-07-15 23:03:25.249522,2020-07-05 00:00:00.000000,0.40033679,0.96384350,2.85878999,2150,5177,15356,480,1435,5910,0.08945617,0.26721238,1.10036925,0.13953285,0.51344134,1.14544105
37081,0,USNorthCarolinaGuilford,North Carolina,Guilford,2020-07-15 23:03:25.249522,2020-07-06 00:00:00.000000,0.42004484,1.16402573,14.22375354,2256,6252,76406,870,1598,6020,0.16201675,0.29751207,1.12072762,0.13385339,0.52569234,1.15024659
37081,0,USNorthCarolinaGuilford,North Carolina,Guilford,2020-07-15 23:03:25.249522,2020-07-07 00:00:00.000000,0.44150624,0.99418020,3.01965218,2371,5340,16220,501,1494,6136,0.09340488,0.27827881,1.14237270,0.13034639,0.52705087,1.15257287
37081,0,USNorthCarolinaGuilford,North Carolina,Guilford,2020-07-15 23:03:25.249522,2020-07-08 00:00:00.000000,0.46470680,1.23686651,15.39638976,2496,6644,82705,938,1616,6259,0.17463501,0.30093968,1.16522532,0.12843467,0.53052114,1.15384048
37081,0,USNorthCarolinaGuilford,North Carolina,Guilford,2020-07-15 23:03:25.249522,2020-07-09 00:00:00.000000,0.48957591,1.06677965,3.27442999,2629,5730,17589,525,1542,6388,0.09791580,0.28709359,1.18921250,0.12747796,0.53220784,1.15455621
37081,0,USNorthCarolinaGuilford,North Carolina,Guilford,2020-07-15 23:03:25.249522,2020-07-10 00:00:00.000000,0.51567424,1.27306255,16.65277291,2770,6838,89454,961,1656,6522,0.17895064,0.30829374,1.21427072,0.12700666,0.53523170,1.15496344
37081,0,USNorthCarolinaGuilford,North Carolina,Guilford,2020-07-15 23:03:25.249522,2020-07-11 00:00:00.000000,0.54319372,1.11076242,3.62757114,2917,5966,19486,548,1591,6662,0.10210417,0.29632365,1.24034594,0.12677869,0.53806610,1.15519524
37081,0,USNorthCarolinaGuilford,North Carolina,Guilford,2020-07-15 23:03:25.249522,2020-07-12 00:00:00.000000,0.57220662,1.32103011,17.98519635,3073,7096,96611,961,1726,6808,0.17902051,0.32142403,1.26739248,0.12666944,0.53979639,1.15532705
37081,0,USNorthCarolinaGuilford,North Carolina,Guilford,2020-07-15 23:03:25.249522,2020-07-13 00:00:00.000000,0.55690091,1.16744437,3.70797944,2991,6271,19918,574,1693,6958,0.10688647,0.31517184,1.29537202,0.12661734,0.54088596,1.15540193
37081,0,USNorthCarolinaGuilford,North Carolina,Guilford,2020-07-15 23:03:25.249522,2020-07-14 00:00:00.000000,0.53874395,1.39263003,19.40641869,2893,7480,104246,936,1806,7113,0.17438795,0.33622403,1.32425253,0.12659256,0.54159942,1.15544444
37081,0,USNorthCarolinaGuilford,North Carolina,Guilford,2020-07-15 23:03:25.249522,2020-07-15 00:00:00.000000,0.54747546,1.16754766,3.69949409,2940,6271,19872,601,1865,7273,0.11199927,0.34734938,1.35400747,0.12658080,0.54208273,1.15546856
37081,0,USNorthCarolinaGuilford,North Carolina,Guilford,2020-07-15 23:03:25.249522,2020-07-16 00:00:00.000000,0.55633360,1.44264914,20.39253295,2988,7749,109543,921,1969,7443,0.17155767,0.36659614,1.38561912,0.12657524,0.54241844,1.15548224
37081,0,USNorthCarolinaGuilford,North Carolina,Guilford,2020-07-15 23:03:25.249522,2020-07-17 00:00:00.000000,0.55791141,1.19335824,3.69134857,2996,6410,19828,630,2010,7678,0.11740297,0.37427091,1.42949170,0.12657261,0.54265559,1.15549001
37081,0,USNorthCarolinaGuilford,North Carolina,Guilford,2020-07-15 23:03:25.249522,2020-07-18 00:00:00.000000,0.54882590,1.50169976,21.30081261,2948,8066,114422,964,2128,7887,0.17953704,0.39627248,1.46832383,0.12657137,0.54282492,1.15549441
37081,0,USNorthCarolinaGuilford,North Carolina,Guilford,2020-07-15 23:03:25.249522,2020-07-19 00:00:00.000000,0.54028118,1.23928397,3.68419057,2902,6657,19790,617,2100,7963,0.11503998,0.39106383,1.48245277,0.12657079,0.54294663,1.15549690
37081,0,USNorthCarolinaGuilford,North Carolina,Guilford,2020-07-15 23:03:25.249522,2020-07-20 00:00:00.000000,0.53199173,1.55958960,22.21417649,2857,8377,119328,1009,2340,8150,0.18787104,0.43570730,1.51724788,0.12657052,0.54303445,1.15549832
37081,0,USNorthCarolinaGuilford,North Carolina,Guilford,2020-07-15 23:03:25.249522,2020-07-21 00:00:00.000000,0.52384148,1.31179823,3.67787460,2813,7046,19756,610,2309,8341,0.11364919,0.42984452,1.55286328,0.12657039,0.54309796,1.15549912
37081,0,USNorthCarolinaGuilford,North Carolina,Guilford,2020-07-15 23:03:25.249522,2020-07-22 00:00:00.000000,0.51582640,1.62560566,23.13761663,2770,8732,124289,996,2442,8537,0.18555435,0.45470824,1.58929410,0.12657033,0.54314395,1.15549958
37081,0,USNorthCarolinaGuilford,North Carolina,Guilford,2020-07-15 23:03:25.249522,2020-07-23 00:00:00.000000,0.50794173,1.35030774,3.79828535,2728,7253,20403,641,2533,8737,0.11940713,0.47155789,1.62653700,0.12657031,0.54317729,1.15549984
37081,0,USNorthCarolinaGuilford,North Carolina,Guilford,2020-07-15 23:03:25.249522,2020-07-24 00:00:00.000000,0.50018412,1.69394322,24.07411378,2686,9099,129319,936,2678,9021,0.17441420,0.49867635,1.67943571,0.12657029,0.54320145,1.15549998
37081,0,USNorthCarolinaGuilford,North Carolina,Guilford,2020-07-15 23:03:25.249522,2020-07-25 00:00:00.000000,0.49254975,1.44858668,4.18036739,2645,7781,22455,673,2796,9585,0.12544917,0.52063302,1.78451466,0.12657029,0.54321897,1.15550007
37081,0,USNorthCarolinaGuilford,North Carolina,Guilford,2020-07-15 23:03:25.249522,2020-07-26 00:00:00.000000,0.48503582,1.75595096,24.99667963,2605,9432,134275,881,2950,10135,0.16407347,0.54920461,1.88688609,0.12657029,0.54323168,1.15550011
37081,0,USNorthCarolinaGuilford,North Carolina,Guilford,2020-07-15 23:03:25.249522,2020-07-27 00:00:00.000000,0.48509162,1.54717451,4.59588843,2605,8311,24687,698,3054,10447,0.13005733,0.56863014,1.94480865,0.12657029,0.54324090,1.15550014
