FIPS,HR_UID,nameid,province,region,analysisTime,dates,pointprevalence_025,pointprevalence_50,pointprevalence_975,pointinfections_025,pointinfections_50,pointinfections_975,pointinfectious_025,pointinfectious_50,pointinfectious_975,pointinfectiousprevalence_05,pointinfectiousprevalence_50,pointinfectiousprevalence_95,infectrate_025,infectrate_50,infectrate_975
29091,0,USMissouriHowell,Missouri,Howell,2020-07-18 09:41:02.897951,2020-03-09 00:00:00.000000,0.00848353,0.03833534,0.15423006,3,15,61,0,3,13,0.00098782,0.00962554,0.03358269,0.52049651,0.76888949,1.02359093
29091,0,USMissouriHowell,Missouri,Howell,2020-07-18 09:41:02.897951,2020-03-10 00:00:00.000000,0.01006412,0.04647992,0.16106643,4,18,64,1,4,12,0.00270937,0.01105546,0.03113194,0.52049650,0.76888937,1.02359751
29091,0,USMissouriHowell,Missouri,Howell,2020-07-18 09:41:02.897951,2020-03-11 00:00:00.000000,0.01049010,0.04579438,0.16725250,4,18,67,1,4,13,0.00249678,0.01085862,0.03301146,0.52049650,0.76888895,1.02360811
29091,0,USMissouriHowell,Missouri,Howell,2020-07-18 09:41:02.897951,2020-03-12 00:00:00.000000,0.01313082,0.05369257,0.17579577,5,21,70,1,4,12,0.00349830,0.01237557,0.03235912,0.52049650,0.76888718,1.02362519
29091,0,USMissouriHowell,Missouri,Howell,2020-07-18 09:41:02.897951,2020-03-13 00:00:00.000000,0.01289059,0.05460410,0.18522332,5,21,74,1,5,13,0.00324487,0.01251727,0.03422887,0.52049650,0.76887958,1.02365275
29091,0,USMissouriHowell,Missouri,Howell,2020-07-18 09:41:02.897951,2020-03-14 00:00:00.000000,0.01662782,0.06245154,0.19856886,6,25,79,1,5,14,0.00421153,0.01391440,0.03638598,0.52049651,0.76884648,1.02369719
29091,0,USMissouriHowell,Missouri,Howell,2020-07-18 09:41:02.897951,2020-03-15 00:00:00.000000,0.01565754,0.06523161,0.21302956,6,26,85,1,5,15,0.00390077,0.01458558,0.03878557,0.52049651,0.76870144,1.02376881
29091,0,USMissouriHowell,Missouri,Howell,2020-07-18 09:41:02.897951,2020-03-16 00:00:00.000000,0.02057627,0.07322356,0.22868108,8,29,91,1,6,16,0.00486720,0.01639781,0.04178156,0.52049652,0.76267282,1.02388396
29091,0,USMissouriHowell,Missouri,Howell,2020-07-18 09:41:02.897951,2020-03-17 00:00:00.000000,0.01946583,0.07577916,0.24616587,7,30,98,1,6,18,0.00446770,0.01729288,0.04531615,0.51756983,0.76140365,1.02406820
29091,0,USMissouriHowell,Missouri,Howell,2020-07-18 09:41:02.897951,2020-03-18 00:00:00.000000,0.02438105,0.08499038,0.25956829,9,34,104,2,7,19,0.00568424,0.01926965,0.04914663,0.51246384,0.74854343,1.02387622
29091,0,USMissouriHowell,Missouri,Howell,2020-07-18 09:41:02.897951,2020-03-19 00:00:00.000000,0.02440847,0.08843401,0.27871495,9,35,111,2,8,21,0.00511289,0.02064050,0.05332385,0.50452784,0.74184489,1.01998760
29091,0,USMissouriHowell,Missouri,Howell,2020-07-18 09:41:02.897951,2020-03-20 00:00:00.000000,0.02946206,0.09842303,0.30258417,11,39,121,2,9,23,0.00661001,0.02276997,0.05784712,0.50271980,0.73873378,1.00360915
29091,0,USMissouriHowell,Missouri,Howell,2020-07-18 09:41:02.897951,2020-03-21 00:00:00.000000,0.02981586,0.10537854,0.32933021,11,42,132,2,9,25,0.00604580,0.02467077,0.06236901,0.48061609,0.71453177,1.00104295
29091,0,USMissouriHowell,Missouri,Howell,2020-07-18 09:41:02.897951,2020-03-22 00:00:00.000000,0.03480893,0.11533466,0.35893603,13,46,143,3,10,27,0.00768413,0.02726005,0.06733110,0.47113360,0.71037296,1.01060677
29091,0,USMissouriHowell,Missouri,Howell,2020-07-18 09:41:02.897951,2020-03-23 00:00:00.000000,0.03434471,0.12210684,0.39441455,13,48,158,3,11,29,0.00751369,0.02964266,0.07279108,0.45157219,0.70120022,1.03566295
29091,0,USMissouriHowell,Missouri,Howell,2020-07-18 09:41:02.897951,2020-03-24 00:00:00.000000,0.03869323,0.13490278,0.43644555,15,54,175,3,13,31,0.00892439,0.03275947,0.07946885,0.44970253,0.69944234,1.04625717
29091,0,USMissouriHowell,Missouri,Howell,2020-07-18 09:41:02.897951,2020-03-25 00:00:00.000000,0.03842889,0.14830291,0.48186457,15,59,193,3,14,34,0.00918098,0.03523534,0.08695855,0.43397514,0.70051335,1.06184869
29091,0,USMissouriHowell,Missouri,Howell,2020-07-18 09:41:02.897951,2020-03-26 00:00:00.000000,0.04311458,0.16272941,0.52981705,17,65,212,4,15,38,0.01048210,0.03869318,0.09523062,0.42474109,0.69514291,1.05533628
29091,0,USMissouriHowell,Missouri,Howell,2020-07-18 09:41:02.897951,2020-03-27 00:00:00.000000,0.04402768,0.17287456,0.56546181,17,69,226,4,16,41,0.01080457,0.04077378,0.10435191,0.41169226,0.69285431,1.05856353
29091,0,USMissouriHowell,Missouri,Howell,2020-07-18 09:41:02.897951,2020-03-28 00:00:00.000000,0.04875934,0.18740354,0.60389721,19,75,242,5,18,45,0.01252283,0.04522044,0.11439112,0.40717049,0.69190018,1.08081682
29091,0,USMissouriHowell,Missouri,Howell,2020-07-18 09:41:02.897951,2020-03-29 00:00:00.000000,0.05187417,0.19595713,0.64519599,20,78,258,5,19,50,0.01305767,0.04801473,0.12495456,0.39496078,0.69390703,1.12335637
29091,0,USMissouriHowell,Missouri,Howell,2020-07-18 09:41:02.897951,2020-03-30 00:00:00.000000,0.05431929,0.21764422,0.68916371,21,87,276,5,21,54,0.01495283,0.05263991,0.13511184,0.39358588,0.69564260,1.14235325
29091,0,USMissouriHowell,Missouri,Howell,2020-07-18 09:41:02.897951,2020-03-31 00:00:00.000000,0.05774730,0.22723409,0.73505686,23,91,294,6,23,58,0.01606272,0.05745777,0.14685986,0.39260441,0.70057912,1.14322221
29091,0,USMissouriHowell,Missouri,Howell,2020-07-18 09:41:02.897951,2020-04-01 00:00:00.000000,0.06121217,0.25344478,0.78268197,24,101,313,7,25,64,0.01773458,0.06332485,0.15986445,0.39046130,0.70069618,1.15465233
29091,0,USMissouriHowell,Missouri,Howell,2020-07-18 09:41:02.897951,2020-04-02 00:00:00.000000,0.06505610,0.27327881,0.83298307,26,109,334,7,27,70,0.01820532,0.06863397,0.17602691,0.38049339,0.69779821,1.16716707
29091,0,USMissouriHowell,Missouri,Howell,2020-07-18 09:41:02.897951,2020-04-03 00:00:00.000000,0.06915167,0.29939023,0.88655613,27,120,355,8,30,77,0.02026051,0.07526607,0.19321843,0.39022882,0.70001515,1.18479454
29091,0,USMissouriHowell,Missouri,Howell,2020-07-18 09:41:02.897951,2020-04-04 00:00:00.000000,0.07346311,0.31425729,0.94360518,29,126,378,8,32,85,0.02024662,0.08009444,0.21198772,0.38007103,0.70046503,1.20529255
29091,0,USMissouriHowell,Missouri,Howell,2020-07-18 09:41:02.897951,2020-04-05 00:00:00.000000,0.07792369,0.35080854,1.00422493,31,140,402,8,34,93,0.02167315,0.08723953,0.23290962,0.36452638,0.68725553,1.22541232
29091,0,USMissouriHowell,Missouri,Howell,2020-07-18 09:41:02.897951,2020-04-06 00:00:00.000000,0.08260415,0.37617856,1.06857741,33,150,428,8,37,102,0.02238450,0.09409010,0.25593898,0.35819070,0.67600006,1.24822942
29091,0,USMissouriHowell,Missouri,Howell,2020-07-18 09:41:02.897951,2020-04-07 00:00:00.000000,0.08752549,0.41112518,1.13677955,35,164,456,9,41,112,0.02357334,0.10244388,0.28074567,0.35588690,0.67163169,1.26792560
29091,0,USMissouriHowell,Missouri,Howell,2020-07-18 09:41:02.897951,2020-04-08 00:00:00.000000,0.09267964,0.44536369,1.22313654,37,178,490,9,43,123,0.02416360,0.10940843,0.30732988,0.35172911,0.67281507,1.29846027
29091,0,USMissouriHowell,Missouri,Howell,2020-07-18 09:41:02.897951,2020-04-09 00:00:00.000000,0.09803321,0.49431136,1.32505194,39,198,531,10,47,135,0.02605026,0.11763193,0.33876724,0.33975369,0.67244818,1.28982300
29091,0,USMissouriHowell,Missouri,Howell,2020-07-18 09:41:02.897951,2020-04-10 00:00:00.000000,0.10350101,0.53533948,1.44021998,41,214,577,10,50,149,0.02639649,0.12643019,0.37381777,0.33719074,0.67794030,1.27582633
29091,0,USMissouriHowell,Missouri,Howell,2020-07-18 09:41:02.897951,2020-04-11 00:00:00.000000,0.10891233,0.58834132,1.59035056,43,236,638,11,55,165,0.02837011,0.13761853,0.41185240,0.33907355,0.66937630,1.21512631
29091,0,USMissouriHowell,Missouri,Howell,2020-07-18 09:41:02.897951,2020-04-12 00:00:00.000000,0.11402065,0.62317319,1.75265224,45,249,703,11,59,181,0.02898274,0.14802421,0.45319529,0.34267341,0.67252103,1.21826352
29091,0,USMissouriHowell,Missouri,Howell,2020-07-18 09:41:02.897951,2020-04-13 00:00:00.000000,0.11863791,0.67720650,1.92897132,47,271,773,12,65,200,0.03085842,0.16221783,0.49952322,0.34815507,0.67363098,1.23547264
29091,0,USMissouriHowell,Missouri,Howell,2020-07-18 09:41:02.897951,2020-04-14 00:00:00.000000,0.12282329,0.73104411,2.12133864,49,293,851,12,69,221,0.03202607,0.17438310,0.55107620,0.35933285,0.68335001,1.22180628
29091,0,USMissouriHowell,Missouri,Howell,2020-07-18 09:41:02.897951,2020-04-15 00:00:00.000000,0.12902336,0.79756081,2.33181927,51,319,935,13,77,243,0.03363058,0.19347492,0.60780156,0.36126652,0.68623868,1.22052220
29091,0,USMissouriHowell,Missouri,Howell,2020-07-18 09:41:02.897951,2020-04-16 00:00:00.000000,0.13968840,0.86720513,2.56700289,56,347,1029,14,84,268,0.03513639,0.21033905,0.67030646,0.36516267,0.68283666,1.22604257
29091,0,USMissouriHowell,Missouri,Howell,2020-07-18 09:41:02.897951,2020-04-17 00:00:00.000000,0.15182693,0.94418164,2.82545774,60,378,1133,14,93,293,0.03673438,0.23426440,0.73207348,0.37207333,0.69148722,1.20735959
29091,0,USMissouriHowell,Missouri,Howell,2020-07-18 09:41:02.897951,2020-04-18 00:00:00.000000,0.16451195,1.02009309,3.10830151,65,409,1246,15,99,318,0.03842550,0.24906567,0.79275800,0.37522922,0.70519501,1.19810531
29091,0,USMissouriHowell,Missouri,Howell,2020-07-18 09:41:02.897951,2020-04-19 00:00:00.000000,0.17846875,1.10163825,3.41681963,71,441,1370,16,108,344,0.04021283,0.27080920,0.85854015,0.36952635,0.72789795,1.23650248
29091,0,USMissouriHowell,Missouri,Howell,2020-07-18 09:41:02.897951,2020-04-20 00:00:00.000000,0.19353821,1.20222030,3.75218067,77,482,1505,16,113,373,0.04210753,0.28403678,0.92981392,0.36796029,0.74662108,1.26408799
29091,0,USMissouriHowell,Missouri,Howell,2020-07-18 09:41:02.897951,2020-04-21 00:00:00.000000,0.20954282,1.32582418,4.11571703,84,531,1651,17,125,403,0.04414323,0.31252673,1.00683650,0.37002464,0.74520364,1.26188364
29091,0,USMissouriHowell,Missouri,Howell,2020-07-18 09:41:02.897951,2020-04-22 00:00:00.000000,0.22625541,1.47137745,4.53553147,90,590,1819,18,129,438,0.04634164,0.32161105,1.09315209,0.36926649,0.74470937,1.25894577
29091,0,USMissouriHowell,Missouri,Howell,2020-07-18 09:41:02.897951,2020-04-23 00:00:00.000000,0.25173706,1.63778974,5.03474136,100,657,2019,19,144,480,0.04870001,0.36013919,1.19650824,0.36917152,0.74082206,1.26041217
29091,0,USMissouriHowell,Missouri,Howell,2020-07-18 09:41:02.897951,2020-04-24 00:00:00.000000,0.27882025,1.81577909,5.57103996,111,728,2234,20,152,524,0.05121803,0.38032995,1.30799277,0.36294528,0.73926073,1.26620588
29091,0,USMissouriHowell,Missouri,Howell,2020-07-18 09:41:02.897951,2020-04-25 00:00:00.000000,0.30657532,2.00101676,6.12369292,122,802,2456,21,164,572,0.05390053,0.40947754,1.42744811,0.34975732,0.73487006,1.29694544
29091,0,USMissouriHowell,Missouri,Howell,2020-07-18 09:41:02.897951,2020-04-26 00:00:00.000000,0.33428767,2.14735467,6.71938881,134,861,2695,22,177,623,0.05675702,0.44317478,1.55507651,0.33770035,0.73309855,1.31777942
29091,0,USMissouriHowell,Missouri,Howell,2020-07-18 09:41:02.897951,2020-04-27 00:00:00.000000,0.36186072,2.31046346,7.22725696,145,926,2899,23,192,683,0.05945439,0.47979949,1.70401844,0.33065346,0.72630055,1.33660728
29091,0,USMissouriHowell,Missouri,Howell,2020-07-18 09:41:02.897951,2020-04-28 00:00:00.000000,0.39070691,2.51683652,7.70936070,156,1009,3092,24,208,757,0.06222871,0.51935697,1.88851257,0.32670178,0.73473900,1.39558904
29091,0,USMissouriHowell,Missouri,Howell,2020-07-18 09:41:02.897951,2020-04-29 00:00:00.000000,0.42247922,2.78422095,8.24181130,169,1116,3306,26,229,837,0.06515658,0.57149694,2.08670003,0.32441209,0.73632915,1.44216113
29091,0,USMissouriHowell,Missouri,Howell,2020-07-18 09:41:02.897951,2020-04-30 00:00:00.000000,0.45790870,3.00933021,8.92738230,183,1207,3581,27,252,922,0.06824211,0.62867693,2.29922130,0.32341227,0.73360433,1.43940822
29091,0,USMissouriHowell,Missouri,Howell,2020-07-18 09:41:02.897951,2020-05-01 00:00:00.000000,0.49723342,3.31619479,9.66750369,199,1330,3878,28,276,1000,0.07148657,0.68882638,2.49280696,0.33023990,0.74293457,1.43651335
29091,0,USMissouriHowell,Missouri,Howell,2020-07-18 09:41:02.897951,2020-05-02 00:00:00.000000,0.54106569,3.56945696,10.48398710,217,1431,4205,30,306,1082,0.07488576,0.76403956,2.69902777,0.34556490,0.75677183,1.44646057
29091,0,USMissouriHowell,Missouri,Howell,2020-07-18 09:41:02.897951,2020-05-03 00:00:00.000000,0.59162190,3.90925271,11.41814938,237,1568,4580,31,340,1171,0.07842502,0.84998268,2.92068186,0.36321500,0.77744279,1.48823166
29091,0,USMissouriHowell,Missouri,Howell,2020-07-18 09:41:02.897951,2020-05-04 00:00:00.000000,0.65072101,4.34080729,12.43445770,261,1741,4988,32,376,1267,0.08206910,0.93857969,3.16013361,0.37399218,0.78418294,1.50630839
29091,0,USMissouriHowell,Missouri,Howell,2020-07-18 09:41:02.897951,2020-05-05 00:00:00.000000,0.71389818,4.63549614,13.54150513,286,1859,5432,34,416,1371,0.08576351,1.03879802,3.41983573,0.38678264,0.78570429,1.52415059
29091,0,USMissouriHowell,Missouri,Howell,2020-07-18 09:41:02.897951,2020-05-06 00:00:00.000000,0.77528256,5.05217276,14.55089411,311,2026,5837,35,460,1486,0.08953091,1.14787867,3.70509682,0.40242135,0.79938859,1.53530009
29091,0,USMissouriHowell,Missouri,Howell,2020-07-18 09:41:02.897951,2020-05-07 00:00:00.000000,0.83675184,5.52556943,15.64301957,335,2216,6275,37,509,1622,0.09340151,1.27124849,4.04561356,0.41665205,0.79781802,1.53272923
29091,0,USMissouriHowell,Missouri,Howell,2020-07-18 09:41:02.897951,2020-05-08 00:00:00.000000,0.90170593,6.03220293,16.86080665,361,2419,6764,39,562,1775,0.09739642,1.40147298,4.42610761,0.42772005,0.80303740,1.56268582
29091,0,USMissouriHowell,Missouri,Howell,2020-07-18 09:41:02.897951,2020-05-09 00:00:00.000000,0.97583409,6.59790420,18.22484155,391,2646,7311,40,611,1949,0.10153293,1.52492432,4.86030474,0.43213499,0.83317569,1.57523255
29091,0,USMissouriHowell,Missouri,Howell,2020-07-18 09:41:02.897951,2020-05-10 00:00:00.000000,1.06129535,7.18544682,19.71554187,425,2882,7909,42,668,2108,0.10582471,1.66570430,5.25618270,0.44194295,0.85416027,1.59757270
29091,0,USMissouriHowell,Missouri,Howell,2020-07-18 09:41:02.897951,2020-05-11 00:00:00.000000,1.12588747,7.89478507,21.31538596,451,3167,8551,44,738,2273,0.11028195,1.84093733,5.66627962,0.44396755,0.86058351,1.66822566
29091,0,USMissouriHowell,Missouri,Howell,2020-07-18 09:41:02.897951,2020-05-12 00:00:00.000000,1.18393975,8.65143014,23.01505449,474,3470,9232,46,800,2456,0.11491372,1.99578614,6.12292458,0.44024390,0.88819737,1.71507422
29091,0,USMissouriHowell,Missouri,Howell,2020-07-18 09:41:02.897951,2020-05-13 00:00:00.000000,1.24671899,9.49752785,24.83839164,500,3810,9964,48,864,2656,0.11973113,2.15383167,6.62165223,0.44104884,0.90315442,1.73409260
29091,0,USMissouriHowell,Missouri,Howell,2020-07-18 09:41:02.897951,2020-05-14 00:00:00.000000,1.31341980,10.27264679,27.08667419,526,4121,10866,50,939,2886,0.12475148,2.34305847,7.19632598,0.43892387,0.91708966,1.73972052
29091,0,USMissouriHowell,Missouri,Howell,2020-07-18 09:41:02.897951,2020-05-15 00:00:00.000000,1.38421907,11.24942397,29.47833878,555,4512,11825,52,1032,3143,0.12999967,2.57384486,7.83672951,0.43459338,0.92746961,1.72754217
29091,0,USMissouriHowell,Missouri,Howell,2020-07-18 09:41:02.897951,2020-05-16 00:00:00.000000,1.46219525,12.54451750,32.02023830,586,5032,12845,54,1122,3423,0.13549883,2.79749011,8.53346132,0.44989304,0.93019994,1.73184072
29091,0,USMissouriHowell,Missouri,Howell,2020-07-18 09:41:02.897951,2020-05-17 00:00:00.000000,1.54662238,13.82767292,34.72001512,620,5547,13928,56,1196,3744,0.14127417,2.98205832,9.33379506,0.45052971,0.94259616,1.75619056
29091,0,USMissouriHowell,Missouri,Howell,2020-07-18 09:41:02.897951,2020-05-18 00:00:00.000000,1.63642295,14.71990038,37.57656323,656,5905,15074,59,1276,4165,0.14733381,3.18145402,10.38372778,0.45762335,0.95803928,1.75365800
29091,0,USMissouriHowell,Missouri,Howell,2020-07-18 09:41:02.897951,2020-05-19 00:00:00.000000,1.73083279,16.04790260,40.62279938,694,6437,16296,61,1407,4635,0.15367898,3.50926430,11.55604921,0.44937696,0.94734426,1.73697212
29091,0,USMissouriHowell,Missouri,Howell,2020-07-18 09:41:02.897951,2020-05-20 00:00:00.000000,1.82877528,17.11326011,43.85003782,733,6865,17591,64,1526,5101,0.16030701,3.80420261,12.71577452,0.46369022,0.95285499,1.72756459
29091,0,USMissouriHowell,Missouri,Howell,2020-07-18 09:41:02.897951,2020-05-21 00:00:00.000000,1.92871696,18.66049633,47.60514440,773,7486,19097,67,1662,5584,0.16721509,4.14512753,13.92066461,0.46562532,0.96295514,1.73630445
29091,0,USMissouriHowell,Missouri,Howell,2020-07-18 09:41:02.897951,2020-05-22 00:00:00.000000,2.18862480,19.81361249,51.49254288,878,7948,20657,69,1809,6115,0.17440142,4.50966299,15.24395672,0.49613427,0.97236508,1.76417748
29091,0,USMissouriHowell,Missouri,Howell,2020-07-18 09:41:02.897951,2020-05-23 00:00:00.000000,2.40392665,21.69739577,55.40800914,964,8704,22228,72,1981,6616,0.18186440,4.94005464,16.49281560,0.49896109,0.98419117,1.79706573
29091,0,USMissouriHowell,Missouri,Howell,2020-07-18 09:41:02.897951,2020-05-24 00:00:00.000000,2.50446753,23.56517035,59.16476292,1004,9453,23735,76,2194,7140,0.18960392,5.47145265,17.79802764,0.49344575,1.01076015,1.85235695
29091,0,USMissouriHowell,Missouri,Howell,2020-07-18 09:41:02.897951,2020-05-25 00:00:00.000000,2.58838308,25.53341995,62.49201583,1038,10243,25069,79,2372,7692,0.19762573,5.91518372,19.17394693,0.48741760,1.02570489,1.89612669
29091,0,USMissouriHowell,Missouri,Howell,2020-07-18 09:41:02.897951,2020-05-26 00:00:00.000000,2.67696259,26.62609284,64.92100588,1073,10681,26044,82,2581,8271,0.20594756,6.43436406,20.61813350,0.49181551,0.99901582,1.96376152
29091,0,USMissouriHowell,Missouri,Howell,2020-07-18 09:41:02.897951,2020-05-27 00:00:00.000000,2.77075875,28.39236841,67.43940612,1111,11390,27054,86,2894,9020,0.21460335,7.21574257,22.48452082,0.49721864,0.99568701,2.02772739
29091,0,USMissouriHowell,Missouri,Howell,2020-07-18 09:41:02.897951,2020-05-28 00:00:00.000000,2.87045841,29.52435007,70.13802780,1151,11844,28137,89,3065,9819,0.22363930,7.64024245,24.47799247,0.49470955,0.98928568,2.12269727
29091,0,USMissouriHowell,Missouri,Howell,2020-07-18 09:41:02.897951,2020-05-29 00:00:00.000000,2.97688686,31.68375368,72.91081032,1194,12710,29249,93,3422,10661,0.23309941,8.53128074,26.57527831,0.49028721,0.99298914,2.16854054
29091,0,USMissouriHowell,Missouri,Howell,2020-07-18 09:41:02.897951,2020-05-30 00:00:00.000000,3.09057533,33.14361805,75.71896853,1239,13296,30376,97,3543,11552,0.24301318,8.83387951,28.79781615,0.47181824,0.99697237,2.12650253
29091,0,USMissouriHowell,Missouri,Howell,2020-07-18 09:41:02.897951,2020-05-31 00:00:00.000000,3.21137812,35.65301039,77.63317110,1288,14302,31144,101,3871,12447,0.25339704,9.64954272,31.02860798,0.47311431,0.98057172,2.00469536
29091,0,USMissouriHowell,Missouri,Howell,2020-07-18 09:41:02.897951,2020-06-01 00:00:00.000000,3.33877627,36.92311376,79.68817675,1339,14812,31968,106,4042,13331,0.26426192,10.07802082,33.23275930,0.46050422,0.97457849,2.03610385
29091,0,USMissouriHowell,Missouri,Howell,2020-07-18 09:41:02.897951,2020-06-02 00:00:00.000000,3.47236181,40.30609504,80.67737093,1393,16169,32365,110,4284,14157,0.27561908,10.68021703,35.28939270,0.44484371,0.96673853,2.08582159
29091,0,USMissouriHowell,Missouri,Howell,2020-07-18 09:41:02.897951,2020-06-03 00:00:00.000000,3.61203016,40.68635919,83.01646972,1449,16322,33303,115,4457,14811,0.28748479,11.11191432,36.92054304,0.43648836,0.96917098,2.12896939
29091,0,USMissouriHowell,Missouri,Howell,2020-07-18 09:41:02.897951,2020-06-04 00:00:00.000000,3.75772014,42.92277294,84.67102979,1507,17219,33967,120,4653,15418,0.29988442,11.60083049,38.43449637,0.42910799,0.97960248,2.16397792
29091,0,USMissouriHowell,Missouri,Howell,2020-07-18 09:41:02.897951,2020-06-05 00:00:00.000000,3.90897502,42.78272719,86.77539730,1568,17163,34811,125,4771,15975,0.31285065,11.89481711,39.82300846,0.41708577,0.99193788,2.14292629
29091,0,USMissouriHowell,Missouri,Howell,2020-07-18 09:41:02.897951,2020-06-06 00:00:00.000000,4.06545459,45.53022853,88.34419555,1630,18265,35441,130,5035,16479,0.32641130,12.55121507,41.07957804,0.41389054,0.98233980,2.11060824
29091,0,USMissouriHowell,Missouri,Howell,2020-07-18 09:41:02.897951,2020-06-07 00:00:00.000000,4.22737505,45.14845201,89.41891439,1695,18112,35872,136,5284,16929,0.34058485,13.17358947,42.20080151,0.41314361,0.98958919,2.11476942
29091,0,USMissouriHowell,Missouri,Howell,2020-07-18 09:41:02.897951,2020-06-08 00:00:00.000000,4.39534221,47.94842846,90.34817083,1763,19235,36244,142,5534,17416,0.35538735,13.79632877,43.41372066,0.41004945,1.00320848,2.16090358
29091,0,USMissouriHowell,Missouri,Howell,2020-07-18 09:41:02.897951,2020-06-09 00:00:00.000000,4.57013646,47.82884162,91.01535266,1833,19187,36512,148,5671,18062,0.37083661,14.13649863,45.02513509,0.39137623,1.00833653,2.21492620
29091,0,USMissouriHowell,Missouri,Howell,2020-07-18 09:41:02.897951,2020-06-10 00:00:00.000000,4.75255744,48.84937140,91.79716666,1906,19596,36826,155,5987,18768,0.38695176,14.92503583,46.78501292,0.37231495,1.01457356,2.29595372
29091,0,USMissouriHowell,Missouri,Howell,2020-07-18 09:41:02.897951,2020-06-11 00:00:00.000000,4.94682747,49.23025205,92.41831165,1984,19749,37075,161,6134,19552,0.40375003,15.29273389,48.73962190,0.36974395,0.98484282,2.28390530
29091,0,USMissouriHowell,Missouri,Howell,2020-07-18 09:41:02.897951,2020-06-12 00:00:00.000000,5.15403799,48.85141478,92.75718441,2067,19597,37211,168,6425,20254,0.42124420,16.01654029,50.48833370,0.36646632,0.97150387,2.29730009
29091,0,USMissouriHowell,Missouri,Howell,2020-07-18 09:41:02.897951,2020-06-13 00:00:00.000000,5.36235455,48.54471078,93.02484583,2151,19474,37318,176,6518,20541,0.43944192,16.24807859,51.20387112,0.37246762,0.94429476,2.37127814
29091,0,USMissouriHowell,Missouri,Howell,2020-07-18 09:41:02.897951,2020-06-14 00:00:00.000000,5.56829625,48.04943757,93.20821398,2233,19275,37392,183,6808,20757,0.45833385,16.97057879,51.74157209,0.38354302,0.94933030,2.49690562
29091,0,USMissouriHowell,Missouri,Howell,2020-07-18 09:41:02.897951,2020-06-15 00:00:00.000000,5.76799243,47.94150836,93.52429409,2313,19232,37519,191,6736,20904,0.47786876,16.79257183,52.11007330,0.39628339,0.94738633,2.57235636
29091,0,USMissouriHowell,Missouri,Howell,2020-07-18 09:41:02.897951,2020-06-16 00:00:00.000000,5.97525772,46.99937034,93.52105541,2397,18854,37517,199,7101,20989,0.49793013,17.70129707,52.32113262,0.40191461,0.93946383,2.57295983
29091,0,USMissouriHowell,Missouri,Howell,2020-07-18 09:41:02.897951,2020-06-17 00:00:00.000000,6.19126575,47.23740073,93.51051499,2483,18950,37513,207,6996,21016,0.51845582,17.44069171,52.38804947,0.40551987,0.94292597,2.55956903
29091,0,USMissouriHowell,Missouri,Howell,2020-07-18 09:41:02.897951,2020-06-18 00:00:00.000000,6.40825392,46.54340339,93.43394159,2570,18671,37482,216,7165,20991,0.53960553,17.86195824,52.32456036,0.40684280,0.94273749,2.54048221
29091,0,USMissouriHowell,Missouri,Howell,2020-07-18 09:41:02.897951,2020-06-19 00:00:00.000000,6.62219586,45.17020774,93.21488544,2656,18120,37395,225,7160,21072,0.56151600,17.84813529,52.52841420,0.40178647,0.94196005,2.48843666
29091,0,USMissouriHowell,Missouri,Howell,2020-07-18 09:41:02.897951,2020-06-20 00:00:00.000000,6.82618357,43.78055989,92.90058580,2738,17563,37268,234,7263,21208,0.58414559,18.10599458,52.86592210,0.39072925,0.96776770,2.40975475
29091,0,USMissouriHowell,Missouri,Howell,2020-07-18 09:41:02.897951,2020-06-21 00:00:00.000000,7.01960002,42.62998361,92.62463875,2816,17101,37158,243,7328,21353,0.60728370,18.26666477,53.22690777,0.38078731,0.96793741,2.33917661
29091,0,USMissouriHowell,Missouri,Howell,2020-07-18 09:41:02.897951,2020-06-22 00:00:00.000000,7.22757506,41.60364621,92.45841862,2899,16690,37091,253,7390,21780,0.63078810,18.42182850,54.29267740,0.37245181,0.96244179,2.32244050
29091,0,USMissouriHowell,Missouri,Howell,2020-07-18 09:41:02.897951,2020-06-23 00:00:00.000000,7.42762040,41.02765039,92.37749680,2979,16459,37059,262,7449,22214,0.65465330,18.56831807,55.37354802,0.37090065,0.96808389,2.31919395
29091,0,USMissouriHowell,Missouri,Howell,2020-07-18 09:41:02.897951,2020-06-24 00:00:00.000000,7.61750604,40.47280025,92.35839635,3055,16236,37051,272,7500,22628,0.67886737,18.69713675,56.40650834,0.36493243,0.96195478,2.32071367
29091,0,USMissouriHowell,Missouri,Howell,2020-07-18 09:41:02.897951,2020-06-25 00:00:00.000000,7.79826509,40.06778105,92.38245811,3128,16073,37061,282,7471,23024,0.70341592,18.62494359,57.39266672,0.34023588,0.94414767,2.34980112
29091,0,USMissouriHowell,Missouri,Howell,2020-07-18 09:41:02.897951,2020-06-26 00:00:00.000000,7.97436504,38.92706095,92.19528367,3199,15616,36985,292,7443,23401,0.72830867,18.55522530,58.33321831,0.33287280,0.95860613,2.39544318
29091,0,USMissouriHowell,Missouri,Howell,2020-07-18 09:41:02.897951,2020-06-27 00:00:00.000000,8.15068005,38.11407605,91.89546748,3269,15290,36865,302,7389,23761,0.75358569,18.41928734,59.22941639,0.33227663,0.97089027,2.47879131
29091,0,USMissouriHowell,Missouri,Howell,2020-07-18 09:41:02.897951,2020-06-28 00:00:00.000000,8.33040320,37.50429569,91.56850051,3341,15045,36734,312,7389,24103,0.77930815,18.42026140,60.08255268,0.33804811,0.97424413,2.48556289
29091,0,USMissouriHowell,Missouri,Howell,2020-07-18 09:41:02.897951,2020-06-29 00:00:00.000000,8.51523392,36.78353522,91.21959306,3416,14756,36594,323,7317,24428,0.80553665,18.23957298,60.89394046,0.33205179,0.98425474,2.49036675
29091,0,USMissouriHowell,Missouri,Howell,2020-07-18 09:41:02.897951,2020-06-30 00:00:00.000000,8.70600800,35.94979809,90.85237628,3492,14421,36447,333,7339,24743,0.83231963,18.29541130,61.67916017,0.33511734,0.98482641,2.52219438
29091,0,USMissouriHowell,Missouri,Howell,2020-07-18 09:41:02.897951,2020-07-01 00:00:00.000000,8.93073741,34.75304797,90.46968656,3582,13941,36293,344,7337,25044,0.85969365,18.29086103,62.42754310,0.33514842,0.98245149,2.52366513
29091,0,USMissouriHowell,Missouri,Howell,2020-07-18 09:41:02.897951,2020-07-02 00:00:00.000000,9.06426788,33.71110489,90.07384429,3636,13523,36134,356,7408,25329,0.88767514,18.46781801,63.13864497,0.33424885,0.98119433,2.53115784
29091,0,USMissouriHowell,Missouri,Howell,2020-07-18 09:41:02.897951,2020-07-03 00:00:00.000000,9.13696651,32.97045334,89.66677789,3665,13226,35971,367,7449,25600,0.91607468,18.56913187,63.81372050,0.33322392,0.97325864,2.56706679
29091,0,USMissouriHowell,Missouri,Howell,2020-07-18 09:41:02.897951,2020-07-04 00:00:00.000000,9.20963732,32.07460973,89.25009395,3694,12867,35804,379,7480,25857,0.94479655,18.64669226,64.45399610,0.33245946,0.96514057,2.56902481
29091,0,USMissouriHowell,Missouri,Howell,2020-07-18 09:41:02.897951,2020-07-05 00:00:00.000000,9.27571989,31.23248666,88.82512265,3721,12529,35633,390,7469,26100,0.97398436,18.61826470,65.06066812,0.33226621,0.96182782,2.56802041
29091,0,USMissouriHowell,Missouri,Howell,2020-07-18 09:41:02.897951,2020-07-06 00:00:00.000000,9.33416442,30.67219905,88.39297822,3744,12304,35460,402,7467,26330,1.00372133,18.61460364,65.63490166,0.33585192,0.95018393,2.55618405
29091,0,USMissouriHowell,Missouri,Howell,2020-07-18 09:41:02.897951,2020-07-07 00:00:00.000000,9.34890766,30.06176312,87.95464987,3750,12059,35284,414,7464,26548,1.03405383,18.60731797,66.17782956,0.33308562,0.93673438,2.55618645
29091,0,USMissouriHowell,Missouri,Howell,2020-07-18 09:41:02.897951,2020-07-08 00:00:00.000000,9.45143077,29.39597954,87.51098878,3791,11792,35106,427,7485,26754,1.06501205,18.65946183,66.69055167,0.33413382,0.93341803,2.55618730
29091,0,USMissouriHowell,Missouri,Howell,2020-07-18 09:41:02.897951,2020-07-09 00:00:00.000000,9.45885570,28.53020158,87.06265015,3794,11445,34926,439,7496,26948,1.09661902,18.68736368,67.17413438,0.33483913,0.93273776,2.55618768
29091,0,USMissouriHowell,Missouri,Howell,2020-07-18 09:41:02.897951,2020-07-10 00:00:00.000000,9.62779387,27.61088793,86.61014566,3862,11076,34745,452,7485,27130,1.12889452,18.65965271,67.62961055,0.33513563,0.93273463,2.55618786
29091,0,USMissouriHowell,Missouri,Howell,2020-07-18 09:41:02.897951,2020-07-11 00:00:00.000000,9.62948796,26.84448866,86.15390578,3863,10769,34562,466,7474,27302,1.16185677,18.63265621,68.05797978,0.33519221,0.93273349,2.55618794
29091,0,USMissouriHowell,Missouri,Howell,2020-07-18 09:41:02.897951,2020-07-12 00:00:00.000000,9.68145761,26.37998420,85.73368442,3883,10582,34393,479,7490,27464,1.19552322,18.67141045,68.46020895,0.33515423,0.93273305,2.55618797
29091,0,USMissouriHowell,Missouri,Howell,2020-07-18 09:41:02.897951,2020-07-13 00:00:00.000000,9.73802208,26.25833609,85.32140011,3906,10534,34228,493,7438,27615,1.22991082,18.54305696,68.83723292,0.33509503,0.93273285,2.55618799
29091,0,USMissouriHowell,Missouri,Howell,2020-07-18 09:41:02.897951,2020-07-14 00:00:00.000000,9.79874192,25.71767835,84.90861783,3930,10317,34062,507,7412,27756,1.26503625,18.47764593,69.18995539,0.33504204,0.93273275,2.55618800
29091,0,USMissouriHowell,Missouri,Howell,2020-07-18 09:41:02.897951,2020-07-15 00:00:00.000000,9.79081598,25.00373301,84.49549483,3927,10030,33897,521,7393,27889,1.30091588,18.43013434,69.51924978,0.33500195,0.93199784,2.55618800
29091,0,USMissouriHowell,Missouri,Howell,2020-07-18 09:41:02.897951,2020-07-16 00:00:00.000000,9.76930137,24.45137488,84.08880057,3919,9809,33733,536,7402,28012,1.33756586,18.45293288,69.82596017,0.33497389,0.93132988,2.55618801
29091,0,USMissouriHowell,Missouri,Howell,2020-07-18 09:41:02.897951,2020-07-17 00:00:00.000000,9.74968662,24.02426859,83.72188763,3911,9637,33586,551,7364,28126,1.37500209,18.35703352,70.11090221,0.33495508,0.93090789,2.55618801
29091,0,USMissouriHowell,Missouri,Howell,2020-07-18 09:41:02.897951,2020-07-18 00:00:00.000000,9.73171596,23.64371922,83.35485859,3904,9485,33439,566,7351,28232,1.41324021,18.32562142,70.37486405,0.33494279,0.93064306,2.55618801
29091,0,USMissouriHowell,Missouri,Howell,2020-07-18 09:41:02.897951,2020-07-19 00:00:00.000000,9.71518032,23.40093415,82.98780435,3897,9387,33292,582,7304,28330,1.45229558,18.20807591,70.61860725,0.33493489,0.93047740,2.55618801
29091,0,USMissouriHowell,Missouri,Howell,2020-07-18 09:41:02.897951,2020-07-20 00:00:00.000000,9.69990660,23.07944186,82.62081142,3891,9258,33144,598,7250,28420,1.49218328,18.07451114,70.84286763,0.33492986,0.93037389,2.55618801
29091,0,USMissouriHowell,Missouri,Howell,2020-07-18 09:41:02.897951,2020-07-21 00:00:00.000000,9.68574966,22.62380770,82.25396222,3885,9075,32997,614,7188,28502,1.53291809,17.91842162,71.04835618,0.33492668,0.93030920,2.55618801
29091,0,USMissouriHowell,Missouri,Howell,2020-07-18 09:41:02.897951,2020-07-22 00:00:00.000000,9.67258642,22.16100066,81.88733527,3880,8890,32850,631,7141,28577,1.57451444,17.80287433,71.23575982,0.33492468,0.93026871,2.55618801
29091,0,USMissouriHowell,Missouri,Howell,2020-07-18 09:41:02.897951,2020-07-23 00:00:00.000000,9.66031136,21.84635458,81.52100542,3875,8764,32703,648,7114,28645,1.61698643,17.73522522,71.40574225,0.33492343,0.93024332,2.55618801
29091,0,USMissouriHowell,Missouri,Howell,2020-07-18 09:41:02.897951,2020-07-24 00:00:00.000000,9.64883317,21.69979362,81.15504398,3870,8705,32556,666,7088,28707,1.66034779,17.67074688,71.55894471,0.33492264,0.93022735,2.55618801
29091,0,USMissouriHowell,Missouri,Howell,2020-07-18 09:41:02.897951,2020-07-25 00:00:00.000000,9.63807213,21.60209521,80.78951896,3866,8666,32410,683,7064,28762,1.70461181,17.60932145,71.69598674,0.33492215,0.93021727,2.55618801
29091,0,USMissouriHowell,Missouri,Howell,2020-07-18 09:41:02.897951,2020-07-26 00:00:00.000000,9.62795817,21.51028694,80.42449512,3862,8629,32263,701,7037,28811,1.74979141,17.54353667,71.81746688,0.33492185,0.93021088,2.55618801
29091,0,USMissouriHowell,Missouri,Howell,2020-07-18 09:41:02.897951,2020-07-27 00:00:00.000000,9.61842925,21.42396677,80.06003418,3858,8594,32117,720,6988,28853,1.79589903,17.42149236,71.92396341,0.33492166,0.93020682,2.55618801
29091,0,USMissouriHowell,Missouri,Howell,2020-07-18 09:41:02.897951,2020-07-28 00:00:00.000000,9.60898351,21.21533058,79.69619493,3854,8510,31971,739,6977,28890,1.84294662,17.39331971,72.01603500,0.33492154,0.93020422,2.55618801
29091,0,USMissouriHowell,Missouri,Howell,2020-07-18 09:41:02.897951,2020-07-29 00:00:00.000000,9.59803837,21.00457381,79.33303335,3850,8426,31826,758,6971,28922,1.89094566,17.37811087,72.09422137,0.33492146,0.93020255,2.55618801
29091,0,USMissouriHowell,Missouri,Howell,2020-07-18 09:41:02.897951,2020-07-30 00:00:00.000000,9.58765013,20.68425660,78.97060273,3846,8297,31680,778,6974,28939,1.93990705,17.38466890,72.13731128,0.33492142,0.93020147,2.55618801
