FIPS,HR_UID,nameid,province,region,analysisTime,dates,pointprevalence_025,pointprevalence_50,pointprevalence_975,pointinfections_025,pointinfections_50,pointinfections_975,pointinfectious_025,pointinfectious_50,pointinfectious_975,pointinfectiousprevalence_05,pointinfectiousprevalence_50,pointinfectiousprevalence_95,infectrate_025,infectrate_50,infectrate_975
13117,0,USGeorgiaForsyth,Georgia,Forsyth,2020-07-18 18:24:41.149162,2020-03-09 00:00:00.000000,0.00257766,0.01085600,0.04829916,6,26,117,2,10,43,0.00116436,0.00443981,0.01762660,0.55261032,0.80778053,1.08442449
13117,0,USGeorgiaForsyth,Georgia,Forsyth,2020-07-18 18:24:41.149162,2020-03-10 00:00:00.000000,0.00337818,0.01138376,0.05018037,8,27,122,3,11,49,0.00156352,0.00485883,0.02006986,0.55260945,0.80778045,1.08442338
13117,0,USGeorgiaForsyth,Georgia,Forsyth,2020-07-18 18:24:41.149162,2020-03-11 00:00:00.000000,0.00359672,0.01262026,0.05244461,8,30,128,4,13,55,0.00173100,0.00557779,0.02266567,0.55260747,0.80778026,1.08442143
13117,0,USGeorgiaForsyth,Georgia,Forsyth,2020-07-18 18:24:41.149162,2020-03-12 00:00:00.000000,0.00444945,0.01358311,0.05635902,10,33,137,5,14,56,0.00213676,0.00595697,0.02316165,0.55260300,0.80777988,1.08441795
13117,0,USGeorgiaForsyth,Georgia,Forsyth,2020-07-18 18:24:41.149162,2020-03-13 00:00:00.000000,0.00483427,0.01577550,0.05808131,11,38,141,5,16,59,0.00233488,0.00667251,0.02447938,0.55259284,0.80777913,1.08441176
13117,0,USGeorgiaForsyth,Georgia,Forsyth,2020-07-18 18:24:41.149162,2020-03-14 00:00:00.000000,0.00571354,0.01721785,0.06167087,13,42,150,7,16,63,0.00291844,0.00694265,0.02581889,0.55256982,0.80777784,1.08440069
13117,0,USGeorgiaForsyth,Georgia,Forsyth,2020-07-18 18:24:41.149162,2020-03-15 00:00:00.000000,0.00645409,0.01965437,0.06522062,15,48,159,7,19,66,0.00317895,0.00780431,0.02736087,0.55251769,0.80777646,1.08438080
13117,0,USGeorgiaForsyth,Georgia,Forsyth,2020-07-18 18:24:41.149162,2020-03-16 00:00:00.000000,0.00775432,0.02120282,0.06945199,18,51,169,8,20,75,0.00362759,0.00850398,0.03110857,0.55240008,0.80778016,1.08434490
13117,0,USGeorgiaForsyth,Georgia,Forsyth,2020-07-18 18:24:41.149162,2020-03-17 00:00:00.000000,0.00830055,0.02402699,0.07397040,20,58,180,9,23,90,0.00393130,0.00951192,0.03686933,0.55213688,0.80871223,1.08928378
13117,0,USGeorgiaForsyth,Georgia,Forsyth,2020-07-18 18:24:41.149162,2020-03-18 00:00:00.000000,0.00945304,0.02583482,0.08158447,23,63,199,10,26,101,0.00445887,0.01066202,0.04175318,0.54707771,0.81022732,1.12967979
13117,0,USGeorgiaForsyth,Georgia,Forsyth,2020-07-18 18:24:41.149162,2020-03-19 00:00:00.000000,0.01065634,0.02885223,0.09163348,26,70,223,12,29,107,0.00502862,0.01199708,0.04405885,0.54281304,0.81475362,1.09416209
13117,0,USGeorgiaForsyth,Georgia,Forsyth,2020-07-18 18:24:41.149162,2020-03-20 00:00:00.000000,0.01176338,0.03206758,0.10377999,28,78,253,13,32,112,0.00533366,0.01349595,0.04622744,0.53664514,0.81845812,1.11238159
13117,0,USGeorgiaForsyth,Georgia,Forsyth,2020-07-18 18:24:41.149162,2020-03-21 00:00:00.000000,0.01381583,0.03603798,0.11488372,33,88,280,15,36,119,0.00654475,0.01513576,0.04872876,0.53012822,0.81946180,1.13405902
13117,0,USGeorgiaForsyth,Georgia,Forsyth,2020-07-18 18:24:41.149162,2020-03-22 00:00:00.000000,0.01461537,0.04000560,0.12542481,35,97,306,15,41,130,0.00638724,0.01693577,0.05356969,0.49898886,0.82506954,1.15260776
13117,0,USGeorgiaForsyth,Georgia,Forsyth,2020-07-18 18:24:41.149162,2020-03-23 00:00:00.000000,0.01822602,0.04410081,0.13608548,44,107,332,20,46,151,0.00838703,0.01887760,0.06206419,0.47315962,0.82708582,1.16539690
13117,0,USGeorgiaForsyth,Georgia,Forsyth,2020-07-18 18:24:41.149162,2020-03-24 00:00:00.000000,0.01910117,0.04874410,0.14755612,46,119,360,19,51,170,0.00807260,0.02106122,0.06971788,0.46268979,0.82074884,1.14420886
13117,0,USGeorgiaForsyth,Georgia,Forsyth,2020-07-18 18:24:41.149162,2020-03-25 00:00:00.000000,0.02374745,0.05391523,0.15760051,58,131,384,26,57,177,0.01082148,0.02338437,0.07261976,0.45476321,0.81927661,1.15345229
13117,0,USGeorgiaForsyth,Georgia,Forsyth,2020-07-18 18:24:41.149162,2020-03-26 00:00:00.000000,0.02265543,0.06034092,0.16836796,55,147,411,25,63,196,0.01057890,0.02606627,0.08042508,0.45239840,0.81469512,1.19578219
13117,0,USGeorgiaForsyth,Georgia,Forsyth,2020-07-18 18:24:41.149162,2020-03-27 00:00:00.000000,0.03133824,0.06622657,0.17979327,76,161,439,34,71,214,0.01401263,0.02917028,0.08799037,0.45082723,0.79724429,1.22005357
13117,0,USGeorgiaForsyth,Georgia,Forsyth,2020-07-18 18:24:41.149162,2020-03-28 00:00:00.000000,0.02749188,0.07363588,0.19360415,67,179,472,31,79,241,0.01284455,0.03255719,0.09893908,0.44495522,0.76971502,1.22964862
13117,0,USGeorgiaForsyth,Georgia,Forsyth,2020-07-18 18:24:41.149162,2020-03-29 00:00:00.000000,0.03920997,0.07983399,0.21302380,95,194,520,43,87,271,0.01781775,0.03599173,0.11122608,0.43002978,0.75523382,1.22210676
13117,0,USGeorgiaForsyth,Georgia,Forsyth,2020-07-18 18:24:41.149162,2020-03-30 00:00:00.000000,0.03292483,0.08720886,0.23392419,80,213,571,38,94,300,0.01572105,0.03872406,0.12290127,0.41162944,0.73992795,1.17919860
13117,0,USGeorgiaForsyth,Georgia,Forsyth,2020-07-18 18:24:41.149162,2020-03-31 00:00:00.000000,0.04895753,0.09460252,0.25640999,119,231,626,53,103,331,0.02193054,0.04228641,0.13552598,0.41150757,0.72909597,1.09077781
13117,0,USGeorgiaForsyth,Georgia,Forsyth,2020-07-18 18:24:41.149162,2020-04-01 00:00:00.000000,0.03874747,0.10481010,0.29029246,94,256,709,44,112,372,0.01838616,0.04614204,0.15237200,0.41142542,0.71836261,1.05800826
13117,0,USGeorgiaForsyth,Georgia,Forsyth,2020-07-18 18:24:41.149162,2020-04-02 00:00:00.000000,0.05764750,0.11115011,0.31225929,140,271,762,61,120,437,0.02498840,0.04913295,0.17902804,0.41122415,0.70710659,1.03533128
13117,0,USGeorgiaForsyth,Georgia,Forsyth,2020-07-18 18:24:41.149162,2020-04-03 00:00:00.000000,0.04531068,0.11755929,0.33260232,110,287,812,51,128,495,0.02121474,0.05246967,0.20275274,0.40225222,0.68111401,1.03096148
13117,0,USGeorgiaForsyth,Georgia,Forsyth,2020-07-18 18:24:41.149162,2020-04-04 00:00:00.000000,0.06470823,0.12625184,0.35185251,158,308,859,67,135,539,0.02770432,0.05538670,0.22071321,0.38608304,0.66258311,1.01322913
13117,0,USGeorgiaForsyth,Georgia,Forsyth,2020-07-18 18:24:41.149162,2020-04-05 00:00:00.000000,0.05304127,0.13331364,0.37442249,129,325,914,59,146,582,0.02431357,0.05990333,0.23850975,0.37255818,0.63332755,0.96932246
13117,0,USGeorgiaForsyth,Georgia,Forsyth,2020-07-18 18:24:41.149162,2020-04-06 00:00:00.000000,0.06935225,0.13898928,0.39835864,169,339,972,77,153,621,0.03176681,0.06265687,0.25428248,0.36423549,0.61842846,0.90986919
13117,0,USGeorgiaForsyth,Georgia,Forsyth,2020-07-18 18:24:41.149162,2020-04-07 00:00:00.000000,0.06016760,0.14454552,0.41797285,146,353,1020,64,162,652,0.02646038,0.06663655,0.26726275,0.35032362,0.59596748,0.84219099
13117,0,USGeorgiaForsyth,Georgia,Forsyth,2020-07-18 18:24:41.149162,2020-04-08 00:00:00.000000,0.07450198,0.15058014,0.42780571,181,367,1044,86,170,674,0.03555502,0.06978624,0.27627432,0.33714424,0.58600651,0.83709419
13117,0,USGeorgiaForsyth,Georgia,Forsyth,2020-07-18 18:24:41.149162,2020-04-09 00:00:00.000000,0.06496874,0.15529254,0.43626289,158,379,1065,70,178,687,0.02886659,0.07313356,0.28138783,0.32871470,0.57892459,0.82670215
13117,0,USGeorgiaForsyth,Georgia,Forsyth,2020-07-18 18:24:41.149162,2020-04-10 00:00:00.000000,0.08095853,0.16198316,0.44890347,197,395,1096,95,189,691,0.03918317,0.07751970,0.28323737,0.30699340,0.55478562,0.81520142
13117,0,USGeorgiaForsyth,Georgia,Forsyth,2020-07-18 18:24:41.149162,2020-04-11 00:00:00.000000,0.07094843,0.16668000,0.45834302,173,407,1119,75,196,698,0.03099747,0.08029897,0.28592505,0.29225650,0.54333587,0.78985413
13117,0,USGeorgiaForsyth,Georgia,Forsyth,2020-07-18 18:24:41.149162,2020-04-12 00:00:00.000000,0.08570400,0.17126346,0.47050595,209,418,1149,99,203,714,0.04058209,0.08343769,0.29255410,0.27508484,0.51138788,0.76620506
13117,0,USGeorgiaForsyth,Georgia,Forsyth,2020-07-18 18:24:41.149162,2020-04-13 00:00:00.000000,0.06544933,0.17535984,0.49471698,159,428,1208,78,209,734,0.03216101,0.08562955,0.30057126,0.26372875,0.48668058,0.76581208
13117,0,USGeorgiaForsyth,Georgia,Forsyth,2020-07-18 18:24:41.149162,2020-04-14 00:00:00.000000,0.08502458,0.17783732,0.50437424,207,434,1231,101,214,752,0.04146279,0.08770039,0.30807535,0.26023261,0.47526860,0.75628671
13117,0,USGeorgiaForsyth,Georgia,Forsyth,2020-07-18 18:24:41.149162,2020-04-15 00:00:00.000000,0.06417324,0.18056857,0.51346912,156,441,1254,82,219,765,0.03361657,0.08978294,0.31360025,0.25822732,0.47159747,0.75591996
13117,0,USGeorgiaForsyth,Georgia,Forsyth,2020-07-18 18:24:41.149162,2020-04-16 00:00:00.000000,0.08144874,0.18254375,0.50785844,198,445,1240,103,224,774,0.04231206,0.09179386,0.31714325,0.25354316,0.45527147,0.75275531
13117,0,USGeorgiaForsyth,Georgia,Forsyth,2020-07-18 18:24:41.149162,2020-04-17 00:00:00.000000,0.06106864,0.18516361,0.48616307,149,452,1187,85,227,757,0.03485239,0.09317586,0.30999877,0.24863444,0.43878312,0.74065833
13117,0,USGeorgiaForsyth,Georgia,Forsyth,2020-07-18 18:24:41.149162,2020-04-18 00:00:00.000000,0.08190901,0.18435262,0.47978512,200,450,1171,98,230,743,0.04039470,0.09435584,0.30447429,0.24140165,0.41914359,0.72947244
13117,0,USGeorgiaForsyth,Georgia,Forsyth,2020-07-18 18:24:41.149162,2020-04-19 00:00:00.000000,0.05719299,0.18627343,0.47996427,139,454,1172,85,234,736,0.03507190,0.09584966,0.30154812,0.22682095,0.41153384,0.71927509
13117,0,USGeorgiaForsyth,Georgia,Forsyth,2020-07-18 18:24:41.149162,2020-04-20 00:00:00.000000,0.08054152,0.18472707,0.48669982,196,451,1188,101,238,725,0.04157311,0.09760363,0.29701028,0.22589395,0.40631330,0.71698080
13117,0,USGeorgiaForsyth,Georgia,Forsyth,2020-07-18 18:24:41.149162,2020-04-21 00:00:00.000000,0.05563825,0.18407678,0.50312484,135,449,1228,84,239,725,0.03441401,0.09798274,0.29701391,0.22025310,0.39754168,0.71570269
13117,0,USGeorgiaForsyth,Georgia,Forsyth,2020-07-18 18:24:41.149162,2020-04-22 00:00:00.000000,0.07623917,0.18178857,0.51942417,186,444,1268,97,239,741,0.03995104,0.09803140,0.30346144,0.21063542,0.39107087,0.71254768
13117,0,USGeorgiaForsyth,Georgia,Forsyth,2020-07-18 18:24:41.149162,2020-04-23 00:00:00.000000,0.05598792,0.18399230,0.53516343,136,449,1307,82,238,744,0.03365410,0.09777805,0.30500148,0.20444344,0.38015135,0.70366662
13117,0,USGeorgiaForsyth,Georgia,Forsyth,2020-07-18 18:24:41.149162,2020-04-24 00:00:00.000000,0.07247519,0.17853724,0.54965933,177,436,1342,93,234,738,0.03827507,0.09581400,0.30226783,0.20273845,0.37738892,0.68121547
13117,0,USGeorgiaForsyth,Georgia,Forsyth,2020-07-18 18:24:41.149162,2020-04-25 00:00:00.000000,0.05412978,0.17998025,0.55416142,132,439,1353,80,232,741,0.03311843,0.09503866,0.30368019,0.20204216,0.36730309,0.63778733
13117,0,USGeorgiaForsyth,Georgia,Forsyth,2020-07-18 18:24:41.149162,2020-04-26 00:00:00.000000,0.06850977,0.17468838,0.55625750,167,426,1358,87,228,773,0.03601507,0.09365656,0.31657765,0.19938540,0.36603212,0.58526460
13117,0,USGeorgiaForsyth,Georgia,Forsyth,2020-07-18 18:24:41.149162,2020-04-27 00:00:00.000000,0.05210176,0.17358848,0.55643112,127,423,1359,77,225,800,0.03190682,0.09234881,0.32763912,0.19655886,0.36148378,0.55128769
13117,0,USGeorgiaForsyth,Georgia,Forsyth,2020-07-18 18:24:41.149162,2020-04-28 00:00:00.000000,0.06375605,0.16868105,0.55425322,155,412,1353,82,223,821,0.03375252,0.09154754,0.33635561,0.18973827,0.35177579,0.54409176
13117,0,USGeorgiaForsyth,Georgia,Forsyth,2020-07-18 18:24:41.149162,2020-04-29 00:00:00.000000,0.05069637,0.16950145,0.55028051,123,414,1344,75,220,821,0.03072844,0.09043257,0.33628611,0.18971603,0.34299194,0.53927027
13117,0,USGeorgiaForsyth,Georgia,Forsyth,2020-07-18 18:24:41.149162,2020-04-30 00:00:00.000000,0.06046582,0.16360604,0.54530604,147,399,1331,77,220,810,0.03160769,0.09017909,0.33178751,0.19059642,0.33899884,0.55013942
13117,0,USGeorgiaForsyth,Georgia,Forsyth,2020-07-18 18:24:41.149162,2020-05-01 00:00:00.000000,0.04920812,0.16093757,0.53969917,120,393,1318,72,217,795,0.02951387,0.08886260,0.32555972,0.18514385,0.33905003,0.57456739
13117,0,USGeorgiaForsyth,Georgia,Forsyth,2020-07-18 18:24:41.149162,2020-05-02 00:00:00.000000,0.05888123,0.15626819,0.53317253,143,381,1302,72,212,777,0.02956673,0.08699646,0.31812403,0.18173260,0.33764041,0.59315894
13117,0,USGeorgiaForsyth,Georgia,Forsyth,2020-07-18 18:24:41.149162,2020-05-03 00:00:00.000000,0.04643252,0.15190955,0.52384821,113,371,1279,69,206,753,0.02832905,0.08453473,0.30833576,0.17530705,0.33776489,0.60139430
13117,0,USGeorgiaForsyth,Georgia,Forsyth,2020-07-18 18:24:41.149162,2020-05-04 00:00:00.000000,0.05541003,0.14644273,0.51386415,135,357,1255,70,200,725,0.02875440,0.08191248,0.29691519,0.16927113,0.33500540,0.60416479
13117,0,USGeorgiaForsyth,Georgia,Forsyth,2020-07-18 18:24:41.149162,2020-05-05 00:00:00.000000,0.04406989,0.14422174,0.50338720,107,352,1229,64,194,697,0.02639027,0.07980500,0.28548290,0.16558363,0.33370601,0.60496766
13117,0,USGeorgiaForsyth,Georgia,Forsyth,2020-07-18 18:24:41.149162,2020-05-06 00:00:00.000000,0.05055247,0.13744693,0.49220854,123,335,1202,69,190,670,0.02829849,0.07781007,0.27446640,0.16296036,0.32969635,0.60506953
13117,0,USGeorgiaForsyth,Georgia,Forsyth,2020-07-18 18:24:41.149162,2020-05-07 00:00:00.000000,0.04085997,0.13615878,0.48016208,99,332,1172,59,183,644,0.02445827,0.07521251,0.26400864,0.16333019,0.32017951,0.60469467
13117,0,USGeorgiaForsyth,Georgia,Forsyth,2020-07-18 18:24:41.149162,2020-05-08 00:00:00.000000,0.04632378,0.12802601,0.46726931,113,312,1141,60,180,631,0.02491114,0.07396629,0.25847952,0.16434558,0.33101727,0.60341000
13117,0,USGeorgiaForsyth,Georgia,Forsyth,2020-07-18 18:24:41.149162,2020-05-09 00:00:00.000000,0.03627185,0.13113359,0.45385009,88,320,1108,55,176,624,0.02261879,0.07209942,0.25575689,0.16410742,0.33370467,0.59983507
13117,0,USGeorgiaForsyth,Georgia,Forsyth,2020-07-18 18:24:41.149162,2020-05-10 00:00:00.000000,0.04736708,0.12535683,0.44439369,115,306,1085,56,172,625,0.02316542,0.07069163,0.25607068,0.16918715,0.33975217,0.59142417
13117,0,USGeorgiaForsyth,Georgia,Forsyth,2020-07-18 18:24:41.149162,2020-05-11 00:00:00.000000,0.03310062,0.12508922,0.44885809,80,305,1096,50,170,625,0.02087725,0.06968609,0.25612591,0.17225574,0.33988251,0.57723097
13117,0,USGeorgiaForsyth,Georgia,Forsyth,2020-07-18 18:24:41.149162,2020-05-12 00:00:00.000000,0.04895623,0.11821469,0.45339676,119,288,1107,58,167,625,0.02397746,0.06870389,0.25599343,0.17533380,0.34715570,0.56564652
13117,0,USGeorgiaForsyth,Georgia,Forsyth,2020-07-18 18:24:41.149162,2020-05-13 00:00:00.000000,0.03059392,0.12221383,0.45800572,74,298,1118,47,164,624,0.01924623,0.06752781,0.25567665,0.17828930,0.35000534,0.57300532
13117,0,USGeorgiaForsyth,Georgia,Forsyth,2020-07-18 18:24:41.149162,2020-05-14 00:00:00.000000,0.04943012,0.11626771,0.46267570,120,283,1130,55,159,623,0.02286523,0.06546972,0.25508866,0.18306440,0.35100845,0.58155676
13117,0,USGeorgiaForsyth,Georgia,Forsyth,2020-07-18 18:24:41.149162,2020-05-15 00:00:00.000000,0.02908405,0.11703554,0.46741245,71,285,1141,43,156,620,0.01773811,0.06390669,0.25409805,0.19042674,0.35580214,0.61766094
13117,0,USGeorgiaForsyth,Georgia,Forsyth,2020-07-18 18:24:41.149162,2020-05-16 00:00:00.000000,0.04983699,0.11434994,0.47227660,121,279,1153,53,153,617,0.02199278,0.06269141,0.25264718,0.19499009,0.35904656,0.65005758
13117,0,USGeorgiaForsyth,Georgia,Forsyth,2020-07-18 18:24:41.149162,2020-05-17 00:00:00.000000,0.02771993,0.11513456,0.47175704,67,281,1152,40,153,612,0.01663710,0.06280384,0.25081073,0.20258495,0.37713279,0.65476523
13117,0,USGeorgiaForsyth,Georgia,Forsyth,2020-07-18 18:24:41.149162,2020-05-18 00:00:00.000000,0.04878836,0.11230640,0.46485662,119,274,1135,52,150,607,0.02136648,0.06163290,0.24872231,0.20611846,0.38248116,0.65589199
13117,0,USGeorgiaForsyth,Georgia,Forsyth,2020-07-18 18:24:41.149162,2020-05-19 00:00:00.000000,0.02631648,0.11291442,0.45810968,64,275,1118,40,147,609,0.01661160,0.06030236,0.24970951,0.20887678,0.38545878,0.65642942
13117,0,USGeorgiaForsyth,Georgia,Forsyth,2020-07-18 18:24:41.149162,2020-05-20 00:00:00.000000,0.05012143,0.11103627,0.45147364,122,271,1102,52,145,605,0.02131083,0.05947779,0.24808069,0.21648449,0.39604479,0.65688185
13117,0,USGeorgiaForsyth,Georgia,Forsyth,2020-07-18 18:24:41.149162,2020-05-21 00:00:00.000000,0.02620542,0.11207446,0.44385460,64,273,1084,40,144,597,0.01639590,0.05901487,0.24447627,0.22067910,0.40717359,0.65740092
13117,0,USGeorgiaForsyth,Georgia,Forsyth,2020-07-18 18:24:41.149162,2020-05-22 00:00:00.000000,0.04831428,0.11288566,0.43586087,118,275,1064,53,144,590,0.02170743,0.05928998,0.24174568,0.22270967,0.41486725,0.65088170
13117,0,USGeorgiaForsyth,Georgia,Forsyth,2020-07-18 18:24:41.149162,2020-05-23 00:00:00.000000,0.02662520,0.11375958,0.42804062,65,277,1045,40,147,586,0.01638010,0.06022910,0.24024206,0.22836964,0.41734425,0.63721429
13117,0,USGeorgiaForsyth,Georgia,Forsyth,2020-07-18 18:24:41.149162,2020-05-24 00:00:00.000000,0.04669693,0.11393196,0.42058406,114,278,1027,53,146,598,0.02205073,0.06013531,0.24505366,0.22614038,0.42022765,0.65497106
13117,0,USGeorgiaForsyth,Georgia,Forsyth,2020-07-18 18:24:41.149162,2020-05-25 00:00:00.000000,0.02727665,0.11763324,0.41325690,66,287,1009,38,146,610,0.01560115,0.06007669,0.25003591,0.23416843,0.42855837,0.66180691
13117,0,USGeorgiaForsyth,Georgia,Forsyth,2020-07-18 18:24:41.149162,2020-05-26 00:00:00.000000,0.04487015,0.11773333,0.40601982,109,287,991,51,146,623,0.02128557,0.05989798,0.25507348,0.23398329,0.42981993,0.66407795
13117,0,USGeorgiaForsyth,Georgia,Forsyth,2020-07-18 18:24:41.149162,2020-05-27 00:00:00.000000,0.02799328,0.12058547,0.39887982,68,294,974,39,145,635,0.01597228,0.05944960,0.26014430,0.23435423,0.43213888,0.66525970
13117,0,USGeorgiaForsyth,Georgia,Forsyth,2020-07-18 18:24:41.149162,2020-05-28 00:00:00.000000,0.04630300,0.11674276,0.39332133,113,285,960,54,143,647,0.02217620,0.05863871,0.26524916,0.23588081,0.43698052,0.66652726
13117,0,USGeorgiaForsyth,Georgia,Forsyth,2020-07-18 18:24:41.149162,2020-05-29 00:00:00.000000,0.02889761,0.12231549,0.39841013,70,298,973,40,146,659,0.01660211,0.06000172,0.26981722,0.23760123,0.43658842,0.68144319
13117,0,USGeorgiaForsyth,Georgia,Forsyth,2020-07-18 18:24:41.149162,2020-05-30 00:00:00.000000,0.05032890,0.12143309,0.40483892,122,296,988,55,147,668,0.02285275,0.06020022,0.27370115,0.23589347,0.43924468,0.68113869
13117,0,USGeorgiaForsyth,Georgia,Forsyth,2020-07-18 18:24:41.149162,2020-05-31 00:00:00.000000,0.03077481,0.12579485,0.41223189,75,307,1006,42,148,675,0.01740571,0.06079582,0.27640502,0.23290068,0.44917582,0.69863673
13117,0,USGeorgiaForsyth,Georgia,Forsyth,2020-07-18 18:24:41.149162,2020-06-01 00:00:00.000000,0.04980024,0.12691790,0.42035269,121,309,1026,56,151,669,0.02324912,0.06191866,0.27427385,0.23886740,0.46248914,0.70347925
13117,0,USGeorgiaForsyth,Georgia,Forsyth,2020-07-18 18:24:41.149162,2020-06-02 00:00:00.000000,0.03389766,0.12961531,0.42899206,82,316,1047,45,153,657,0.01847327,0.06302046,0.26922681,0.24508150,0.46847132,0.71941017
13117,0,USGeorgiaForsyth,Georgia,Forsyth,2020-07-18 18:24:41.149162,2020-06-03 00:00:00.000000,0.05354509,0.12682979,0.44065593,130,309,1076,59,155,648,0.02425623,0.06360868,0.26532331,0.24387781,0.47366593,0.75851328
13117,0,USGeorgiaForsyth,Georgia,Forsyth,2020-07-18 18:24:41.149162,2020-06-04 00:00:00.000000,0.03718605,0.13441266,0.44999963,90,328,1099,48,159,651,0.01971512,0.06527619,0.26664793,0.24732566,0.48359159,0.78261709
13117,0,USGeorgiaForsyth,Georgia,Forsyth,2020-07-18 18:24:41.149162,2020-06-05 00:00:00.000000,0.05761581,0.13473057,0.46324908,140,329,1131,62,164,656,0.02544338,0.06739269,0.26894300,0.25245382,0.50200843,0.81057342
13117,0,USGeorgiaForsyth,Georgia,Forsyth,2020-07-18 18:24:41.149162,2020-06-06 00:00:00.000000,0.04106200,0.14074155,0.47782055,100,343,1167,51,169,661,0.02108816,0.06948360,0.27088226,0.25299435,0.51852210,0.81265154
13117,0,USGeorgiaForsyth,Georgia,Forsyth,2020-07-18 18:24:41.149162,2020-06-07 00:00:00.000000,0.06139513,0.14236857,0.49340892,149,347,1205,66,169,665,0.02726310,0.06919300,0.27254312,0.26017086,0.52606659,0.81067287
13117,0,USGeorgiaForsyth,Georgia,Forsyth,2020-07-18 18:24:41.149162,2020-06-08 00:00:00.000000,0.04588195,0.14908472,0.51926240,112,364,1268,55,179,669,0.02267355,0.07350534,0.27403275,0.26775357,0.53936281,0.84396710
13117,0,USGeorgiaForsyth,Georgia,Forsyth,2020-07-18 18:24:41.149162,2020-06-09 00:00:00.000000,0.06439930,0.15154191,0.55004176,157,370,1343,72,183,672,0.02961877,0.07527273,0.27543331,0.26799927,0.54645406,0.85432994
13117,0,USGeorgiaForsyth,Georgia,Forsyth,2020-07-18 18:24:41.149162,2020-06-10 00:00:00.000000,0.04708945,0.16318250,0.58117390,115,398,1419,60,192,680,0.02495377,0.07871346,0.27850980,0.26883700,0.55101050,0.85638680
13117,0,USGeorgiaForsyth,Georgia,Forsyth,2020-07-18 18:24:41.149162,2020-06-11 00:00:00.000000,0.06725554,0.16306316,0.61423090,164,398,1500,76,200,696,0.03128712,0.08193374,0.28515637,0.27113873,0.56068262,0.85315193
13117,0,USGeorgiaForsyth,Georgia,Forsyth,2020-07-18 18:24:41.149162,2020-06-12 00:00:00.000000,0.05230067,0.17604291,0.64975957,127,429,1587,65,208,710,0.02662990,0.08524291,0.29100029,0.29554344,0.57669819,0.85708184
13117,0,USGeorgiaForsyth,Georgia,Forsyth,2020-07-18 18:24:41.149162,2020-06-13 00:00:00.000000,0.07234662,0.18072801,0.67614062,176,441,1651,83,214,727,0.03423996,0.08778208,0.29796823,0.30038639,0.59057625,0.92880976
13117,0,USGeorgiaForsyth,Georgia,Forsyth,2020-07-18 18:24:41.149162,2020-06-14 00:00:00.000000,0.06178657,0.18864804,0.69515447,150,460,1697,74,227,759,0.03039674,0.09326407,0.31110847,0.32598874,0.60197091,0.96993431
13117,0,USGeorgiaForsyth,Georgia,Forsyth,2020-07-18 18:24:41.149162,2020-06-15 00:00:00.000000,0.07952573,0.19874429,0.71643530,194,485,1749,95,228,807,0.03892906,0.09345670,0.33039775,0.32697470,0.62675419,0.97737071
13117,0,USGeorgiaForsyth,Georgia,Forsyth,2020-07-18 18:24:41.149162,2020-06-16 00:00:00.000000,0.07106683,0.21456528,0.73950159,173,524,1806,85,245,856,0.03495133,0.10046932,0.35069987,0.32897186,0.64535188,0.98357734
13117,0,USGeorgiaForsyth,Georgia,Forsyth,2020-07-18 18:24:41.149162,2020-06-17 00:00:00.000000,0.09175637,0.22851226,0.76085462,224,558,1858,108,255,913,0.04435206,0.10478789,0.37419397,0.33213567,0.66353141,0.97995608
13117,0,USGeorgiaForsyth,Georgia,Forsyth,2020-07-18 18:24:41.149162,2020-06-18 00:00:00.000000,0.08135289,0.25210325,0.82496454,198,615,2014,96,272,980,0.03952605,0.11155665,0.40162835,0.34085174,0.67565789,0.97452870
13117,0,USGeorgiaForsyth,Georgia,Forsyth,2020-07-18 18:24:41.149162,2020-06-19 00:00:00.000000,0.10734360,0.26683872,0.89305012,262,651,2181,125,291,1052,0.05130065,0.11934661,0.43098554,0.34258090,0.68178764,0.93420340
13117,0,USGeorgiaForsyth,Georgia,Forsyth,2020-07-18 18:24:41.149162,2020-06-20 00:00:00.000000,0.09148407,0.29449005,0.96280585,223,719,2351,111,311,1128,0.04581503,0.12743283,0.46194185,0.35114186,0.69044379,0.94901959
13117,0,USGeorgiaForsyth,Georgia,Forsyth,2020-07-18 18:24:41.149162,2020-06-21 00:00:00.000000,0.12262432,0.30336289,1.03389498,299,740,2525,141,335,1206,0.05810560,0.13753258,0.49389081,0.36133804,0.69245711,0.96286317
13117,0,USGeorgiaForsyth,Georgia,Forsyth,2020-07-18 18:24:41.149162,2020-06-22 00:00:00.000000,0.10941830,0.32256809,1.10664743,267,787,2703,128,362,1284,0.05268948,0.14837256,0.52573370,0.36876421,0.69459857,0.96929007
13117,0,USGeorgiaForsyth,Georgia,Forsyth,2020-07-18 18:24:41.149162,2020-06-23 00:00:00.000000,0.14228630,0.34295667,1.18163711,347,837,2886,162,384,1359,0.06654432,0.15754085,0.55642919,0.36261617,0.68839939,0.97520210
13117,0,USGeorgiaForsyth,Georgia,Forsyth,2020-07-18 18:24:41.149162,2020-06-24 00:00:00.000000,0.12819008,0.38605215,1.25387130,313,942,3062,148,414,1431,0.06078738,0.16958049,0.58590925,0.35454394,0.68071421,0.99109568
13117,0,USGeorgiaForsyth,Georgia,Forsyth,2020-07-18 18:24:41.149162,2020-06-25 00:00:00.000000,0.16900483,0.40581431,1.31851404,412,991,3220,191,444,1501,0.07841469,0.18196965,0.61460564,0.35808802,0.67146581,1.02140319
13117,0,USGeorgiaForsyth,Georgia,Forsyth,2020-07-18 18:24:41.149162,2020-06-26 00:00:00.000000,0.15067309,0.43244808,1.36560728,368,1056,3335,171,479,1570,0.07029519,0.19647896,0.64307738,0.36444930,0.66550612,1.05071796
13117,0,USGeorgiaForsyth,Georgia,Forsyth,2020-07-18 18:24:41.149162,2020-06-27 00:00:00.000000,0.20621855,0.45030949,1.40311447,503,1099,3427,230,512,1641,0.09439417,0.20998670,0.67197458,0.35855875,0.65118623,1.07288833
13117,0,USGeorgiaForsyth,Georgia,Forsyth,2020-07-18 18:24:41.149162,2020-06-28 00:00:00.000000,0.16882443,0.47347852,1.43821330,412,1156,3512,197,546,1722,0.08104204,0.22389129,0.70532075,0.35373371,0.63811080,1.08435323
13117,0,USGeorgiaForsyth,Georgia,Forsyth,2020-07-18 18:24:41.149162,2020-06-29 00:00:00.000000,0.23913647,0.49276970,1.47313770,584,1203,3598,275,575,1855,0.11287648,0.23572964,0.75984933,0.34687344,0.62057046,1.08370845
13117,0,USGeorgiaForsyth,Georgia,Forsyth,2020-07-18 18:24:41.149162,2020-06-30 00:00:00.000000,0.18520438,0.52020832,1.50834217,452,1270,3684,226,606,1979,0.09281811,0.24817082,0.81041857,0.34615645,0.61849747,1.06893276
13117,0,USGeorgiaForsyth,Georgia,Forsyth,2020-07-18 18:24:41.149162,2020-07-01 00:00:00.000000,0.25395192,0.54122618,1.54368725,620,1321,3770,305,631,2108,0.12506020,0.25872395,0.86307347,0.34652103,0.60346311,1.03554817
13117,0,USGeorgiaForsyth,Georgia,Forsyth,2020-07-18 18:24:41.149162,2020-07-02 00:00:00.000000,0.19645384,0.56831638,1.57858015,479,1388,3855,249,653,2232,0.10204574,0.26761071,0.91420384,0.33310452,0.58109807,0.97921139
13117,0,USGeorgiaForsyth,Georgia,Forsyth,2020-07-18 18:24:41.149162,2020-07-03 00:00:00.000000,0.28150207,0.58500523,1.63495754,687,1428,3993,335,673,2329,0.13723473,0.27571394,0.95384155,0.33191955,0.56055740,0.90351593
13117,0,USGeorgiaForsyth,Georgia,Forsyth,2020-07-18 18:24:41.149162,2020-07-04 00:00:00.000000,0.21753216,0.61624617,1.73425168,531,1505,4235,267,701,2402,0.10938123,0.28708693,0.98362693,0.32234882,0.55935622,0.82695458
13117,0,USGeorgiaForsyth,Georgia,Forsyth,2020-07-18 18:24:41.149162,2020-07-05 00:00:00.000000,0.30407583,0.62629276,1.83203480,742,1529,4474,359,727,2452,0.14736471,0.29800972,1.00389904,0.31254816,0.55832444,0.78401889
13117,0,USGeorgiaForsyth,Georgia,Forsyth,2020-07-18 18:24:41.149162,2020-07-06 00:00:00.000000,0.24249903,0.65457623,1.91079057,592,1598,4667,292,749,2506,0.11980582,0.30704509,1.02606852,0.30480644,0.54552010,0.79253615
13117,0,USGeorgiaForsyth,Georgia,Forsyth,2020-07-18 18:24:41.149162,2020-07-07 00:00:00.000000,0.30585179,0.64860363,2.02130646,747,1584,4937,378,768,2598,0.15492175,0.31462847,1.06383305,0.30380370,0.53552273,0.80602031
13117,0,USGeorgiaForsyth,Georgia,Forsyth,2020-07-18 18:24:41.149162,2020-07-08 00:00:00.000000,0.27032350,0.65379705,2.14838003,660,1596,5247,320,794,2712,0.13136162,0.32527181,1.11039030,0.30378366,0.53191936,0.80618601
13117,0,USGeorgiaForsyth,Georgia,Forsyth,2020-07-18 18:24:41.149162,2020-07-09 00:00:00.000000,0.31718058,0.67455052,2.28267826,774,1647,5575,386,822,2841,0.15805347,0.33693167,1.16346448,0.30377537,0.52828292,0.80620814
13117,0,USGeorgiaForsyth,Georgia,Forsyth,2020-07-18 18:24:41.149162,2020-07-10 00:00:00.000000,0.27852986,0.70018803,2.42447343,680,1710,5921,357,842,2973,0.14629676,0.34484802,1.21722998,0.30246784,0.52743194,0.80621099
13117,0,USGeorgiaForsyth,Georgia,Forsyth,2020-07-18 18:24:41.149162,2020-07-11 00:00:00.000000,0.31435295,0.71845406,2.53782290,767,1754,6198,402,846,3070,0.16486472,0.34650449,1.25702724,0.30170304,0.52742798,0.80621134
13117,0,USGeorgiaForsyth,Georgia,Forsyth,2020-07-18 18:24:41.149162,2020-07-12 00:00:00.000000,0.27321865,0.75667895,2.65240472,667,1848,6478,368,875,3156,0.15079996,0.35843061,1.29213194,0.30154669,0.52742617,0.80621137
13117,0,USGeorgiaForsyth,Georgia,Forsyth,2020-07-18 18:24:41.149162,2020-07-13 00:00:00.000000,0.31323228,0.76749228,2.82820606,765,1874,6907,402,908,3282,0.16479247,0.37212399,1.34386602,0.30151499,0.52742532,0.80621137
13117,0,USGeorgiaForsyth,Georgia,Forsyth,2020-07-18 18:24:41.149162,2020-07-14 00:00:00.000000,0.28056733,0.79799979,2.97454868,685,1949,7265,378,929,3412,0.15494517,0.38049087,1.39718461,0.30150858,0.52742492,0.80621137
13117,0,USGeorgiaForsyth,Georgia,Forsyth,2020-07-18 18:24:41.149162,2020-07-15 00:00:00.000000,0.32016503,0.81583303,3.22373240,782,1992,7874,397,944,3544,0.16286291,0.38671503,1.45102699,0.30150729,0.52742473,0.80621137
13117,0,USGeorgiaForsyth,Georgia,Forsyth,2020-07-18 18:24:41.149162,2020-07-16 00:00:00.000000,0.28636243,0.84975855,3.43552099,699,2075,8391,378,965,3712,0.15501878,0.39530815,1.51976255,0.30150703,0.52742464,0.80621137
13117,0,USGeorgiaForsyth,Georgia,Forsyth,2020-07-18 18:24:41.149162,2020-07-17 00:00:00.000000,0.32317429,0.87747358,3.56632302,789,2143,8710,393,995,3884,0.16124443,0.40761641,1.59054756,0.30150698,0.52742460,0.80621137
13117,0,USGeorgiaForsyth,Georgia,Forsyth,2020-07-18 18:24:41.149162,2020-07-18 00:00:00.000000,0.30194602,0.90684233,3.67343128,737,2214,8972,370,1033,4187,0.15180063,0.42302443,1.71439172,0.30150697,0.52742458,0.80621137
13117,0,USGeorgiaForsyth,Georgia,Forsyth,2020-07-18 18:24:41.149162,2020-07-19 00:00:00.000000,0.31995890,0.93332458,3.82912930,781,2279,9352,390,1070,4373,0.15987359,0.43816052,1.79036933,0.30150697,0.52742457,0.80621137
13117,0,USGeorgiaForsyth,Georgia,Forsyth,2020-07-18 18:24:41.149162,2020-07-20 00:00:00.000000,0.29907412,0.96120308,4.05039793,730,2347,9893,380,1091,4554,0.15579298,0.44703365,1.86472299,0.30150697,0.52742457,0.80621137
13117,0,USGeorgiaForsyth,Georgia,Forsyth,2020-07-18 18:24:41.149162,2020-07-21 00:00:00.000000,0.31066463,0.97523931,4.15463691,758,2382,10147,387,1118,4738,0.15846316,0.45797760,1.93990364,0.30150697,0.52742456,0.80621137
13117,0,USGeorgiaForsyth,Georgia,Forsyth,2020-07-18 18:24:41.149162,2020-07-22 00:00:00.000000,0.29611364,0.99945111,4.25980245,723,2441,10404,377,1158,4976,0.15452864,0.47413321,2.03728773,0.30150697,0.52742456,0.80621137
13117,0,USGeorgiaForsyth,Georgia,Forsyth,2020-07-18 18:24:41.149162,2020-07-23 00:00:00.000000,0.30137207,1.03003822,4.50410943,736,2515,11001,384,1199,5262,0.15747910,0.49112538,2.15464636,0.30150697,0.52742456,0.80621137
13117,0,USGeorgiaForsyth,Georgia,Forsyth,2020-07-18 18:24:41.149162,2020-07-24 00:00:00.000000,0.29306057,1.05470649,4.79218563,715,2576,11705,379,1240,5564,0.15541877,0.50800633,2.27810611,0.30150697,0.52742456,0.80621137
13117,0,USGeorgiaForsyth,Georgia,Forsyth,2020-07-18 18:24:41.149162,2020-07-25 00:00:00.000000,0.29231483,1.08474904,5.08696621,713,2649,12425,381,1284,5826,0.15611212,0.52574892,2.38551008,0.30150697,0.52742456,0.80621137
13117,0,USGeorgiaForsyth,Georgia,Forsyth,2020-07-18 18:24:41.149162,2020-07-26 00:00:00.000000,0.28728438,1.11276241,5.38680975,701,2717,13157,376,1314,5938,0.15410680,0.53829769,2.43118355,0.30150697,0.52742456,0.80621137
13117,0,USGeorgiaForsyth,Georgia,Forsyth,2020-07-18 18:24:41.149162,2020-07-27 00:00:00.000000,0.28831103,1.13938239,5.68980725,704,2782,13897,376,1346,6050,0.15425606,0.55138478,2.47729590,0.30150697,0.52742456,0.80621137
13117,0,USGeorgiaForsyth,Georgia,Forsyth,2020-07-18 18:24:41.149162,2020-07-28 00:00:00.000000,0.28668443,1.16312527,5.99379187,700,2840,14639,372,1376,6366,0.15234616,0.56364086,2.60672438,0.30150697,0.52742456,0.80621137
13117,0,USGeorgiaForsyth,Georgia,Forsyth,2020-07-18 18:24:41.149162,2020-07-29 00:00:00.000000,0.28503710,1.18284053,6.29635815,696,2889,15378,372,1415,6738,0.15235517,0.57970791,2.75891364,0.30150697,0.52742456,0.80621137
13117,0,USGeorgiaForsyth,Georgia,Forsyth,2020-07-18 18:24:41.149162,2020-07-30 00:00:00.000000,0.28465235,1.20264673,6.59489200,695,2937,16108,367,1434,7125,0.15054738,0.58728357,2.91737593,0.30150697,0.52742456,0.80621137
