FIPS,HR_UID,nameid,province,region,analysisTime,dates,pointprevalence_025,pointprevalence_50,pointprevalence_975,pointinfections_025,pointinfections_50,pointinfections_975,pointinfectious_025,pointinfectious_50,pointinfectious_975,pointinfectiousprevalence_05,pointinfectiousprevalence_50,pointinfectiousprevalence_95,infectrate_025,infectrate_50,infectrate_975
13177,0,USGeorgiaLee,Georgia,Lee,2020-07-18 18:05:01.894072,2020-03-09 00:00:00.000000,0.03783820,0.10321561,0.57154653,11,30,171,3,12,52,0.01123447,0.04316228,0.17631251,0.68576459,0.94734952,1.19199318
13177,0,USGeorgiaLee,Georgia,Lee,2020-07-18 18:05:01.894072,2020-03-10 00:00:00.000000,0.04153715,0.11699832,0.48729798,12,35,146,6,15,53,0.02211147,0.05049273,0.17844654,0.68581556,0.94735457,1.19199318
13177,0,USGeorgiaLee,Georgia,Lee,2020-07-18 18:05:01.894072,2020-03-11 00:00:00.000000,0.03948193,0.12535886,0.51075720,11,37,153,5,17,55,0.01963133,0.05935462,0.18496415,0.68591494,0.94736855,1.19199318
13177,0,USGeorgiaLee,Georgia,Lee,2020-07-18 18:05:01.894072,2020-03-12 00:00:00.000000,0.04899537,0.14170356,0.54228824,14,42,162,7,19,60,0.02642207,0.06478087,0.20120781,0.68610837,0.94740723,1.19199317
13177,0,USGeorgiaLee,Georgia,Lee,2020-07-18 18:05:01.894072,2020-03-13 00:00:00.000000,0.04227551,0.16442260,0.58227644,12,49,174,6,22,67,0.02091340,0.07429320,0.22605734,0.68648355,0.94751409,1.19199315
13177,0,USGeorgiaLee,Georgia,Lee,2020-07-18 18:05:01.894072,2020-03-14 00:00:00.000000,0.05679167,0.18253202,0.62734755,17,54,188,8,25,74,0.02798489,0.08480876,0.24845569,0.68720698,0.94781127,1.19199309
13177,0,USGeorgiaLee,Georgia,Lee,2020-07-18 18:05:01.894072,2020-03-15 00:00:00.000000,0.05055396,0.19614842,0.66776078,15,58,200,7,27,82,0.02475753,0.09175130,0.27621110,0.69476119,0.94905608,1.19199284
13177,0,USGeorgiaLee,Georgia,Lee,2020-07-18 18:05:01.894072,2020-03-16 00:00:00.000000,0.06538914,0.21706076,0.71491593,19,65,214,9,29,91,0.03135356,0.09863468,0.30658684,0.70968707,0.95210042,1.19199177
13177,0,USGeorgiaLee,Georgia,Lee,2020-07-18 18:05:01.894072,2020-03-17 00:00:00.000000,0.06035349,0.23590396,0.77727102,18,70,233,8,32,102,0.02838121,0.10866232,0.34043788,0.71341355,0.95458984,1.19404515
13177,0,USGeorgiaLee,Georgia,Lee,2020-07-18 18:05:01.894072,2020-03-18 00:00:00.000000,0.07585802,0.26642067,0.83696591,22,79,251,10,37,117,0.03603521,0.12644349,0.39325343,0.72060132,0.96660647,1.19931656
13177,0,USGeorgiaLee,Georgia,Lee,2020-07-18 18:05:01.894072,2020-03-19 00:00:00.000000,0.06877531,0.29728677,0.91831005,20,89,275,9,41,137,0.03132013,0.13831172,0.45870202,0.73347240,0.99401442,1.23568835
13177,0,USGeorgiaLee,Georgia,Lee,2020-07-18 18:05:01.894072,2020-03-20 00:00:00.000000,0.10087201,0.33561573,1.02874141,30,100,308,13,47,160,0.04446614,0.15678792,0.53430795,0.73283792,1.10664696,1.27138718
13177,0,USGeorgiaLee,Georgia,Lee,2020-07-18 18:05:01.894072,2020-03-21 00:00:00.000000,0.08145995,0.36850223,1.15292788,24,110,345,11,50,186,0.03990768,0.16790575,0.62076350,0.71883808,1.12566364,1.33682906
13177,0,USGeorgiaLee,Georgia,Lee,2020-07-18 18:05:01.894072,2020-03-22 00:00:00.000000,0.13141665,0.41572723,1.28961189,39,124,386,17,56,214,0.05949787,0.18874040,0.71480812,0.69847670,1.15847286,1.35109694
13177,0,USGeorgiaLee,Georgia,Lee,2020-07-18 18:05:01.894072,2020-03-23 00:00:00.000000,0.09753671,0.45641634,1.43645318,29,136,430,14,63,245,0.04775128,0.21244757,0.81697462,0.66694082,1.14369646,1.35930392
13177,0,USGeorgiaLee,Georgia,Lee,2020-07-18 18:05:01.894072,2020-03-24 00:00:00.000000,0.15527637,0.53527778,1.63227304,46,160,489,23,71,271,0.07806621,0.23846642,0.90629601,0.64991709,1.17099609,1.36349463
13177,0,USGeorgiaLee,Georgia,Lee,2020-07-18 18:05:01.894072,2020-03-25 00:00:00.000000,0.12205948,0.60618773,1.84501009,36,181,553,17,80,296,0.05861838,0.26757092,0.98723646,0.64354041,1.21258250,1.37679472
13177,0,USGeorgiaLee,Georgia,Lee,2020-07-18 18:05:01.894072,2020-03-26 00:00:00.000000,0.19244244,0.69577932,2.04483718,57,208,613,28,91,321,0.09440210,0.30618863,1.07047587,0.64026961,1.21792767,1.39010234
13177,0,USGeorgiaLee,Georgia,Lee,2020-07-18 18:05:01.894072,2020-03-27 00:00:00.000000,0.16370919,0.77932700,2.22302280,49,233,666,23,105,346,0.07772426,0.35121796,1.15689098,0.60922767,1.17202150,1.37982335
13177,0,USGeorgiaLee,Georgia,Lee,2020-07-18 18:05:01.894072,2020-03-28 00:00:00.000000,0.25294177,0.88312706,2.40210563,75,264,720,36,119,373,0.12189052,0.39691280,1.24696223,0.58016683,1.12737876,1.37790353
13177,0,USGeorgiaLee,Georgia,Lee,2020-07-18 18:05:01.894072,2020-03-29 00:00:00.000000,0.22339615,0.97580840,2.74533158,67,292,823,31,131,403,0.10601824,0.43710447,1.34422127,0.54707387,1.11554534,1.35507175
13177,0,USGeorgiaLee,Georgia,Lee,2020-07-18 18:05:01.894072,2020-03-30 00:00:00.000000,0.33802185,1.07600096,3.25055324,101,322,974,47,146,435,0.15754551,0.48709870,1.45223015,0.51921462,1.10973061,1.34762359
13177,0,USGeorgiaLee,Georgia,Lee,2020-07-18 18:05:01.894072,2020-03-31 00:00:00.000000,0.30481738,1.19543832,3.77557663,91,358,1132,43,162,500,0.14487772,0.54268830,1.66975897,0.49965390,1.10001828,1.34665094
13177,0,USGeorgiaLee,Georgia,Lee,2020-07-18 18:05:01.894072,2020-04-01 00:00:00.000000,0.45141983,1.32155821,4.25858278,135,396,1277,60,180,582,0.20271914,0.60275531,1.94150481,0.49153877,1.03304840,1.34470811
13177,0,USGeorgiaLee,Georgia,Lee,2020-07-18 18:05:01.894072,2020-04-02 00:00:00.000000,0.41448711,1.44818978,4.63050732,124,434,1388,59,199,657,0.19747588,0.66587177,2.19340217,0.46843676,0.91574922,1.33610839
13177,0,USGeorgiaLee,Georgia,Lee,2020-07-18 18:05:01.894072,2020-04-03 00:00:00.000000,0.56167423,1.56405533,4.79153114,168,469,1437,76,218,716,0.25616542,0.72870771,2.38971828,0.40152672,0.86620324,1.32837825
13177,0,USGeorgiaLee,Georgia,Lee,2020-07-18 18:05:01.894072,2020-04-04 00:00:00.000000,0.55229463,1.65419718,4.75325196,165,496,1425,75,235,743,0.25259162,0.78529892,2.47979131,0.37617643,0.79065923,1.31515298
13177,0,USGeorgiaLee,Georgia,Lee,2020-07-18 18:05:01.894072,2020-04-05 00:00:00.000000,0.62488049,1.70677154,4.63014415,187,511,1388,90,248,739,0.30065262,0.82806804,2.46546810,0.35512038,0.73371118,1.29467430
13177,0,USGeorgiaLee,Georgia,Lee,2020-07-18 18:05:01.894072,2020-04-06 00:00:00.000000,0.63377713,1.72031103,4.47416259,190,515,1341,93,255,720,0.31090404,0.85168121,2.40330027,0.34244819,0.65837875,1.26092517
13177,0,USGeorgiaLee,Georgia,Lee,2020-07-18 18:05:01.894072,2020-04-07 00:00:00.000000,0.69184733,1.70308667,4.30419056,207,510,1290,102,256,696,0.34081331,0.85646380,2.32330476,0.31563548,0.61471117,1.16234038
13177,0,USGeorgiaLee,Georgia,Lee,2020-07-18 18:05:01.894072,2020-04-08 00:00:00.000000,0.59472810,1.66649798,4.12191508,178,499,1236,91,254,670,0.30379129,0.84709558,2.23588678,0.29289241,0.57993872,0.99922649
13177,0,USGeorgiaLee,Georgia,Lee,2020-07-18 18:05:01.894072,2020-04-09 00:00:00.000000,0.62241333,1.61976062,3.91498164,186,485,1174,90,248,651,0.30107595,0.82895500,2.17143287,0.28370385,0.55411380,0.83937181
13177,0,USGeorgiaLee,Georgia,Lee,2020-07-18 18:05:01.894072,2020-04-10 00:00:00.000000,0.54155565,1.56844009,3.66436663,162,470,1099,81,241,628,0.27138227,0.80606349,2.09573175,0.27219148,0.55166340,0.74343287
13177,0,USGeorgiaLee,Georgia,Lee,2020-07-18 18:05:01.894072,2020-04-11 00:00:00.000000,0.54696289,1.51519636,3.37282874,164,454,1011,80,234,603,0.26739592,0.78084617,2.01144571,0.26170166,0.52829057,0.71319570
13177,0,USGeorgiaLee,Georgia,Lee,2020-07-18 18:05:01.894072,2020-04-12 00:00:00.000000,0.48636099,1.46075328,3.06709850,145,438,919,70,226,604,0.23647416,0.75451863,2.01670536,0.24839723,0.51511118,0.71073493
13177,0,USGeorgiaLee,Georgia,Lee,2020-07-18 18:05:01.894072,2020-04-13 00:00:00.000000,0.48248169,1.40465974,2.77046301,144,421,830,71,218,600,0.23759108,0.72742579,2.00313362,0.23738634,0.50271663,0.69439498
13177,0,USGeorgiaLee,Georgia,Lee,2020-07-18 18:05:01.894072,2020-04-14 00:00:00.000000,0.42595399,1.34600461,2.52801219,127,403,758,61,209,590,0.20556207,0.69935611,1.96979383,0.22658455,0.49359283,0.67780409
13177,0,USGeorgiaLee,Georgia,Lee,2020-07-18 18:05:01.894072,2020-04-15 00:00:00.000000,0.42789469,1.28325601,2.42624893,128,384,727,62,200,575,0.20823720,0.66989955,1.91974323,0.20978178,0.47761143,0.67507236
13177,0,USGeorgiaLee,Georgia,Lee,2020-07-18 18:05:01.894072,2020-04-16 00:00:00.000000,0.37028174,1.21478364,2.34791271,111,364,704,53,191,556,0.17909656,0.63828027,1.85612097,0.19652448,0.47243101,0.67515169
13177,0,USGeorgiaLee,Georgia,Lee,2020-07-18 18:05:01.894072,2020-04-17 00:00:00.000000,0.37813360,1.14072720,2.25667864,113,342,676,51,181,533,0.17303226,0.60370481,1.77869278,0.18907359,0.48422686,0.67606113
13177,0,USGeorgiaLee,Georgia,Lee,2020-07-18 18:05:01.894072,2020-04-18 00:00:00.000000,0.32327913,1.06369946,2.15555397,96,319,646,46,169,508,0.15630567,0.56644798,1.69484332,0.18383421,0.49526140,0.68039427
13177,0,USGeorgiaLee,Georgia,Lee,2020-07-18 18:05:01.894072,2020-04-19 00:00:00.000000,0.32320608,0.98715230,2.05212491,96,296,615,43,158,483,0.14666865,0.52801590,1.61140406,0.17981291,0.50573655,0.70696386
13177,0,USGeorgiaLee,Georgia,Lee,2020-07-18 18:05:01.894072,2020-04-20 00:00:00.000000,0.28548039,0.91366152,1.94887187,85,274,584,40,146,459,0.13392402,0.49008006,1.53104485,0.17698100,0.50790118,0.74569914
13177,0,USGeorgiaLee,Georgia,Lee,2020-07-18 18:05:01.894072,2020-04-21 00:00:00.000000,0.27796533,0.84449924,1.84767963,83,253,554,38,136,436,0.12985751,0.45373782,1.45441053,0.17534824,0.50417319,0.76100303
13177,0,USGeorgiaLee,Georgia,Lee,2020-07-18 18:05:01.894072,2020-04-22 00:00:00.000000,0.25070659,0.78003040,1.74991874,75,233,524,35,125,414,0.11740383,0.41950791,1.38155250,0.17535838,0.50051403,0.76659902
13177,0,USGeorgiaLee,Georgia,Lee,2020-07-18 18:05:01.894072,2020-04-23 00:00:00.000000,0.24444951,0.72018807,1.65675805,73,215,496,34,116,393,0.11607298,0.38785206,1.31251044,0.17762580,0.49815375,0.77002421
13177,0,USGeorgiaLee,Georgia,Lee,2020-07-18 18:05:01.894072,2020-04-24 00:00:00.000000,0.22464185,0.66476801,1.56885272,67,199,470,32,108,374,0.10878635,0.36111319,1.24751127,0.18124196,0.50051414,0.77198223
13177,0,USGeorgiaLee,Georgia,Lee,2020-07-18 18:05:01.894072,2020-04-25 00:00:00.000000,0.22479963,0.61384482,1.48637103,67,184,445,31,99,355,0.10548337,0.33189246,1.18628166,0.18494478,0.50771534,0.77265661
13177,0,USGeorgiaLee,Georgia,Lee,2020-07-18 18:05:01.894072,2020-04-26 00:00:00.000000,0.20462353,0.56955003,1.40775103,61,170,422,30,91,338,0.10017878,0.30507419,1.12818920,0.18817099,0.51235867,0.77151577
13177,0,USGeorgiaLee,Georgia,Lee,2020-07-18 18:05:01.894072,2020-04-27 00:00:00.000000,0.19815516,0.53193982,1.33368890,59,159,399,29,84,321,0.09683783,0.28333929,1.07284961,0.19097317,0.51305367,0.77562231
13177,0,USGeorgiaLee,Georgia,Lee,2020-07-18 18:05:01.894072,2020-04-28 00:00:00.000000,0.18219335,0.49764671,1.26769802,54,149,380,26,79,305,0.08973549,0.26488831,1.02002452,0.19296376,0.50333838,0.77485271
13177,0,USGeorgiaLee,Georgia,Lee,2020-07-18 18:05:01.894072,2020-04-29 00:00:00.000000,0.17247035,0.46454012,1.20468498,51,139,361,25,74,290,0.08665873,0.24767149,0.96951095,0.19029015,0.50005794,0.77343383
13177,0,USGeorgiaLee,Georgia,Lee,2020-07-18 18:05:01.894072,2020-04-30 00:00:00.000000,0.16036308,0.43063391,1.14451691,48,129,343,23,69,276,0.07944460,0.23094381,0.92118260,0.18433220,0.50026958,0.76805805
13177,0,USGeorgiaLee,Georgia,Lee,2020-07-18 18:05:01.894072,2020-05-01 00:00:00.000000,0.15137841,0.39416868,1.08655377,45,118,325,23,64,262,0.07674767,0.21381095,0.87524326,0.17619841,0.48198192,0.74934133
13177,0,USGeorgiaLee,Georgia,Lee,2020-07-18 18:05:01.894072,2020-05-02 00:00:00.000000,0.13819479,0.35478464,1.03121624,41,106,309,21,58,249,0.07026820,0.19532005,0.83210014,0.16816170,0.44242340,0.70205955
13177,0,USGeorgiaLee,Georgia,Lee,2020-07-18 18:05:01.894072,2020-05-03 00:00:00.000000,0.12864545,0.31459791,0.97819859,38,94,293,20,52,237,0.06682914,0.17544530,0.79155798,0.16232164,0.41451859,0.65375288
13177,0,USGeorgiaLee,Georgia,Lee,2020-07-18 18:05:01.894072,2020-05-04 00:00:00.000000,0.11546920,0.27641950,0.92761369,34,82,278,18,46,225,0.06246712,0.15545457,0.75244630,0.15885080,0.41162422,0.67194123
13177,0,USGeorgiaLee,Georgia,Lee,2020-07-18 18:05:01.894072,2020-05-05 00:00:00.000000,0.10726636,0.24676800,0.87978906,32,74,263,18,40,213,0.06154328,0.13669314,0.71325629,0.15717561,0.40951724,0.67038604
13177,0,USGeorgiaLee,Georgia,Lee,2020-07-18 18:05:01.894072,2020-05-06 00:00:00.000000,0.09427984,0.21709608,0.83505202,28,65,250,16,35,199,0.05406272,0.11989506,0.66650976,0.15656645,0.40965580,0.67013080
13177,0,USGeorgiaLee,Georgia,Lee,2020-07-18 18:05:01.894072,2020-05-07 00:00:00.000000,0.09049918,0.20742660,0.79178952,27,62,237,15,32,185,0.05217372,0.10681443,0.61997643,0.15667133,0.41964825,0.67066275
13177,0,USGeorgiaLee,Georgia,Lee,2020-07-18 18:05:01.894072,2020-05-08 00:00:00.000000,0.07900078,0.18054008,0.73765336,23,54,221,13,29,172,0.04373779,0.09732449,0.57543107,0.15786599,0.45125592,0.67047841
13177,0,USGeorgiaLee,Georgia,Lee,2020-07-18 18:05:01.894072,2020-05-09 00:00:00.000000,0.07659372,0.16941626,0.69036861,22,50,207,13,27,160,0.04359393,0.09059132,0.53474036,0.16131409,0.45568546,0.66979085
13177,0,USGeorgiaLee,Georgia,Lee,2020-07-18 18:05:01.894072,2020-05-10 00:00:00.000000,0.06700548,0.15268290,0.64846097,20,45,194,11,25,149,0.03671553,0.08555353,0.49775581,0.16745604,0.45476950,0.66978547
13177,0,USGeorgiaLee,Georgia,Lee,2020-07-18 18:05:01.894072,2020-05-11 00:00:00.000000,0.06511009,0.14162776,0.61074976,19,42,183,11,24,139,0.03746402,0.08048032,0.46433027,0.17677212,0.45358092,0.67009155
13177,0,USGeorgiaLee,Georgia,Lee,2020-07-18 18:05:01.894072,2020-05-12 00:00:00.000000,0.05679496,0.13069728,0.57661255,17,39,172,9,23,130,0.03093857,0.07719990,0.43430086,0.18951798,0.46264862,0.68871639
13177,0,USGeorgiaLee,Georgia,Lee,2020-07-18 18:05:01.894072,2020-05-13 00:00:00.000000,0.05600933,0.12672469,0.54539624,16,38,163,9,21,122,0.03154280,0.07161460,0.40742521,0.19930240,0.48899241,0.70936196
13177,0,USGeorgiaLee,Georgia,Lee,2020-07-18 18:05:01.894072,2020-05-14 00:00:00.000000,0.04812399,0.11838842,0.51669061,14,35,154,8,19,115,0.02716042,0.06533219,0.38344147,0.19726705,0.50743209,0.74112025
13177,0,USGeorgiaLee,Georgia,Lee,2020-07-18 18:05:01.894072,2020-05-15 00:00:00.000000,0.04765349,0.11951377,0.48966832,14,35,146,8,19,108,0.02834194,0.06454429,0.36185104,0.18877721,0.51551946,0.75846488
13177,0,USGeorgiaLee,Georgia,Lee,2020-07-18 18:05:01.894072,2020-05-16 00:00:00.000000,0.04094905,0.10861015,0.46413628,12,32,139,6,18,102,0.02306616,0.06268145,0.34201178,0.18683953,0.51738647,0.76673953
13177,0,USGeorgiaLee,Georgia,Lee,2020-07-18 18:05:01.894072,2020-05-17 00:00:00.000000,0.04234017,0.10952127,0.44037963,12,32,132,7,17,97,0.02475678,0.05956471,0.32355760,0.18735703,0.52027634,0.77121083
13177,0,USGeorgiaLee,Georgia,Lee,2020-07-18 18:05:01.894072,2020-05-18 00:00:00.000000,0.03578994,0.10348432,0.41862225,10,31,125,6,16,91,0.02031630,0.05630667,0.30632805,0.18910377,0.52978549,0.77710891
13177,0,USGeorgiaLee,Georgia,Lee,2020-07-18 18:05:01.894072,2020-05-19 00:00:00.000000,0.03674175,0.10300178,0.39952065,11,30,119,6,15,87,0.02176036,0.05295261,0.29024866,0.19146363,0.53054878,0.77819818
13177,0,USGeorgiaLee,Georgia,Lee,2020-07-18 18:05:01.894072,2020-05-20 00:00:00.000000,0.03230193,0.09277753,0.38157955,9,27,114,5,14,82,0.01776833,0.04944989,0.27526727,0.19387342,0.54347945,0.77892614
13177,0,USGeorgiaLee,Georgia,Lee,2020-07-18 18:05:01.894072,2020-05-21 00:00:00.000000,0.03282033,0.09142214,0.37103232,9,27,111,5,14,78,0.01950551,0.04748118,0.26131533,0.19637931,0.54426555,0.77804213
13177,0,USGeorgiaLee,Georgia,Lee,2020-07-18 18:05:01.894072,2020-05-22 00:00:00.000000,0.02953794,0.08669008,0.35066990,8,26,105,4,13,74,0.01582244,0.04357004,0.24830308,0.20004505,0.54426680,0.78021189
13177,0,USGeorgiaLee,Georgia,Lee,2020-07-18 18:05:01.894072,2020-05-23 00:00:00.000000,0.03022361,0.08706496,0.35623777,9,26,106,5,13,70,0.01793264,0.04343843,0.23614850,0.20596580,0.56560353,0.78298183
13177,0,USGeorgiaLee,Georgia,Lee,2020-07-18 18:05:01.894072,2020-05-24 00:00:00.000000,0.02707857,0.08782534,0.32580003,8,26,97,4,13,67,0.01420967,0.04355899,0.22589957,0.21406309,0.57876781,0.79789229
13177,0,USGeorgiaLee,Georgia,Lee,2020-07-18 18:05:01.894072,2020-05-25 00:00:00.000000,0.02886148,0.08890294,0.34598002,8,26,103,4,13,65,0.01594130,0.04394508,0.21795585,0.22582220,0.59091446,0.81129666
13177,0,USGeorgiaLee,Georgia,Lee,2020-07-18 18:05:01.894072,2020-05-26 00:00:00.000000,0.02631243,0.09022984,0.30540239,7,27,91,3,13,63,0.01293356,0.04448886,0.21089140,0.23031931,0.59507433,0.83231672
13177,0,USGeorgiaLee,Georgia,Lee,2020-07-18 18:05:01.894072,2020-05-27 00:00:00.000000,0.02896661,0.09173965,0.33481758,8,27,100,4,13,61,0.01434260,0.04515501,0.20460933,0.23095448,0.60700045,0.83115806
13177,0,USGeorgiaLee,Georgia,Lee,2020-07-18 18:05:01.894072,2020-05-28 00:00:00.000000,0.02687023,0.09338182,0.28831873,8,28,86,3,13,59,0.01229756,0.04591004,0.19887325,0.23180576,0.61056822,0.82923330
13177,0,USGeorgiaLee,Georgia,Lee,2020-07-18 18:05:01.894072,2020-05-29 00:00:00.000000,0.02896272,0.09513381,0.31385974,8,28,94,4,14,58,0.01364312,0.04673035,0.19344201,0.23404531,0.61916442,0.87188816
13177,0,USGeorgiaLee,Georgia,Lee,2020-07-18 18:05:01.894072,2020-05-30 00:00:00.000000,0.02713145,0.09389463,0.27342498,8,28,82,3,14,56,0.01251975,0.04757365,0.18816740,0.23978945,0.65371167,0.90152869
13177,0,USGeorgiaLee,Georgia,Lee,2020-07-18 18:05:01.894072,2020-05-31 00:00:00.000000,0.02794703,0.09470798,0.29568830,8,28,88,3,14,54,0.01313735,0.04796499,0.18297323,0.25037698,0.73438141,0.91823767
13177,0,USGeorgiaLee,Georgia,Lee,2020-07-18 18:05:01.894072,2020-06-01 00:00:00.000000,0.02701099,0.09520675,0.26054178,8,28,78,3,14,53,0.01268110,0.04776569,0.17784241,0.26540135,0.78111663,0.92475039
13177,0,USGeorgiaLee,Georgia,Lee,2020-07-18 18:05:01.894072,2020-06-02 00:00:00.000000,0.02782788,0.09608630,0.28262523,8,28,84,3,14,51,0.01326023,0.04772465,0.17283955,0.28056026,0.79883555,0.93083925
13177,0,USGeorgiaLee,Georgia,Lee,2020-07-18 18:05:01.894072,2020-06-03 00:00:00.000000,0.02743970,0.09825527,0.24831875,8,29,74,3,14,50,0.01321914,0.04731759,0.16812463,0.30134741,0.80656673,0.94453539
13177,0,USGeorgiaLee,Georgia,Lee,2020-07-18 18:05:01.894072,2020-06-04 00:00:00.000000,0.02893478,0.10230982,0.27147921,8,30,81,4,14,49,0.01367087,0.04915820,0.16383874,0.31982239,0.81911309,0.97286124
13177,0,USGeorgiaLee,Georgia,Lee,2020-07-18 18:05:01.894072,2020-06-05 00:00:00.000000,0.02965910,0.10655074,0.24188305,8,31,72,4,15,47,0.01392085,0.05118197,0.15993424,0.32520149,0.82801085,1.00476041
13177,0,USGeorgiaLee,Georgia,Lee,2020-07-18 18:05:01.894072,2020-06-06 00:00:00.000000,0.03150518,0.11086805,0.26203916,9,33,78,4,15,46,0.01463288,0.05328159,0.15629261,0.32913417,0.83680732,1.02752324
13177,0,USGeorgiaLee,Georgia,Lee,2020-07-18 18:05:01.894072,2020-06-07 00:00:00.000000,0.03200322,0.11525710,0.23863563,9,34,71,4,16,46,0.01484752,0.05519938,0.15369631,0.33282289,0.84537893,1.03919855
13177,0,USGeorgiaLee,Georgia,Lee,2020-07-18 18:05:01.894072,2020-06-08 00:00:00.000000,0.03590187,0.11974795,0.25426815,10,35,76,4,16,45,0.01622951,0.05653211,0.15306410,0.33628102,0.85998552,1.04291779
13177,0,USGeorgiaLee,Georgia,Lee,2020-07-18 18:05:01.894072,2020-06-09 00:00:00.000000,0.03362514,0.12372028,0.23684767,10,37,71,4,17,45,0.01572231,0.05747808,0.15269592,0.34189627,0.87258387,1.08353342
13177,0,USGeorgiaLee,Georgia,Lee,2020-07-18 18:05:01.894072,2020-06-10 00:00:00.000000,0.03818361,0.12910953,0.25681728,11,38,77,5,17,45,0.01681170,0.05840326,0.15254245,0.35027514,0.87584637,1.09009836
13177,0,USGeorgiaLee,Georgia,Lee,2020-07-18 18:05:01.894072,2020-06-11 00:00:00.000000,0.03559623,0.13198266,0.23646994,10,39,70,4,17,45,0.01639000,0.05951676,0.15257647,0.36101926,0.87422068,1.09183034
13177,0,USGeorgiaLee,Georgia,Lee,2020-07-18 18:05:01.894072,2020-06-12 00:00:00.000000,0.04119119,0.13746092,0.26421838,12,41,79,5,18,45,0.01761965,0.06086140,0.15277598,0.37270110,0.86733024,1.13122266
13177,0,USGeorgiaLee,Georgia,Lee,2020-07-18 18:05:01.894072,2020-06-13 00:00:00.000000,0.03754205,0.14077574,0.24971236,11,42,74,5,18,45,0.01691691,0.06293007,0.15242483,0.38386453,0.86209372,1.13610951
13177,0,USGeorgiaLee,Georgia,Lee,2020-07-18 18:05:01.894072,2020-06-14 00:00:00.000000,0.04415513,0.14735535,0.27489058,13,44,82,5,19,46,0.01970290,0.06493650,0.15519649,0.39364320,0.83950531,1.12532670
13177,0,USGeorgiaLee,Georgia,Lee,2020-07-18 18:05:01.894072,2020-06-15 00:00:00.000000,0.04013533,0.15060824,0.26449204,12,45,79,5,20,47,0.01820182,0.06723321,0.15958367,0.40163604,0.83541743,1.13905299
13177,0,USGeorgiaLee,Georgia,Lee,2020-07-18 18:05:01.894072,2020-06-16 00:00:00.000000,0.04806617,0.15532399,0.28758464,14,46,86,6,20,49,0.02208320,0.06972706,0.16420382,0.40785146,0.85509920,1.14871292
13177,0,USGeorgiaLee,Georgia,Lee,2020-07-18 18:05:01.894072,2020-06-17 00:00:00.000000,0.04467661,0.15885699,0.28053346,13,47,84,6,21,50,0.02187818,0.07286050,0.16901102,0.41286206,0.85473357,1.18187287
13177,0,USGeorgiaLee,Georgia,Lee,2020-07-18 18:05:01.894072,2020-06-18 00:00:00.000000,0.05088656,0.16245366,0.30337154,15,48,90,7,22,52,0.02472009,0.07660759,0.17397457,0.41815720,0.85384460,1.21446380
13177,0,USGeorgiaLee,Georgia,Lee,2020-07-18 18:05:01.894072,2020-06-19 00:00:00.000000,0.04944139,0.16620168,0.30025529,14,49,90,7,24,53,0.02574118,0.08092632,0.17918482,0.42607567,0.85066756,1.21373022
13177,0,USGeorgiaLee,Georgia,Lee,2020-07-18 18:05:01.894072,2020-06-20 00:00:00.000000,0.06175784,0.17012540,0.33284569,18,51,99,8,24,55,0.02746724,0.08296390,0.18520547,0.43597057,0.84842070,1.21070372
13177,0,USGeorgiaLee,Georgia,Lee,2020-07-18 18:05:01.894072,2020-06-21 00:00:00.000000,0.05239014,0.17616414,0.31949023,15,52,95,8,25,57,0.02751531,0.08493033,0.19324902,0.44333633,0.84771138,1.22165244
13177,0,USGeorgiaLee,Georgia,Lee,2020-07-18 18:05:01.894072,2020-06-22 00:00:00.000000,0.06896554,0.18383102,0.37448501,20,55,112,9,26,63,0.03178063,0.08697682,0.21120542,0.43316694,0.84882198,1.28002199
13177,0,USGeorgiaLee,Georgia,Lee,2020-07-18 18:05:01.894072,2020-06-23 00:00:00.000000,0.05937540,0.18482674,0.36114753,17,55,108,9,26,69,0.03071494,0.08911210,0.23151386,0.43174498,0.85259269,1.30811973
13177,0,USGeorgiaLee,Georgia,Lee,2020-07-18 18:05:01.894072,2020-06-24 00:00:00.000000,0.07820890,0.19568924,0.41426748,23,58,124,11,27,76,0.03699739,0.09137551,0.25401047,0.43781726,0.86113628,1.31822820
13177,0,USGeorgiaLee,Georgia,Lee,2020-07-18 18:05:01.894072,2020-06-25 00:00:00.000000,0.07257514,0.19863095,0.41247584,21,59,123,10,28,83,0.03512439,0.09386209,0.27848356,0.46590461,0.87772005,1.32085226
13177,0,USGeorgiaLee,Georgia,Lee,2020-07-18 18:05:01.894072,2020-06-26 00:00:00.000000,0.09004987,0.21100091,0.49062054,27,63,147,12,29,89,0.04200507,0.09675307,0.29768144,0.51976666,0.90409898,1.28461324
13177,0,USGeorgiaLee,Georgia,Lee,2020-07-18 18:05:01.894072,2020-06-27 00:00:00.000000,0.08890342,0.21315838,0.51523668,26,63,154,12,30,95,0.04272850,0.10030208,0.31694346,0.54170894,0.88756988,1.31154885
13177,0,USGeorgiaLee,Georgia,Lee,2020-07-18 18:05:01.894072,2020-06-28 00:00:00.000000,0.10464294,0.23293770,0.58140301,31,69,174,14,31,101,0.04815391,0.10470362,0.33802924,0.54827745,0.88985564,1.30510181
13177,0,USGeorgiaLee,Georgia,Lee,2020-07-18 18:05:01.894072,2020-06-29 00:00:00.000000,0.10858875,0.23612993,0.62451028,32,70,187,15,33,108,0.05169276,0.11106268,0.36114395,0.55284150,0.89993282,1.31217450
13177,0,USGeorgiaLee,Georgia,Lee,2020-07-18 18:05:01.894072,2020-06-30 00:00:00.000000,0.11978687,0.26088694,0.68142384,35,78,204,17,35,116,0.05861736,0.11824751,0.38871329,0.55354202,0.90138701,1.31759141
13177,0,USGeorgiaLee,Georgia,Lee,2020-07-18 18:05:01.894072,2020-07-01 00:00:00.000000,0.12422419,0.26623093,0.73308021,37,79,219,17,37,125,0.05807228,0.12496068,0.41852328,0.55333685,0.90603998,1.32151049
13177,0,USGeorgiaLee,Georgia,Lee,2020-07-18 18:05:01.894072,2020-07-02 00:00:00.000000,0.13870167,0.29396663,0.78898814,41,88,236,19,39,133,0.06570518,0.13274451,0.44531313,0.54614214,0.91781140,1.32182270
13177,0,USGeorgiaLee,Georgia,Lee,2020-07-18 18:05:01.894072,2020-07-03 00:00:00.000000,0.13534008,0.29945492,0.82822701,40,89,248,18,42,141,0.06261060,0.14183847,0.47077226,0.54533510,0.96117010,1.30099895
13177,0,USGeorgiaLee,Georgia,Lee,2020-07-18 18:05:01.894072,2020-07-04 00:00:00.000000,0.15933156,0.33103856,0.90181910,47,99,270,22,46,148,0.07397996,0.15441064,0.49594913,0.54900297,1.00631033,1.29668273
13177,0,USGeorgiaLee,Georgia,Lee,2020-07-18 18:05:01.894072,2020-07-05 00:00:00.000000,0.14575480,0.33551701,0.90214191,43,100,270,20,49,156,0.06880090,0.16584839,0.52155990,0.55580671,1.02010167,1.28287100
13177,0,USGeorgiaLee,Georgia,Lee,2020-07-18 18:05:01.894072,2020-07-06 00:00:00.000000,0.17487798,0.37092013,1.00321129,52,111,300,25,52,164,0.08350194,0.17657714,0.54799796,0.55736058,1.02295781,1.27571581
13177,0,USGeorgiaLee,Georgia,Lee,2020-07-18 18:05:01.894072,2020-07-07 00:00:00.000000,0.15947210,0.39036803,0.97467355,47,117,292,23,55,171,0.07861444,0.18368938,0.57307265,0.54611975,1.02349653,1.27347545
13177,0,USGeorgiaLee,Georgia,Lee,2020-07-18 18:05:01.894072,2020-07-08 00:00:00.000000,0.19119871,0.42624232,1.09585501,57,127,328,27,59,178,0.09123882,0.20004948,0.59503894,0.54098514,1.02359636,1.27305187
13177,0,USGeorgiaLee,Georgia,Lee,2020-07-18 18:05:01.894072,2020-07-09 00:00:00.000000,0.17953986,0.45832982,1.04790621,53,137,314,26,66,186,0.08679507,0.22008566,0.62122858,0.54053957,1.02361482,1.27300883
13177,0,USGeorgiaLee,Georgia,Lee,2020-07-18 18:05:01.894072,2020-07-10 00:00:00.000000,0.20941408,0.50033512,1.20408537,62,150,361,29,71,195,0.09883093,0.23791122,0.65085578,0.54051445,1.02361823,1.27302613
13177,0,USGeorgiaLee,Georgia,Lee,2020-07-18 18:05:01.894072,2020-07-11 00:00:00.000000,0.20286294,0.53964541,1.12331032,60,161,336,27,75,204,0.09124676,0.25187587,0.68182638,0.54051518,1.02361887,1.27304363
13177,0,USGeorgiaLee,Georgia,Lee,2020-07-18 18:05:01.894072,2020-07-12 00:00:00.000000,0.22823530,0.59461781,1.32033647,68,178,395,31,81,214,0.10519881,0.27079118,0.71419034,0.54051659,1.02361898,1.27305444
13177,0,USGeorgiaLee,Georgia,Lee,2020-07-18 18:05:01.894072,2020-07-13 00:00:00.000000,0.21322236,0.63849138,1.23439357,63,191,370,29,87,224,0.09753683,0.29280761,0.74798666,0.54051749,1.02361901,1.27306034
13177,0,USGeorgiaLee,Georgia,Lee,2020-07-18 18:05:01.894072,2020-07-14 00:00:00.000000,0.23552993,0.69414817,1.45402744,70,208,436,34,95,234,0.11509233,0.31711095,0.78326154,0.54051802,1.02361901,1.27306343
13177,0,USGeorgiaLee,Georgia,Lee,2020-07-18 18:05:01.894072,2020-07-15 00:00:00.000000,0.22843971,0.74028625,1.42754963,68,222,428,31,102,245,0.10502380,0.34329292,0.82005910,0.54051833,1.02361901,1.27306501
13177,0,USGeorgiaLee,Georgia,Lee,2020-07-18 18:05:01.894072,2020-07-16 00:00:00.000000,0.24665289,0.80998446,1.63050671,73,242,489,37,111,256,0.12340541,0.37147265,0.85467202,0.54051852,1.02361901,1.27306583
13177,0,USGeorgiaLee,Georgia,Lee,2020-07-18 18:05:01.894072,2020-07-17 00:00:00.000000,0.23393869,0.86562526,1.72776252,70,259,518,34,120,266,0.11363586,0.40177297,0.89022095,0.54051863,1.02361901,1.27306624
13177,0,USGeorgiaLee,Georgia,Lee,2020-07-18 18:05:01.894072,2020-07-18 00:00:00.000000,0.24967727,0.93527922,1.89806884,74,280,569,38,130,279,0.12843268,0.43431932,0.93025113,0.54051869,1.02361901,1.27306646
13177,0,USGeorgiaLee,Georgia,Lee,2020-07-18 18:05:01.894072,2020-07-19 00:00:00.000000,0.23884118,1.00992974,1.99751187,71,302,599,35,140,300,0.11695097,0.46923859,1.00048748,0.54051873,1.02361901,1.27306656
13177,0,USGeorgiaLee,Georgia,Lee,2020-07-18 18:05:01.894072,2020-07-20 00:00:00.000000,0.25252196,1.08982957,2.16817665,75,326,650,38,151,322,0.12992394,0.50665775,1.07571526,0.54051875,1.02361901,1.27306662
13177,0,USGeorgiaLee,Georgia,Lee,2020-07-18 18:05:01.894072,2020-07-21 00:00:00.000000,0.24529791,1.17522522,2.32345197,73,352,696,35,163,346,0.11999516,0.54670235,1.15621905,0.54051876,1.02361901,1.27306665
13177,0,USGeorgiaLee,Georgia,Lee,2020-07-18 18:05:01.894072,2020-07-22 00:00:00.000000,0.25517947,1.26635271,2.49393122,76,379,747,39,176,371,0.13131964,0.58949462,1.23885537,0.54051877,1.02361901,1.27306666
13177,0,USGeorgiaLee,Georgia,Lee,2020-07-18 18:05:01.894072,2020-07-23 00:00:00.000000,0.25182624,1.36343263,2.69460378,75,408,808,36,190,397,0.12306709,0.63515135,1.32537655,0.54051877,1.02361901,1.27306667
13177,0,USGeorgiaLee,Georgia,Lee,2020-07-18 18:05:01.894072,2020-07-24 00:00:00.000000,0.25764161,1.46666438,2.90714500,77,439,871,39,205,438,0.13261561,0.68378136,1.46070955,0.54051878,1.02361901,1.27306667
13177,0,USGeorgiaLee,Georgia,Lee,2020-07-18 18:05:01.894072,2020-07-25 00:00:00.000000,0.25841992,1.57621970,3.13147509,77,472,939,37,220,470,0.12616385,0.73548263,1.56745531,0.54051878,1.02361901,1.27306668
13177,0,USGeorgiaLee,Georgia,Lee,2020-07-18 18:05:01.894072,2020-07-26 00:00:00.000000,0.26238806,1.69223538,3.36734775,78,507,1009,40,237,497,0.13380761,0.79033903,1.65837790,0.54051878,1.02361901,1.27306668
13177,0,USGeorgiaLee,Georgia,Lee,2020-07-18 18:05:01.894072,2020-07-27 00:00:00.000000,0.26095081,1.81480520,3.61432418,78,544,1084,38,254,528,0.12928206,0.84841661,1.76267857,0.54051878,1.02361901,1.27306668
13177,0,USGeorgiaLee,Georgia,Lee,2020-07-18 18:05:01.894072,2020-07-28 00:00:00.000000,0.27070032,1.94397105,3.87174708,81,583,1161,40,272,561,0.13489160,0.90975961,1.87134850,0.54051878,1.02361901,1.27306668
13177,0,USGeorgiaLee,Georgia,Lee,2020-07-18 18:05:01.894072,2020-07-29 00:00:00.000000,0.26288987,2.07971346,4.13871554,78,623,1241,39,292,599,0.13241795,0.97438599,1.99934339,0.54051878,1.02361901,1.27306668
13177,0,USGeorgiaLee,Georgia,Lee,2020-07-18 18:05:01.894072,2020-07-30 00:00:00.000000,0.27915135,2.22194149,4.41406210,83,666,1323,40,312,641,0.13586381,1.04228267,2.13745706,0.54051878,1.02361901,1.27306668
