FIPS,HR_UID,nameid,province,region,analysisTime,dates,pointprevalence_025,pointprevalence_50,pointprevalence_975,pointinfections_025,pointinfections_50,pointinfections_975,pointinfectious_025,pointinfectious_50,pointinfectious_975,pointinfectiousprevalence_05,pointinfectiousprevalence_50,pointinfectiousprevalence_95,infectrate_025,infectrate_50,infectrate_975
51161,0,USVirginiaRoanoke,Virginia,Roanoke,2020-07-17 19:02:13.282460,2020-03-09 00:00:00.000000,0.00182555,0.02330792,0.15046620,1,21,141,0,4,35,0.00000000,0.00457887,0.03785710,0.49203571,0.72158857,1.02860555
51161,0,USVirginiaRoanoke,Virginia,Roanoke,2020-07-17 19:02:13.282460,2020-03-10 00:00:00.000000,0.00202896,0.02863899,0.14469477,1,26,136,0,5,24,0.00067305,0.00582282,0.02551046,0.49185033,0.72158908,1.02860524
51161,0,USVirginiaRoanoke,Virginia,Roanoke,2020-07-17 19:02:13.282460,2020-03-11 00:00:00.000000,0.00225931,0.02517517,0.14284942,2,23,134,0,4,24,0.00049281,0.00521620,0.02555787,0.49178265,0.72159043,1.02860468
51161,0,USVirginiaRoanoke,Virginia,Roanoke,2020-07-17 19:02:13.282460,2020-03-12 00:00:00.000000,0.00251920,0.03203805,0.14542435,2,30,136,0,5,23,0.00084078,0.00596706,0.02444219,0.49175315,0.72159383,1.02860365
51161,0,USVirginiaRoanoke,Virginia,Roanoke,2020-07-17 19:02:13.282460,2020-03-13 00:00:00.000000,0.00281171,0.02749452,0.14562426,2,25,137,0,5,24,0.00075904,0.00593623,0.02571619,0.49171202,0.72059169,1.02860175
51161,0,USVirginiaRoanoke,Virginia,Roanoke,2020-07-17 19:02:13.282460,2020-03-14 00:00:00.000000,0.00314043,0.03389654,0.14886849,2,31,140,0,6,22,0.00105845,0.00665173,0.02429701,0.49165499,0.71983591,1.02859819
51161,0,USVirginiaRoanoke,Virginia,Roanoke,2020-07-17 19:02:13.282460,2020-03-15 00:00:00.000000,0.00351020,0.03142985,0.15243244,3,29,143,0,6,23,0.00105719,0.00652954,0.02545340,0.49157645,0.71978741,1.02859130
51161,0,USVirginiaRoanoke,Virginia,Roanoke,2020-07-17 19:02:13.282460,2020-03-16 00:00:00.000000,0.00393296,0.03528326,0.15623391,3,33,147,1,7,25,0.00133315,0.00745955,0.02715301,0.49146930,0.71958751,1.02857722
51161,0,USVirginiaRoanoke,Virginia,Roanoke,2020-07-17 19:02:13.282460,2020-03-17 00:00:00.000000,0.00441556,0.03569529,0.16049139,4,33,151,1,6,27,0.00118296,0.00738180,0.02893836,0.49132491,0.71697358,1.02854564
51161,0,USVirginiaRoanoke,Virginia,Roanoke,2020-07-17 19:02:13.282460,2020-03-18 00:00:00.000000,0.00495687,0.03968266,0.16949294,4,37,159,1,7,28,0.00168029,0.00828613,0.03075799,0.49113315,0.71176261,1.02846459
51161,0,USVirginiaRoanoke,Virginia,Roanoke,2020-07-17 19:02:13.282460,2020-03-19 00:00:00.000000,0.00556088,0.04040220,0.17518282,5,38,164,1,7,30,0.00126988,0.00825539,0.03258065,0.49095644,0.70237954,1.02822279
51161,0,USVirginiaRoanoke,Virginia,Roanoke,2020-07-17 19:02:13.282460,2020-03-20 00:00:00.000000,0.00622688,0.04309212,0.17891677,5,40,168,1,8,32,0.00211745,0.00933082,0.03405563,0.48490254,0.69028337,1.03061944
51161,0,USVirginiaRoanoke,Virginia,Roanoke,2020-07-17 19:02:13.282460,2020-03-21 00:00:00.000000,0.00695167,0.04300420,0.18631726,6,40,175,1,8,33,0.00141674,0.00951336,0.03546167,0.47041782,0.67488083,1.04594587
51161,0,USVirginiaRoanoke,Virginia,Roanoke,2020-07-17 19:02:13.282460,2020-03-22 00:00:00.000000,0.00774257,0.04662164,0.19495195,7,43,183,2,9,35,0.00265693,0.01037799,0.03776957,0.46494541,0.66329813,1.03381223
51161,0,USVirginiaRoanoke,Virginia,Roanoke,2020-07-17 19:02:13.282460,2020-03-23 00:00:00.000000,0.00861572,0.04682913,0.20382105,8,44,191,1,9,37,0.00150140,0.01052252,0.04027905,0.45553406,0.65344316,1.01324311
51161,0,USVirginiaRoanoke,Virginia,Roanoke,2020-07-17 19:02:13.282460,2020-03-24 00:00:00.000000,0.00958539,0.04966599,0.21330128,9,46,200,3,10,40,0.00329843,0.01162880,0.04302293,0.45073049,0.64218461,1.00438257
51161,0,USVirginiaRoanoke,Virginia,Roanoke,2020-07-17 19:02:13.282460,2020-03-25 00:00:00.000000,0.01066194,0.05088366,0.22358132,10,47,210,1,11,42,0.00162052,0.01180540,0.04540939,0.44933933,0.63169239,1.01562195
51161,0,USVirginiaRoanoke,Virginia,Roanoke,2020-07-17 19:02:13.282460,2020-03-26 00:00:00.000000,0.01184852,0.05449471,0.23441716,11,51,220,3,12,45,0.00408899,0.01298028,0.04779220,0.44342328,0.61635987,0.99376324
51161,0,USVirginiaRoanoke,Virginia,Roanoke,2020-07-17 19:02:13.282460,2020-03-27 00:00:00.000000,0.01312812,0.05609026,0.24191279,12,52,227,1,12,47,0.00181196,0.01321047,0.05027729,0.43990644,0.60908982,0.98387099
51161,0,USVirginiaRoanoke,Virginia,Roanoke,2020-07-17 19:02:13.282460,2020-03-28 00:00:00.000000,0.01445889,0.05924716,0.24985305,13,55,235,4,13,49,0.00504937,0.01464023,0.05286922,0.43027222,0.60561861,1.00804461
51161,0,USVirginiaRoanoke,Virginia,Roanoke,2020-07-17 19:02:13.282460,2020-03-29 00:00:00.000000,0.01583264,0.06185069,0.25830402,14,58,243,1,14,52,0.00208058,0.01497521,0.05580313,0.41271864,0.60191114,1.03159819
51161,0,USVirginiaRoanoke,Virginia,Roanoke,2020-07-17 19:02:13.282460,2020-03-30 00:00:00.000000,0.01729326,0.06520085,0.26722551,16,61,251,5,15,55,0.00615100,0.01614952,0.05907390,0.40104483,0.60929630,1.03223177
51161,0,USVirginiaRoanoke,Virginia,Roanoke,2020-07-17 19:02:13.282460,2020-03-31 00:00:00.000000,0.01882854,0.06756352,0.27657029,17,63,260,2,15,58,0.00235538,0.01687932,0.06232503,0.39250905,0.61145245,1.03082184
51161,0,USVirginiaRoanoke,Virginia,Roanoke,2020-07-17 19:02:13.282460,2020-04-01 00:00:00.000000,0.02061967,0.07218170,0.28630578,19,67,269,6,16,61,0.00702417,0.01768992,0.06561124,0.38960140,0.59621024,1.04750937
51161,0,USVirginiaRoanoke,Virginia,Roanoke,2020-07-17 19:02:13.282460,2020-04-02 00:00:00.000000,0.02152991,0.07418189,0.29641594,20,69,279,2,17,64,0.00262505,0.01846769,0.06897762,0.38852870,0.59219104,1.06393915
51161,0,USVirginiaRoanoke,Virginia,Roanoke,2020-07-17 19:02:13.282460,2020-04-03 00:00:00.000000,0.02462908,0.08030070,0.30688410,23,75,289,7,18,68,0.00832698,0.01915081,0.07245807,0.37631957,0.57989165,1.08556598
51161,0,USVirginiaRoanoke,Virginia,Roanoke,2020-07-17 19:02:13.282460,2020-04-04 00:00:00.000000,0.02570251,0.08118218,0.31768682,24,76,299,2,19,71,0.00284447,0.02020492,0.07599468,0.35458035,0.57517478,1.13254213
51161,0,USVirginiaRoanoke,Virginia,Roanoke,2020-07-17 19:02:13.282460,2020-04-05 00:00:00.000000,0.02925233,0.08906826,0.32948833,27,83,310,8,20,74,0.00938796,0.02136669,0.07915702,0.35263253,0.57356421,1.08840571
51161,0,USVirginiaRoanoke,Virginia,Roanoke,2020-07-17 19:02:13.282460,2020-04-06 00:00:00.000000,0.02922003,0.09050082,0.34502637,27,85,324,2,21,77,0.00317585,0.02287906,0.08210382,0.34226479,0.56285830,1.08367571
51161,0,USVirginiaRoanoke,Virginia,Roanoke,2020-07-17 19:02:13.282460,2020-04-07 00:00:00.000000,0.03154951,0.09634107,0.35920337,29,90,338,9,21,80,0.01022710,0.02328887,0.08517585,0.33734373,0.54590462,1.08535483
51161,0,USVirginiaRoanoke,Virginia,Roanoke,2020-07-17 19:02:13.282460,2020-04-08 00:00:00.000000,0.03139242,0.09575027,0.37172179,29,90,350,3,23,83,0.00343572,0.02479167,0.08835322,0.32839230,0.53763561,1.09355541
51161,0,USVirginiaRoanoke,Virginia,Roanoke,2020-07-17 19:02:13.282460,2020-04-09 00:00:00.000000,0.03366863,0.10238992,0.38328989,31,96,361,10,24,86,0.01101739,0.02582578,0.09160796,0.31736335,0.53131753,1.10349303
51161,0,USVirginiaRoanoke,Virginia,Roanoke,2020-07-17 19:02:13.282460,2020-04-10 00:00:00.000000,0.03324932,0.10629873,0.39269503,31,100,369,3,25,89,0.00365889,0.02731445,0.09490617,0.31073342,0.52187078,1.10209238
51161,0,USVirginiaRoanoke,Virginia,Roanoke,2020-07-17 19:02:13.282460,2020-04-11 00:00:00.000000,0.03749752,0.11623987,0.40482047,35,109,381,10,26,92,0.01149517,0.02852917,0.09816836,0.30222719,0.50443634,1.09636930
51161,0,USVirginiaRoanoke,Virginia,Roanoke,2020-07-17 19:02:13.282460,2020-04-12 00:00:00.000000,0.03529785,0.11717528,0.41647657,33,110,392,3,27,95,0.00404442,0.02968328,0.10153899,0.29638007,0.49850525,1.07732530
51161,0,USVirginiaRoanoke,Virginia,Roanoke,2020-07-17 19:02:13.282460,2020-04-13 00:00:00.000000,0.04202022,0.12778276,0.42865084,39,120,403,11,28,99,0.01190841,0.03027059,0.10572512,0.28641957,0.49133787,1.07351400
51161,0,USVirginiaRoanoke,Virginia,Roanoke,2020-07-17 19:02:13.282460,2020-04-14 00:00:00.000000,0.03680324,0.12947858,0.44135197,34,121,415,4,29,102,0.00446176,0.03168006,0.10873134,0.28366802,0.48106240,1.06623235
51161,0,USVirginiaRoanoke,Virginia,Roanoke,2020-07-17 19:02:13.282460,2020-04-15 00:00:00.000000,0.04676323,0.13777978,0.45463321,44,129,428,11,29,104,0.01273805,0.03168117,0.11146331,0.28193659,0.47473404,1.06112362
51161,0,USVirginiaRoanoke,Virginia,Roanoke,2020-07-17 19:02:13.282460,2020-04-16 00:00:00.000000,0.03893010,0.14026423,0.46851558,36,132,441,4,31,107,0.00475543,0.03327084,0.11409345,0.27306960,0.44988728,1.05146428
51161,0,USVirginiaRoanoke,Virginia,Roanoke,2020-07-17 19:02:13.282460,2020-04-17 00:00:00.000000,0.04687731,0.14841099,0.48252031,44,139,454,12,32,109,0.01332450,0.03436942,0.11669741,0.27781855,0.43865754,1.04387746
51161,0,USVirginiaRoanoke,Virginia,Roanoke,2020-07-17 19:02:13.282460,2020-04-18 00:00:00.000000,0.03980059,0.15293000,0.49645412,37,144,467,4,33,112,0.00478005,0.03514703,0.11989743,0.26491933,0.43369193,1.03314439
51161,0,USVirginiaRoanoke,Virginia,Roanoke,2020-07-17 19:02:13.282460,2020-04-19 00:00:00.000000,0.04637318,0.15970412,0.51071623,43,150,481,13,34,116,0.01396488,0.03711891,0.12346628,0.24949966,0.42896259,1.01140806
51161,0,USVirginiaRoanoke,Virginia,Roanoke,2020-07-17 19:02:13.282460,2020-04-20 00:00:00.000000,0.04110152,0.15946087,0.52536980,38,150,494,4,35,119,0.00517551,0.03716921,0.12689684,0.24896459,0.41598035,0.96273663
51161,0,USVirginiaRoanoke,Virginia,Roanoke,2020-07-17 19:02:13.282460,2020-04-21 00:00:00.000000,0.04704706,0.16843065,0.54040218,44,158,508,13,36,122,0.01465428,0.03906916,0.13044758,0.24906060,0.40939331,0.93227826
51161,0,USVirginiaRoanoke,Virginia,Roanoke,2020-07-17 19:02:13.282460,2020-04-22 00:00:00.000000,0.04142853,0.16440331,0.55576623,39,154,523,4,37,128,0.00524405,0.03958142,0.13643412,0.25524379,0.40404833,0.89776971
51161,0,USVirginiaRoanoke,Virginia,Roanoke,2020-07-17 19:02:13.282460,2020-04-23 00:00:00.000000,0.05041535,0.17698186,0.57141926,47,166,538,14,39,134,0.01538532,0.04141798,0.14263206,0.25102867,0.40285587,0.88365010
51161,0,USVirginiaRoanoke,Virginia,Roanoke,2020-07-17 19:02:13.282460,2020-04-24 00:00:00.000000,0.04144525,0.17079201,0.58739576,39,160,553,4,39,138,0.00511015,0.04210723,0.14741383,0.24965204,0.39326158,0.87824059
51161,0,USVirginiaRoanoke,Virginia,Roanoke,2020-07-17 19:02:13.282460,2020-04-25 00:00:00.000000,0.05524771,0.18478837,0.60829243,52,174,572,14,41,142,0.01554785,0.04365924,0.15142095,0.23945887,0.38102445,0.87393000
51161,0,USVirginiaRoanoke,Virginia,Roanoke,2020-07-17 19:02:13.282460,2020-04-26 00:00:00.000000,0.04123701,0.18159715,0.62830380,38,171,591,4,41,146,0.00493951,0.04419531,0.15549976,0.23595417,0.37274687,0.86300055
51161,0,USVirginiaRoanoke,Virginia,Roanoke,2020-07-17 19:02:13.282460,2020-04-27 00:00:00.000000,0.05788129,0.19477614,0.64724702,54,183,609,14,43,150,0.01566319,0.04636390,0.15964898,0.23719472,0.36732632,0.84171845
51161,0,USVirginiaRoanoke,Virginia,Roanoke,2020-07-17 19:02:13.282460,2020-04-28 00:00:00.000000,0.04112189,0.19202318,0.66655102,38,180,627,4,44,154,0.00516121,0.04721996,0.16428130,0.23595504,0.36321309,0.81786363
51161,0,USVirginiaRoanoke,Virginia,Roanoke,2020-07-17 19:02:13.282460,2020-04-29 00:00:00.000000,0.05879176,0.20473701,0.68664594,55,192,646,14,46,161,0.01579446,0.04987006,0.17114215,0.21659267,0.36078277,0.82820892
51161,0,USVirginiaRoanoke,Virginia,Roanoke,2020-07-17 19:02:13.282460,2020-04-30 00:00:00.000000,0.04104199,0.20307099,0.70765544,38,191,666,5,47,167,0.00541506,0.05001612,0.17814140,0.20439052,0.35379054,0.83631174
51161,0,USVirginiaRoanoke,Virginia,Roanoke,2020-07-17 19:02:13.282460,2020-05-01 00:00:00.000000,0.05997720,0.21394824,0.73127566,56,201,688,15,49,174,0.01598456,0.05216931,0.18514848,0.19978459,0.34920718,0.83689377
51161,0,USVirginiaRoanoke,Virginia,Roanoke,2020-07-17 19:02:13.282460,2020-05-02 00:00:00.000000,0.04092934,0.21593110,0.75849231,38,203,714,5,49,180,0.00565931,0.05237280,0.19209815,0.19931034,0.34385549,0.83831964
51161,0,USVirginiaRoanoke,Virginia,Roanoke,2020-07-17 19:02:13.282460,2020-05-03 00:00:00.000000,0.06238070,0.22164833,0.78528555,58,208,739,15,51,187,0.01679233,0.05452022,0.19898373,0.19864148,0.33861551,0.84083669
51161,0,USVirginiaRoanoke,Virginia,Roanoke,2020-07-17 19:02:13.282460,2020-05-04 00:00:00.000000,0.04076117,0.22453957,0.81236151,38,211,765,5,50,193,0.00587793,0.05391220,0.20577289,0.19771577,0.33701445,0.84457577
51161,0,USVirginiaRoanoke,Virginia,Roanoke,2020-07-17 19:02:13.282460,2020-05-05 00:00:00.000000,0.06664575,0.22408542,0.83997548,62,211,791,16,53,200,0.01747627,0.05650934,0.21340146,0.19679611,0.33351188,0.84597145
51161,0,USVirginiaRoanoke,Virginia,Roanoke,2020-07-17 19:02:13.282460,2020-05-06 00:00:00.000000,0.04154693,0.22655732,0.86687762,39,213,816,5,52,209,0.00601756,0.05527125,0.22216377,0.19626799,0.33194491,0.84689816
51161,0,USVirginiaRoanoke,Virginia,Roanoke,2020-07-17 19:02:13.282460,2020-05-07 00:00:00.000000,0.07088829,0.22571937,0.88855215,66,212,836,16,54,213,0.01758969,0.05760501,0.22615944,0.19688801,0.33356666,0.84811628
51161,0,USVirginiaRoanoke,Virginia,Roanoke,2020-07-17 19:02:13.282460,2020-05-08 00:00:00.000000,0.04323470,0.22686000,0.91073421,40,213,857,5,54,219,0.00604152,0.05808063,0.23329279,0.19859884,0.32711693,0.84810904
51161,0,USVirginiaRoanoke,Virginia,Roanoke,2020-07-17 19:02:13.282460,2020-05-09 00:00:00.000000,0.07292421,0.23011046,0.93905636,68,216,884,16,56,226,0.01780219,0.05961393,0.24051249,0.20084910,0.32667987,0.84794352
51161,0,USVirginiaRoanoke,Virginia,Roanoke,2020-07-17 19:02:13.282460,2020-05-10 00:00:00.000000,0.04503564,0.23040308,0.96874334,42,217,912,5,56,233,0.00609865,0.05946205,0.24779143,0.19868429,0.32497505,0.85147630
51161,0,USVirginiaRoanoke,Virginia,Roanoke,2020-07-17 19:02:13.282460,2020-05-11 00:00:00.000000,0.07402376,0.22974847,0.99948995,69,216,941,16,58,240,0.01804334,0.06191216,0.25490406,0.19856154,0.32641478,0.88005171
51161,0,USVirginiaRoanoke,Virginia,Roanoke,2020-07-17 19:02:13.282460,2020-05-12 00:00:00.000000,0.04760727,0.23393913,1.03112455,44,220,971,5,58,246,0.00621235,0.06231021,0.26149761,0.19737359,0.32296755,0.89613537
51161,0,USVirginiaRoanoke,Virginia,Roanoke,2020-07-17 19:02:13.282460,2020-05-13 00:00:00.000000,0.07522759,0.23469078,1.06324381,70,221,1001,16,61,251,0.01781528,0.06551115,0.26736054,0.19661909,0.32154934,0.90955467
51161,0,USVirginiaRoanoke,Virginia,Roanoke,2020-07-17 19:02:13.282460,2020-05-14 00:00:00.000000,0.04989045,0.24076274,1.09552258,46,226,1031,6,61,256,0.00638499,0.06546670,0.27285119,0.19703587,0.32138800,0.92418424
51161,0,USVirginiaRoanoke,Virginia,Roanoke,2020-07-17 19:02:13.282460,2020-05-15 00:00:00.000000,0.07655167,0.23999582,1.12793628,72,226,1062,16,63,261,0.01768018,0.06777696,0.27805260,0.19846061,0.32586414,0.94647712
51161,0,USVirginiaRoanoke,Virginia,Roanoke,2020-07-17 19:02:13.282460,2020-05-16 00:00:00.000000,0.05145464,0.24596474,1.16078504,48,231,1093,6,64,266,0.00663203,0.06824008,0.28302769,0.20307995,0.33458921,0.98137576
51161,0,USVirginiaRoanoke,Virginia,Roanoke,2020-07-17 19:02:13.282460,2020-05-17 00:00:00.000000,0.08015713,0.24580727,1.19443043,75,231,1124,16,67,271,0.01780061,0.07127273,0.28783368,0.21217576,0.33348814,1.02235402
51161,0,USVirginiaRoanoke,Virginia,Roanoke,2020-07-17 19:02:13.282460,2020-05-18 00:00:00.000000,0.05295230,0.25575484,1.22913056,49,240,1157,6,66,275,0.00696018,0.07097423,0.29252164,0.21219394,0.34615902,1.01082085
51161,0,USVirginiaRoanoke,Virginia,Roanoke,2020-07-17 19:02:13.282460,2020-05-19 00:00:00.000000,0.08422741,0.25488110,1.26503737,79,240,1191,17,70,279,0.01870521,0.07447445,0.29716051,0.21082035,0.35378093,1.00482132
51161,0,USVirginiaRoanoke,Virginia,Roanoke,2020-07-17 19:02:13.282460,2020-05-20 00:00:00.000000,0.05424596,0.26776578,1.30223688,51,252,1226,6,70,285,0.00733939,0.07486647,0.30338295,0.21241257,0.35884547,1.00399303
51161,0,USVirginiaRoanoke,Virginia,Roanoke,2020-07-17 19:02:13.282460,2020-05-21 00:00:00.000000,0.08648474,0.27105047,1.35163625,81,255,1273,18,73,294,0.01983620,0.07771295,0.31262953,0.21955451,0.36815713,1.01672355
51161,0,USVirginiaRoanoke,Virginia,Roanoke,2020-07-17 19:02:13.282460,2020-05-22 00:00:00.000000,0.05580011,0.28273810,1.40586830,52,266,1324,7,74,303,0.00774794,0.07880354,0.32215161,0.22290498,0.37672212,1.01917732
51161,0,USVirginiaRoanoke,Virginia,Roanoke,2020-07-17 19:02:13.282460,2020-05-23 00:00:00.000000,0.09001749,0.28457323,1.45678939,84,268,1372,19,76,312,0.02117856,0.08134314,0.33209662,0.22487882,0.38283227,1.01681938
51161,0,USVirginiaRoanoke,Virginia,Roanoke,2020-07-17 19:02:13.282460,2020-05-24 00:00:00.000000,0.05674433,0.29941389,1.50062127,53,282,1413,7,78,324,0.00812920,0.08381331,0.34474940,0.22933862,0.39275898,1.04614838
51161,0,USVirginiaRoanoke,Virginia,Roanoke,2020-07-17 19:02:13.282460,2020-05-25 00:00:00.000000,0.09553747,0.30438319,1.53980146,89,286,1450,21,81,337,0.02300213,0.08694718,0.35785988,0.23067145,0.40289425,1.07148238
51161,0,USVirginiaRoanoke,Virginia,Roanoke,2020-07-17 19:02:13.282460,2020-05-26 00:00:00.000000,0.05771293,0.31696465,1.57780850,54,298,1486,7,84,349,0.00836391,0.08980352,0.37145028,0.23558254,0.42020503,1.07815002
51161,0,USVirginiaRoanoke,Virginia,Roanoke,2020-07-17 19:02:13.282460,2020-05-27 00:00:00.000000,0.10117883,0.32048001,1.63576129,95,301,1540,22,86,358,0.02377379,0.09230598,0.38098040,0.23580008,0.43056228,1.06811122
51161,0,USVirginiaRoanoke,Virginia,Roanoke,2020-07-17 19:02:13.282460,2020-05-28 00:00:00.000000,0.05934511,0.33827345,1.65544782,55,318,1559,8,89,366,0.00854716,0.09455798,0.38872623,0.24374693,0.43362983,1.07051082
51161,0,USVirginiaRoanoke,Virginia,Roanoke,2020-07-17 19:02:13.282460,2020-05-29 00:00:00.000000,0.10384798,0.33787744,1.73927818,97,318,1638,23,92,373,0.02453034,0.09839207,0.39662504,0.24851782,0.43626409,1.08080767
51161,0,USVirginiaRoanoke,Virginia,Roanoke,2020-07-17 19:02:13.282460,2020-05-30 00:00:00.000000,0.06432478,0.35749174,1.72491830,60,336,1624,8,94,384,0.00888829,0.09981004,0.40791385,0.25082921,0.44124295,1.08888358
51161,0,USVirginiaRoanoke,Virginia,Roanoke,2020-07-17 19:02:13.282460,2020-05-31 00:00:00.000000,0.10843250,0.36081373,1.84771049,102,339,1740,23,96,395,0.02506389,0.10251287,0.41958582,0.25741149,0.44590808,1.10122202
51161,0,USVirginiaRoanoke,Virginia,Roanoke,2020-07-17 19:02:13.282460,2020-06-01 00:00:00.000000,0.07173430,0.38189131,1.77820501,67,359,1674,8,98,406,0.00907302,0.10463747,0.43166233,0.25587260,0.45345138,1.13173063
51161,0,USVirginiaRoanoke,Virginia,Roanoke,2020-07-17 19:02:13.282460,2020-06-02 00:00:00.000000,0.11469357,0.39292824,1.93676076,108,370,1824,24,100,422,0.02563223,0.10716473,0.44886457,0.25472514,0.45375879,1.13345760
51161,0,USVirginiaRoanoke,Virginia,Roanoke,2020-07-17 19:02:13.282460,2020-06-03 00:00:00.000000,0.07890732,0.40851202,1.86887820,74,384,1760,8,102,439,0.00950418,0.10900088,0.46630838,0.25420908,0.45597802,1.12141118
51161,0,USVirginiaRoanoke,Virginia,Roanoke,2020-07-17 19:02:13.282460,2020-06-04 00:00:00.000000,0.12339135,0.41944819,1.99610420,116,395,1880,25,106,456,0.02680129,0.11314062,0.48419605,0.25549359,0.45758236,1.18811659
51161,0,USVirginiaRoanoke,Virginia,Roanoke,2020-07-17 19:02:13.282460,2020-06-05 00:00:00.000000,0.08579965,0.44166628,1.96637832,80,415,1852,9,109,473,0.01016039,0.11618536,0.50263932,0.25274464,0.45937068,1.18565334
51161,0,USVirginiaRoanoke,Virginia,Roanoke,2020-07-17 19:02:13.282460,2020-06-06 00:00:00.000000,0.13490058,0.45521974,2.04911020,127,428,1929,26,112,491,0.02814626,0.11990630,0.52170410,0.25421498,0.46262069,1.19850680
51161,0,USVirginiaRoanoke,Virginia,Roanoke,2020-07-17 19:02:13.282460,2020-06-07 00:00:00.000000,0.09272734,0.48016140,2.07596187,87,452,1955,10,116,509,0.01106157,0.12368544,0.54140571,0.25362280,0.46867965,1.34926784
51161,0,USVirginiaRoanoke,Virginia,Roanoke,2020-07-17 19:02:13.282460,2020-06-08 00:00:00.000000,0.14857439,0.48537017,2.13887737,139,457,2014,28,120,528,0.02997900,0.12797674,0.56165149,0.25488871,0.46622584,1.40054253
51161,0,USVirginiaRoanoke,Virginia,Roanoke,2020-07-17 19:02:13.282460,2020-06-09 00:00:00.000000,0.09991688,0.52176446,2.20285496,94,491,2074,11,125,548,0.01219747,0.13369835,0.58220991,0.26325013,0.47110475,1.40748455
51161,0,USVirginiaRoanoke,Virginia,Roanoke,2020-07-17 19:02:13.282460,2020-06-10 00:00:00.000000,0.16356876,0.51794421,2.26754017,154,487,2135,30,128,567,0.03190394,0.13695115,0.60291649,0.26553480,0.46575615,1.41701426
51161,0,USVirginiaRoanoke,Virginia,Roanoke,2020-07-17 19:02:13.282460,2020-06-11 00:00:00.000000,0.10802209,0.56375786,2.33310915,101,530,2197,12,135,587,0.01353413,0.14435951,0.62384555,0.26294869,0.45600717,1.40668138
51161,0,USVirginiaRoanoke,Virginia,Roanoke,2020-07-17 19:02:13.282460,2020-06-12 00:00:00.000000,0.17922969,0.55536710,2.40103031,168,523,2261,32,139,607,0.03413346,0.14798905,0.64515907,0.25795498,0.44689410,1.39803754
51161,0,USVirginiaRoanoke,Virginia,Roanoke,2020-07-17 19:02:13.282460,2020-06-13 00:00:00.000000,0.11983914,0.60061876,2.50061700,112,565,2355,14,144,633,0.01502734,0.15366620,0.67223695,0.24824415,0.44913202,1.39801239
51161,0,USVirginiaRoanoke,Virginia,Roanoke,2020-07-17 19:02:13.282460,2020-06-14 00:00:00.000000,0.19557965,0.60209238,2.60439682,184,567,2452,34,149,659,0.03675830,0.15906659,0.70003689,0.25217817,0.44376280,1.39669291
51161,0,USVirginiaRoanoke,Virginia,Roanoke,2020-07-17 19:02:13.282460,2020-06-15 00:00:00.000000,0.13652462,0.64742925,2.71126050,128,609,2553,15,156,684,0.01665964,0.16598269,0.72648894,0.23626943,0.43414645,1.39481039
51161,0,USVirginiaRoanoke,Virginia,Roanoke,2020-07-17 19:02:13.282460,2020-06-16 00:00:00.000000,0.21356836,0.64615245,2.82031231,201,608,2656,38,158,707,0.04048497,0.16874331,0.75139886,0.23082906,0.43326051,1.34730196
51161,0,USVirginiaRoanoke,Virginia,Roanoke,2020-07-17 19:02:13.282460,2020-06-17 00:00:00.000000,0.15538503,0.66628457,2.93061328,146,627,2760,17,165,729,0.01882067,0.17568644,0.77498857,0.23016583,0.43006435,1.33898604
51161,0,USVirginiaRoanoke,Virginia,Roanoke,2020-07-17 19:02:13.282460,2020-06-18 00:00:00.000000,0.23434863,0.65975079,3.04100763,220,621,2864,42,168,751,0.04491175,0.17869215,0.79797097,0.22723048,0.43039473,1.32786473
51161,0,USVirginiaRoanoke,Virginia,Roanoke,2020-07-17 19:02:13.282460,2020-06-19 00:00:00.000000,0.17572148,0.68346873,3.15002493,165,643,2966,22,173,773,0.02338099,0.18422232,0.82075874,0.22778461,0.42646286,1.30696679
51161,0,USVirginiaRoanoke,Virginia,Roanoke,2020-07-17 19:02:13.282460,2020-06-20 00:00:00.000000,0.25745615,0.70312074,3.25618248,242,662,3066,46,178,792,0.04986417,0.18917519,0.84146949,0.22969923,0.42071986,1.27346109
51161,0,USVirginiaRoanoke,Virginia,Roanoke,2020-07-17 19:02:13.282460,2020-06-21 00:00:00.000000,0.18762117,0.72300553,3.35899308,176,680,3163,24,183,817,0.02608267,0.19519879,0.86838983,0.23028416,0.41317355,1.25023721
51161,0,USVirginiaRoanoke,Virginia,Roanoke,2020-07-17 19:02:13.282460,2020-06-22 00:00:00.000000,0.27448069,0.74245373,3.45916124,258,699,3258,52,189,842,0.05590813,0.20114697,0.89421161,0.22786879,0.40913116,1.25125311
51161,0,USVirginiaRoanoke,Virginia,Roanoke,2020-07-17 19:02:13.282460,2020-06-23 00:00:00.000000,0.19800034,0.76248920,3.55774875,186,718,3350,27,196,867,0.02884852,0.20820034,0.92097079,0.22523710,0.40612126,1.25010561
51161,0,USVirginiaRoanoke,Virginia,Roanoke,2020-07-17 19:02:13.282460,2020-06-24 00:00:00.000000,0.29208078,0.78298802,3.65586091,275,737,3443,59,201,892,0.06326077,0.21343116,0.94809264,0.21985056,0.40414175,1.24496123
51161,0,USVirginiaRoanoke,Virginia,Roanoke,2020-07-17 19:02:13.282460,2020-06-25 00:00:00.000000,0.21106007,0.79650770,3.75489940,198,750,3536,30,208,917,0.03197789,0.22121511,0.97370128,0.20945069,0.39508529,1.22985617
51161,0,USVirginiaRoanoke,Virginia,Roanoke,2020-07-17 19:02:13.282460,2020-06-26 00:00:00.000000,0.30915203,0.82395697,3.85754998,291,776,3633,67,210,938,0.07151241,0.22380194,0.99636473,0.19691275,0.38932750,1.19105416
51161,0,USVirginiaRoanoke,Virginia,Roanoke,2020-07-17 19:02:13.282460,2020-06-27 00:00:00.000000,0.22609644,0.84317644,3.96774564,212,794,3737,34,219,957,0.03644953,0.23297337,1.01654896,0.19733236,0.38592505,1.14133777
51161,0,USVirginiaRoanoke,Virginia,Roanoke,2020-07-17 19:02:13.282460,2020-06-28 00:00:00.000000,0.31771076,0.86319809,4.08511514,299,813,3847,74,222,975,0.07904687,0.23617645,1.03523453,0.19904350,0.38880319,1.08739755
51161,0,USVirginiaRoanoke,Virginia,Roanoke,2020-07-17 19:02:13.282460,2020-06-29 00:00:00.000000,0.24268253,0.87557342,4.20675910,228,824,3962,38,229,991,0.04055256,0.24378310,1.05318945,0.19722178,0.38969394,1.03760118
51161,0,USVirginiaRoanoke,Virginia,Roanoke,2020-07-17 19:02:13.282460,2020-06-30 00:00:00.000000,0.31788094,0.88922261,4.33145985,299,837,4079,76,232,1008,0.08144069,0.24633596,1.07090541,0.19167804,0.38710540,1.00740907
51161,0,USVirginiaRoanoke,Virginia,Roanoke,2020-07-17 19:02:13.282460,2020-07-01 00:00:00.000000,0.25697774,0.90648382,4.45916340,242,853,4199,39,239,1025,0.04151148,0.25387214,1.08867978,0.18794643,0.39218509,0.96781272
51161,0,USVirginiaRoanoke,Virginia,Roanoke,2020-07-17 19:02:13.282460,2020-07-02 00:00:00.000000,0.32780495,0.92800570,4.58998794,308,874,4323,76,244,1050,0.08145680,0.25993302,1.11505059,0.19201037,0.39130973,0.92245922
51161,0,USVirginiaRoanoke,Virginia,Roanoke,2020-07-17 19:02:13.282460,2020-07-03 00:00:00.000000,0.25780322,0.95022627,4.72355461,242,894,4448,38,252,1079,0.04111553,0.26820157,1.14604445,0.18577538,0.38664518,0.90783385
51161,0,USVirginiaRoanoke,Virginia,Roanoke,2020-07-17 19:02:13.282460,2020-07-04 00:00:00.000000,0.33345763,0.97237165,4.85859752,314,915,4576,80,258,1109,0.08504978,0.27456634,1.17813645,0.18016356,0.37892356,0.90615846
51161,0,USVirginiaRoanoke,Virginia,Roanoke,2020-07-17 19:02:13.282460,2020-07-05 00:00:00.000000,0.25626298,1.00130712,4.99300609,241,943,4702,38,266,1139,0.04057932,0.28278868,1.21012561,0.17613432,0.37684671,0.90026055
51161,0,USVirginiaRoanoke,Virginia,Roanoke,2020-07-17 19:02:13.282460,2020-07-06 00:00:00.000000,0.32645096,1.01693197,5.14640690,307,957,4847,84,272,1170,0.08947598,0.28910682,1.24295169,0.17372359,0.37359895,0.87226456
51161,0,USVirginiaRoanoke,Virginia,Roanoke,2020-07-17 19:02:13.282460,2020-07-07 00:00:00.000000,0.25142784,1.03959837,5.37558814,236,979,5063,38,279,1202,0.04072792,0.29722943,1.27657950,0.17278249,0.37567790,0.86797464
51161,0,USVirginiaRoanoke,Virginia,Roanoke,2020-07-17 19:02:13.282460,2020-07-08 00:00:00.000000,0.31942966,1.06015814,5.61598038,300,998,5289,88,285,1234,0.09387793,0.30291752,1.31099754,0.17335748,0.37587046,0.86855236
51161,0,USVirginiaRoanoke,Virginia,Roanoke,2020-07-17 19:02:13.282460,2020-07-09 00:00:00.000000,0.24209899,1.08635556,5.86733024,228,1023,5526,39,292,1267,0.04142482,0.31095884,1.34621144,0.17401791,0.37545425,0.86876330
51161,0,USVirginiaRoanoke,Virginia,Roanoke,2020-07-17 19:02:13.282460,2020-07-10 00:00:00.000000,0.31342958,1.11040368,6.12945367,295,1045,5773,90,298,1310,0.09630353,0.31656795,1.39176242,0.17420313,0.37518566,0.86883788
51161,0,USVirginiaRoanoke,Virginia,Roanoke,2020-07-17 19:02:13.282460,2020-07-11 00:00:00.000000,0.23542645,1.13494007,6.24679296,221,1068,5883,39,307,1364,0.04234779,0.32607390,1.44836460,0.17425261,0.37504085,0.86886392
51161,0,USVirginiaRoanoke,Virginia,Roanoke,2020-07-17 19:02:13.282460,2020-07-12 00:00:00.000000,0.30813339,1.15997619,6.35526775,290,1092,5985,91,312,1419,0.09711999,0.33133445,1.50684186,0.17426563,0.37497428,0.86887295
51161,0,USVirginiaRoanoke,Virginia,Roanoke,2020-07-17 19:02:13.282460,2020-07-13 00:00:00.000000,0.23108139,1.18552144,6.59751354,217,1116,6213,40,319,1475,0.04335117,0.33925041,1.56692688,0.17426905,0.37494511,0.86887607
51161,0,USVirginiaRoanoke,Virginia,Roanoke,2020-07-17 19:02:13.282460,2020-07-14 00:00:00.000000,0.30321143,1.21158421,6.84769671,285,1141,6449,91,325,1512,0.09756122,0.34581436,1.60546113,0.17426993,0.37493252,0.86887715
51161,0,USVirginiaRoanoke,Virginia,Roanoke,2020-07-17 19:02:13.282460,2020-07-15 00:00:00.000000,0.22805725,1.23393110,7.10607455,214,1162,6692,41,333,1539,0.04438121,0.35359958,1.63480000,0.17427017,0.37492712,0.86887752
51161,0,USVirginiaRoanoke,Virginia,Roanoke,2020-07-17 19:02:13.282460,2020-07-16 00:00:00.000000,0.29604177,1.26529416,7.37291004,278,1191,6944,90,340,1567,0.09661061,0.36111235,1.66428074,0.17427022,0.37492481,0.86887764
51161,0,USVirginiaRoanoke,Virginia,Roanoke,2020-07-17 19:02:13.282460,2020-07-17 00:00:00.000000,0.22575675,1.29295698,7.64847051,212,1217,7203,42,347,1595,0.04541832,0.36877961,1.69394157,0.17427024,0.37492382,0.86887769
51161,0,USVirginiaRoanoke,Virginia,Roanoke,2020-07-17 19:02:13.282460,2020-07-18 00:00:00.000000,0.26879015,1.32839017,7.93302682,253,1251,7471,90,354,1633,0.09563712,0.37647244,1.73483860,0.17427024,0.37492340,0.86887770
51161,0,USVirginiaRoanoke,Virginia,Roanoke,2020-07-17 19:02:13.282460,2020-07-19 00:00:00.000000,0.22389995,1.34993750,8.22685257,210,1271,7748,43,362,1661,0.04645480,0.38475663,1.76401542,0.17427024,0.37492322,0.86887771
51161,0,USVirginiaRoanoke,Virginia,Roanoke,2020-07-17 19:02:13.282460,2020-07-20 00:00:00.000000,0.24509757,1.38928300,8.53022364,230,1308,8034,89,367,1766,0.09465465,0.39036480,1.87579301,0.17427025,0.37492314,0.86887771
51161,0,USVirginiaRoanoke,Virginia,Roanoke,2020-07-17 19:02:13.282460,2020-07-21 00:00:00.000000,0.22219759,1.41197195,8.84291937,209,1329,8328,44,375,1754,0.04748702,0.39850905,1.86235987,0.17427025,0.37492311,0.86887771
51161,0,USVirginiaRoanoke,Virginia,Roanoke,2020-07-17 19:02:13.282460,2020-07-22 00:00:00.000000,0.24191939,1.46172831,9.14663845,227,1376,8614,88,380,1907,0.09367019,0.40436776,2.02569345,0.17427025,0.37492309,0.86887771
51161,0,USVirginiaRoanoke,Virginia,Roanoke,2020-07-17 19:02:13.282460,2020-07-23 00:00:00.000000,0.22057071,1.50245341,9.45969730,207,1415,8909,45,386,1850,0.04851268,0.41084387,1.96511717,0.17427025,0.37492309,0.86887771
51161,0,USVirginiaRoanoke,Virginia,Roanoke,2020-07-17 19:02:13.282460,2020-07-24 00:00:00.000000,0.24020557,1.55422192,9.78234113,226,1463,9213,87,395,2057,0.09268735,0.41948476,2.18471243,0.17427025,0.37492308,0.86887771
51161,0,USVirginiaRoanoke,Virginia,Roanoke,2020-07-17 19:02:13.282460,2020-07-25 00:00:00.000000,0.21898014,1.60041745,10.17371399,206,1507,9582,46,402,2005,0.04952997,0.42695085,2.12879872,0.17427025,0.37492308,0.86887771
51161,0,USVirginiaRoanoke,Virginia,Roanoke,2020-07-17 19:02:13.282460,2020-07-26 00:00:00.000000,0.23853257,1.62158773,10.57823339,224,1527,9963,86,410,2216,0.09170799,0.43627144,2.35295417,0.17427025,0.37492308,0.86887771
51161,0,USVirginiaRoanoke,Virginia,Roanoke,2020-07-17 19:02:13.282460,2020-07-27 00:00:00.000000,0.21740656,1.64997861,10.99375779,204,1554,10354,47,422,2180,0.05053715,0.44824903,2.31514402,0.17427025,0.37492308,0.86887771
51161,0,USVirginiaRoanoke,Virginia,Roanoke,2020-07-17 19:02:13.282460,2020-07-28 00:00:00.000000,0.23687983,1.68929965,11.29083863,223,1591,10634,85,426,2383,0.09073313,0.45252181,2.53044225,0.17427025,0.37492308,0.86887771
51161,0,USVirginiaRoanoke,Virginia,Roanoke,2020-07-17 19:02:13.282460,2020-07-29 00:00:00.000000,0.21584049,1.72943860,11.57929100,203,1628,10906,48,438,2367,0.05153254,0.46528410,2.51416432,0.17427025,0.37492308,0.86887771
