FIPS,HR_UID,nameid,province,region,analysisTime,dates,pointprevalence_025,pointprevalence_50,pointprevalence_975,pointinfections_025,pointinfections_50,pointinfections_975,pointinfectious_025,pointinfectious_50,pointinfectious_975,pointinfectiousprevalence_05,pointinfectiousprevalence_50,pointinfectiousprevalence_95,infectrate_025,infectrate_50,infectrate_975
48241,0,USTexasJasper,Texas,Jasper,2020-07-13 05:32:07.452803,2020-03-09 00:00:00.000000,0.01575370,0.07525647,0.19174460,5,26,68,0,6,14,0.00000000,0.01791163,0.04015772,0.48842468,0.63412810,0.85414082
48241,0,USTexasJasper,Texas,Jasper,2020-07-13 05:32:07.452803,2020-03-10 00:00:00.000000,0.04297123,0.07185489,0.18084303,15,25,64,2,4,14,0.00775988,0.01405729,0.03960028,0.48842469,0.63412790,0.85414067
48241,0,USTexasJasper,Texas,Jasper,2020-07-13 05:32:07.452803,2020-03-11 00:00:00.000000,0.01342438,0.07186150,0.17616040,4,25,62,0,3,14,0.00000000,0.01106111,0.04035857,0.48842469,0.63412756,0.85414033
48241,0,USTexasJasper,Texas,Jasper,2020-07-13 05:32:07.452803,2020-03-12 00:00:00.000000,0.03942338,0.07277319,0.17372626,14,25,61,2,3,14,0.00702460,0.00976232,0.04148798,0.48842471,0.63412699,0.85413926
48241,0,USTexasJasper,Texas,Jasper,2020-07-13 05:32:07.452803,2020-03-13 00:00:00.000000,0.01113113,0.07447941,0.18046411,3,26,64,0,3,15,0.00000000,0.00923343,0.04274678,0.48842473,0.63412602,0.85413473
48241,0,USTexasJasper,Texas,Jasper,2020-07-13 05:32:07.452803,2020-03-14 00:00:00.000000,0.03621213,0.07654223,0.20033944,12,27,71,2,3,15,0.00657429,0.00915318,0.04407380,0.48842473,0.63412437,0.85411191
48241,0,USTexasJasper,Texas,Jasper,2020-07-13 05:32:07.452803,2020-03-15 00:00:00.000000,0.00910223,0.07875683,0.22008183,3,27,78,0,3,16,0.00000000,0.00927795,0.04545424,0.48842432,0.63412156,0.85398895
48241,0,USTexasJasper,Texas,Jasper,2020-07-13 05:32:07.452803,2020-03-16 00:00:00.000000,0.03340677,0.08100000,0.23977348,11,28,85,2,3,16,0.00625061,0.00953859,0.04688529,0.48842025,0.63411659,0.85330153
48241,0,USTexasJasper,Texas,Jasper,2020-07-13 05:32:07.452803,2020-03-17 00:00:00.000000,0.00736623,0.08312833,0.25934369,2,29,92,0,3,17,0.00000000,0.00985001,0.04836723,0.48838618,0.63410570,0.85044081
48241,0,USTexasJasper,Texas,Jasper,2020-07-13 05:32:07.452803,2020-03-18 00:00:00.000000,0.03103545,0.08500261,0.27883288,11,30,99,2,3,17,0.00599024,0.01018812,0.04990119,0.48811477,0.59117003,0.83922634
48241,0,USTexasJasper,Texas,Jasper,2020-07-13 05:32:07.452803,2020-03-19 00:00:00.000000,0.00591506,0.08659382,0.29824015,2,30,105,0,3,18,0.00000000,0.01051842,0.05148849,0.48606439,0.58418987,0.82272957
48241,0,USTexasJasper,Texas,Jasper,2020-07-13 05:32:07.452803,2020-03-20 00:00:00.000000,0.02901311,0.08800614,0.31683070,10,31,112,2,3,18,0.00577598,0.01084370,0.05312889,0.47207812,0.59725333,0.78748861
48241,0,USTexasJasper,Texas,Jasper,2020-07-13 05:32:07.452803,2020-03-21 00:00:00.000000,0.00473329,0.08923754,0.33278201,1,31,118,0,3,19,0.00000000,0.01115451,0.05479134,0.44447647,0.59220631,0.73288780
48241,0,USTexasJasper,Texas,Jasper,2020-07-13 05:32:07.452803,2020-03-22 00:00:00.000000,0.02737989,0.09075366,0.34812479,9,32,123,1,4,20,0.00560925,0.01145785,0.05639166,0.42818380,0.59981462,0.71113400
48241,0,USTexasJasper,Texas,Jasper,2020-07-13 05:32:07.452803,2020-03-23 00:00:00.000000,0.00382727,0.09202045,0.36346010,1,32,129,0,4,20,0.00000000,0.01175120,0.05798977,0.41846191,0.59748686,0.70596116
48241,0,USTexasJasper,Texas,Jasper,2020-07-13 05:32:07.452803,2020-03-24 00:00:00.000000,0.02612838,0.09329621,0.37886017,9,33,134,1,4,21,0.00548152,0.01204909,0.05962122,0.42022495,0.58912241,0.69440051
48241,0,USTexasJasper,Texas,Jasper,2020-07-13 05:32:07.452803,2020-03-25 00:00:00.000000,0.00305474,0.09471203,0.39427804,1,33,140,0,4,21,0.00000000,0.01234316,0.06129614,0.42451331,0.58239281,0.69908893
48241,0,USTexasJasper,Texas,Jasper,2020-07-13 05:32:07.452803,2020-03-26 00:00:00.000000,0.02510043,0.09631594,0.40978695,8,34,145,1,4,22,0.00537612,0.01264791,0.06301462,0.43023278,0.56233273,0.70102344
48241,0,USTexasJasper,Texas,Jasper,2020-07-13 05:32:07.452803,2020-03-27 00:00:00.000000,0.00239701,0.09791656,0.42473514,0,34,150,0,4,23,0.00000000,0.01295513,0.06476682,0.43162354,0.53487931,0.70156101
48241,0,USTexasJasper,Texas,Jasper,2020-07-13 05:32:07.452803,2020-03-28 00:00:00.000000,0.02422487,0.09932488,0.43834791,8,35,155,1,4,23,0.00528788,0.01326879,0.06652987,0.43239161,0.49902189,0.70212231
48241,0,USTexasJasper,Texas,Jasper,2020-07-13 05:32:07.452803,2020-03-29 00:00:00.000000,0.00183253,0.10056131,0.45145344,0,35,160,0,4,24,0.00000000,0.01358155,0.06828773,0.40946570,0.47130728,0.70321764
48241,0,USTexasJasper,Texas,Jasper,2020-07-13 05:32:07.452803,2020-03-30 00:00:00.000000,0.02347589,0.10172546,0.46451877,8,36,165,1,4,24,0.00521304,0.01389179,0.07005233,0.39689250,0.45299117,0.70527256
48241,0,USTexasJasper,Texas,Jasper,2020-07-13 05:32:07.452803,2020-03-31 00:00:00.000000,0.00135790,0.10292073,0.47779401,0,36,169,0,5,25,0.00000000,0.01419462,0.07184393,0.39333502,0.44987763,0.70700536
48241,0,USTexasJasper,Texas,Jasper,2020-07-13 05:32:07.452803,2020-04-01 00:00:00.000000,0.02284237,0.10416827,0.49141948,8,37,174,1,5,26,0.00515007,0.01450182,0.07370721,0.39160741,0.44963454,0.70788370
48241,0,USTexasJasper,Texas,Jasper,2020-07-13 05:32:07.452803,2020-04-02 00:00:00.000000,0.00095141,0.10545711,0.50552986,0,37,179,0,5,26,0.00000000,0.01480717,0.07565908,0.38881982,0.45162886,0.70840581
48241,0,USTexasJasper,Texas,Jasper,2020-07-13 05:32:07.452803,2020-04-03 00:00:00.000000,0.02231306,0.10663109,0.52030841,7,37,184,1,5,27,0.00509626,0.01512108,0.07767106,0.38316335,0.45845264,0.70884658
48241,0,USTexasJasper,Texas,Jasper,2020-07-13 05:32:07.452803,2020-04-04 00:00:00.000000,0.00060687,0.10791145,0.53601489,0,38,190,0,5,28,0.00000000,0.01542981,0.07972211,0.37319921,0.46556054,0.70987236
48241,0,USTexasJasper,Texas,Jasper,2020-07-13 05:32:07.452803,2020-04-05 00:00:00.000000,0.02186366,0.10909972,0.55298050,7,38,196,1,5,29,0.00504968,0.01574792,0.08182276,0.35998005,0.47334965,0.71272818
48241,0,USTexasJasper,Texas,Jasper,2020-07-13 05:32:07.452803,2020-04-06 00:00:00.000000,0.00032835,0.11020624,0.57156937,0,39,203,0,5,29,0.00000000,0.01605063,0.08402554,0.34859205,0.49567358,0.71820163
48241,0,USTexasJasper,Texas,Jasper,2020-07-13 05:32:07.452803,2020-04-07 00:00:00.000000,0.02149079,0.11130272,0.59220571,7,39,210,1,5,30,0.00501127,0.01636848,0.08635247,0.34432067,0.51995377,0.72414076
48241,0,USTexasJasper,Texas,Jasper,2020-07-13 05:32:07.452803,2020-04-08 00:00:00.000000,0.00009624,0.11255519,0.61565438,0,39,218,0,5,31,0.00000000,0.01666443,0.08882958,0.33817771,0.53892021,0.72725230
48241,0,USTexasJasper,Texas,Jasper,2020-07-13 05:32:07.452803,2020-04-09 00:00:00.000000,0.02119343,0.11424834,0.64301341,7,40,228,1,6,32,0.00497963,0.01698858,0.09149885,0.32315362,0.53672802,0.72647064
48241,0,USTexasJasper,Texas,Jasper,2020-07-13 05:32:07.452803,2020-04-10 00:00:00.000000,0.00000000,0.11658075,0.67417146,0,41,239,0,6,33,0.00000000,0.01732462,0.09442127,0.30949836,0.51546937,0.72158609
48241,0,USTexasJasper,Texas,Jasper,2020-07-13 05:32:07.452803,2020-04-11 00:00:00.000000,0.02093801,0.11931214,0.70769950,7,42,251,1,6,34,0.00495049,0.01769612,0.09761429,0.30063211,0.49440507,0.71153654
48241,0,USTexasJasper,Texas,Jasper,2020-07-13 05:32:07.452803,2020-04-12 00:00:00.000000,0.00000000,0.12225254,0.74249140,0,43,263,0,6,35,0.00000000,0.01810226,0.10103122,0.29548383,0.48387215,0.69543822
48241,0,USTexasJasper,Texas,Jasper,2020-07-13 05:32:07.452803,2020-04-13 00:00:00.000000,0.02065575,0.12530838,0.77800986,7,44,276,1,6,37,0.00492041,0.01853536,0.10462192,0.29272171,0.47789141,0.67568081
48241,0,USTexasJasper,Texas,Jasper,2020-07-13 05:32:07.452803,2020-04-14 00:00:00.000000,0.00000000,0.12786975,0.81398540,0,45,289,0,6,38,0.00000000,0.01897806,0.10835640,0.29124328,0.47284303,0.66678660
48241,0,USTexasJasper,Texas,Jasper,2020-07-13 05:32:07.452803,2020-04-15 00:00:00.000000,0.02037878,0.13093029,0.85023997,7,46,302,1,6,39,0.00488841,0.01940670,0.11221860,0.29024715,0.46813733,0.66354208
48241,0,USTexasJasper,Texas,Jasper,2020-07-13 05:32:07.452803,2020-04-16 00:00:00.000000,0.00000000,0.13379315,0.88662544,0,47,315,0,7,41,0.00000000,0.01987922,0.11619851,0.27888375,0.45908306,0.65586574
48241,0,USTexasJasper,Texas,Jasper,2020-07-13 05:32:07.452803,2020-04-17 00:00:00.000000,0.02010316,0.13690398,0.92301749,7,48,327,1,7,42,0.00485568,0.02036394,0.12028815,0.27380264,0.44907445,0.64614405
48241,0,USTexasJasper,Texas,Jasper,2020-07-13 05:32:07.452803,2020-04-18 00:00:00.000000,0.00000000,0.13998106,0.95933417,0,49,340,0,7,44,0.00000000,0.02085458,0.12448058,0.26455815,0.44124526,0.63591816
48241,0,USTexasJasper,Texas,Jasper,2020-07-13 05:32:07.452803,2020-04-19 00:00:00.000000,0.01978694,0.14304456,0.99555815,7,50,353,1,7,45,0.00481955,0.02134881,0.12877053,0.25682624,0.43332428,0.62555298
48241,0,USTexasJasper,Texas,Jasper,2020-07-13 05:32:07.452803,2020-04-20 00:00:00.000000,0.00000000,0.14614480,1.03174415,0,51,366,0,7,47,0.00000000,0.02184663,0.13315189,0.25380268,0.43042515,0.61720228
48241,0,USTexasJasper,Texas,Jasper,2020-07-13 05:32:07.452803,2020-04-21 00:00:00.000000,0.01948122,0.14915177,1.06799037,6,52,379,1,7,48,0.00478844,0.02234980,0.13762822,0.25299803,0.42804465,0.61090223
48241,0,USTexasJasper,Texas,Jasper,2020-07-13 05:32:07.452803,2020-04-22 00:00:00.000000,0.00000000,0.15230842,1.10428750,0,54,392,0,8,50,0.00000000,0.02286043,0.14220386,0.25266016,0.42744773,0.60662714
48241,0,USTexasJasper,Texas,Jasper,2020-07-13 05:32:07.452803,2020-04-23 00:00:00.000000,0.01921543,0.15559649,1.13978491,6,55,404,1,8,52,0.00476646,0.02338420,0.14687893,0.25240658,0.42718922,0.60258776
48241,0,USTexasJasper,Texas,Jasper,2020-07-13 05:32:07.452803,2020-04-24 00:00:00.000000,0.00000000,0.15897480,1.17151024,0,56,416,0,8,53,0.00000000,0.02391322,0.15161804,0.25212463,0.42751580,0.64572120
48241,0,USTexasJasper,Texas,Jasper,2020-07-13 05:32:07.452803,2020-04-25 00:00:00.000000,0.01909823,0.16238200,1.19928640,6,57,426,1,8,55,0.00476302,0.02446439,0.15628786,0.25181197,0.42912598,0.68209347
48241,0,USTexasJasper,Texas,Jasper,2020-07-13 05:32:07.452803,2020-04-26 00:00:00.000000,0.00000000,0.16581749,1.22607823,0,58,435,0,8,57,0.00000000,0.02501056,0.16084234,0.25154729,0.43681418,0.69940115
48241,0,USTexasJasper,Texas,Jasper,2020-07-13 05:32:07.452803,2020-04-27 00:00:00.000000,0.01909298,0.17005018,1.25227363,6,60,444,1,9,58,0.00476400,0.02558472,0.16538512,0.25138542,0.45747408,0.70496863
48241,0,USTexasJasper,Texas,Jasper,2020-07-13 05:32:07.452803,2020-04-28 00:00:00.000000,0.00000000,0.17484774,1.27522603,0,62,453,0,9,60,0.00000000,0.02617167,0.16995130,0.25103177,0.48109017,0.70608789
48241,0,USTexasJasper,Texas,Jasper,2020-07-13 05:32:07.452803,2020-04-29 00:00:00.000000,0.01909922,0.18004166,1.29335549,6,63,459,1,9,61,0.00476432,0.02685229,0.17443670,0.24991252,0.48953084,0.70489173
48241,0,USTexasJasper,Texas,Jasper,2020-07-13 05:32:07.452803,2020-04-30 00:00:00.000000,0.00000000,0.18538589,1.30971108,0,65,465,0,9,63,0.00000000,0.02734238,0.17874676,0.24557676,0.47184523,0.70289998
48241,0,USTexasJasper,Texas,Jasper,2020-07-13 05:32:07.452803,2020-05-01 00:00:00.000000,0.01910240,0.19079249,1.32621034,6,67,471,1,9,65,0.00476419,0.02806878,0.18297607,0.24041455,0.47222768,0.70073309
48241,0,USTexasJasper,Texas,Jasper,2020-07-13 05:32:07.452803,2020-05-02 00:00:00.000000,0.00000000,0.19620634,1.34324387,0,69,477,0,10,66,0.00000000,0.02874352,0.18721876,0.22499879,0.47012926,0.69935858
48241,0,USTexasJasper,Texas,Jasper,2020-07-13 05:32:07.452803,2020-05-03 00:00:00.000000,0.01910064,0.20159675,1.36056720,6,71,483,1,10,68,0.00476385,0.02953528,0.19151067,0.20953082,0.46679474,0.69882216
48241,0,USTexasJasper,Texas,Jasper,2020-07-13 05:32:07.452803,2020-05-04 00:00:00.000000,0.00000000,0.20693089,1.37750433,0,73,489,0,10,69,0.00000000,0.03025821,0.19585028,0.19940262,0.46325802,0.69862202
48241,0,USTexasJasper,Texas,Jasper,2020-07-13 05:32:07.452803,2020-05-05 00:00:00.000000,0.01909497,0.21223734,1.39309278,6,75,494,1,11,71,0.00476356,0.03102270,0.20020986,0.19630938,0.46015274,0.69846333
48241,0,USTexasJasper,Texas,Jasper,2020-07-13 05:32:07.452803,2020-05-06 00:00:00.000000,0.00000000,0.21759546,1.40665899,0,77,499,0,11,72,0.00000000,0.03174572,0.20454271,0.20339956,0.45776980,0.69819907
48241,0,USTexasJasper,Texas,Jasper,2020-07-13 05:32:07.452803,2020-05-07 00:00:00.000000,0.01908772,0.22309957,1.41843318,6,79,503,1,11,74,0.00476324,0.03256182,0.20880776,0.21117530,0.45672448,0.69762225
48241,0,USTexasJasper,Texas,Jasper,2020-07-13 05:32:07.452803,2020-05-08 00:00:00.000000,0.00000000,0.22891350,1.42928666,0,81,507,0,11,75,0.00000000,0.03336013,0.21300077,0.21347866,0.45867679,0.69626987
48241,0,USTexasJasper,Texas,Jasper,2020-07-13 05:32:07.452803,2020-05-09 00:00:00.000000,0.01908115,0.23536497,1.44005467,6,83,511,1,12,77,0.00476256,0.03417532,0.21715232,0.21754930,0.46664867,0.69391163
48241,0,USTexasJasper,Texas,Jasper,2020-07-13 05:32:07.452803,2020-05-10 00:00:00.000000,0.00000000,0.24268020,1.45126157,0,86,515,0,12,78,0.00000000,0.03500128,0.22130099,0.21698833,0.48217779,0.69067527
48241,0,USTexasJasper,Texas,Jasper,2020-07-13 05:32:07.452803,2020-05-11 00:00:00.000000,0.01906904,0.25139795,1.46317247,6,89,519,1,12,80,0.00476096,0.03601301,0.22547627,0.21708935,0.49989510,0.68944919
48241,0,USTexasJasper,Texas,Jasper,2020-07-13 05:32:07.452803,2020-05-12 00:00:00.000000,0.00000000,0.26109780,1.47590365,0,92,524,0,13,81,0.00000000,0.03699795,0.22969633,0.21675666,0.51277606,0.69198254
48241,0,USTexasJasper,Texas,Jasper,2020-07-13 05:32:07.452803,2020-05-13 00:00:00.000000,0.01905591,0.27153155,1.48950493,6,96,529,1,13,83,0.00475977,0.03818741,0.23397149,0.21602396,0.52099654,0.69387225
48241,0,USTexasJasper,Texas,Jasper,2020-07-13 05:32:07.452803,2020-05-14 00:00:00.000000,0.00000000,0.28244912,1.50403794,0,100,534,0,13,84,0.00000000,0.03931314,0.23830791,0.21551801,0.52781952,0.69434590
48241,0,USTexasJasper,Texas,Jasper,2020-07-13 05:32:07.452803,2020-05-15 00:00:00.000000,0.01904566,0.29414726,1.51979859,6,104,539,1,14,86,0.00475869,0.04061897,0.24271151,0.21127361,0.53517005,0.69429173
48241,0,USTexasJasper,Texas,Jasper,2020-07-13 05:32:07.452803,2020-05-16 00:00:00.000000,0.00000000,0.30677970,1.53829755,0,108,546,0,14,87,0.00000000,0.04197345,0.24719796,0.21119453,0.54325292,0.69412673
48241,0,USTexasJasper,Texas,Jasper,2020-07-13 05:32:07.452803,2020-05-17 00:00:00.000000,0.01903653,0.31996748,1.56490028,6,113,555,1,15,89,0.00475770,0.04345548,0.25183614,0.21164588,0.54957155,0.69386237
48241,0,USTexasJasper,Texas,Jasper,2020-07-13 05:32:07.452803,2020-05-18 00:00:00.000000,0.00000000,0.33454909,1.60498952,0,118,570,0,15,91,0.00000000,0.04497298,0.25687046,0.21103375,0.55403882,0.69330968
48241,0,USTexasJasper,Texas,Jasper,2020-07-13 05:32:07.452803,2020-05-19 00:00:00.000000,0.01902886,0.34990198,1.65319420,6,124,587,1,16,93,0.00475668,0.04665821,0.26259745,0.21181872,0.57001472,0.70452842
48241,0,USTexasJasper,Texas,Jasper,2020-07-13 05:32:07.452803,2020-05-20 00:00:00.000000,0.00000000,0.36624227,1.70376039,0,130,605,0,17,95,0.00000000,0.04835997,0.26888848,0.21546265,0.57085370,0.71442952
48241,0,USTexasJasper,Texas,Jasper,2020-07-13 05:32:07.452803,2020-05-21 00:00:00.000000,0.01902337,0.38296656,1.75421647,6,136,623,1,17,97,0.00475483,0.05018810,0.27549613,0.22563100,0.56799983,0.71876332
48241,0,USTexasJasper,Texas,Jasper,2020-07-13 05:32:07.452803,2020-05-22 00:00:00.000000,0.00000000,0.40010513,1.80297460,0,142,640,0,18,100,0.00000000,0.05181264,0.28227097,0.24621553,0.55945978,0.71777842
48241,0,USTexasJasper,Texas,Jasper,2020-07-13 05:32:07.452803,2020-05-23 00:00:00.000000,0.01901314,0.41758903,1.84853835,6,148,656,1,19,102,0.00474816,0.05379309,0.28911475,0.25688357,0.54257231,0.71398915
48241,0,USTexasJasper,Texas,Jasper,2020-07-13 05:32:07.452803,2020-05-24 00:00:00.000000,0.00000000,0.43555599,1.89004449,0,154,671,0,19,105,0.00000000,0.05586229,0.29593973,0.26509211,0.52766055,0.71107220
48241,0,USTexasJasper,Texas,Jasper,2020-07-13 05:32:07.452803,2020-05-25 00:00:00.000000,0.01891429,0.45402915,1.92792166,6,161,684,1,20,107,0.00472819,0.05793401,0.30268305,0.26729121,0.51197598,0.70986113
48241,0,USTexasJasper,Texas,Jasper,2020-07-13 05:32:07.452803,2020-05-26 00:00:00.000000,0.00000000,0.47280358,1.96349977,0,167,697,0,21,109,0.00000000,0.06007617,0.30933884,0.26903087,0.50031216,0.70923883
48241,0,USTexasJasper,Texas,Jasper,2020-07-13 05:32:07.452803,2020-05-27 00:00:00.000000,0.01870376,0.49220783,1.99812745,6,174,709,1,22,112,0.00470242,0.06236629,0.31595173,0.27101271,0.49302756,0.70772787
48241,0,USTexasJasper,Texas,Jasper,2020-07-13 05:32:07.452803,2020-05-28 00:00:00.000000,0.00000000,0.51197419,2.03276875,0,181,722,0,23,114,0.00000000,0.06474208,0.32258102,0.27358355,0.48549535,0.70267175
48241,0,USTexasJasper,Texas,Jasper,2020-07-13 05:32:07.452803,2020-05-29 00:00:00.000000,0.01849730,0.53158494,2.06806612,6,188,734,1,23,116,0.00467980,0.06719174,0.32927640,0.27702293,0.47630675,0.68704580
48241,0,USTexasJasper,Texas,Jasper,2020-07-13 05:32:07.452803,2020-05-30 00:00:00.000000,0.00000000,0.54978058,2.10455257,0,195,747,0,24,119,0.00000000,0.06963427,0.33607451,0.27565878,0.45207389,0.64856045
48241,0,USTexasJasper,Texas,Jasper,2020-07-13 05:32:07.452803,2020-05-31 00:00:00.000000,0.01830182,0.56527749,2.14282767,6,200,761,1,25,121,0.00465291,0.07204587,0.34300622,0.27748320,0.42383413,0.58781743
48241,0,USTexasJasper,Texas,Jasper,2020-07-13 05:32:07.452803,2020-06-01 00:00:00.000000,0.00000000,0.57850125,2.18349984,0,205,775,0,26,124,0.00000000,0.07437592,0.35010508,0.28489936,0.41376848,0.53656306
48241,0,USTexasJasper,Texas,Jasper,2020-07-13 05:32:07.452803,2020-06-02 00:00:00.000000,0.01805517,0.59124136,2.22679994,6,210,791,1,27,126,0.00462693,0.07666903,0.35740702,0.28165510,0.41207610,0.51274032
48241,0,USTexasJasper,Texas,Jasper,2020-07-13 05:32:07.452803,2020-06-03 00:00:00.000000,0.00000000,0.60377458,2.27239289,0,214,807,0,28,129,0.00000000,0.07888755,0.36493443,0.27816833,0.41182337,0.50427691
48241,0,USTexasJasper,Texas,Jasper,2020-07-13 05:32:07.452803,2020-06-04 00:00:00.000000,0.01785117,0.61654846,2.31973435,6,219,824,1,28,132,0.00460611,0.08101818,0.37268428,0.28171673,0.41172629,0.50074911
48241,0,USTexasJasper,Texas,Jasper,2020-07-13 05:32:07.452803,2020-06-05 00:00:00.000000,0.00000000,0.63021209,2.36840715,0,223,841,0,29,135,0.00000000,0.08320435,0.38063882,0.30176367,0.41182583,0.49757280
48241,0,USTexasJasper,Texas,Jasper,2020-07-13 05:32:07.452803,2020-06-06 00:00:00.000000,0.01768125,0.64345914,2.41818509,6,228,859,1,30,138,0.00458887,0.08537007,0.38878109,0.31491070,0.41329702,0.49253619
48241,0,USTexasJasper,Texas,Jasper,2020-07-13 05:32:07.452803,2020-06-07 00:00:00.000000,0.00000000,0.65696598,2.46930873,0,233,877,0,31,141,0.00000000,0.08762701,0.39710105,0.31450340,0.42197190,0.48415866
48241,0,USTexasJasper,Texas,Jasper,2020-07-13 05:32:07.452803,2020-06-08 00:00:00.000000,0.01751021,0.66997742,2.52711008,6,238,897,1,31,144,0.00457714,0.08990621,0.40560894,0.31447004,0.45626047,0.47320319
48241,0,USTexasJasper,Texas,Jasper,2020-07-13 05:32:07.452803,2020-06-09 00:00:00.000000,0.00000000,0.68265142,2.61222218,0,242,928,0,32,147,0.00000000,0.09213076,0.41453197,0.31464480,0.46175487,0.50891837
48241,0,USTexasJasper,Texas,Jasper,2020-07-13 05:32:07.452803,2020-06-10 00:00:00.000000,0.01751061,0.69531864,2.71003360,6,247,962,1,33,150,0.00458458,0.09440030,0.42479067,0.31443510,0.45535632,0.52777978
48241,0,USTexasJasper,Texas,Jasper,2020-07-13 05:32:07.452803,2020-06-11 00:00:00.000000,0.00000000,0.70889051,2.80765973,0,251,997,0,34,154,0.00000000,0.09670776,0.43603698,0.31429811,0.44955111,0.52682470
48241,0,USTexasJasper,Texas,Jasper,2020-07-13 05:32:07.452803,2020-06-12 00:00:00.000000,0.01755586,0.72132778,2.90213565,6,256,1031,1,35,159,0.00458640,0.09903560,0.44769254,0.31426280,0.43911796,0.52414072
48241,0,USTexasJasper,Texas,Jasper,2020-07-13 05:32:07.452803,2020-06-13 00:00:00.000000,0.00000000,0.73246137,2.99288126,0,260,1063,0,36,163,0.00000000,0.10137174,0.45951129,0.31439314,0.41946872,0.54328284
48241,0,USTexasJasper,Texas,Jasper,2020-07-13 05:32:07.452803,2020-06-14 00:00:00.000000,0.01756098,0.74108540,3.08065706,6,263,1094,1,36,167,0.00457833,0.10367425,0.47140850,0.31430998,0.38938518,0.55456407
48241,0,USTexasJasper,Texas,Jasper,2020-07-13 05:32:07.452803,2020-06-15 00:00:00.000000,0.00000000,0.74728178,3.16646045,0,265,1125,0,37,171,0.00000000,0.10587253,0.48338778,0.31407463,0.39537275,0.55573286
48241,0,USTexasJasper,Texas,Jasper,2020-07-13 05:32:07.452803,2020-06-16 00:00:00.000000,0.01748857,0.75227970,3.25071879,6,267,1154,1,38,176,0.00456993,0.10792483,0.49669667,0.31377231,0.39641584,0.54588843
48241,0,USTexasJasper,Texas,Jasper,2020-07-13 05:32:07.452803,2020-06-17 00:00:00.000000,0.00000000,0.75635234,3.33329739,0,268,1184,0,39,181,0.00000000,0.11001790,0.51209685,0.31258484,0.39777749,0.52620190
48241,0,USTexasJasper,Texas,Jasper,2020-07-13 05:32:07.452803,2020-06-18 00:00:00.000000,0.01742506,0.76087303,3.41410121,6,270,1212,1,39,187,0.00456329,0.11191271,0.52775197,0.31358921,0.38957147,0.50285855
48241,0,USTexasJasper,Texas,Jasper,2020-07-13 05:32:07.452803,2020-06-19 00:00:00.000000,0.00000000,0.76700480,3.49358259,0,272,1241,0,40,192,0.00000000,0.11392270,0.54202784,0.29502287,0.37525672,0.48383442
48241,0,USTexasJasper,Texas,Jasper,2020-07-13 05:32:07.452803,2020-06-20 00:00:00.000000,0.01737043,0.77615712,3.57256102,6,275,1269,1,41,197,0.00455729,0.11586482,0.55489309,0.27746070,0.36457536,0.47236866
48241,0,USTexasJasper,Texas,Jasper,2020-07-13 05:32:07.452803,2020-06-21 00:00:00.000000,0.00000000,0.78583979,3.65173538,0,279,1297,0,41,201,0.00000000,0.11787195,0.56784185,0.27159997,0.36002061,0.46612204
48241,0,USTexasJasper,Texas,Jasper,2020-07-13 05:32:07.452803,2020-06-22 00:00:00.000000,0.01732061,0.79636609,3.73141637,6,282,1325,1,42,206,0.00455168,0.11997622,0.58094093,0.26994746,0.36391307,0.46270507
48241,0,USTexasJasper,Texas,Jasper,2020-07-13 05:32:07.452803,2020-06-23 00:00:00.000000,0.00000000,0.80762381,3.81144328,0,286,1354,0,43,211,0.00000000,0.12216162,0.59422976,0.26957261,0.36810594,0.45972313
48241,0,USTexasJasper,Texas,Jasper,2020-07-13 05:32:07.452803,2020-06-24 00:00:00.000000,0.01728028,0.82024066,3.89110232,6,291,1382,1,44,215,0.00454645,0.12443671,0.60771920,0.26949679,0.37447114,0.45476131
48241,0,USTexasJasper,Texas,Jasper,2020-07-13 05:32:07.452803,2020-06-25 00:00:00.000000,0.00000000,0.83441909,3.96903541,0,296,1410,0,45,220,0.00000000,0.12678650,0.62138767,0.26948621,0.38424995,0.44749150
48241,0,USTexasJasper,Texas,Jasper,2020-07-13 05:32:07.452803,2020-06-26 00:00:00.000000,0.01721994,0.85040126,4.04338077,6,302,1436,1,45,225,0.00453565,0.12924495,0.63609310,0.27008928,0.38853003,0.43551612
48241,0,USTexasJasper,Texas,Jasper,2020-07-13 05:32:07.452803,2020-06-27 00:00:00.000000,0.00000000,0.86841742,4.11248980,0,308,1461,0,46,231,0.00000000,0.13183966,0.65131338,0.27050839,0.38550684,0.41918714
48241,0,USTexasJasper,Texas,Jasper,2020-07-13 05:32:07.452803,2020-06-28 00:00:00.000000,0.01713619,0.88825074,4.17592537,6,315,1483,1,47,236,0.00452699,0.13458548,0.66512177,0.27068028,0.38510058,0.42695851
48241,0,USTexasJasper,Texas,Jasper,2020-07-13 05:32:07.452803,2020-06-29 00:00:00.000000,0.00000000,0.90959279,4.23450984,0,323,1504,0,48,241,0.00000000,0.13741982,0.67879264,0.27218716,0.38488182,0.43628395
48241,0,USTexasJasper,Texas,Jasper,2020-07-13 05:32:07.452803,2020-06-30 00:00:00.000000,0.01706760,0.93197949,4.28875912,6,331,1523,1,49,245,0.00451996,0.14048130,0.69234265,0.27710627,0.37953204,0.44208542
48241,0,USTexasJasper,Texas,Jasper,2020-07-13 05:32:07.452803,2020-07-01 00:00:00.000000,0.00000000,0.95528000,4.33595328,0,339,1540,0,51,251,0.00000000,0.14366366,0.70689762,0.27008273,0.37402718,0.44536091
48241,0,USTexasJasper,Texas,Jasper,2020-07-13 05:32:07.452803,2020-07-02 00:00:00.000000,0.01701108,0.97924390,4.36747155,6,347,1551,1,52,257,0.00451406,0.14698382,0.72405403,0.24938178,0.37223968,0.44698706
48241,0,USTexasJasper,Texas,Jasper,2020-07-13 05:32:07.452803,2020-07-03 00:00:00.000000,0.00000000,1.00371978,4.37571054,0,356,1554,0,53,264,0.00000000,0.15041023,0.74439082,0.21934203,0.37018958,0.44730295
48241,0,USTexasJasper,Texas,Jasper,2020-07-13 05:32:07.452803,2020-07-04 00:00:00.000000,0.01696393,1.02844794,4.37043330,6,365,1552,1,54,272,0.00450915,0.15393122,0.76628144,0.19922604,0.37856092,0.44539932
48241,0,USTexasJasper,Texas,Jasper,2020-07-13 05:32:07.452803,2020-07-05 00:00:00.000000,0.00000000,1.05272902,4.36281872,0,374,1550,0,55,279,0.00000000,0.15753247,0.78699784,0.19149370,0.38045463,0.43762498
48241,0,USTexasJasper,Texas,Jasper,2020-07-13 05:32:07.452803,2020-07-06 00:00:00.000000,0.01692511,1.07512886,4.35612885,6,381,1547,1,57,288,0.00450512,0.16118092,0.81266378,0.18954239,0.38043538,0.41851058
48241,0,USTexasJasper,Texas,Jasper,2020-07-13 05:32:07.452803,2020-07-07 00:00:00.000000,0.00000000,1.09466706,4.34860537,0,388,1545,0,58,293,0.00000000,0.16480337,0.82693098,0.18901488,0.38042733,0.39497424
48241,0,USTexasJasper,Texas,Jasper,2020-07-13 05:32:07.452803,2020-07-08 00:00:00.000000,0.01687082,1.11302245,4.34575061,5,395,1544,1,59,305,0.00450180,0.16795506,0.85951383,0.18887014,0.37929693,0.38728793
48241,0,USTexasJasper,Texas,Jasper,2020-07-13 05:32:07.452803,2020-07-09 00:00:00.000000,0.00000000,1.13092567,4.34532098,0,401,1543,0,60,317,0.00000000,0.17138776,0.89320496,0.18882986,0.37453665,0.38756666
48241,0,USTexasJasper,Texas,Jasper,2020-07-13 05:32:07.452803,2020-07-10 00:00:00.000000,0.01684435,1.14904477,4.34726379,5,408,1544,1,62,329,0.00449908,0.17478747,0.92789565,0.18881834,0.37320252,0.38758126
48241,0,USTexasJasper,Texas,Jasper,2020-07-13 05:32:07.452803,2020-07-11 00:00:00.000000,0.00000000,1.16757537,4.35147939,0,414,1546,0,63,342,0.00000000,0.17819649,0.96349921,0.18881492,0.37285617,0.38758281
48241,0,USTexasJasper,Texas,Jasper,2020-07-13 05:32:07.452803,2020-07-12 00:00:00.000000,0.01682267,1.18658008,4.35787844,5,421,1548,1,64,355,0.00449684,0.18165419,1.00021710,0.18881384,0.37276919,0.38758286
48241,0,USTexasJasper,Texas,Jasper,2020-07-13 05:32:07.452803,2020-07-13 00:00:00.000000,0.00000000,1.20608240,4.36637826,0,428,1551,0,65,368,0.00000000,0.18516769,1.03672510,0.18881348,0.37275023,0.38758286
48241,0,USTexasJasper,Texas,Jasper,2020-07-13 05:32:07.452803,2020-07-14 00:00:00.000000,0.01680482,1.22609190,4.37689013,5,435,1555,1,67,379,0.00449500,0.18874014,1.06818416,0.18881336,0.37274745,0.38758287
48241,0,USTexasJasper,Texas,Jasper,2020-07-13 05:32:07.452803,2020-07-15 00:00:00.000000,0.00000000,1.24661287,4.38932944,0,442,1559,0,68,392,0.00000000,0.19237600,1.10431948,0.18881331,0.37274681,0.38758287
48241,0,USTexasJasper,Texas,Jasper,2020-07-13 05:32:07.452803,2020-07-16 00:00:00.000000,0.01679014,1.26764761,4.40361570,5,450,1564,1,69,407,0.00449349,0.19607804,1.14573437,0.18881329,0.37274667,0.38758287
48241,0,USTexasJasper,Texas,Jasper,2020-07-13 05:32:07.452803,2020-07-17 00:00:00.000000,0.00000000,1.28919774,4.41967242,0,458,1570,0,71,422,0.00000000,0.19984821,1.18848126,0.18881328,0.37274666,0.38758287
48241,0,USTexasJasper,Texas,Jasper,2020-07-13 05:32:07.452803,2020-07-18 00:00:00.000000,0.01677806,1.31126479,4.44321529,5,465,1578,1,72,437,0.00449225,0.20368808,1.23259991,0.18881328,0.37274666,0.38758287
48241,0,USTexasJasper,Texas,Jasper,2020-07-13 05:32:07.452803,2020-07-19 00:00:00.000000,0.00000000,1.33337191,4.46259682,0,473,1585,0,73,454,0.00000000,0.20759904,1.27812911,0.18881328,0.37274667,0.38758287
48241,0,USTexasJasper,Texas,Jasper,2020-07-13 05:32:07.452803,2020-07-20 00:00:00.000000,0.01676812,1.35613905,4.48354253,5,481,1592,1,75,470,0.00449123,0.21158239,1.32510666,0.18881328,0.37274667,0.38758287
48241,0,USTexasJasper,Texas,Jasper,2020-07-13 05:32:07.452803,2020-07-21 00:00:00.000000,0.00000000,1.37962585,4.50598996,0,490,1600,0,76,487,0.00000000,0.21563939,1.37347615,0.18881328,0.37274667,0.38758287
48241,0,USTexasJasper,Texas,Jasper,2020-07-13 05:32:07.452803,2020-07-22 00:00:00.000000,0.01675994,1.40355482,4.53907481,5,498,1612,1,78,505,0.00449039,0.21977131,1.42323847,0.18881328,0.37274667,0.38758287
48241,0,USTexasJasper,Texas,Jasper,2020-07-13 05:32:07.452803,2020-07-23 00:00:00.000000,0.00000000,1.42822713,4.64698820,0,507,1651,0,79,522,0.00000000,0.22397943,1.47062370,0.18881328,0.37274667,0.38758287
48241,0,USTexasJasper,Texas,Jasper,2020-07-13 05:32:07.452803,2020-07-24 00:00:00.000000,0.01675321,1.45346989,4.72514498,5,516,1678,1,81,538,0.00448970,0.22801306,1.51468290,0.18881328,0.37274667,0.38758287
48241,0,USTexasJasper,Texas,Jasper,2020-07-13 05:32:07.452803,2020-07-25 00:00:00.000000,0.00000000,1.47825132,4.75554133,0,525,1689,0,82,554,0.00000000,0.23219327,1.55988574,0.18881328,0.37274667,0.38758287
