FIPS,HR_UID,nameid,province,region,analysisTime,dates,pointprevalence_025,pointprevalence_50,pointprevalence_975,pointinfections_025,pointinfections_50,pointinfections_975,pointinfectious_025,pointinfectious_50,pointinfectious_975,pointinfectiousprevalence_05,pointinfectiousprevalence_50,pointinfectiousprevalence_95,infectrate_025,infectrate_50,infectrate_975
25015,0,USMassachusettsHampshire,Massachusetts,Hampshire,2020-07-18 12:52:52.074337,2020-03-09 00:00:00.000000,0.00206425,0.01118682,0.04098217,3,17,65,1,7,24,0.00068186,0.00488868,0.01536123,0.61260889,0.92041759,1.23272919
25015,0,USMassachusettsHampshire,Massachusetts,Hampshire,2020-07-18 12:52:52.074337,2020-03-10 00:00:00.000000,0.00391988,0.01576080,0.51342383,6,25,825,2,11,34,0.00175692,0.00722926,0.02174191,0.61260889,0.92031171,1.23272919
25015,0,USMassachusettsHampshire,Massachusetts,Hampshire,2020-07-18 12:52:52.074337,2020-03-11 00:00:00.000000,0.00482925,0.01460072,0.05002696,7,23,80,0,11,30,0.00049144,0.00694215,0.01913773,0.61260889,0.92014689,1.23272919
25015,0,USMassachusettsHampshire,Massachusetts,Hampshire,2020-07-18 12:52:52.074337,2020-03-12 00:00:00.000000,0.00575871,0.02068026,0.59303131,9,33,953,4,17,44,0.00288614,0.01063331,0.02756648,0.61260888,0.91989260,1.23272920
25015,0,USMassachusettsHampshire,Massachusetts,Hampshire,2020-07-18 12:52:52.074337,2020-03-13 00:00:00.000000,0.00726158,0.02024028,0.06230797,11,32,100,1,15,39,0.00087382,0.00949402,0.02485757,0.61260872,0.91950678,1.23272921
25015,0,USMassachusettsHampshire,Massachusetts,Hampshire,2020-07-18 12:52:52.074337,2020-03-14 00:00:00.000000,0.00865473,0.02648378,0.65045545,13,42,1046,7,21,50,0.00441327,0.01354907,0.03154744,0.61260752,0.91902568,1.23272930
25015,0,USMassachusettsHampshire,Massachusetts,Hampshire,2020-07-18 12:52:52.074337,2020-03-15 00:00:00.000000,0.01074208,0.02617526,0.07950012,17,42,127,2,20,50,0.00147127,0.01283398,0.03121423,0.61209563,0.91922768,1.23272954
25015,0,USMassachusettsHampshire,Massachusetts,Hampshire,2020-07-18 12:52:52.074337,2020-03-16 00:00:00.000000,0.01243221,0.03726683,0.70232020,19,59,1129,10,28,58,0.00656582,0.01754738,0.03628183,0.61070641,0.91921562,1.23272751
25015,0,USMassachusettsHampshire,Massachusetts,Hampshire,2020-07-18 12:52:52.074337,2020-03-17 00:00:00.000000,0.01449983,0.03516609,0.10650443,23,56,171,3,27,62,0.00217235,0.01739845,0.03916595,0.60774325,0.92106735,1.23267794
25015,0,USMassachusettsHampshire,Massachusetts,Hampshire,2020-07-18 12:52:52.074337,2020-03-18 00:00:00.000000,0.01861496,0.05043957,0.75440385,29,81,1213,14,35,77,0.00931917,0.02185592,0.04810060,0.60377031,0.92173728,1.23235485
25015,0,USMassachusettsHampshire,Massachusetts,Hampshire,2020-07-18 12:52:52.074337,2020-03-19 00:00:00.000000,0.01729531,0.04593757,0.13631873,27,73,219,4,37,81,0.00300372,0.02318060,0.05063545,0.59626707,0.93136395,1.30452031
25015,0,USMassachusettsHampshire,Massachusetts,Hampshire,2020-07-18 12:52:52.074337,2020-03-20 00:00:00.000000,0.02609401,0.06429435,0.82433311,41,103,1325,21,45,102,0.01330094,0.02846371,0.06346006,0.60055014,0.93636140,1.37351920
25015,0,USMassachusettsHampshire,Massachusetts,Hampshire,2020-07-18 12:52:52.074337,2020-03-21 00:00:00.000000,0.02361386,0.06215463,0.17087766,37,99,274,6,50,120,0.00396096,0.03113762,0.07463790,0.60232808,0.92783224,1.47993855
25015,0,USMassachusettsHampshire,Massachusetts,Hampshire,2020-07-18 12:52:52.074337,2020-03-22 00:00:00.000000,0.03572425,0.08632663,0.92174066,57,138,1482,30,59,145,0.01899207,0.03715413,0.09059619,0.59680580,0.90470185,1.61910970
25015,0,USMassachusettsHampshire,Massachusetts,Hampshire,2020-07-18 12:52:52.074337,2020-03-23 00:00:00.000000,0.03224841,0.08423212,0.22510007,51,135,362,8,67,175,0.00552901,0.04227948,0.10884125,0.58759304,0.90766405,1.78377689
25015,0,USMassachusettsHampshire,Massachusetts,Hampshire,2020-07-18 12:52:52.074337,2020-03-24 00:00:00.000000,0.04987193,0.11097670,1.05332244,80,178,1694,41,79,204,0.02595980,0.04939061,0.12727253,0.58398804,0.89682805,1.80336931
25015,0,USMassachusettsHampshire,Massachusetts,Hampshire,2020-07-18 12:52:52.074337,2020-03-25 00:00:00.000000,0.04412939,0.11423484,0.29266542,70,183,470,12,90,237,0.00770840,0.05602893,0.14746265,0.57790258,0.89328291,1.80914124
25015,0,USMassachusettsHampshire,Massachusetts,Hampshire,2020-07-18 12:52:52.074337,2020-03-26 00:00:00.000000,0.06971222,0.14783138,1.25260752,112,237,2014,52,104,273,0.03234081,0.06525009,0.16974782,0.57417451,0.88836493,1.81057299
25015,0,USMassachusettsHampshire,Massachusetts,Hampshire,2020-07-18 12:52:52.074337,2020-03-27 00:00:00.000000,0.05737302,0.15095098,0.37243009,92,242,598,15,119,316,0.00950456,0.07407207,0.19680413,0.54551237,0.88648726,1.81021492
25015,0,USMassachusettsHampshire,Massachusetts,Hampshire,2020-07-18 12:52:52.074337,2020-03-28 00:00:00.000000,0.09127945,0.19960593,1.48653228,146,321,2390,60,137,366,0.03770350,0.08561829,0.22807575,0.52043922,0.86299155,1.80873751
25015,0,USMassachusettsHampshire,Massachusetts,Hampshire,2020-07-18 12:52:52.074337,2020-03-29 00:00:00.000000,0.06988172,0.19193377,0.48361680,112,308,777,19,153,418,0.01205419,0.09555559,0.26007919,0.48808684,0.82654431,1.80016528
25015,0,USMassachusettsHampshire,Massachusetts,Hampshire,2020-07-18 12:52:52.074337,2020-03-30 00:00:00.000000,0.11645809,0.23608285,1.74707173,187,379,2809,70,175,472,0.04413963,0.10931310,0.29402251,0.47405866,0.76194455,1.76793608
25015,0,USMassachusettsHampshire,Massachusetts,Hampshire,2020-07-18 12:52:52.074337,2020-03-31 00:00:00.000000,0.08147065,0.23226805,0.61092070,131,373,982,24,191,546,0.01537536,0.11931588,0.33959592,0.46457490,0.71859948,1.76510356
25015,0,USMassachusettsHampshire,Massachusetts,Hampshire,2020-07-18 12:52:52.074337,2020-04-01 00:00:00.000000,0.14588542,0.28134246,1.98021822,234,452,3184,82,210,605,0.05142581,0.13102801,0.37645296,0.41909766,0.67540937,1.70672727
25015,0,USMassachusettsHampshire,Massachusetts,Hampshire,2020-07-18 12:52:52.074337,2020-04-02 00:00:00.000000,0.09029473,0.26758191,0.73546211,145,430,1182,30,226,658,0.01921568,0.14111864,0.40937745,0.38996743,0.62344706,1.64661015
25015,0,USMassachusettsHampshire,Massachusetts,Hampshire,2020-07-18 12:52:52.074337,2020-04-03 00:00:00.000000,0.17182485,0.31595976,2.13955441,276,508,3441,91,242,713,0.05718355,0.15048844,0.44377146,0.35308933,0.59995768,1.45361977
25015,0,USMassachusettsHampshire,Massachusetts,Hampshire,2020-07-18 12:52:52.074337,2020-04-04 00:00:00.000000,0.09457027,0.30123459,0.80817936,152,484,1299,36,258,760,0.02278839,0.16087321,0.47281403,0.31239931,0.57507365,1.36333817
25015,0,USMassachusettsHampshire,Massachusetts,Hampshire,2020-07-18 12:52:52.074337,2020-04-05 00:00:00.000000,0.19063010,0.34655395,2.09962224,306,557,3376,98,270,806,0.06105652,0.16813383,0.50169710,0.30283412,0.55481678,1.34395914
25015,0,USMassachusettsHampshire,Massachusetts,Hampshire,2020-07-18 12:52:52.074337,2020-04-06 00:00:00.000000,0.09917559,0.32816643,0.88653545,159,527,1425,39,281,853,0.02483522,0.17522187,0.53055075,0.28905235,0.54113914,1.34329272
25015,0,USMassachusettsHampshire,Massachusetts,Hampshire,2020-07-18 12:52:52.074337,2020-04-07 00:00:00.000000,0.20231513,0.37476252,2.02292401,325,602,3253,103,292,899,0.06443123,0.18171521,0.55940623,0.28420346,0.52880531,1.34427993
25015,0,USMassachusettsHampshire,Massachusetts,Hampshire,2020-07-18 12:52:52.074337,2020-04-08 00:00:00.000000,0.10402706,0.35211185,0.94765872,167,566,1524,42,305,945,0.02628250,0.19011765,0.58775461,0.28138543,0.52459537,1.34275011
25015,0,USMassachusettsHampshire,Massachusetts,Hampshire,2020-07-18 12:52:52.074337,2020-04-09 00:00:00.000000,0.21753810,0.39884190,2.02736110,349,641,3260,110,318,988,0.06845399,0.19785631,0.61480384,0.27094834,0.51663056,1.34755778
25015,0,USMassachusettsHampshire,Massachusetts,Hampshire,2020-07-18 12:52:52.074337,2020-04-10 00:00:00.000000,0.10982575,0.37762017,0.97919562,176,607,1574,44,332,1029,0.02757499,0.20681509,0.64009899,0.27064744,0.50280592,1.35319536
25015,0,USMassachusettsHampshire,Massachusetts,Hampshire,2020-07-18 12:52:52.074337,2020-04-11 00:00:00.000000,0.22581738,0.43028673,2.05583042,363,692,3306,113,348,1067,0.07044350,0.21676405,0.66349108,0.25928322,0.50665567,1.37091504
25015,0,USMassachusettsHampshire,Massachusetts,Hampshire,2020-07-18 12:52:52.074337,2020-04-12 00:00:00.000000,0.11220759,0.40289247,1.04098437,180,647,1674,46,364,1102,0.02885832,0.22670299,0.68547345,0.24925413,0.50125140,1.39691800
25015,0,USMassachusettsHampshire,Massachusetts,Hampshire,2020-07-18 12:52:52.074337,2020-04-13 00:00:00.000000,0.23249513,0.45312933,2.07045062,373,728,3329,117,377,1140,0.07283691,0.23470807,0.70901217,0.24113504,0.50520929,1.41874034
25015,0,USMassachusettsHampshire,Massachusetts,Hampshire,2020-07-18 12:52:52.074337,2020-04-14 00:00:00.000000,0.11914644,0.43318626,1.12295608,191,696,1806,48,392,1174,0.03018794,0.24388023,0.73058085,0.23920857,0.50448107,1.43035573
25015,0,USMassachusettsHampshire,Massachusetts,Hampshire,2020-07-18 12:52:52.074337,2020-04-15 00:00:00.000000,0.23421390,0.48125467,2.15118564,376,774,3459,121,405,1206,0.07558051,0.25236994,0.75030509,0.23838026,0.50086181,1.43529904
25015,0,USMassachusettsHampshire,Massachusetts,Hampshire,2020-07-18 12:52:52.074337,2020-04-16 00:00:00.000000,0.13059757,0.45986274,1.20145080,210,739,1932,51,412,1236,0.03188451,0.25660975,0.76874125,0.23739808,0.50544907,1.43336778
25015,0,USMassachusettsHampshire,Massachusetts,Hampshire,2020-07-18 12:52:52.074337,2020-04-17 00:00:00.000000,0.23638595,0.51439913,2.26006774,380,827,3634,126,429,1264,0.07867699,0.26681209,0.78613532,0.23573012,0.50111658,1.42201811
25015,0,USMassachusettsHampshire,Massachusetts,Hampshire,2020-07-18 12:52:52.074337,2020-04-18 00:00:00.000000,0.14251595,0.48164415,1.25265689,229,774,2014,55,438,1290,0.03425767,0.27261765,0.80254239,0.23482904,0.49740640,1.38114261
25015,0,USMassachusettsHampshire,Massachusetts,Hampshire,2020-07-18 12:52:52.074337,2020-04-19 00:00:00.000000,0.24835824,0.54601820,2.39709242,399,878,3855,131,451,1323,0.08177434,0.28101571,0.82315535,0.22942050,0.49268512,1.38520869
25015,0,USMassachusettsHampshire,Massachusetts,Hampshire,2020-07-18 12:52:52.074337,2020-04-20 00:00:00.000000,0.14540791,0.49639921,1.31602772,233,798,2116,59,462,1358,0.03677272,0.28785459,0.84454072,0.23100686,0.48395101,1.38783366
25015,0,USMassachusettsHampshire,Massachusetts,Hampshire,2020-07-18 12:52:52.074337,2020-04-21 00:00:00.000000,0.27038516,0.56712104,2.53150829,434,912,4071,139,478,1392,0.08682368,0.29724706,0.86612834,0.22916393,0.47530367,1.38437953
25015,0,USMassachusettsHampshire,Massachusetts,Hampshire,2020-07-18 12:52:52.074337,2020-04-22 00:00:00.000000,0.14149071,0.51871348,1.38176963,227,834,2222,62,485,1427,0.03882039,0.30176628,0.88785924,0.22108226,0.46909728,1.36685776
25015,0,USMassachusettsHampshire,Massachusetts,Hampshire,2020-07-18 12:52:52.074337,2020-04-23 00:00:00.000000,0.29120923,0.58841355,2.65385069,468,946,4268,147,495,1462,0.09168961,0.30798270,0.90943107,0.21835926,0.46206115,1.33398814
25015,0,USMassachusettsHampshire,Massachusetts,Hampshire,2020-07-18 12:52:52.074337,2020-04-24 00:00:00.000000,0.14265538,0.52867333,1.44284600,229,850,2320,64,507,1496,0.03992196,0.31574580,0.93020069,0.20916125,0.45632746,1.32178285
25015,0,USMassachusettsHampshire,Massachusetts,Hampshire,2020-07-18 12:52:52.074337,2020-04-25 00:00:00.000000,0.30606915,0.60783769,2.74539850,492,977,4415,152,526,1526,0.09458896,0.32752835,0.94928968,0.20314611,0.43443946,1.32517326
25015,0,USMassachusettsHampshire,Massachusetts,Hampshire,2020-07-18 12:52:52.074337,2020-04-26 00:00:00.000000,0.14284531,0.53437892,1.48176007,229,859,2383,63,519,1553,0.03955647,0.32288677,0.96608812,0.20116417,0.41773845,1.33581731
25015,0,USMassachusettsHampshire,Massachusetts,Hampshire,2020-07-18 12:52:52.074337,2020-04-27 00:00:00.000000,0.31098097,0.61755725,2.82252726,500,993,4539,152,528,1576,0.09465089,0.32843305,0.98003920,0.20069605,0.41147230,1.34660670
25015,0,USMassachusettsHampshire,Massachusetts,Hampshire,2020-07-18 12:52:52.074337,2020-04-28 00:00:00.000000,0.14272844,0.52508690,1.48623163,229,844,2390,63,519,1592,0.03934236,0.32301465,0.98989442,0.19741431,0.41041040,1.32653885
25015,0,USMassachusettsHampshire,Massachusetts,Hampshire,2020-07-18 12:52:52.074337,2020-04-29 00:00:00.000000,0.30069826,0.60775154,2.84540293,483,977,4576,150,524,1600,0.09355013,0.32601663,0.99511918,0.19087900,0.40407647,1.31009860
25015,0,USMassachusettsHampshire,Massachusetts,Hampshire,2020-07-18 12:52:52.074337,2020-04-30 00:00:00.000000,0.13971160,0.52001147,1.46505088,224,836,2356,62,512,1602,0.03893349,0.31864636,0.99665003,0.18014570,0.39496283,1.28609351
25015,0,USMassachusettsHampshire,Massachusetts,Hampshire,2020-07-18 12:52:52.074337,2020-05-01 00:00:00.000000,0.28466225,0.59569867,2.84331482,457,958,4572,148,517,1605,0.09223234,0.32165884,0.99802729,0.17206728,0.38360175,1.27544094
25015,0,USMassachusettsHampshire,Massachusetts,Hampshire,2020-07-18 12:52:52.074337,2020-05-02 00:00:00.000000,0.13180465,0.51502531,1.42059527,211,828,2284,61,502,1607,0.03812873,0.31273750,0.99977283,0.16993143,0.37512112,1.26640856
25015,0,USMassachusettsHampshire,Massachusetts,Hampshire,2020-07-18 12:52:52.074337,2020-05-03 00:00:00.000000,0.26308197,0.56990074,2.74905967,423,916,4421,144,503,1609,0.09010544,0.31333566,1.00084802,0.16910677,0.36465424,1.25179003
25015,0,USMassachusettsHampshire,Massachusetts,Hampshire,2020-07-18 12:52:52.074337,2020-05-04 00:00:00.000000,0.12445992,0.50663171,1.35924965,200,814,2186,59,493,1598,0.03715490,0.30686615,0.99381340,0.16163689,0.36103897,1.22560293
25015,0,USMassachusettsHampshire,Massachusetts,Hampshire,2020-07-18 12:52:52.074337,2020-05-05 00:00:00.000000,0.23122885,0.54786545,2.68017627,371,881,4310,140,495,1572,0.08715544,0.30796946,0.97779950,0.15635776,0.35936378,1.19516057
25015,0,USMassachusettsHampshire,Massachusetts,Hampshire,2020-07-18 12:52:52.074337,2020-05-06 00:00:00.000000,0.11914700,0.48109329,1.29898780,191,773,2089,58,476,1546,0.03608446,0.29658206,0.96150855,0.15148341,0.35835704,1.16196978
25015,0,USMassachusettsHampshire,Massachusetts,Hampshire,2020-07-18 12:52:52.074337,2020-05-07 00:00:00.000000,0.21612930,0.52746452,2.61721180,347,848,4209,135,471,1519,0.08396146,0.29341338,0.94485691,0.14713374,0.35747063,1.12439123
25015,0,USMassachusettsHampshire,Massachusetts,Hampshire,2020-07-18 12:52:52.074337,2020-05-08 00:00:00.000000,0.11136635,0.45413300,1.25312350,179,730,2015,55,459,1491,0.03474590,0.28541552,0.92761141,0.13942850,0.35312838,1.08269758
25015,0,USMassachusettsHampshire,Massachusetts,Hampshire,2020-07-18 12:52:52.074337,2020-05-09 00:00:00.000000,0.20383662,0.50938299,2.50169619,327,819,4023,128,443,1462,0.07969079,0.27581456,0.90920359,0.13493065,0.34185598,1.04593010
25015,0,USMassachusettsHampshire,Massachusetts,Hampshire,2020-07-18 12:52:52.074337,2020-05-10 00:00:00.000000,0.10381008,0.43567767,1.19647143,166,700,1924,52,427,1430,0.03294343,0.26590291,0.88932266,0.13258257,0.33282019,1.04579227
25015,0,USMassachusettsHampshire,Massachusetts,Hampshire,2020-07-18 12:52:52.074337,2020-05-11 00:00:00.000000,0.18947631,0.48264060,2.31549402,304,776,3724,121,419,1406,0.07538783,0.26070824,0.87439108,0.12926638,0.32854923,1.05014642
25015,0,USMassachusettsHampshire,Massachusetts,Hampshire,2020-07-18 12:52:52.074337,2020-05-12 00:00:00.000000,0.09546228,0.42173891,1.12911356,153,678,1815,49,408,1389,0.03088517,0.25386589,0.86397096,0.12368958,0.32628497,1.04128551
25015,0,USMassachusettsHampshire,Massachusetts,Hampshire,2020-07-18 12:52:52.074337,2020-05-13 00:00:00.000000,0.17447219,0.44641693,2.14395522,280,717,3448,114,396,1372,0.07110748,0.24660968,0.85360758,0.12339268,0.32201559,1.01685582
25015,0,USMassachusettsHampshire,Massachusetts,Hampshire,2020-07-18 12:52:52.074337,2020-05-14 00:00:00.000000,0.08744422,0.39993450,1.05535547,140,643,1697,46,385,1352,0.02867047,0.23961254,0.84124723,0.11875985,0.31763033,1.00142398
25015,0,USMassachusettsHampshire,Massachusetts,Hampshire,2020-07-18 12:52:52.074337,2020-05-15 00:00:00.000000,0.15934320,0.41662304,1.90020885,256,670,3056,107,372,1326,0.06658371,0.23150540,0.82496526,0.11459662,0.30564807,0.99822936
25015,0,USMassachusettsHampshire,Massachusetts,Hampshire,2020-07-18 12:52:52.074337,2020-05-16 00:00:00.000000,0.08030939,0.36816980,0.99149690,129,592,1594,42,357,1296,0.02643896,0.22229052,0.80626892,0.11280182,0.29669625,0.99278372
25015,0,USMassachusettsHampshire,Massachusetts,Hampshire,2020-07-18 12:52:52.074337,2020-05-17 00:00:00.000000,0.14412274,0.38595380,1.77339380,231,620,2852,98,341,1265,0.06147920,0.21248712,0.78660453,0.10797045,0.28868228,0.98543969
25015,0,USMassachusettsHampshire,Massachusetts,Hampshire,2020-07-18 12:52:52.074337,2020-05-18 00:00:00.000000,0.07324112,0.33052043,0.93416223,117,531,1502,39,325,1233,0.02427242,0.20258993,0.76706955,0.10086157,0.27569967,0.97867411
25015,0,USMassachusettsHampshire,Massachusetts,Hampshire,2020-07-18 12:52:52.074337,2020-05-19 00:00:00.000000,0.12925891,0.35106125,1.62832633,207,564,2618,90,309,1202,0.05646113,0.19248713,0.74783178,0.09600884,0.27065107,0.96752492
25015,0,USMassachusettsHampshire,Massachusetts,Hampshire,2020-07-18 12:52:52.074337,2020-05-20 00:00:00.000000,0.06490898,0.28820112,0.88255807,104,463,1419,35,294,1171,0.02209172,0.18291111,0.72856472,0.09296801,0.26857926,0.95102009
25015,0,USMassachusettsHampshire,Massachusetts,Hampshire,2020-07-18 12:52:52.074337,2020-05-21 00:00:00.000000,0.11841330,0.31634365,1.49050958,190,508,2397,81,270,1139,0.05055045,0.16820876,0.70852732,0.09070982,0.26835430,0.92051523
25015,0,USMassachusettsHampshire,Massachusetts,Hampshire,2020-07-18 12:52:52.074337,2020-05-22 00:00:00.000000,0.05688798,0.25512448,0.81736041,91,410,1314,31,246,1104,0.01929959,0.15352010,0.68674811,0.08702588,0.26809872,0.87766872
25015,0,USMassachusettsHampshire,Massachusetts,Hampshire,2020-07-18 12:52:52.074337,2020-05-23 00:00:00.000000,0.10870129,0.28943245,1.37678352,174,465,2214,69,232,1060,0.04306460,0.14433266,0.65963118,0.08537119,0.26608557,0.83339662
25015,0,USMassachusettsHampshire,Massachusetts,Hampshire,2020-07-18 12:52:52.074337,2020-05-24 00:00:00.000000,0.04993335,0.22368177,0.75234703,80,359,1209,26,221,1008,0.01631232,0.13753604,0.62723159,0.08504066,0.26352819,0.81899708
25015,0,USMassachusettsHampshire,Massachusetts,Hampshire,2020-07-18 12:52:52.074337,2020-05-25 00:00:00.000000,0.09527358,0.25967249,1.28374707,153,417,2064,60,209,958,0.03732551,0.13011879,0.59595209,0.08584540,0.25833546,0.81064169
25015,0,USMassachusettsHampshire,Massachusetts,Hampshire,2020-07-18 12:52:52.074337,2020-05-26 00:00:00.000000,0.04434731,0.19892111,0.69257407,71,319,1113,21,196,910,0.01367376,0.12213789,0.56609759,0.08387425,0.25393625,0.76865512
25015,0,USMassachusettsHampshire,Massachusetts,Hampshire,2020-07-18 12:52:52.074337,2020-05-27 00:00:00.000000,0.08193582,0.22481065,1.22773219,131,361,1974,53,182,864,0.03321814,0.11344500,0.53769678,0.08580100,0.25298176,0.75568709
25015,0,USMassachusettsHampshire,Massachusetts,Hampshire,2020-07-18 12:52:52.074337,2020-05-28 00:00:00.000000,0.04008988,0.17667419,0.63516442,64,284,1021,18,172,821,0.01152716,0.10717393,0.51070858,0.08498278,0.25395991,0.76382690
25015,0,USMassachusettsHampshire,Massachusetts,Hampshire,2020-07-18 12:52:52.074337,2020-05-29 00:00:00.000000,0.07172682,0.20188384,1.16004177,115,324,1865,48,163,780,0.03011250,0.10156736,0.48507216,0.08387507,0.25420863,0.77755971
25015,0,USMassachusettsHampshire,Massachusetts,Hampshire,2020-07-18 12:52:52.074337,2020-05-30 00:00:00.000000,0.03601789,0.15939879,0.58156002,57,256,935,15,153,740,0.00981727,0.09534994,0.46072807,0.08273112,0.25902085,0.79526447
25015,0,USMassachusettsHampshire,Massachusetts,Hampshire,2020-07-18 12:52:52.074337,2020-05-31 00:00:00.000000,0.06386784,0.18516694,1.07396093,102,297,1727,44,144,703,0.02749280,0.08971683,0.43763598,0.08576388,0.27425750,0.80894523
25015,0,USMassachusettsHampshire,Massachusetts,Hampshire,2020-07-18 12:52:52.074337,2020-06-01 00:00:00.000000,0.03287896,0.14142209,0.53120074,52,227,854,13,134,668,0.00849958,0.08380203,0.41581268,0.08583870,0.28836275,0.81208315
25015,0,USMassachusettsHampshire,Massachusetts,Hampshire,2020-07-18 12:52:52.074337,2020-06-02 00:00:00.000000,0.05799932,0.16931326,1.00136496,93,272,1610,41,126,635,0.02586853,0.07891587,0.39522652,0.08556303,0.29099072,0.80087974
25015,0,USMassachusettsHampshire,Massachusetts,Hampshire,2020-07-18 12:52:52.074337,2020-06-03 00:00:00.000000,0.03049117,0.12624849,0.48347153,49,203,777,12,121,604,0.00747089,0.07552642,0.37570238,0.08622742,0.29529838,0.78273959
25015,0,USMassachusettsHampshire,Massachusetts,Hampshire,2020-07-18 12:52:52.074337,2020-06-04 00:00:00.000000,0.05113956,0.15319033,0.93752295,82,246,1507,39,115,574,0.02436679,0.07185957,0.35730261,0.08911291,0.29869356,0.77363956
25015,0,USMassachusettsHampshire,Massachusetts,Hampshire,2020-07-18 12:52:52.074337,2020-06-05 00:00:00.000000,0.02798453,0.11323621,0.44144114,45,182,709,10,110,547,0.00661945,0.06854411,0.34030562,0.09373377,0.30398396,0.78000757
25015,0,USMassachusettsHampshire,Massachusetts,Hampshire,2020-07-18 12:52:52.074337,2020-06-06 00:00:00.000000,0.04603844,0.13927171,0.89290351,74,223,1436,37,106,521,0.02328614,0.06631781,0.32420038,0.09654044,0.31483564,0.80002460
25015,0,USMassachusettsHampshire,Massachusetts,Hampshire,2020-07-18 12:52:52.074337,2020-06-07 00:00:00.000000,0.02600633,0.10716084,0.40552303,41,172,652,9,100,496,0.00589652,0.06233538,0.30897242,0.09741951,0.31659879,0.82499711
25015,0,USMassachusettsHampshire,Massachusetts,Hampshire,2020-07-18 12:52:52.074337,2020-06-08 00:00:00.000000,0.04241464,0.12934352,0.86139336,68,208,1385,35,98,473,0.02234190,0.06102896,0.29460771,0.09763510,0.32452284,0.83426532
25015,0,USMassachusettsHampshire,Massachusetts,Hampshire,2020-07-18 12:52:52.074337,2020-06-09 00:00:00.000000,0.02372783,0.10255750,0.37675662,38,164,605,8,93,453,0.00528256,0.05825294,0.28173080,0.09769271,0.32999724,0.84003471
25015,0,USMassachusettsHampshire,Massachusetts,Hampshire,2020-07-18 12:52:52.074337,2020-06-10 00:00:00.000000,0.03935454,0.11934010,0.83680983,63,191,1345,33,91,434,0.02082775,0.05683757,0.27033267,0.09772933,0.33969320,0.84351956
25015,0,USMassachusettsHampshire,Massachusetts,Hampshire,2020-07-18 12:52:52.074337,2020-06-11 00:00:00.000000,0.02261270,0.09627203,0.35156365,36,154,565,7,87,417,0.00476828,0.05424232,0.25941488,0.09780298,0.34308879,0.84571461
25015,0,USMassachusettsHampshire,Massachusetts,Hampshire,2020-07-18 12:52:52.074337,2020-06-12 00:00:00.000000,0.03796569,0.11089768,0.81665820,61,178,1313,31,86,402,0.01949911,0.05350701,0.25007702,0.09800281,0.34329453,0.84684864
25015,0,USMassachusettsHampshire,Massachusetts,Hampshire,2020-07-18 12:52:52.074337,2020-06-13 00:00:00.000000,0.02116183,0.08851906,0.32889283,34,142,528,6,82,388,0.00434714,0.05147647,0.24133712,0.09854114,0.34641801,0.84624906
25015,0,USMassachusettsHampshire,Massachusetts,Hampshire,2020-07-18 12:52:52.074337,2020-06-14 00:00:00.000000,0.03759101,0.10251094,0.79191691,60,164,1273,29,80,375,0.01856518,0.05018040,0.23322902,0.09983251,0.35173426,0.84550769
25015,0,USMassachusettsHampshire,Massachusetts,Hampshire,2020-07-18 12:52:52.074337,2020-06-15 00:00:00.000000,0.02043629,0.08356413,0.30808457,32,134,495,6,77,363,0.00400978,0.04835249,0.22575074,0.10226841,0.35664513,0.84499307
25015,0,USMassachusettsHampshire,Massachusetts,Hampshire,2020-07-18 12:52:52.074337,2020-06-16 00:00:00.000000,0.03679533,0.09534670,0.76677990,59,153,1233,28,76,352,0.01788096,0.04732343,0.21886576,0.10514741,0.36422020,0.84543342
25015,0,USMassachusettsHampshire,Massachusetts,Hampshire,2020-07-18 12:52:52.074337,2020-06-17 00:00:00.000000,0.01974435,0.08025780,0.28882040,31,129,464,6,73,341,0.00376890,0.04576980,0.21248009,0.10714910,0.37297590,0.84750482
25015,0,USMassachusettsHampshire,Massachusetts,Hampshire,2020-07-18 12:52:52.074337,2020-06-18 00:00:00.000000,0.03558541,0.09216608,0.74520019,57,148,1198,27,74,332,0.01731758,0.04621159,0.20650963,0.10853913,0.38172907,0.85251775
25015,0,USMassachusettsHampshire,Massachusetts,Hampshire,2020-07-18 12:52:52.074337,2020-06-19 00:00:00.000000,0.01958987,0.07773882,0.27089108,31,125,435,5,73,323,0.00370385,0.04539067,0.20091217,0.11058889,0.39937009,0.85603345
25015,0,USMassachusettsHampshire,Massachusetts,Hampshire,2020-07-18 12:52:52.074337,2020-06-20 00:00:00.000000,0.03627101,0.09044603,0.72778513,58,145,1170,27,73,314,0.01700772,0.04566686,0.19555852,0.11452011,0.40945214,0.87575988
25015,0,USMassachusettsHampshire,Massachusetts,Hampshire,2020-07-18 12:52:52.074337,2020-06-21 00:00:00.000000,0.01884286,0.07793828,0.25731476,30,125,413,6,72,306,0.00383303,0.04495300,0.19041736,0.11954907,0.41347657,0.88355389
25015,0,USMassachusettsHampshire,Massachusetts,Hampshire,2020-07-18 12:52:52.074337,2020-06-22 00:00:00.000000,0.03713783,0.09036058,0.71978618,59,145,1157,27,73,298,0.01697038,0.04568759,0.18545992,0.12317553,0.42070450,0.88757921
25015,0,USMassachusettsHampshire,Massachusetts,Hampshire,2020-07-18 12:52:52.074337,2020-06-23 00:00:00.000000,0.01868081,0.07602736,0.25382401,30,122,408,6,71,290,0.00406391,0.04447273,0.18063557,0.12499606,0.42545060,0.88945905
25015,0,USMassachusettsHampshire,Massachusetts,Hampshire,2020-07-18 12:52:52.074337,2020-06-24 00:00:00.000000,0.03722135,0.08874657,0.71782889,59,142,1154,27,72,283,0.01694244,0.04493144,0.17641932,0.12582221,0.42815126,0.89152248
25015,0,USMassachusettsHampshire,Massachusetts,Hampshire,2020-07-18 12:52:52.074337,2020-06-25 00:00:00.000000,0.01893055,0.07664070,0.25612881,30,123,411,6,72,277,0.00424229,0.04485535,0.17255363,0.12500512,0.42795093,0.89785769
25015,0,USMassachusettsHampshire,Massachusetts,Hampshire,2020-07-18 12:52:52.074337,2020-06-26 00:00:00.000000,0.03954838,0.08946205,0.72628210,63,143,1168,27,72,272,0.01700100,0.04524223,0.16919666,0.12389149,0.42570938,0.91791207
25015,0,USMassachusettsHampshire,Massachusetts,Hampshire,2020-07-18 12:52:52.074337,2020-06-27 00:00:00.000000,0.01887908,0.07815970,0.25345233,30,125,407,6,72,267,0.00420094,0.04499767,0.16657351,0.12408270,0.42513797,0.95646215
25015,0,USMassachusettsHampshire,Massachusetts,Hampshire,2020-07-18 12:52:52.074337,2020-06-28 00:00:00.000000,0.04145173,0.09156212,0.73700595,66,147,1185,28,73,264,0.01764588,0.04563266,0.16439236,0.12474711,0.41888781,0.99062324
25015,0,USMassachusettsHampshire,Massachusetts,Hampshire,2020-07-18 12:52:52.074337,2020-06-29 00:00:00.000000,0.01920336,0.08041765,0.24550192,30,129,394,6,72,263,0.00425736,0.04533204,0.16357640,0.12510695,0.43115178,0.98052030
25015,0,USMassachusettsHampshire,Massachusetts,Hampshire,2020-07-18 12:52:52.074337,2020-06-30 00:00:00.000000,0.03943596,0.08887572,0.74969373,63,142,1205,29,73,260,0.01812327,0.04593353,0.16168149,0.12658183,0.43309637,0.97654792
25015,0,USMassachusettsHampshire,Massachusetts,Hampshire,2020-07-18 12:52:52.074337,2020-07-01 00:00:00.000000,0.01952421,0.08025966,0.24038564,31,129,386,7,72,257,0.00444826,0.04537962,0.15981512,0.12868653,0.43833688,0.98211367
25015,0,USMassachusettsHampshire,Massachusetts,Hampshire,2020-07-18 12:52:52.074337,2020-07-02 00:00:00.000000,0.04080753,0.08756230,0.76351277,65,140,1227,29,72,253,0.01843607,0.04531627,0.15782011,0.13547440,0.43550811,0.97770967
25015,0,USMassachusettsHampshire,Massachusetts,Hampshire,2020-07-18 12:52:52.074337,2020-07-03 00:00:00.000000,0.01930104,0.08008279,0.23398972,31,128,376,7,71,250,0.00473631,0.04444939,0.15595905,0.14319511,0.43600741,0.96523312
25015,0,USMassachusettsHampshire,Massachusetts,Hampshire,2020-07-18 12:52:52.074337,2020-07-04 00:00:00.000000,0.03960454,0.08964665,0.77723776,63,144,1250,29,71,248,0.01839585,0.04475860,0.15454865,0.14427293,0.43754020,0.94760002
25015,0,USMassachusettsHampshire,Massachusetts,Hampshire,2020-07-18 12:52:52.074337,2020-07-05 00:00:00.000000,0.01958416,0.08360161,0.22717878,31,134,365,8,72,247,0.00502720,0.04488176,0.15380265,0.14435452,0.43508003,0.92194062
25015,0,USMassachusettsHampshire,Massachusetts,Hampshire,2020-07-18 12:52:52.074337,2020-07-06 00:00:00.000000,0.03720445,0.09204963,0.79010361,59,148,1270,29,73,243,0.01814727,0.04586706,0.15142372,0.14341795,0.42931954,0.93471553
25015,0,USMassachusettsHampshire,Massachusetts,Hampshire,2020-07-18 12:52:52.074337,2020-07-07 00:00:00.000000,0.02049581,0.08161227,0.22191599,32,131,356,8,73,244,0.00532366,0.04598147,0.15225695,0.14209686,0.42234109,0.93562314
25015,0,USMassachusettsHampshire,Massachusetts,Hampshire,2020-07-18 12:52:52.074337,2020-07-08 00:00:00.000000,0.03445059,0.09203307,0.80200056,55,148,1289,27,74,246,0.01722791,0.04634429,0.15334755,0.14168313,0.42172566,0.93610352
25015,0,USMassachusettsHampshire,Massachusetts,Hampshire,2020-07-18 12:52:52.074337,2020-07-09 00:00:00.000000,0.02182605,0.08098693,0.22636376,35,130,364,9,75,246,0.00562097,0.04675288,0.15341622,0.14161756,0.42178193,0.93635355
25015,0,USMassachusettsHampshire,Massachusetts,Hampshire,2020-07-18 12:52:52.074337,2020-07-10 00:00:00.000000,0.03163868,0.09410051,0.81307363,50,151,1307,25,77,249,0.01611051,0.04806116,0.15490753,0.14161351,0.42190906,0.93648255
25015,0,USMassachusettsHampshire,Massachusetts,Hampshire,2020-07-18 12:52:52.074337,2020-07-11 00:00:00.000000,0.02317454,0.08123803,0.23284871,37,130,374,9,76,252,0.00591096,0.04784253,0.15694364,0.14161693,0.42390792,0.93654881
25015,0,USMassachusettsHampshire,Massachusetts,Hampshire,2020-07-18 12:52:52.074337,2020-07-12 00:00:00.000000,0.02888274,0.09555393,0.82346390,46,153,1324,23,77,255,0.01491990,0.04841062,0.15900972,0.14161989,0.42492285,0.93658278
25015,0,USMassachusettsHampshire,Massachusetts,Hampshire,2020-07-18 12:52:52.074337,2020-07-13 00:00:00.000000,0.02339073,0.08148172,0.24689875,37,131,397,9,75,259,0.00608200,0.04680538,0.16110631,0.14162178,0.42536682,0.93660017
25015,0,USMassachusettsHampshire,Massachusetts,Hampshire,2020-07-18 12:52:52.074337,2020-07-14 00:00:00.000000,0.02631585,0.09418798,0.83326086,42,151,1340,22,76,262,0.01375770,0.04779996,0.16323138,0.14162293,0.42555798,0.93660908
25015,0,USMassachusettsHampshire,Massachusetts,Hampshire,2020-07-18 12:52:52.074337,2020-07-15 00:00:00.000000,0.02255328,0.08249815,0.25944005,36,132,417,9,75,262,0.00621142,0.04698116,0.16332337,0.14162362,0.42563991,0.93661364
25015,0,USMassachusettsHampshire,Massachusetts,Hampshire,2020-07-18 12:52:52.074337,2020-07-16 00:00:00.000000,0.02404463,0.09597463,0.84251935,38,154,1355,20,76,262,0.01262575,0.04758245,0.16330370,0.14162404,0.42567504,0.93661597
25015,0,USMassachusettsHampshire,Massachusetts,Hampshire,2020-07-18 12:52:52.074337,2020-07-17 00:00:00.000000,0.02098077,0.08204622,0.26444327,33,131,425,10,76,266,0.00627551,0.04728215,0.16584234,0.14162428,0.42569015,0.93661717
25015,0,USMassachusettsHampshire,Massachusetts,Hampshire,2020-07-18 12:52:52.074337,2020-07-18 00:00:00.000000,0.02266588,0.09544762,0.85127627,36,153,1369,18,78,276,0.01152277,0.04858820,0.17202318,0.14162443,0.42569668,0.93661778
25015,0,USMassachusettsHampshire,Massachusetts,Hampshire,2020-07-18 12:52:52.074337,2020-07-19 00:00:00.000000,0.02035376,0.08451893,0.28065016,32,135,451,10,77,280,0.00633255,0.04818830,0.17429472,0.14162452,0.42569953,0.93661810
25015,0,USMassachusettsHampshire,Massachusetts,Hampshire,2020-07-18 12:52:52.074337,2020-07-20 00:00:00.000000,0.02123382,0.09503488,0.85955990,34,152,1382,17,80,284,0.01064866,0.05032913,0.17702045,0.14162458,0.42570077,0.93661826
25015,0,USMassachusettsHampshire,Massachusetts,Hampshire,2020-07-18 12:52:52.074337,2020-07-21 00:00:00.000000,0.01900091,0.08575848,0.31134761,30,137,500,10,82,289,0.00638325,0.05106387,0.17987577,0.14162461,0.42570132,0.93661834
25015,0,USMassachusettsHampshire,Massachusetts,Hampshire,2020-07-18 12:52:52.074337,2020-07-22 00:00:00.000000,0.01994449,0.09657899,0.86739423,32,155,1395,15,84,294,0.00984083,0.05274777,0.18319713,0.14162463,0.42570156,0.93661838
25015,0,USMassachusettsHampshire,Massachusetts,Hampshire,2020-07-18 12:52:52.074337,2020-07-23 00:00:00.000000,0.01800944,0.08556912,0.33082306,28,137,532,10,83,302,0.00642820,0.05190333,0.18780620,0.14162464,0.42570167,0.93661840
25015,0,USMassachusettsHampshire,Massachusetts,Hampshire,2020-07-18 12:52:52.074337,2020-07-24 00:00:00.000000,0.01878187,0.09845361,0.87480092,30,158,1406,14,83,309,0.00909431,0.05197840,0.19252645,0.14162465,0.42570172,0.93661842
25015,0,USMassachusettsHampshire,Massachusetts,Hampshire,2020-07-18 12:52:52.074337,2020-07-25 00:00:00.000000,0.01718755,0.08305522,0.35411446,27,133,569,10,82,319,0.00646799,0.05148950,0.19861129,0.14162465,0.42570175,0.93661842
25015,0,USMassachusettsHampshire,Massachusetts,Hampshire,2020-07-18 12:52:52.074337,2020-07-26 00:00:00.000000,0.01791614,0.09836557,0.88180015,28,158,1418,13,84,332,0.00840449,0.05274074,0.20700978,0.14162466,0.42570176,0.93661842
25015,0,USMassachusettsHampshire,Massachusetts,Hampshire,2020-07-18 12:52:52.074337,2020-07-27 00:00:00.000000,0.01632960,0.08225397,0.37657607,26,132,605,10,85,347,0.00635162,0.05343164,0.21584034,0.14162466,0.42570176,0.93661843
25015,0,USMassachusettsHampshire,Massachusetts,Hampshire,2020-07-18 12:52:52.074337,2020-07-28 00:00:00.000000,0.01773010,0.09532282,0.88841095,28,153,1428,12,87,361,0.00776707,0.05449823,0.22503452,0.14162466,0.42570177,0.93661843
25015,0,USMassachusettsHampshire,Massachusetts,Hampshire,2020-07-18 12:52:52.074337,2020-07-29 00:00:00.000000,0.01554123,0.08210599,0.39088008,24,132,628,9,85,377,0.00602911,0.05327406,0.23460555,0.14162466,0.42570177,0.93661843
25015,0,USMassachusettsHampshire,Massachusetts,Hampshire,2020-07-18 12:52:52.074337,2020-07-30 00:00:00.000000,0.01757608,0.09513837,0.89465142,28,153,1438,11,86,393,0.00717807,0.05378667,0.24456691,0.14162466,0.42570177,0.93661843
