FIPS,HR_UID,nameid,province,region,analysisTime,dates,pointprevalence_025,pointprevalence_50,pointprevalence_975,pointinfections_025,pointinfections_50,pointinfections_975,pointinfectious_025,pointinfectious_50,pointinfectious_975,pointinfectiousprevalence_05,pointinfectiousprevalence_50,pointinfectiousprevalence_95,infectrate_025,infectrate_50,infectrate_975
39023,0,USOhioClark,Ohio,Clark,2020-07-15 18:53:18.942424,2020-03-09 00:00:00.000000,0.00147837,0.01009991,0.03762246,1,13,50,0,3,12,0.00049954,0.00291657,0.00904430,0.53975806,0.76653886,1.17703428
39023,0,USOhioClark,Ohio,Clark,2020-07-15 18:53:18.942424,2020-03-10 00:00:00.000000,0.00149241,0.01012794,0.02764628,2,13,37,0,4,19,0.00070882,0.00305929,0.01445041,0.53947218,0.76653825,1.17700794
39023,0,USOhioClark,Ohio,Clark,2020-07-15 18:53:18.942424,2020-03-11 00:00:00.000000,0.00161654,0.01007862,0.02635281,2,13,35,1,4,12,0.00078173,0.00299494,0.00913178,0.53904896,0.76653591,1.17693758
39023,0,USOhioClark,Ohio,Clark,2020-07-15 18:53:18.942424,2020-03-12 00:00:00.000000,0.00171814,0.00980614,0.02603870,2,13,34,1,4,16,0.00085443,0.00314979,0.01243325,0.53842621,0.76652767,1.17674947
39023,0,USOhioClark,Ohio,Clark,2020-07-15 18:53:18.942424,2020-03-13 00:00:00.000000,0.00181994,0.01007905,0.02725641,2,13,36,1,4,13,0.00092702,0.00320704,0.00970487,0.53751804,0.76649978,1.17624701
39023,0,USOhioClark,Ohio,Clark,2020-07-15 18:53:18.942424,2020-03-14 00:00:00.000000,0.00193007,0.01030611,0.02865037,2,13,38,1,4,16,0.00100270,0.00321077,0.01212451,0.53621079,0.76735524,1.17491075
39023,0,USOhioClark,Ohio,Clark,2020-07-15 18:53:18.942424,2020-03-15 00:00:00.000000,0.00204883,0.01028635,0.03016319,2,13,40,1,4,14,0.00108306,0.00316116,0.01096189,0.53436423,0.76692296,1.17140195
39023,0,USOhioClark,Ohio,Clark,2020-07-15 18:53:18.942424,2020-03-16 00:00:00.000000,0.00217554,0.01053192,0.03178089,2,14,42,1,4,15,0.00106133,0.00324745,0.01191538,0.53182505,0.76731669,1.16252175
39023,0,USOhioClark,Ohio,Clark,2020-07-15 18:53:18.942424,2020-03-17 00:00:00.000000,0.00230983,0.01115432,0.03341374,3,14,44,1,4,16,0.00103401,0.00317599,0.01235532,0.52846244,0.76815323,1.14355833
39023,0,USOhioClark,Ohio,Clark,2020-07-15 18:53:18.942424,2020-03-18 00:00:00.000000,0.00245120,0.01144544,0.03437053,3,15,46,1,4,16,0.00107418,0.00316767,0.01255129,0.52423274,0.77268468,1.11887048
39023,0,USOhioClark,Ohio,Clark,2020-07-15 18:53:18.942424,2020-03-19 00:00:00.000000,0.00259857,0.01181580,0.03402947,3,15,45,1,4,15,0.00118969,0.00325558,0.01192548,0.51793058,0.78105641,1.15030870
39023,0,USOhioClark,Ohio,Clark,2020-07-15 18:53:18.942424,2020-03-20 00:00:00.000000,0.00274886,0.01210940,0.03582145,3,16,48,1,4,16,0.00134868,0.00342694,0.01227763,0.50898591,0.79422637,1.15910381
39023,0,USOhioClark,Ohio,Clark,2020-07-15 18:53:18.942424,2020-03-21 00:00:00.000000,0.00281910,0.01260105,0.03903465,3,16,52,1,4,17,0.00135987,0.00371958,0.01276219,0.51026010,0.80675880,1.17380180
39023,0,USOhioClark,Ohio,Clark,2020-07-15 18:53:18.942424,2020-03-22 00:00:00.000000,0.00305772,0.01396568,0.04264564,4,18,57,1,5,17,0.00147426,0.00408781,0.01327121,0.51291208,0.82303569,1.22538246
39023,0,USOhioClark,Ohio,Clark,2020-07-15 18:53:18.942424,2020-03-23 00:00:00.000000,0.00326043,0.01503087,0.04651936,4,20,62,1,6,18,0.00118027,0.00453435,0.01380434,0.51515220,0.82308426,1.27127990
39023,0,USOhioClark,Ohio,Clark,2020-07-15 18:53:18.942424,2020-03-24 00:00:00.000000,0.00361617,0.01576105,0.05046926,4,21,67,1,6,19,0.00143561,0.00503541,0.01440747,0.50361853,0.83339815,1.29606207
39023,0,USOhioClark,Ohio,Clark,2020-07-15 18:53:18.942424,2020-03-25 00:00:00.000000,0.00336125,0.01618453,0.05466314,4,21,73,1,7,20,0.00112913,0.00522208,0.01507112,0.50074074,0.84129014,1.30450969
39023,0,USOhioClark,Ohio,Clark,2020-07-15 18:53:18.942424,2020-03-26 00:00:00.000000,0.00351301,0.01668813,0.05831447,4,22,78,1,7,21,0.00140168,0.00540831,0.01581236,0.49386746,0.86285505,1.29906586
39023,0,USOhioClark,Ohio,Clark,2020-07-15 18:53:18.942424,2020-03-27 00:00:00.000000,0.00331494,0.01723830,0.06195589,4,23,83,1,7,22,0.00112613,0.00557981,0.01659734,0.50033335,0.88377003,1.27115777
39023,0,USOhioClark,Ohio,Clark,2020-07-15 18:53:18.942424,2020-03-28 00:00:00.000000,0.00327115,0.01811697,0.06567235,4,24,88,1,7,23,0.00121927,0.00576506,0.01742665,0.50123968,0.91235910,1.27733836
39023,0,USOhioClark,Ohio,Clark,2020-07-15 18:53:18.942424,2020-03-29 00:00:00.000000,0.00314939,0.01905591,0.07064443,4,25,94,1,8,24,0.00116284,0.00600233,0.01830083,0.50199324,0.91514658,1.34219724
39023,0,USOhioClark,Ohio,Clark,2020-07-15 18:53:18.942424,2020-03-30 00:00:00.000000,0.00315757,0.02017677,0.07647991,4,27,102,1,8,25,0.00120013,0.00631579,0.01922121,0.50273413,0.91777352,1.47051953
39023,0,USOhioClark,Ohio,Clark,2020-07-15 18:53:18.942424,2020-03-31 00:00:00.000000,0.00322472,0.02172841,0.08252818,4,29,110,1,9,27,0.00122722,0.00675753,0.02018971,0.50332908,0.89386182,1.51660059
39023,0,USOhioClark,Ohio,Clark,2020-07-15 18:53:18.942424,2020-04-01 00:00:00.000000,0.00328953,0.02351612,0.08902021,4,31,119,1,9,28,0.00127110,0.00713611,0.02120875,0.50720926,0.87478797,1.52165093
39023,0,USOhioClark,Ohio,Clark,2020-07-15 18:53:18.942424,2020-04-02 00:00:00.000000,0.00343282,0.02525883,0.09597697,4,33,128,1,10,29,0.00131284,0.00760834,0.02228114,0.51528606,0.87385762,1.54624078
39023,0,USOhioClark,Ohio,Clark,2020-07-15 18:53:18.942424,2020-04-03 00:00:00.000000,0.00363343,0.02698682,0.10293628,4,36,138,1,10,31,0.00136721,0.00802192,0.02341011,0.51561123,0.88131542,1.59062791
39023,0,USOhioClark,Ohio,Clark,2020-07-15 18:53:18.942424,2020-04-04 00:00:00.000000,0.00393588,0.02808065,0.10799144,5,37,144,1,11,33,0.00142460,0.00821861,0.02475022,0.51703958,0.89938506,1.58723705
39023,0,USOhioClark,Ohio,Clark,2020-07-15 18:53:18.942424,2020-04-05 00:00:00.000000,0.00432359,0.02865712,0.11143659,5,38,149,2,11,36,0.00151135,0.00890871,0.02689071,0.51645487,0.92675193,1.59950089
39023,0,USOhioClark,Ohio,Clark,2020-07-15 18:53:18.942424,2020-04-06 00:00:00.000000,0.00445506,0.03086567,0.11560401,5,41,155,2,12,39,0.00156346,0.00951682,0.02920350,0.51355842,0.93279314,1.58180288
39023,0,USOhioClark,Ohio,Clark,2020-07-15 18:53:18.942424,2020-04-07 00:00:00.000000,0.00477669,0.03263373,0.12210043,6,43,163,2,13,42,0.00179652,0.00997768,0.03168827,0.51081633,0.95621428,1.57509673
39023,0,USOhioClark,Ohio,Clark,2020-07-15 18:53:18.942424,2020-04-08 00:00:00.000000,0.00471740,0.03351554,0.12737875,6,44,170,2,13,45,0.00181377,0.01025133,0.03430693,0.51529298,0.95665592,1.61318754
39023,0,USOhioClark,Ohio,Clark,2020-07-15 18:53:18.942424,2020-04-09 00:00:00.000000,0.00507674,0.03427479,0.13294222,6,45,178,2,14,49,0.00218686,0.01113125,0.03698498,0.53626311,0.95858325,1.61772210
39023,0,USOhioClark,Ohio,Clark,2020-07-15 18:53:18.942424,2020-04-10 00:00:00.000000,0.00503207,0.03671482,0.13914272,6,49,186,2,16,52,0.00217165,0.01201137,0.03938849,0.52881783,0.98887636,1.64901227
39023,0,USOhioClark,Ohio,Clark,2020-07-15 18:53:18.942424,2020-04-11 00:00:00.000000,0.00547335,0.03952791,0.14632343,7,53,196,3,16,56,0.00266812,0.01250218,0.04192706,0.49941501,1.03241425,1.71989791
39023,0,USOhioClark,Ohio,Clark,2020-07-15 18:53:18.942424,2020-04-12 00:00:00.000000,0.00581350,0.04269997,0.15441859,7,57,207,3,17,59,0.00250963,0.01313733,0.04463460,0.52008648,1.01938524,1.74723365
39023,0,USOhioClark,Ohio,Clark,2020-07-15 18:53:18.942424,2020-04-13 00:00:00.000000,0.00632719,0.04568405,0.16312260,8,61,218,3,18,63,0.00297434,0.01392938,0.04753126,0.51849072,1.01844600,1.75722781
39023,0,USOhioClark,Ohio,Clark,2020-07-15 18:53:18.942424,2020-04-14 00:00:00.000000,0.00705007,0.04807622,0.17228398,9,64,231,3,19,67,0.00295512,0.01455390,0.05063338,0.51880736,1.01534323,1.83740635
39023,0,USOhioClark,Ohio,Clark,2020-07-15 18:53:18.942424,2020-04-15 00:00:00.000000,0.00785910,0.05029155,0.18188267,10,67,243,4,20,72,0.00337327,0.01521553,0.05395564,0.52057842,1.00259062,1.84961916
39023,0,USOhioClark,Ohio,Clark,2020-07-15 18:53:18.942424,2020-04-16 00:00:00.000000,0.00851249,0.05340712,0.19192179,11,71,257,4,21,77,0.00348936,0.01591094,0.05751334,0.52969220,0.99495975,1.83407140
39023,0,USOhioClark,Ohio,Clark,2020-07-15 18:53:18.942424,2020-04-17 00:00:00.000000,0.00923016,0.05677801,0.20416951,12,76,273,5,22,82,0.00389016,0.01676687,0.06132557,0.53868565,1.00873882,1.83938414
39023,0,USOhioClark,Ohio,Clark,2020-07-15 18:53:18.942424,2020-04-18 00:00:00.000000,0.01001632,0.06006256,0.21828316,13,80,292,5,24,87,0.00418470,0.01811260,0.06541898,0.54292430,0.99083137,1.87021193
39023,0,USOhioClark,Ohio,Clark,2020-07-15 18:53:18.942424,2020-04-19 00:00:00.000000,0.01089521,0.06308770,0.23284653,14,84,312,6,26,93,0.00461046,0.01944057,0.06982729,0.54027795,0.99579444,1.86653270
39023,0,USOhioClark,Ohio,Clark,2020-07-15 18:53:18.942424,2020-04-20 00:00:00.000000,0.01189516,0.06600550,0.24835147,15,88,332,6,27,100,0.00509429,0.02050108,0.07458162,0.54306230,1.01425672,1.83668131
39023,0,USOhioClark,Ohio,Clark,2020-07-15 18:53:18.942424,2020-04-21 00:00:00.000000,0.01310235,0.06914295,0.26482972,17,92,355,7,29,106,0.00567416,0.02174256,0.07970385,0.54069608,1.01837700,1.81827922
39023,0,USOhioClark,Ohio,Clark,2020-07-15 18:53:18.942424,2020-04-22 00:00:00.000000,0.01492566,0.07558701,0.28237152,20,101,378,8,31,114,0.00669639,0.02347300,0.08521211,0.53791245,1.02592517,1.80767590
39023,0,USOhioClark,Ohio,Clark,2020-07-15 18:53:18.942424,2020-04-23 00:00:00.000000,0.01774660,0.08195123,0.30113586,23,109,403,10,33,122,0.00793411,0.02520371,0.09112986,0.54155567,1.03207547,1.86841058
39023,0,USOhioClark,Ohio,Clark,2020-07-15 18:53:18.942424,2020-04-24 00:00:00.000000,0.02138174,0.08824790,0.32130335,28,118,430,11,36,130,0.00869822,0.02738438,0.09749357,0.54809155,1.04506572,1.90259050
39023,0,USOhioClark,Ohio,Clark,2020-07-15 18:53:18.942424,2020-04-25 00:00:00.000000,0.02589753,0.09837678,0.34295352,34,131,459,12,40,139,0.00946002,0.02996600,0.10435093,0.55309950,1.03705851,1.96260397
39023,0,USOhioClark,Ohio,Clark,2020-07-15 18:53:18.942424,2020-04-26 00:00:00.000000,0.03141114,0.10877500,0.36603411,42,145,490,13,44,149,0.01030655,0.03310654,0.11174300,0.54588643,1.04271107,2.01682087
39023,0,USOhioClark,Ohio,Clark,2020-07-15 18:53:18.942424,2020-04-27 00:00:00.000000,0.03539583,0.11733996,0.39056119,47,157,523,15,48,160,0.01186557,0.03649558,0.11969269,0.54186521,1.03193226,2.04609233
39023,0,USOhioClark,Ohio,Clark,2020-07-15 18:53:18.942424,2020-04-28 00:00:00.000000,0.03869039,0.12716338,0.41669441,51,170,558,17,52,171,0.01275507,0.03912864,0.12821154,0.53870125,1.02926131,2.04444495
39023,0,USOhioClark,Ohio,Clark,2020-07-15 18:53:18.942424,2020-04-29 00:00:00.000000,0.04339977,0.13529102,0.44455394,58,181,596,22,55,189,0.01649903,0.04141800,0.14121533,0.53104308,1.03567441,2.01400508
39023,0,USOhioClark,Ohio,Clark,2020-07-15 18:53:18.942424,2020-04-30 00:00:00.000000,0.04919298,0.14495184,0.47418722,65,194,635,21,58,203,0.01606196,0.04386375,0.15168908,0.52698793,1.02364510,1.84006624
39023,0,USOhioClark,Ohio,Clark,2020-07-15 18:53:18.942424,2020-05-01 00:00:00.000000,0.05812844,0.15911728,0.50426716,77,213,676,27,63,218,0.02072327,0.04771285,0.16262013,0.52964045,1.02330069,1.80578852
39023,0,USOhioClark,Ohio,Clark,2020-07-15 18:53:18.942424,2020-05-02 00:00:00.000000,0.06329680,0.16769019,0.53884794,84,224,722,29,69,233,0.02198235,0.05192555,0.17399697,0.52044194,1.01938480,1.74418556
39023,0,USOhioClark,Ohio,Clark,2020-07-15 18:53:18.942424,2020-05-03 00:00:00.000000,0.06935493,0.17699154,0.57684060,92,237,773,32,72,247,0.02428325,0.05431910,0.18469914,0.52134071,1.00425422,1.72768412
39023,0,USOhioClark,Ohio,Clark,2020-07-15 18:53:18.942424,2020-05-04 00:00:00.000000,0.07607828,0.18515045,0.61192661,102,248,820,34,77,264,0.02609763,0.05759089,0.19710326,0.53080592,0.98468132,1.73254812
39023,0,USOhioClark,Ohio,Clark,2020-07-15 18:53:18.942424,2020-05-05 00:00:00.000000,0.08346665,0.19618428,0.64768801,111,263,868,37,80,281,0.02779590,0.06020924,0.21029679,0.53366959,0.97085961,1.72243346
39023,0,USOhioClark,Ohio,Clark,2020-07-15 18:53:18.942424,2020-05-06 00:00:00.000000,0.09160811,0.21277501,0.67755849,122,285,908,39,86,300,0.02944006,0.06464212,0.22424354,0.53208799,0.96375460,1.65022204
39023,0,USOhioClark,Ohio,Clark,2020-07-15 18:53:18.942424,2020-05-07 00:00:00.000000,0.10068887,0.22928202,0.70770077,135,307,948,42,93,320,0.03188001,0.06970725,0.23889654,0.53139652,0.95962139,1.59391206
39023,0,USOhioClark,Ohio,Clark,2020-07-15 18:53:18.942424,2020-05-08 00:00:00.000000,0.11135633,0.24260883,0.73733623,149,325,988,45,98,340,0.03373802,0.07345460,0.25419057,0.52754333,0.95468226,1.58335343
39023,0,USOhioClark,Ohio,Clark,2020-07-15 18:53:18.942424,2020-05-09 00:00:00.000000,0.12250705,0.25102036,0.76726589,164,336,1028,47,106,362,0.03571041,0.07963651,0.27000289,0.52247575,0.94500216,1.58114137
39023,0,USOhioClark,Ohio,Clark,2020-07-15 18:53:18.942424,2020-05-10 00:00:00.000000,0.12964494,0.26303526,0.80775984,173,352,1083,50,113,381,0.03795488,0.08471639,0.28464990,0.50181759,0.92661321,1.57229307
39023,0,USOhioClark,Ohio,Clark,2020-07-15 18:53:18.942424,2020-05-11 00:00:00.000000,0.13772333,0.27710253,0.84976033,184,371,1139,54,121,399,0.04053355,0.09065940,0.29812740,0.49485901,0.89987967,1.52612234
39023,0,USOhioClark,Ohio,Clark,2020-07-15 18:53:18.942424,2020-05-12 00:00:00.000000,0.14633976,0.28788856,0.89354494,196,386,1198,58,128,418,0.04335997,0.09551841,0.31187187,0.49383599,0.87272875,1.51165416
39023,0,USOhioClark,Ohio,Clark,2020-07-15 18:53:18.942424,2020-05-13 00:00:00.000000,0.15224195,0.30634384,0.93094637,204,410,1248,62,142,437,0.04640560,0.10607750,0.32603630,0.49458928,0.84955064,1.50184008
39023,0,USOhioClark,Ohio,Clark,2020-07-15 18:53:18.942424,2020-05-14 00:00:00.000000,0.15774775,0.31317445,0.96387014,211,419,1292,66,142,456,0.04966794,0.10597769,0.34078543,0.49645774,0.83720159,1.43175874
39023,0,USOhioClark,Ohio,Clark,2020-07-15 18:53:18.942424,2020-05-15 00:00:00.000000,0.17100635,0.33759857,0.99832091,229,452,1338,70,153,477,0.05257889,0.11444895,0.35640613,0.49234509,0.83020814,1.40641640
39023,0,USOhioClark,Ohio,Clark,2020-07-15 18:53:18.942424,2020-05-16 00:00:00.000000,0.18081293,0.34058224,1.03458990,242,456,1387,75,158,500,0.05622870,0.11827659,0.37334980,0.49240656,0.82805941,1.40782987
39023,0,USOhioClark,Ohio,Clark,2020-07-15 18:53:18.942424,2020-05-17 00:00:00.000000,0.18788828,0.35355744,1.07795144,251,474,1445,80,164,525,0.05991378,0.12279633,0.39198134,0.47849781,0.82646686,1.38933390
39023,0,USOhioClark,Ohio,Clark,2020-07-15 18:53:18.942424,2020-05-18 00:00:00.000000,0.19804066,0.36258154,1.13246482,265,486,1518,83,172,552,0.06250445,0.12835200,0.41225032,0.46425799,0.82020826,1.40884481
39023,0,USOhioClark,Ohio,Clark,2020-07-15 18:53:18.942424,2020-05-19 00:00:00.000000,0.20394633,0.37846115,1.18495397,273,507,1588,89,180,581,0.06646339,0.13444483,0.43380481,0.45060431,0.80946438,1.40368192
39023,0,USOhioClark,Ohio,Clark,2020-07-15 18:53:18.942424,2020-05-20 00:00:00.000000,0.20996977,0.38696941,1.23041806,281,518,1649,93,188,611,0.06950678,0.14053652,0.45624565,0.44232389,0.80438426,1.38904501
39023,0,USOhioClark,Ohio,Clark,2020-07-15 18:53:18.942424,2020-05-21 00:00:00.000000,0.21433031,0.40682537,1.27121878,287,545,1704,96,196,641,0.07171377,0.14658864,0.47846927,0.43702915,0.76384923,1.36910920
39023,0,USOhioClark,Ohio,Clark,2020-07-15 18:53:18.942424,2020-05-22 00:00:00.000000,0.21859985,0.40732521,1.33261935,293,546,1786,98,202,665,0.07347260,0.15130777,0.49635804,0.42041491,0.73369342,1.34618393
39023,0,USOhioClark,Ohio,Clark,2020-07-15 18:53:18.942424,2020-05-23 00:00:00.000000,0.22339330,0.41237398,1.39222895,299,552,1866,100,207,689,0.07516888,0.15476303,0.51439065,0.41224363,0.70395082,1.31864103
39023,0,USOhioClark,Ohio,Clark,2020-07-15 18:53:18.942424,2020-05-24 00:00:00.000000,0.23121916,0.43152240,1.42869758,310,578,1915,102,212,712,0.07660226,0.15849821,0.53103413,0.40519979,0.70135734,1.29804502
39023,0,USOhioClark,Ohio,Clark,2020-07-15 18:53:18.942424,2020-05-25 00:00:00.000000,0.24314003,0.43994451,1.45494554,326,589,1950,104,217,733,0.07802902,0.16223750,0.54726448,0.39893909,0.69234896,1.28856440
39023,0,USOhioClark,Ohio,Clark,2020-07-15 18:53:18.942424,2020-05-26 00:00:00.000000,0.25373319,0.44076191,1.47976644,340,590,1984,105,222,755,0.07844379,0.16588383,0.56317129,0.39686667,0.69379328,1.29718192
39023,0,USOhioClark,Ohio,Clark,2020-07-15 18:53:18.942424,2020-05-27 00:00:00.000000,0.25850165,0.44857398,1.50353231,346,601,2015,105,228,775,0.07839786,0.17072377,0.57844321,0.39272675,0.70515419,1.29953533
39023,0,USOhioClark,Ohio,Clark,2020-07-15 18:53:18.942424,2020-05-28 00:00:00.000000,0.26346089,0.45468969,1.52620250,353,609,2046,106,228,794,0.07950927,0.17053996,0.59275109,0.38213468,0.72135549,1.29318068
39023,0,USOhioClark,Ohio,Clark,2020-07-15 18:53:18.942424,2020-05-29 00:00:00.000000,0.26847538,0.46244519,1.54785023,359,620,2075,108,230,812,0.08092919,0.17163513,0.60587334,0.36762834,0.74087038,1.29257116
39023,0,USOhioClark,Ohio,Clark,2020-07-15 18:53:18.942424,2020-05-30 00:00:00.000000,0.27397944,0.46591652,1.56850819,367,624,2103,109,233,828,0.08199575,0.17424490,0.61778338,0.36051967,0.75646657,1.29933390
39023,0,USOhioClark,Ohio,Clark,2020-07-15 18:53:18.942424,2020-05-31 00:00:00.000000,0.27792847,0.47473930,1.58803028,372,636,2129,110,240,842,0.08237413,0.17938150,0.62862091,0.35657764,0.76781675,1.30470189
39023,0,USOhioClark,Ohio,Clark,2020-07-15 18:53:18.942424,2020-06-01 00:00:00.000000,0.28263755,0.48309330,1.60611826,378,647,2153,110,241,856,0.08274420,0.17974127,0.63861460,0.35465333,0.76371491,1.31098422
39023,0,USOhioClark,Ohio,Clark,2020-07-15 18:53:18.942424,2020-06-02 00:00:00.000000,0.28844716,0.50297822,1.62247093,386,674,2175,111,251,868,0.08321126,0.18765410,0.64802150,0.35121502,0.75436623,1.34737432
39023,0,USOhioClark,Ohio,Clark,2020-07-15 18:53:18.942424,2020-06-03 00:00:00.000000,0.29464357,0.52073325,1.63683817,395,698,2194,112,254,881,0.08381352,0.18947100,0.65707784,0.34513007,0.74531194,1.36166458
39023,0,USOhioClark,Ohio,Clark,2020-07-15 18:53:18.942424,2020-06-04 00:00:00.000000,0.30133634,0.54010324,1.64872705,404,724,2210,112,263,892,0.08395703,0.19678340,0.66595484,0.33756873,0.73461940,1.37025175
39023,0,USOhioClark,Ohio,Clark,2020-07-15 18:53:18.942424,2020-06-05 00:00:00.000000,0.30872039,0.57424529,1.66031913,413,769,2226,112,264,904,0.08419872,0.19763729,0.67473847,0.32764154,0.72581267,1.40638387
39023,0,USOhioClark,Ohio,Clark,2020-07-15 18:53:18.942424,2020-06-06 00:00:00.000000,0.31681142,0.59593503,1.68031552,424,799,2253,114,279,916,0.08539213,0.20842702,0.68343233,0.32170176,0.72657620,1.47295389
39023,0,USOhioClark,Ohio,Clark,2020-07-15 18:53:18.942424,2020-06-07 00:00:00.000000,0.32717178,0.61159783,1.70150502,438,820,2281,116,277,928,0.08674098,0.20730525,0.69217229,0.31979711,0.72609806,1.60285878
39023,0,USOhioClark,Ohio,Clark,2020-07-15 18:53:18.942424,2020-06-08 00:00:00.000000,0.34150349,0.63562688,1.72587294,457,852,2314,118,294,941,0.08814435,0.21970531,0.70186484,0.31847528,0.70772371,1.64628082
39023,0,USOhioClark,Ohio,Clark,2020-07-15 18:53:18.942424,2020-06-09 00:00:00.000000,0.34842635,0.65332618,1.75200139,467,875,2349,120,305,957,0.08957201,0.22777393,0.71387744,0.30745695,0.69615376,1.65480793
39023,0,USOhioClark,Ohio,Clark,2020-07-15 18:53:18.942424,2020-06-10 00:00:00.000000,0.33609636,0.70309945,1.77878410,450,942,2385,120,304,976,0.09006171,0.22698644,0.72800585,0.29245072,0.69187530,1.65548034
39023,0,USOhioClark,Ohio,Clark,2020-07-15 18:53:18.942424,2020-06-11 00:00:00.000000,0.34260900,0.70751529,1.80544641,459,948,2420,118,313,996,0.08832976,0.23402666,0.74332743,0.28356231,0.69038132,1.58602483
39023,0,USOhioClark,Ohio,Clark,2020-07-15 18:53:18.942424,2020-06-12 00:00:00.000000,0.34027497,0.71247221,1.82342904,456,955,2444,116,324,1017,0.08666611,0.24201084,0.75873972,0.27838661,0.68360683,1.57625687
39023,0,USOhioClark,Ohio,Clark,2020-07-15 18:53:18.942424,2020-06-13 00:00:00.000000,0.33471015,0.71842829,1.84302968,448,963,2471,114,330,1036,0.08520855,0.24635241,0.77289882,0.27002402,0.66200792,1.56308195
39023,0,USOhioClark,Ohio,Clark,2020-07-15 18:53:18.942424,2020-06-14 00:00:00.000000,0.32707379,0.72074329,1.86520258,438,966,2500,112,329,1051,0.08404775,0.24599541,0.78447163,0.25820480,0.62566177,1.53303208
39023,0,USOhioClark,Ohio,Clark,2020-07-15 18:53:18.942424,2020-06-15 00:00:00.000000,0.31882171,0.71751191,1.88830535,427,962,2531,111,348,1062,0.08313627,0.26001180,0.79275306,0.24138105,0.61982932,1.48576880
39023,0,USOhioClark,Ohio,Clark,2020-07-15 18:53:18.942424,2020-06-16 00:00:00.000000,0.31077751,0.71073092,1.91144053,416,952,2562,110,361,1069,0.08236875,0.26941813,0.79784900,0.22066636,0.57825371,1.46766819
39023,0,USOhioClark,Ohio,Clark,2020-07-15 18:53:18.942424,2020-06-17 00:00:00.000000,0.30320086,0.69974139,1.92745976,406,938,2584,109,367,1072,0.08167226,0.27422056,0.80024906,0.21598775,0.51095525,1.41329839
39023,0,USOhioClark,Ohio,Clark,2020-07-15 18:53:18.942424,2020-06-18 00:00:00.000000,0.29607660,0.68395350,1.93521782,396,917,2594,108,362,1072,0.08101127,0.27069906,0.80020025,0.21467858,0.50971124,1.37108050
39023,0,USOhioClark,Ohio,Clark,2020-07-15 18:53:18.942424,2020-06-19 00:00:00.000000,0.28923831,0.66664947,1.92533705,387,893,2581,107,351,1068,0.08037002,0.26216029,0.79691440,0.21209998,0.47379696,1.19650002
39023,0,USOhioClark,Ohio,Clark,2020-07-15 18:53:18.942424,2020-06-20 00:00:00.000000,0.28226676,0.64687378,1.89438983,378,867,2540,106,344,1057,0.07974030,0.25722717,0.78864955,0.20208308,0.44574995,1.05113143
39023,0,USOhioClark,Ohio,Clark,2020-07-15 18:53:18.942424,2020-06-21 00:00:00.000000,0.27421232,0.63705700,1.85126094,367,854,2482,106,333,1039,0.07911022,0.24865560,0.77493608,0.19259370,0.42632657,0.97826066
39023,0,USOhioClark,Ohio,Clark,2020-07-15 18:53:18.942424,2020-06-22 00:00:00.000000,0.26502176,0.60848430,1.80353704,355,815,2418,105,301,1028,0.07841821,0.22517773,0.76691558,0.18750313,0.41239528,0.95705514
39023,0,USOhioClark,Ohio,Clark,2020-07-15 18:53:18.942424,2020-06-23 00:00:00.000000,0.25530196,0.57694289,1.74477087,342,773,2339,103,274,1017,0.07735402,0.20488298,0.75882249,0.18388911,0.41179832,0.94680001
39023,0,USOhioClark,Ohio,Clark,2020-07-15 18:53:18.942424,2020-06-24 00:00:00.000000,0.24403794,0.53129077,1.68112765,327,712,2254,101,268,997,0.07553368,0.20010408,0.74409415,0.18073334,0.41093394,0.93768284
39023,0,USOhioClark,Ohio,Clark,2020-07-15 18:53:18.942424,2020-06-25 00:00:00.000000,0.23303834,0.50027183,1.61921144,312,670,2171,98,253,972,0.07330640,0.18915700,0.72553254,0.17534749,0.41566587,0.92704670
39023,0,USOhioClark,Ohio,Clark,2020-07-15 18:53:18.942424,2020-06-26 00:00:00.000000,0.22318871,0.47496039,1.55937281,299,636,2090,95,242,945,0.07101645,0.18068229,0.70485069,0.17339456,0.41042401,0.91802896
39023,0,USOhioClark,Ohio,Clark,2020-07-15 18:53:18.942424,2020-06-27 00:00:00.000000,0.21542654,0.45949206,1.50198550,288,616,2013,92,226,915,0.06887801,0.16876791,0.68310899,0.16846397,0.40461854,0.97269447
39023,0,USOhioClark,Ohio,Clark,2020-07-15 18:53:18.942424,2020-06-28 00:00:00.000000,0.20803928,0.44308360,1.44757019,278,594,1940,90,216,886,0.06713471,0.16182843,0.66095839,0.16711679,0.39257966,1.01199769
39023,0,USOhioClark,Ohio,Clark,2020-07-15 18:53:18.942424,2020-06-29 00:00:00.000000,0.20094276,0.41837965,1.39690076,269,560,1873,88,201,855,0.06590489,0.15021494,0.63836971,0.16663024,0.39154918,1.02015279
39023,0,USOhioClark,Ohio,Clark,2020-07-15 18:53:18.942424,2020-06-30 00:00:00.000000,0.19083392,0.39614865,1.35083678,255,531,1811,85,194,822,0.06399466,0.14499481,0.61349471,0.16662398,0.38753603,1.02455968
39023,0,USOhioClark,Ohio,Clark,2020-07-15 18:53:18.942424,2020-07-01 00:00:00.000000,0.18235606,0.37986023,1.30971314,244,509,1756,79,183,789,0.05923887,0.13699074,0.58866284,0.16661657,0.38840301,1.04367755
39023,0,USOhioClark,Ohio,Clark,2020-07-15 18:53:18.942424,2020-07-02 00:00:00.000000,0.17474335,0.36824453,1.27312179,234,493,1707,73,177,756,0.05489704,0.13258054,0.56421987,0.16648217,0.37836529,1.06418035
39023,0,USOhioClark,Ohio,Clark,2020-07-15 18:53:18.942424,2020-07-03 00:00:00.000000,0.16739986,0.35193434,1.24090519,224,471,1663,68,168,724,0.05098067,0.12599528,0.54050777,0.16315022,0.37555085,1.10539563
39023,0,USOhioClark,Ohio,Clark,2020-07-15 18:53:18.942424,2020-07-04 00:00:00.000000,0.16058533,0.34103195,1.21355426,215,457,1627,63,165,694,0.04769355,0.12374665,0.51771609,0.15729779,0.37581353,1.11556614
39023,0,USOhioClark,Ohio,Clark,2020-07-15 18:53:18.942424,2020-07-05 00:00:00.000000,0.15084095,0.32895952,1.16134291,202,441,1557,60,155,664,0.04529684,0.11567456,0.49573465,0.15591763,0.37991000,1.14616434
39023,0,USOhioClark,Ohio,Clark,2020-07-15 18:53:18.942424,2020-07-06 00:00:00.000000,0.13981769,0.31181200,1.11090056,187,418,1489,57,149,635,0.04320957,0.11133196,0.47419733,0.15327231,0.38603575,1.17994965
39023,0,USOhioClark,Ohio,Clark,2020-07-15 18:53:18.942424,2020-07-07 00:00:00.000000,0.13042851,0.29254002,1.06298877,174,392,1425,55,143,616,0.04112047,0.10723355,0.45957714,0.15020908,0.38470939,1.21078058
39023,0,USOhioClark,Ohio,Clark,2020-07-15 18:53:18.942424,2020-07-08 00:00:00.000000,0.12223523,0.28011087,1.01755762,163,375,1364,52,138,605,0.03906863,0.10338292,0.45192811,0.15063698,0.38421134,1.24183541
39023,0,USOhioClark,Ohio,Clark,2020-07-15 18:53:18.942424,2020-07-09 00:00:00.000000,0.11539483,0.26634388,0.96758851,154,357,1297,49,132,590,0.03708450,0.09917478,0.44067691,0.15166235,0.38550085,1.33575647
39023,0,USOhioClark,Ohio,Clark,2020-07-15 18:53:18.942424,2020-07-10 00:00:00.000000,0.10858979,0.25647696,0.91567620,145,343,1227,47,127,583,0.03518229,0.09509859,0.43520307,0.15115573,0.38655827,1.35614238
39023,0,USOhioClark,Ohio,Clark,2020-07-15 18:53:18.942424,2020-07-11 00:00:00.000000,0.10240496,0.24618070,0.86985947,137,330,1166,44,123,579,0.03336678,0.09173446,0.43254805,0.15088751,0.38676829,1.36623707
39023,0,USOhioClark,Ohio,Clark,2020-07-15 18:53:18.942424,2020-07-12 00:00:00.000000,0.09670510,0.23575943,0.86196468,129,316,1155,42,120,554,0.03163845,0.08990400,0.41388219,0.15074306,0.38392421,1.37107711
39023,0,USOhioClark,Ohio,Clark,2020-07-15 18:53:18.942424,2020-07-13 00:00:00.000000,0.08747893,0.22578467,0.85467790,117,302,1145,40,116,531,0.02999559,0.08688657,0.39614963,0.15066353,0.38392081,1.37337370
39023,0,USOhioClark,Ohio,Clark,2020-07-15 18:53:18.942424,2020-07-14 00:00:00.000000,0.08212676,0.21807897,0.84793718,110,292,1136,38,112,508,0.02843540,0.08397986,0.37933908,0.15061885,0.38391956,1.37446374
39023,0,USOhioClark,Ohio,Clark,2020-07-15 18:53:18.942424,2020-07-15 00:00:00.000000,0.07740804,0.20709328,0.84169230,103,277,1128,36,108,487,0.02695459,0.08117588,0.36342651,0.15059334,0.38391910,1.37498401
39023,0,USOhioClark,Ohio,Clark,2020-07-15 18:53:18.942424,2020-07-16 00:00:00.000000,0.07295655,0.20140882,0.81277485,97,270,1089,34,105,469,0.02554965,0.07851570,0.35012868,0.15057858,0.38391893,1.37523437
39023,0,USOhioClark,Ohio,Clark,2020-07-15 18:53:18.942424,2020-07-17 00:00:00.000000,0.06875762,0.18995473,0.78538937,92,254,1053,32,99,455,0.02421703,0.07441954,0.33975366,0.15056997,0.38391887,1.37535601
39023,0,USOhioClark,Ohio,Clark,2020-07-15 18:53:18.942424,2020-07-18 00:00:00.000000,0.06479732,0.18192522,0.79023416,86,243,1059,30,97,442,0.02299036,0.07276464,0.32981744,0.15056490,0.38391884,1.37541572
39023,0,USOhioClark,Ohio,Clark,2020-07-15 18:53:18.942424,2020-07-19 00:00:00.000000,0.06083832,0.17479117,0.79505084,81,234,1066,29,92,429,0.02185336,0.06889322,0.32022786,0.15056191,0.38391884,1.37544533
39023,0,USOhioClark,Ohio,Clark,2020-07-15 18:53:18.942424,2020-07-20 00:00:00.000000,0.05690647,0.17008714,0.79983706,76,228,1072,27,89,416,0.02049295,0.06682837,0.31077911,0.15056014,0.38391883,1.37546017
39023,0,USOhioClark,Ohio,Clark,2020-07-15 18:53:18.942424,2020-07-21 00:00:00.000000,0.05140800,0.16460804,0.80459083,68,220,1078,25,86,404,0.01929875,0.06488408,0.30170086,0.15055909,0.38391883,1.37546767
39023,0,USOhioClark,Ohio,Clark,2020-07-15 18:53:18.942424,2020-07-22 00:00:00.000000,0.04572438,0.15741181,0.80931039,61,211,1085,24,83,392,0.01817591,0.06244756,0.29297755,0.15055846,0.38391883,1.37547150
39023,0,USOhioClark,Ohio,Clark,2020-07-15 18:53:18.942424,2020-07-23 00:00:00.000000,0.04127692,0.15053045,0.81233860,55,201,1089,22,81,381,0.01712003,0.06058221,0.28459461,0.15055809,0.38391883,1.37547347
39023,0,USOhioClark,Ohio,Clark,2020-07-15 18:53:18.942424,2020-07-24 00:00:00.000000,0.03767436,0.14394975,0.81029604,50,193,1086,21,77,387,0.01612702,0.05784280,0.28905652,0.15055786,0.38391883,1.37547450
39023,0,USOhioClark,Ohio,Clark,2020-07-15 18:53:18.942424,2020-07-25 00:00:00.000000,0.03448022,0.14087968,0.80085212,46,188,1073,20,74,400,0.01519303,0.05566847,0.29838123,0.15055773,0.38391883,1.37547503
39023,0,USOhioClark,Ohio,Clark,2020-07-15 18:53:18.942424,2020-07-26 00:00:00.000000,0.03189490,0.13713366,0.77917931,42,183,1044,18,71,412,0.01414244,0.05357548,0.30798336,0.15055765,0.38391883,1.37547531
39023,0,USOhioClark,Ohio,Clark,2020-07-15 18:53:18.942424,2020-07-27 00:00:00.000000,0.02950501,0.13243414,0.75825561,39,177,1016,17,69,426,0.01291495,0.05176723,0.31785477,0.15055760,0.38391883,1.37547546
