FIPS,HR_UID,nameid,province,region,analysisTime,dates,pointprevalence_025,pointprevalence_50,pointprevalence_975,pointinfections_025,pointinfections_50,pointinfections_975,pointinfectious_025,pointinfectious_50,pointinfectious_975,pointinfectiousprevalence_05,pointinfectiousprevalence_50,pointinfectiousprevalence_95,infectrate_025,infectrate_50,infectrate_975
51197,0,USVirginiaWythe,Virginia,Wythe,2020-07-17 18:26:43.659443,2020-03-09 00:00:00.000000,0.01446790,0.06200331,0.31180997,4,17,89,0,2,10,0.00000000,0.01036275,0.03708760,0.47865354,0.70315544,1.09597091
51197,0,USVirginiaWythe,Virginia,Wythe,2020-07-17 18:26:43.659443,2020-03-10 00:00:00.000000,0.01617334,0.06915315,0.43523409,4,19,124,0,3,10,0.00199528,0.01107397,0.03784578,0.47865285,0.70315544,1.09597091
51197,0,USVirginiaWythe,Virginia,Wythe,2020-07-17 18:26:43.659443,2020-03-11 00:00:00.000000,0.01439512,0.06460524,0.31201577,4,18,89,0,2,8,0.00068609,0.00821434,0.02871024,0.47865179,0.70315543,1.09597091
51197,0,USVirginiaWythe,Virginia,Wythe,2020-07-17 18:26:43.659443,2020-03-12 00:00:00.000000,0.01632891,0.07283477,0.44775880,4,20,128,0,3,12,0.00227976,0.01061784,0.04284051,0.47865080,0.70315542,1.09597091
51197,0,USVirginiaWythe,Virginia,Wythe,2020-07-17 18:26:43.659443,2020-03-13 00:00:00.000000,0.01591298,0.06820520,0.33474776,4,19,96,0,2,9,0.00024951,0.00813649,0.03359684,0.47865400,0.70315548,1.09597090
51197,0,USVirginiaWythe,Virginia,Wythe,2020-07-17 18:26:43.659443,2020-03-14 00:00:00.000000,0.01792688,0.07858090,0.46385057,5,22,133,0,2,12,0.00233130,0.00958024,0.04502058,0.47868697,0.70315649,1.09597087
51197,0,USVirginiaWythe,Virginia,Wythe,2020-07-17 18:26:43.659443,2020-03-15 00:00:00.000000,0.01774178,0.07444269,0.40960782,5,21,117,0,2,10,0.00011162,0.00846238,0.03786051,0.47889540,0.70316698,1.09597073
51197,0,USVirginiaWythe,Virginia,Wythe,2020-07-17 18:26:43.659443,2020-03-16 00:00:00.000000,0.02001344,0.08168678,0.48553364,5,23,139,0,2,13,0.00269668,0.01023910,0.04741496,0.48007443,0.69623634,1.09597016
51197,0,USVirginiaWythe,Virginia,Wythe,2020-07-17 18:26:43.659443,2020-03-17 00:00:00.000000,0.01943039,0.07981685,0.45601371,5,22,130,0,2,12,0.00039630,0.00889011,0.04196240,0.48613516,0.69341289,1.09596774
51197,0,USVirginiaWythe,Virginia,Wythe,2020-07-17 18:26:43.659443,2020-03-18 00:00:00.000000,0.02246217,0.08702571,0.51130523,6,24,146,0,3,14,0.00300233,0.01092098,0.05109687,0.50912790,0.68970934,1.09595764
51197,0,USVirginiaWythe,Virginia,Wythe,2020-07-17 18:26:43.659443,2020-03-19 00:00:00.000000,0.02112286,0.08358827,0.48313310,6,23,138,0,2,13,0.00067624,0.00923127,0.04606922,0.53835221,0.68457564,1.09591534
51197,0,USVirginiaWythe,Virginia,Wythe,2020-07-17 18:26:43.659443,2020-03-20 00:00:00.000000,0.02423684,0.09285325,0.54123077,6,26,155,0,3,15,0.00314557,0.01187387,0.05553192,0.49988830,0.67410248,1.09573811
51197,0,USVirginiaWythe,Virginia,Wythe,2020-07-17 18:26:43.659443,2020-03-21 00:00:00.000000,0.02253163,0.09045067,0.51311952,6,25,147,0,2,14,0.00098180,0.01019754,0.05041582,0.47018596,0.66536686,1.10629608
51197,0,USVirginiaWythe,Virginia,Wythe,2020-07-17 18:26:43.659443,2020-03-22 00:00:00.000000,0.02510694,0.10040102,0.57458903,7,28,164,0,3,17,0.00340343,0.01210019,0.06183813,0.45997909,0.64492758,1.11107234
51197,0,USVirginiaWythe,Virginia,Wythe,2020-07-17 18:26:43.659443,2020-03-23 00:00:00.000000,0.02334613,0.09606686,0.54400046,6,27,156,0,3,15,0.00130957,0.01081032,0.05507333,0.46345920,0.62763017,1.08785743
51197,0,USVirginiaWythe,Virginia,Wythe,2020-07-17 18:26:43.659443,2020-03-24 00:00:00.000000,0.02532354,0.10708901,0.61078894,7,30,175,1,3,19,0.00359113,0.01263096,0.06961548,0.46335402,0.61000219,1.12474097
51197,0,USVirginiaWythe,Virginia,Wythe,2020-07-17 18:26:43.659443,2020-03-25 00:00:00.000000,0.02405233,0.10315035,0.57797009,6,29,165,0,3,17,0.00160328,0.01131107,0.06060028,0.45424941,0.59609148,1.14445312
51197,0,USVirginiaWythe,Virginia,Wythe,2020-07-17 18:26:43.659443,2020-03-26 00:00:00.000000,0.02608957,0.11449614,0.65113998,7,32,186,1,3,22,0.00375107,0.01377516,0.07750575,0.44419873,0.59100702,1.14072549
51197,0,USVirginiaWythe,Virginia,Wythe,2020-07-17 18:26:43.659443,2020-03-27 00:00:00.000000,0.02452029,0.10927173,0.61706976,7,31,177,0,3,19,0.00191982,0.01204325,0.06699427,0.41833367,0.58215448,1.12238482
51197,0,USVirginiaWythe,Virginia,Wythe,2020-07-17 18:26:43.659443,2020-03-28 00:00:00.000000,0.02710672,0.12122819,0.69690735,7,34,199,1,4,24,0.00390775,0.01507713,0.08539301,0.40329413,0.57475101,1.11160433
51197,0,USVirginiaWythe,Virginia,Wythe,2020-07-17 18:26:43.659443,2020-03-29 00:00:00.000000,0.02522118,0.11071818,0.67368905,7,31,193,0,3,21,0.00225777,0.01320998,0.07409055,0.39846478,0.56027856,1.14293490
51197,0,USVirginiaWythe,Virginia,Wythe,2020-07-17 18:26:43.659443,2020-03-30 00:00:00.000000,0.02832538,0.12530112,0.75212607,8,35,215,1,4,26,0.00407565,0.01606231,0.09371028,0.39887234,0.56014540,1.20189286
51197,0,USVirginiaWythe,Virginia,Wythe,2020-07-17 18:26:43.659443,2020-03-31 00:00:00.000000,0.02620711,0.11169175,0.74734123,7,32,214,0,4,23,0.00261648,0.01452482,0.08212804,0.39680301,0.55205136,1.25526242
51197,0,USVirginiaWythe,Virginia,Wythe,2020-07-17 18:26:43.659443,2020-04-01 00:00:00.000000,0.02986325,0.13304511,0.82390224,8,38,236,1,4,29,0.00427005,0.01682774,0.10291887,0.39667158,0.54377277,1.27470288
51197,0,USVirginiaWythe,Virginia,Wythe,2020-07-17 18:26:43.659443,2020-04-02 00:00:00.000000,0.02758642,0.11341354,0.84281820,7,32,241,0,4,26,0.00299616,0.01557092,0.09151483,0.39132929,0.54498669,1.28841543
51197,0,USVirginiaWythe,Virginia,Wythe,2020-07-17 18:26:43.659443,2020-04-03 00:00:00.000000,0.03197189,0.13488509,0.91571597,9,38,262,1,4,32,0.00449532,0.01735202,0.11347725,0.37433651,0.54396450,1.30322086
51197,0,USVirginiaWythe,Virginia,Wythe,2020-07-17 18:26:43.659443,2020-04-04 00:00:00.000000,0.02946594,0.12308027,0.96264557,8,35,276,0,4,29,0.00339347,0.01669270,0.10272961,0.36907908,0.53850852,1.32852694
51197,0,USVirginiaWythe,Virginia,Wythe,2020-07-17 18:26:43.659443,2020-04-05 00:00:00.000000,0.03459523,0.14064277,1.03117909,9,40,295,1,5,36,0.00476274,0.01788245,0.12607917,0.36126029,0.54120039,1.31814145
51197,0,USVirginiaWythe,Virginia,Wythe,2020-07-17 18:26:43.659443,2020-04-06 00:00:00.000000,0.03123661,0.12766226,1.10490070,8,36,316,1,5,33,0.00370021,0.01787254,0.11613190,0.35690674,0.53933906,1.27924316
51197,0,USVirginiaWythe,Virginia,Wythe,2020-07-17 18:26:43.659443,2020-04-07 00:00:00.000000,0.03641279,0.14651667,1.18365852,10,42,339,1,5,40,0.00508047,0.01886438,0.14104207,0.35515676,0.52230955,1.27551548
51197,0,USVirginiaWythe,Virginia,Wythe,2020-07-17 18:26:43.659443,2020-04-08 00:00:00.000000,0.03292508,0.13150931,1.26755666,9,37,363,1,5,37,0.00399730,0.01918706,0.13182791,0.34699214,0.51717951,1.27032607
51197,0,USVirginiaWythe,Virginia,Wythe,2020-07-17 18:26:43.659443,2020-04-09 00:00:00.000000,0.03845850,0.15087545,1.35687362,11,43,389,1,5,45,0.00547333,0.01991560,0.15831720,0.34941037,0.52103472,1.26496363
51197,0,USVirginiaWythe,Virginia,Wythe,2020-07-17 18:26:43.659443,2020-04-10 00:00:00.000000,0.03544612,0.13980365,1.45198142,10,40,416,1,5,43,0.00423980,0.02012093,0.14991378,0.33594610,0.54270340,1.25925177
51197,0,USVirginiaWythe,Virginia,Wythe,2020-07-17 18:26:43.659443,2020-04-11 00:00:00.000000,0.04067740,0.15438789,1.55330170,11,44,445,1,6,51,0.00595968,0.02127238,0.17798221,0.33225197,0.54650976,1.25273315
51197,0,USVirginiaWythe,Virginia,Wythe,2020-07-17 18:26:43.659443,2020-04-12 00:00:00.000000,0.03939211,0.15135075,1.66131361,11,43,476,1,6,48,0.00450416,0.02124532,0.17061053,0.31205660,0.55092844,1.24612146
51197,0,USVirginiaWythe,Virginia,Wythe,2020-07-17 18:26:43.659443,2020-04-13 00:00:00.000000,0.04217595,0.15948907,1.77652025,12,45,509,1,6,57,0.00642702,0.02208175,0.19997582,0.31183013,0.55992591,1.24302496
51197,0,USVirginiaWythe,Virginia,Wythe,2020-07-17 18:26:43.659443,2020-04-14 00:00:00.000000,0.04261849,0.16129710,1.89939282,12,46,544,1,6,55,0.00478861,0.02230934,0.19219010,0.31180437,0.56941041,1.24056358
51197,0,USVirginiaWythe,Virginia,Wythe,2020-07-17 18:26:43.659443,2020-04-15 00:00:00.000000,0.04415490,0.17127674,2.03042987,12,49,582,1,6,64,0.00684050,0.02378742,0.22514100,0.31181502,0.57937803,1.24066798
51197,0,USVirginiaWythe,Virginia,Wythe,2020-07-17 18:26:43.659443,2020-04-16 00:00:00.000000,0.04559418,0.17102704,2.17022914,13,49,622,1,6,61,0.00509414,0.02373890,0.21299329,0.31182734,0.58290595,1.25535626
51197,0,USVirginiaWythe,Virginia,Wythe,2020-07-17 18:26:43.659443,2020-04-17 00:00:00.000000,0.04657026,0.17904220,2.31945181,13,51,665,2,7,72,0.00718985,0.02520331,0.25319740,0.31183613,0.58555603,1.26698732
51197,0,USVirginiaWythe,Virginia,Wythe,2020-07-17 18:26:43.659443,2020-04-18 00:00:00.000000,0.04757136,0.17689693,2.47872297,13,50,710,1,7,67,0.00542154,0.02527920,0.23576293,0.31183917,0.57732360,1.27331687
51197,0,USVirginiaWythe,Virginia,Wythe,2020-07-17 18:26:43.659443,2020-04-19 00:00:00.000000,0.04857838,0.18533211,2.64858695,13,53,759,2,7,81,0.00747681,0.02664929,0.28520960,0.32390204,0.57924333,1.31364432
51197,0,USVirginiaWythe,Virginia,Wythe,2020-07-17 18:26:43.659443,2020-04-20 00:00:00.000000,0.04958919,0.18059640,2.82956731,14,51,811,1,7,75,0.00577127,0.02631295,0.26228984,0.32616804,0.57367793,1.32530400
51197,0,USVirginiaWythe,Virginia,Wythe,2020-07-17 18:26:43.659443,2020-04-21 00:00:00.000000,0.05060841,0.19162420,3.02225269,14,54,866,2,8,92,0.00784913,0.02882777,0.32251626,0.31848135,0.57932992,1.32683870
51197,0,USVirginiaWythe,Virginia,Wythe,2020-07-17 18:26:43.659443,2020-04-22 00:00:00.000000,0.05164140,0.19017209,3.22737046,14,54,925,1,7,84,0.00614086,0.02749247,0.29331612,0.30811916,0.57185006,1.28756679
51197,0,USVirginiaWythe,Virginia,Wythe,2020-07-17 18:26:43.659443,2020-04-23 00:00:00.000000,0.05269189,0.19684115,3.44593894,15,56,988,2,8,104,0.00821736,0.03068796,0.36499969,0.30537152,0.57594587,1.28638323
51197,0,USVirginiaWythe,Virginia,Wythe,2020-07-17 18:26:43.659443,2020-04-24 00:00:00.000000,0.05376152,0.19605963,3.67952568,15,56,1055,1,8,93,0.00651320,0.02890599,0.32650069,0.30554535,0.57536692,1.27243369
51197,0,USVirginiaWythe,Virginia,Wythe,2020-07-17 18:26:43.659443,2020-04-25 00:00:00.000000,0.05484905,0.20538683,3.92969806,15,58,1127,2,9,118,0.00840362,0.03298805,0.41145244,0.30856952,0.56398112,1.25779992
51197,0,USVirginiaWythe,Virginia,Wythe,2020-07-17 18:26:43.659443,2020-04-26 00:00:00.000000,0.05594876,0.20397639,4.14773716,16,58,1189,1,8,103,0.00684495,0.03019994,0.36049631,0.31537507,0.56782150,1.25454493
51197,0,USVirginiaWythe,Virginia,Wythe,2020-07-17 18:26:43.659443,2020-04-27 00:00:00.000000,0.05705241,0.21230803,4.47402429,16,60,1283,2,9,132,0.00863071,0.03483721,0.46033037,0.32869465,0.56162211,1.24303805
51197,0,USVirginiaWythe,Virginia,Wythe,2020-07-17 18:26:43.659443,2020-04-28 00:00:00.000000,0.05816069,0.21521947,4.44964620,16,61,1276,2,9,114,0.00713808,0.03226483,0.39953361,0.35455459,0.56159115,1.22082158
51197,0,USVirginiaWythe,Virginia,Wythe,2020-07-17 18:26:43.659443,2020-04-29 00:00:00.000000,0.05928595,0.21981477,5.05566116,17,63,1450,2,10,140,0.00883013,0.03616008,0.49082888,0.34936559,0.55176696,1.20547517
51197,0,USVirginiaWythe,Virginia,Wythe,2020-07-17 18:26:43.659443,2020-04-30 00:00:00.000000,0.06044308,0.22342524,4.77399147,17,64,1369,2,9,129,0.00744109,0.03423393,0.45292754,0.32999266,0.54081821,1.18707641
51197,0,USVirginiaWythe,Virginia,Wythe,2020-07-17 18:26:43.659443,2020-05-01 00:00:00.000000,0.06164329,0.23261396,5.68587407,17,66,1630,2,10,152,0.00894339,0.03797442,0.53119485,0.30357481,0.54182600,1.15579890
51197,0,USVirginiaWythe,Virginia,Wythe,2020-07-17 18:26:43.659443,2020-05-02 00:00:00.000000,0.06287333,0.24047435,5.07410670,18,68,1455,2,10,148,0.00768444,0.03652426,0.51889339,0.28915073,0.53811369,1.11332864
51197,0,USVirginiaWythe,Virginia,Wythe,2020-07-17 18:26:43.659443,2020-05-03 00:00:00.000000,0.06415172,0.25143965,6.34235744,18,72,1819,2,11,164,0.00899387,0.03927893,0.57258302,0.28330252,0.53451421,1.11331044
51197,0,USVirginiaWythe,Virginia,Wythe,2020-07-17 18:26:43.659443,2020-05-04 00:00:00.000000,0.06507723,0.25332404,5.34132721,18,72,1532,2,10,168,0.00791221,0.03783515,0.58810549,0.27887711,0.54146994,1.12548829
51197,0,USVirginiaWythe,Virginia,Wythe,2020-07-17 18:26:43.659443,2020-05-05 00:00:00.000000,0.06596826,0.26554810,7.02609072,18,76,2015,2,11,180,0.00905746,0.04142256,0.62835665,0.27756630,0.55321448,1.12953637
51197,0,USVirginiaWythe,Virginia,Wythe,2020-07-17 18:26:43.659443,2020-05-06 00:00:00.000000,0.06687482,0.26025538,5.62056637,19,74,1612,2,11,189,0.00815339,0.04030268,0.66152580,0.27924623,0.54649573,1.12071977
51197,0,USVirginiaWythe,Virginia,Wythe,2020-07-17 18:26:43.659443,2020-05-07 00:00:00.000000,0.06780003,0.27551265,7.77269133,19,79,2229,2,12,200,0.00971104,0.04337409,0.70056858,0.27943008,0.53358231,1.08661477
51197,0,USVirginiaWythe,Virginia,Wythe,2020-07-17 18:26:43.659443,2020-05-08 00:00:00.000000,0.06876541,0.26764338,5.92827931,19,76,1700,2,12,212,0.00841191,0.04300588,0.74147333,0.27243276,0.52595352,1.05111013
51197,0,USVirginiaWythe,Virginia,Wythe,2020-07-17 18:26:43.659443,2020-05-09 00:00:00.000000,0.06981680,0.28241611,8.54830784,20,81,2451,3,12,224,0.01056391,0.04468939,0.78440288,0.26047695,0.52145948,1.04776951
51197,0,USVirginiaWythe,Virginia,Wythe,2020-07-17 18:26:43.659443,2020-05-10 00:00:00.000000,0.07097340,0.27926852,6.34338729,20,80,1819,2,13,237,0.00867860,0.04534012,0.82948763,0.25815390,0.52069973,1.07792727
51197,0,USVirginiaWythe,Virginia,Wythe,2020-07-17 18:26:43.659443,2020-05-11 00:00:00.000000,0.07219424,0.28926947,9.30979007,20,82,2670,3,13,251,0.01086808,0.04718885,0.87682120,0.25706078,0.51512468,1.09882766
51197,0,USVirginiaWythe,Virginia,Wythe,2020-07-17 18:26:43.659443,2020-05-12 00:00:00.000000,0.07344741,0.29516322,6.83341269,21,84,1960,2,13,265,0.00879992,0.04664374,0.92629432,0.25716308,0.51613533,1.11084901
51197,0,USVirginiaWythe,Virginia,Wythe,2020-07-17 18:26:43.659443,2020-05-13 00:00:00.000000,0.07456780,0.30619515,10.08520150,21,87,2892,3,14,280,0.01117056,0.04928132,0.97739814,0.25906812,0.52057889,1.11795253
51197,0,USVirginiaWythe,Virginia,Wythe,2020-07-17 18:26:43.659443,2020-05-14 00:00:00.000000,0.07567156,0.31865236,7.38187567,21,91,2117,2,13,295,0.00891370,0.04797056,1.03051904,0.26209697,0.52584734,1.12798682
51197,0,USVirginiaWythe,Virginia,Wythe,2020-07-17 18:26:43.659443,2020-05-15 00:00:00.000000,0.07681155,0.32484926,10.92799131,22,93,3134,3,14,311,0.01144003,0.05082691,1.08605079,0.26014350,0.53495885,1.12673482
51197,0,USVirginiaWythe,Virginia,Wythe,2020-07-17 18:26:43.659443,2020-05-16 00:00:00.000000,0.07799573,0.33099909,8.01543030,22,94,2299,2,14,328,0.00902613,0.04940771,1.14406530,0.26131844,0.54179321,1.12079068
51197,0,USVirginiaWythe,Virginia,Wythe,2020-07-17 18:26:43.659443,2020-05-17 00:00:00.000000,0.07922950,0.33705791,11.95685924,22,96,3429,3,15,345,0.01171175,0.05295257,1.20442490,0.26521656,0.54703841,1.11434447
51197,0,USVirginiaWythe,Virginia,Wythe,2020-07-17 18:26:43.659443,2020-05-18 00:00:00.000000,0.08051266,0.34307655,8.68750956,23,98,2491,2,14,363,0.00913670,0.05202559,1.26666309,0.26604605,0.55124489,1.11165688
51197,0,USVirginiaWythe,Virginia,Wythe,2020-07-17 18:26:43.659443,2020-05-19 00:00:00.000000,0.08183920,0.35036124,13.08145332,23,100,3752,3,15,381,0.01213336,0.05501831,1.32984361,0.26038248,0.55432272,1.09735220
51197,0,USVirginiaWythe,Virginia,Wythe,2020-07-17 18:26:43.659443,2020-05-20 00:00:00.000000,0.08320001,0.35783602,9.25089622,23,102,2653,2,15,399,0.00924486,0.05469137,1.39296114,0.26200632,0.55691741,1.11053200
51197,0,USVirginiaWythe,Virginia,Wythe,2020-07-17 18:26:43.659443,2020-05-21 00:00:00.000000,0.08458580,0.36553378,14.25614371,24,104,4089,3,16,417,0.01235206,0.05857120,1.45602235,0.26073281,0.56070447,1.08828848
51197,0,USVirginiaWythe,Virginia,Wythe,2020-07-17 18:26:43.659443,2020-05-22 00:00:00.000000,0.08598852,0.37347521,9.75175299,24,107,2797,2,16,435,0.00935398,0.05648583,1.51982369,0.25756947,0.56749910,1.04424681
51197,0,USVirginiaWythe,Virginia,Wythe,2020-07-17 18:26:43.659443,2020-05-23 00:00:00.000000,0.08740154,0.38177954,15.43091334,25,109,4426,3,17,454,0.01265972,0.06085851,1.58458324,0.25539450,0.57662322,1.03992602
51197,0,USVirginiaWythe,Virginia,Wythe,2020-07-17 18:26:43.659443,2020-05-24 00:00:00.000000,0.08882158,0.39086651,10.14460792,25,112,2909,2,16,472,0.00946780,0.05852531,1.64853746,0.25867598,0.58452311,1.06939613
51197,0,USVirginiaWythe,Virginia,Wythe,2020-07-17 18:26:43.659443,2020-05-25 00:00:00.000000,0.09025089,0.39859865,16.43158643,25,114,4713,3,18,490,0.01301042,0.06421880,1.71104037,0.25989800,0.58567356,1.08680353
51197,0,USVirginiaWythe,Virginia,Wythe,2020-07-17 18:26:43.659443,2020-05-26 00:00:00.000000,0.09169342,0.40487600,10.52419600,26,116,3018,2,17,509,0.00959682,0.06139922,1.77493260,0.25970785,0.59633004,1.07905332
51197,0,USVirginiaWythe,Virginia,Wythe,2020-07-17 18:26:43.659443,2020-05-27 00:00:00.000000,0.09314766,0.41123738,17.44018340,26,117,5002,3,19,528,0.01349038,0.06848898,1.84079881,0.25950310,0.60022797,1.05520254
51197,0,USVirginiaWythe,Virginia,Wythe,2020-07-17 18:26:43.659443,2020-05-28 00:00:00.000000,0.09456217,0.41768573,11.01467106,27,119,3159,2,18,547,0.00975037,0.06383789,1.90900936,0.25881037,0.59485570,1.03000502
51197,0,USVirginiaWythe,Virginia,Wythe,2020-07-17 18:26:43.659443,2020-05-29 00:00:00.000000,0.09587138,0.42965689,18.57312601,27,123,5327,4,20,568,0.01404744,0.07270182,1.98019915,0.24805002,0.59614203,1.02129234
51197,0,USVirginiaWythe,Virginia,Wythe,2020-07-17 18:26:43.659443,2020-05-30 00:00:00.000000,0.09698039,0.43614792,11.66515084,27,125,3346,2,19,589,0.00993030,0.06782365,2.05494983,0.24564063,0.61587991,1.01929530
51197,0,USVirginiaWythe,Virginia,Wythe,2020-07-17 18:26:43.659443,2020-05-31 00:00:00.000000,0.09760349,0.44844293,19.84517711,27,128,5692,4,21,611,0.01468771,0.07663344,2.13339965,0.24191787,0.62267962,1.03061335
51197,0,USVirginiaWythe,Virginia,Wythe,2020-07-17 18:26:43.659443,2020-06-01 00:00:00.000000,0.09712163,0.45812438,12.44441875,27,131,3569,2,20,635,0.01013330,0.07216467,2.21527090,0.23891780,0.60900006,1.03069176
51197,0,USVirginiaWythe,Virginia,Wythe,2020-07-17 18:26:43.659443,2020-06-02 00:00:00.000000,0.09642551,0.47037457,21.20585506,27,134,6082,4,22,659,0.01529341,0.07954423,2.30022517,0.23826947,0.58809049,1.00694014
51197,0,USVirginiaWythe,Virginia,Wythe,2020-07-17 18:26:43.659443,2020-06-03 00:00:00.000000,0.09567912,0.48353030,13.28980456,27,138,3812,2,21,684,0.01034989,0.07617758,2.38805493,0.23786015,0.57837428,0.99783521
51197,0,USVirginiaWythe,Virginia,Wythe,2020-07-17 18:26:43.659443,2020-06-04 00:00:00.000000,0.09490799,0.49811281,22.59142048,27,142,6480,4,24,710,0.01587105,0.08426092,2.47868945,0.23672407,0.57838806,0.98956646
51197,0,USVirginiaWythe,Virginia,Wythe,2020-07-17 18:26:43.659443,2020-06-05 00:00:00.000000,0.09414934,0.50342410,14.18339931,27,144,4068,3,22,737,0.01057522,0.07998788,2.57216534,0.23496778,0.59072078,0.96982203
51197,0,USVirginiaWythe,Virginia,Wythe,2020-07-17 18:26:43.659443,2020-06-06 00:00:00.000000,0.09342037,0.51429483,23.94445740,26,147,6868,4,24,765,0.01592850,0.08707410,2.66861509,0.22373407,0.60812581,0.99667088
51197,0,USVirginiaWythe,Virginia,Wythe,2020-07-17 18:26:43.659443,2020-06-07 00:00:00.000000,0.09270643,0.52025414,15.14142918,26,149,4343,3,24,794,0.01079742,0.08481582,2.76826361,0.21201485,0.60312531,1.02310664
51197,0,USVirginiaWythe,Virginia,Wythe,2020-07-17 18:26:43.659443,2020-06-08 00:00:00.000000,0.09183720,0.53130616,25.26362119,26,152,7246,4,26,823,0.01612581,0.09110246,2.87138529,0.20129157,0.59894026,1.06736731
51197,0,USVirginiaWythe,Virginia,Wythe,2020-07-17 18:26:43.659443,2020-06-09 00:00:00.000000,0.08947536,0.53829715,16.18248313,25,154,4641,3,25,854,0.01073000,0.08758059,2.97816986,0.19805666,0.59413353,1.08992891
51197,0,USVirginiaWythe,Virginia,Wythe,2020-07-17 18:26:43.659443,2020-06-10 00:00:00.000000,0.09020111,0.55367529,24.98174705,25,158,7165,4,26,885,0.01642101,0.09376671,3.08858824,0.19898383,0.59384319,1.11391432
51197,0,USVirginiaWythe,Virginia,Wythe,2020-07-17 18:26:43.659443,2020-06-11 00:00:00.000000,0.08662688,0.56401488,17.28227311,24,161,4957,3,26,918,0.01065844,0.09129650,3.20244266,0.19931226,0.59376777,1.13963139
51197,0,USVirginiaWythe,Virginia,Wythe,2020-07-17 18:26:43.659443,2020-06-12 00:00:00.000000,0.08876273,0.57954419,24.28995096,25,166,6967,4,27,952,0.01701089,0.09511444,3.31951155,0.19316389,0.60800206,1.15385914
51197,0,USVirginiaWythe,Virginia,Wythe,2020-07-17 18:26:43.659443,2020-06-13 00:00:00.000000,0.08601903,0.58685632,18.40713566,24,168,5279,3,27,986,0.01061269,0.09564533,3.43963856,0.18776384,0.60057227,1.15337555
51197,0,USVirginiaWythe,Virginia,Wythe,2020-07-17 18:26:43.659443,2020-06-14 00:00:00.000000,0.08791137,0.59923741,23.69427861,25,171,6796,4,28,1021,0.01733039,0.10062872,3.56278546,0.18326526,0.58441129,1.12219328
51197,0,USVirginiaWythe,Virginia,Wythe,2020-07-17 18:26:43.659443,2020-06-15 00:00:00.000000,0.08773184,0.60538293,19.56115527,25,173,5610,3,28,1058,0.01063912,0.09936890,3.68909538,0.18070262,0.58545004,1.07772668
51197,0,USVirginiaWythe,Virginia,Wythe,2020-07-17 18:26:43.659443,2020-06-16 00:00:00.000000,0.08771694,0.62260829,23.21331863,25,178,6658,4,30,1095,0.01742541,0.10700707,3.81894794,0.17937390,0.59747724,1.11446810
51197,0,USVirginiaWythe,Virginia,Wythe,2020-07-17 18:26:43.659443,2020-06-17 00:00:00.000000,0.08758125,0.62006408,20.78981397,25,177,5963,3,30,1133,0.01075118,0.10474379,3.95284746,0.17870886,0.59904682,1.12822840
51197,0,USVirginiaWythe,Virginia,Wythe,2020-07-17 18:26:43.659443,2020-06-18 00:00:00.000000,0.08949054,0.64489657,22.86364755,25,184,6558,5,31,1173,0.01777397,0.10940481,4.09099263,0.17837749,0.60534415,1.10855735
51197,0,USVirginiaWythe,Virginia,Wythe,2020-07-17 18:26:43.659443,2020-06-19 00:00:00.000000,0.08626489,0.63963076,21.58181432,24,183,6190,3,31,1214,0.01092506,0.11028855,4.23294935,0.17821638,0.58528261,1.08898422
51197,0,USVirginiaWythe,Virginia,Wythe,2020-07-17 18:26:43.659443,2020-06-20 00:00:00.000000,0.09525949,0.67251488,23.19780370,27,192,6654,5,32,1255,0.01826702,0.11331403,4.37790579,0.17816454,0.59276506,1.07651123
51197,0,USVirginiaWythe,Virginia,Wythe,2020-07-17 18:26:43.659443,2020-06-21 00:00:00.000000,0.08416155,0.65739943,21.22955173,24,188,6089,3,32,1297,0.01112988,0.11472328,4.52501719,0.17819292,0.60553602,1.07870823
51197,0,USVirginiaWythe,Virginia,Wythe,2020-07-17 18:26:43.659443,2020-06-22 00:00:00.000000,0.10046121,0.68088434,23.83512403,28,195,6836,5,34,1340,0.01865242,0.11961194,4.67346916,0.17938398,0.59554095,1.13697485
51197,0,USVirginiaWythe,Virginia,Wythe,2020-07-17 18:26:43.659443,2020-06-23 00:00:00.000000,0.08218017,0.68523688,21.45423378,23,196,6153,3,34,1383,0.01135395,0.12112825,4.82239626,0.17733208,0.58026886,1.16264345
51197,0,USVirginiaWythe,Virginia,Wythe,2020-07-17 18:26:43.659443,2020-06-24 00:00:00.000000,0.10525494,0.70080236,25.19295556,30,201,7226,5,35,1425,0.01898558,0.12477252,4.97125129,0.16979130,0.57264887,1.17638384
51197,0,USVirginiaWythe,Virginia,Wythe,2020-07-17 18:26:43.659443,2020-06-25 00:00:00.000000,0.08034402,0.71058635,22.57695483,23,203,6475,3,36,1468,0.01159837,0.12755614,5.12003537,0.16982908,0.58514548,1.18672937
51197,0,USVirginiaWythe,Virginia,Wythe,2020-07-17 18:26:43.659443,2020-06-26 00:00:00.000000,0.11384039,0.72604828,26.58804056,32,208,7626,5,37,1511,0.01932337,0.13038298,5.26826707,0.17042442,0.59614397,1.19598014
51197,0,USVirginiaWythe,Virginia,Wythe,2020-07-17 18:26:43.659443,2020-06-27 00:00:00.000000,0.07849859,0.74270645,24.22013972,22,213,6947,3,38,1553,0.01186617,0.13318142,5.41455130,0.17026457,0.60997832,1.14409997
51197,0,USVirginiaWythe,Virginia,Wythe,2020-07-17 18:26:43.659443,2020-06-28 00:00:00.000000,0.11100840,0.74907226,28.21303465,31,214,8092,5,39,1594,0.01968257,0.13868968,5.55772415,0.16650315,0.61245607,1.14885494
51197,0,USVirginiaWythe,Virginia,Wythe,2020-07-17 18:26:43.659443,2020-06-29 00:00:00.000000,0.07642459,0.75578903,25.97979435,21,216,7452,3,41,1634,0.01201595,0.14319057,5.69834293,0.16411036,0.59247475,1.15059989
51197,0,USVirginiaWythe,Virginia,Wythe,2020-07-17 18:26:43.659443,2020-06-30 00:00:00.000000,0.10833697,0.76281354,29.96950827,31,218,8596,5,42,1674,0.02003410,0.14959347,5.83751120,0.16301135,0.55486428,1.15069460
51197,0,USVirginiaWythe,Virginia,Wythe,2020-07-17 18:26:43.659443,2020-07-01 00:00:00.000000,0.07441556,0.77011260,26.62037526,21,220,7635,3,43,1714,0.01198261,0.15258389,5.97575963,0.16273939,0.56552840,1.14856898
51197,0,USVirginiaWythe,Virginia,Wythe,2020-07-17 18:26:43.659443,2020-07-02 00:00:00.000000,0.10812672,0.78752694,31.63254053,31,225,9073,5,46,1765,0.02027494,0.16076249,6.15630473,0.16336699,0.54486243,1.14738403
51197,0,USVirginiaWythe,Virginia,Wythe,2020-07-17 18:26:43.659443,2020-07-03 00:00:00.000000,0.07238083,0.78542219,27.27369130,20,225,7823,3,44,1792,0.01195765,0.15645795,6.24981811,0.16579084,0.55604517,1.17025289
51197,0,USVirginiaWythe,Virginia,Wythe,2020-07-17 18:26:43.659443,2020-07-04 00:00:00.000000,0.10749937,0.81765707,33.19157741,30,234,9520,5,47,1867,0.02040109,0.16584100,6.51154542,0.16784720,0.55896317,1.18374409
51197,0,USVirginiaWythe,Virginia,Wythe,2020-07-17 18:26:43.659443,2020-07-05 00:00:00.000000,0.07020436,0.80142372,28.13945107,20,229,8071,3,47,1870,0.01192939,0.16577431,6.52005568,0.16773934,0.55947736,1.18151768
51197,0,USVirginiaWythe,Virginia,Wythe,2020-07-17 18:26:43.659443,2020-07-06 00:00:00.000000,0.10389662,0.83912124,35.24443243,29,240,10109,5,48,1970,0.02052602,0.17082223,6.86876491,0.16635852,0.55952810,1.18770137
51197,0,USVirginiaWythe,Virginia,Wythe,2020-07-17 18:26:43.659443,2020-07-07 00:00:00.000000,0.06809072,0.84119558,29.26032660,19,241,8393,3,50,1946,0.01189226,0.17531027,6.78572567,0.16555497,0.56086651,1.24242211
51197,0,USVirginiaWythe,Virginia,Wythe,2020-07-17 18:26:43.659443,2020-07-08 00:00:00.000000,0.08975232,0.86021311,37.20511198,25,246,10671,5,51,2072,0.02065258,0.18025377,7.22669702,0.16527636,0.55922844,1.24665083
51197,0,USVirginiaWythe,Virginia,Wythe,2020-07-17 18:26:43.659443,2020-07-09 00:00:00.000000,0.06615550,0.86976889,30.48118271,18,249,8743,3,53,2022,0.01185051,0.18585338,7.05139189,0.16517919,0.55601406,1.24834213
51197,0,USVirginiaWythe,Virginia,Wythe,2020-07-17 18:26:43.659443,2020-07-10 00:00:00.000000,0.07748207,0.90703996,38.97680445,22,260,11180,5,54,2177,0.01879118,0.18990148,7.58961107,0.16514501,0.55498137,1.24896272
51197,0,USVirginiaWythe,Virginia,Wythe,2020-07-17 18:26:43.659443,2020-07-11 00:00:00.000000,0.06439511,0.89473676,31.81048683,18,256,9124,3,56,2101,0.01165512,0.19624336,7.32785244,0.16513293,0.55475769,1.24918316
51197,0,USVirginiaWythe,Virginia,Wythe,2020-07-17 18:26:43.659443,2020-07-12 00:00:00.000000,0.07016244,0.92427829,39.88706064,20,265,11441,4,56,2281,0.01620394,0.19705156,7.95455100,0.16512865,0.55469973,1.24926056
51197,0,USVirginiaWythe,Virginia,Wythe,2020-07-17 18:26:43.659443,2020-07-13 00:00:00.000000,0.06278587,0.93623349,33.27450473,18,268,9544,3,57,2184,0.01140349,0.20181885,7.61508163,0.16512715,0.55468476,1.24928762
51197,0,USVirginiaWythe,Virginia,Wythe,2020-07-17 18:26:43.659443,2020-07-14 00:00:00.000000,0.06607517,0.96563440,39.87952616,18,276,11439,4,60,2383,0.01411822,0.20956684,8.30898489,0.16512663,0.55468089,1.24929707
51197,0,USVirginiaWythe,Virginia,Wythe,2020-07-17 18:26:43.659443,2020-07-15 00:00:00.000000,0.06130591,0.97775742,34.66124836,17,280,9942,3,60,2282,0.01116216,0.21208842,7.95774017,0.16512646,0.55467990,1.24930037
51197,0,USVirginiaWythe,Virginia,Wythe,2020-07-17 18:26:43.659443,2020-07-16 00:00:00.000000,0.06381090,1.02204635,39.75662979,18,293,11403,3,61,2481,0.01289814,0.21498317,8.64976337,0.16512641,0.55467964,1.24930152
51197,0,USVirginiaWythe,Virginia,Wythe,2020-07-17 18:26:43.659443,2020-07-17 00:00:00.000000,0.05993727,1.03131010,36.34247259,17,295,10424,3,62,2378,0.01093230,0.21920203,8.29135338,0.16512640,0.55467957,1.24930192
51197,0,USVirginiaWythe,Virginia,Wythe,2020-07-17 18:26:43.659443,2020-07-18 00:00:00.000000,0.06255163,1.05095834,39.76850614,17,301,11407,3,64,2574,0.01246742,0.22479274,8.97440874,0.16512640,0.55467956,1.24930206
51197,0,USVirginiaWythe,Virginia,Wythe,2020-07-17 18:26:43.659443,2020-07-19 00:00:00.000000,0.05866537,1.04023058,36.94313064,16,298,10596,3,65,2470,0.01071460,0.22857645,8.61345518,0.16512640,0.55467955,1.24930211
51197,0,USVirginiaWythe,Virginia,Wythe,2020-07-17 18:26:43.659443,2020-07-20 00:00:00.000000,0.06184421,1.07948544,40.36313891,17,309,11577,3,65,2662,0.01233476,0.22929490,9.28097974,0.16512641,0.55467955,1.24930212
51197,0,USVirginiaWythe,Virginia,Wythe,2020-07-17 18:26:43.659443,2020-07-21 00:00:00.000000,0.05747836,1.09390440,37.08775675,16,313,10638,3,66,2559,0.01050940,0.23276300,8.92192087,0.16512641,0.55467955,1.24930213
51197,0,USVirginiaWythe,Virginia,Wythe,2020-07-17 18:26:43.659443,2020-07-22 00:00:00.000000,0.06143960,1.10843618,41.38134680,17,317,11869,3,67,2744,0.01229888,0.23628383,9.56809481,0.16512641,0.55467955,1.24930213
51197,0,USVirginiaWythe,Virginia,Wythe,2020-07-17 18:26:43.659443,2020-07-23 00:00:00.000000,0.05636650,1.12308696,38.13135364,16,322,10937,2,68,2643,0.01031685,0.24009828,9.21501099,0.16512642,0.55467955,1.24930213
51197,0,USVirginiaWythe,Virginia,Wythe,2020-07-17 18:26:43.659443,2020-07-24 00:00:00.000000,0.06120109,1.13786237,42.29456945,17,326,12131,3,70,2832,0.01231671,0.24438974,9.87331976,0.16512642,0.55467955,1.24930213
51197,0,USVirginiaWythe,Virginia,Wythe,2020-07-17 18:26:43.659443,2020-07-25 00:00:00.000000,0.05532178,1.14944845,39.10361172,15,329,11216,2,71,2722,0.01013693,0.25037019,9.49139597,0.16512642,0.55467955,1.24930213
51197,0,USVirginiaWythe,Virginia,Wythe,2020-07-17 18:26:43.659443,2020-07-26 00:00:00.000000,0.06105372,1.16780734,43.30255084,17,334,12420,3,72,2916,0.01236465,0.25433649,10.16732208,0.16512642,0.55467955,1.24930213
51197,0,USVirginiaWythe,Virginia,Wythe,2020-07-17 18:26:43.659443,2020-07-27 00:00:00.000000,0.05433751,1.18709907,40.81598243,15,340,11707,2,74,2796,0.00996952,0.26045626,9.75015988,0.16512642,0.55467955,1.24930213
51197,0,USVirginiaWythe,Virginia,Wythe,2020-07-17 18:26:43.659443,2020-07-28 00:00:00.000000,0.06095634,1.19830767,46.14538031,17,343,13236,3,76,2993,0.01242977,0.26671261,10.43676215,0.16512642,0.55467955,1.24930213
51197,0,USVirginiaWythe,Virginia,Wythe,2020-07-17 18:26:43.659443,2020-07-29 00:00:00.000000,0.05340812,1.21377598,42.53741551,15,348,12201,2,78,2865,0.00981442,0.27304853,9.99078435,0.16512642,0.55467955,1.24930213
