FIPS,HR_UID,nameid,province,region,analysisTime,dates,pointprevalence_025,pointprevalence_50,pointprevalence_975,pointinfections_025,pointinfections_50,pointinfections_975,pointinfectious_025,pointinfectious_50,pointinfectious_975,pointinfectiousprevalence_05,pointinfectiousprevalence_50,pointinfectiousprevalence_95,infectrate_025,infectrate_50,infectrate_975
19083,0,USIowaHardin,Iowa,Hardin,2020-07-18 16:08:22.595382,2020-03-09 00:00:00.000000,0.03235091,0.13448267,1.06549443,5,22,179,0,5,17,0.00009011,0.03135033,0.10243711,0.49488111,0.73028325,1.03748032
19083,0,USIowaHardin,Iowa,Hardin,2020-07-18 16:08:22.595382,2020-03-10 00:00:00.000000,0.01130048,0.13416170,2.26639030,1,22,381,0,4,19,0.00000000,0.02784738,0.11620566,0.49489325,0.73028375,1.03748027
19083,0,USIowaHardin,Iowa,Hardin,2020-07-18 16:08:22.595382,2020-03-11 00:00:00.000000,0.03747959,0.13920884,1.03764575,6,23,174,1,5,17,0.00855372,0.03400157,0.10580457,0.49491910,0.73028447,1.03748019
19083,0,USIowaHardin,Iowa,Hardin,2020-07-18 16:08:22.595382,2020-03-12 00:00:00.000000,0.00000000,0.15024144,2.23046705,0,25,375,0,5,19,0.00000000,0.02985151,0.11551452,0.49497423,0.73028535,1.03748021
19083,0,USIowaHardin,Iowa,Hardin,2020-07-18 16:08:22.595382,2020-03-13 00:00:00.000000,0.03084988,0.15543527,1.07500862,5,26,181,1,4,18,0.01083671,0.02787919,0.10958742,0.49509206,0.73028587,1.03748128
19083,0,USIowaHardin,Iowa,Hardin,2020-07-18 16:08:22.595382,2020-03-14 00:00:00.000000,0.00000000,0.16680428,2.21751614,0,28,373,0,5,19,0.00000000,0.03113011,0.11839649,0.49534556,0.73028345,1.03748877
19083,0,USIowaHardin,Iowa,Hardin,2020-07-18 16:08:22.595382,2020-03-15 00:00:00.000000,0.01753593,0.17895103,1.15990744,2,30,195,2,5,19,0.01252427,0.03096920,0.11355213,0.49589789,0.73026733,1.03753111
19083,0,USIowaHardin,Iowa,Hardin,2020-07-18 16:08:22.595382,2020-03-16 00:00:00.000000,0.00000000,0.19187203,2.22633772,0,32,375,0,5,20,0.00000000,0.03429362,0.12445949,0.49712934,0.72912845,1.03775206
19083,0,USIowaHardin,Iowa,Hardin,2020-07-18 16:08:22.595382,2020-03-17 00:00:00.000000,0.01226932,0.20882621,1.25336928,2,35,211,1,5,19,0.00883197,0.03320009,0.11735447,0.49998163,0.72591537,1.04405541
19083,0,USIowaHardin,Iowa,Hardin,2020-07-18 16:08:22.595382,2020-03-18 00:00:00.000000,0.00000000,0.22537061,2.25602285,0,37,380,0,6,23,0.00000000,0.03935214,0.13744898,0.50692120,0.72734303,1.04536702
19083,0,USIowaHardin,Iowa,Hardin,2020-07-18 16:08:22.595382,2020-03-19 00:00:00.000000,0.00983617,0.24357122,1.35814894,1,41,228,1,6,22,0.00687468,0.03808685,0.13103228,0.51903854,0.72463935,1.05653081
19083,0,USIowaHardin,Iowa,Hardin,2020-07-18 16:08:22.595382,2020-03-20 00:00:00.000000,0.00000000,0.25887233,2.30650060,0,43,388,0,7,26,0.00000000,0.04517920,0.15817497,0.49749035,0.71852699,1.07353281
19083,0,USIowaHardin,Iowa,Hardin,2020-07-18 16:08:22.595382,2020-03-21 00:00:00.000000,0.00786779,0.27895368,1.47594180,1,46,248,0,7,25,0.00540492,0.04511683,0.15207117,0.47930295,0.71887784,1.10043541
19083,0,USIowaHardin,Iowa,Hardin,2020-07-18 16:08:22.595382,2020-03-22 00:00:00.000000,0.00000000,0.29998022,2.37905333,0,50,400,0,8,31,0.00000000,0.05133090,0.18817124,0.45242851,0.69759703,1.13243625
19083,0,USIowaHardin,Iowa,Hardin,2020-07-18 16:08:22.595382,2020-03-23 00:00:00.000000,0.00623205,0.31952600,1.60763943,1,53,270,0,9,30,0.00424904,0.05371092,0.18031386,0.44140508,0.69725989,1.15315935
19083,0,USIowaHardin,Iowa,Hardin,2020-07-18 16:08:22.595382,2020-03-24 00:00:00.000000,0.00000000,0.33747935,2.47159431,0,56,416,0,9,35,0.00000000,0.05923150,0.20801500,0.43230147,0.69983782,1.14632297
19083,0,USIowaHardin,Iowa,Hardin,2020-07-18 16:08:22.595382,2020-03-25 00:00:00.000000,0.00490956,0.35464637,1.75333807,0,59,295,0,10,35,0.00333754,0.06427655,0.21345326,0.43174919,0.69722867,1.13283354
19083,0,USIowaHardin,Iowa,Hardin,2020-07-18 16:08:22.595382,2020-03-26 00:00:00.000000,0.00000000,0.37206514,2.58109423,0,62,434,0,12,39,0.00000000,0.07205388,0.23177214,0.43165018,0.69509733,1.12267996
19083,0,USIowaHardin,Iowa,Hardin,2020-07-18 16:08:22.595382,2020-03-27 00:00:00.000000,0.00385269,0.39925328,1.91321323,0,67,322,0,12,42,0.00262215,0.07565195,0.25130744,0.43161293,0.68621702,1.11135751
19083,0,USIowaHardin,Iowa,Hardin,2020-07-18 16:08:22.595382,2020-03-28 00:00:00.000000,0.00000000,0.42766008,2.70460089,0,72,455,0,13,45,0.00000000,0.08242004,0.27210901,0.43042708,0.69442929,1.11894227
19083,0,USIowaHardin,Iowa,Hardin,2020-07-18 16:08:22.595382,2020-03-29 00:00:00.000000,0.00304688,0.45349515,2.08818872,0,76,351,0,14,49,0.00210643,0.08710397,0.29422713,0.41523722,0.72352978,1.12913072
19083,0,USIowaHardin,Iowa,Hardin,2020-07-18 16:08:22.595382,2020-03-30 00:00:00.000000,0.00000000,0.48087362,2.84266961,0,81,478,0,15,53,0.00000000,0.09309402,0.31771421,0.41111327,0.73777642,1.14241135
19083,0,USIowaHardin,Iowa,Hardin,2020-07-18 16:08:22.595382,2020-03-31 00:00:00.000000,0.00259125,0.50996353,2.28057465,0,85,384,0,16,57,0.00178048,0.09595768,0.34263726,0.40192554,0.74034719,1.15407604
19083,0,USIowaHardin,Iowa,Hardin,2020-07-18 16:08:22.595382,2020-04-01 00:00:00.000000,0.00000000,0.54153505,2.99815667,0,91,505,0,17,62,0.00000000,0.10604257,0.36908937,0.39359984,0.74066572,1.17425858
19083,0,USIowaHardin,Iowa,Hardin,2020-07-18 16:08:22.595382,2020-04-02 00:00:00.000000,0.00219936,0.57812451,2.49669118,0,97,420,0,18,66,0.00150775,0.10753482,0.39512039,0.39152737,0.73819006,1.20885010
19083,0,USIowaHardin,Iowa,Hardin,2020-07-18 16:08:22.595382,2020-04-03 00:00:00.000000,0.00000000,0.61846479,3.17768298,0,104,535,0,20,71,0.00000000,0.12009245,0.42194808,0.39057824,0.73638498,1.27055028
19083,0,USIowaHardin,Iowa,Hardin,2020-07-18 16:08:22.595382,2020-04-04 00:00:00.000000,0.00187218,0.65529425,2.76105055,0,110,465,0,20,75,0.00127221,0.12205963,0.45039441,0.38947522,0.71658208,1.30458037
19083,0,USIowaHardin,Iowa,Hardin,2020-07-18 16:08:22.595382,2020-04-05 00:00:00.000000,0.00000000,0.69926540,3.41401032,0,117,575,0,23,80,0.00000000,0.13693997,0.48061489,0.38812167,0.69124710,1.30631971
19083,0,USIowaHardin,Iowa,Hardin,2020-07-18 16:08:22.595382,2020-04-06 00:00:00.000000,0.00152253,0.74696125,3.08034044,0,125,518,0,23,86,0.00103317,0.13855473,0.51274013,0.37649945,0.68273181,1.31826748
19083,0,USIowaHardin,Iowa,Hardin,2020-07-18 16:08:22.595382,2020-04-07 00:00:00.000000,0.00000000,0.76129661,3.69389211,0,128,622,0,26,92,0.00000000,0.15691131,0.54688083,0.36853967,0.68223903,1.36005230
19083,0,USIowaHardin,Iowa,Hardin,2020-07-18 16:08:22.595382,2020-04-08 00:00:00.000000,0.00121848,0.84287550,3.41197697,0,141,574,0,26,98,0.00082936,0.15780026,0.58314542,0.36365087,0.68568973,1.44648512
19083,0,USIowaHardin,Iowa,Hardin,2020-07-18 16:08:22.595382,2020-04-09 00:00:00.000000,0.00000000,0.85424080,4.00183625,0,143,674,0,29,104,0.00000000,0.17724442,0.62167160,0.35669558,0.69411474,1.52465317
19083,0,USIowaHardin,Iowa,Hardin,2020-07-18 16:08:22.595382,2020-04-10 00:00:00.000000,0.00097795,0.93296941,3.77735224,0,157,636,0,29,111,0.00067213,0.17436882,0.66263276,0.36112103,0.71525363,1.51921195
19083,0,USIowaHardin,Iowa,Hardin,2020-07-18 16:08:22.595382,2020-04-11 00:00:00.000000,0.00000000,0.97665573,4.46900623,0,164,752,0,33,118,0.00000000,0.19952452,0.70623187,0.36400649,0.73554747,1.50601682
19083,0,USIowaHardin,Iowa,Hardin,2020-07-18 16:08:22.595382,2020-04-12 00:00:00.000000,0.00081247,1.04154912,4.35096203,0,175,732,0,32,128,0.00057518,0.19200609,0.76416934,0.36112155,0.74807790,1.49047434
19083,0,USIowaHardin,Iowa,Hardin,2020-07-18 16:08:22.595382,2020-04-13 00:00:00.000000,0.00000000,1.11082391,5.04352983,0,187,849,0,37,139,0.00000000,0.22115304,0.82918461,0.35877729,0.74259938,1.47407346
19083,0,USIowaHardin,Iowa,Hardin,2020-07-18 16:08:22.595382,2020-04-14 00:00:00.000000,0.00077495,1.17599181,5.08802713,0,198,857,0,36,151,0.00055495,0.21379807,0.90033220,0.35855829,0.74812775,1.46026189
19083,0,USIowaHardin,Iowa,Hardin,2020-07-18 16:08:22.595382,2020-04-15 00:00:00.000000,0.00000000,1.23771796,5.75089190,0,208,968,0,41,164,0.00000000,0.24567397,0.97807354,0.35766617,0.75230172,1.50561014
19083,0,USIowaHardin,Iowa,Hardin,2020-07-18 16:08:22.595382,2020-04-16 00:00:00.000000,0.00079448,1.29163875,5.86218188,0,217,987,0,40,179,0.00057175,0.23883300,1.06287189,0.35640098,0.75537449,1.60231760
19083,0,USIowaHardin,Iowa,Hardin,2020-07-18 16:08:22.595382,2020-04-17 00:00:00.000000,0.00000000,1.34692317,6.64756765,0,226,1119,0,46,194,0.00000000,0.27459521,1.15521771,0.35687369,0.77838243,1.69134603
19083,0,USIowaHardin,Iowa,Hardin,2020-07-18 16:08:22.595382,2020-04-18 00:00:00.000000,0.00084627,1.40695625,6.61031276,0,237,1113,0,45,211,0.00061483,0.26763583,1.25556125,0.35107734,0.76381723,1.72405159
19083,0,USIowaHardin,Iowa,Hardin,2020-07-18 16:08:22.595382,2020-04-19 00:00:00.000000,0.00000000,1.47621571,7.57112572,0,248,1275,0,51,229,0.00000000,0.30588223,1.36406501,0.35105925,0.74234363,1.74097010
19083,0,USIowaHardin,Iowa,Hardin,2020-07-18 16:08:22.595382,2020-04-20 00:00:00.000000,0.00094360,1.53028135,7.41707676,0,257,1249,0,50,249,0.00068609,0.30268702,1.48042399,0.35016933,0.72690611,1.74785174
19083,0,USIowaHardin,Iowa,Hardin,2020-07-18 16:08:22.595382,2020-04-21 00:00:00.000000,0.00000000,1.62242315,8.58159954,0,273,1445,0,57,270,0.00000000,0.34077437,1.60458707,0.35120236,0.72857338,1.75125961
19083,0,USIowaHardin,Iowa,Hardin,2020-07-18 16:08:22.595382,2020-04-22 00:00:00.000000,0.00106503,1.65603260,8.36937069,0,278,1409,0,57,292,0.00077379,0.34366072,1.73703750,0.35369223,0.73128159,1.75868687
19083,0,USIowaHardin,Iowa,Hardin,2020-07-18 16:08:22.595382,2020-04-23 00:00:00.000000,0.00000000,1.78180041,9.76887206,0,300,1645,0,63,316,0.00000000,0.37879116,1.87848101,0.34742676,0.70049831,1.79374649
19083,0,USIowaHardin,Iowa,Hardin,2020-07-18 16:08:22.595382,2020-04-24 00:00:00.000000,0.00120352,1.79607772,9.42792762,0,302,1588,0,63,341,0.00087421,0.37763222,2.02969376,0.34249068,0.67786281,1.86832002
19083,0,USIowaHardin,Iowa,Hardin,2020-07-18 16:08:22.595382,2020-04-25 00:00:00.000000,0.00000000,1.95887115,11.31053132,0,329,1905,0,70,369,0.00000000,0.41978754,2.19149297,0.35186180,0.69455108,1.92029860
19083,0,USIowaHardin,Iowa,Hardin,2020-07-18 16:08:22.595382,2020-04-26 00:00:00.000000,0.00135964,2.00275920,10.93359617,0,337,1841,0,71,398,0.00098855,0.42169624,2.36474471,0.34633975,0.69479966,1.95891941
19083,0,USIowaHardin,Iowa,Hardin,2020-07-18 16:08:22.595382,2020-04-27 00:00:00.000000,0.00000000,2.17635206,13.06023479,0,366,2200,0,79,429,0.00000000,0.47041019,2.55032821,0.34508581,0.68855605,1.98458938
19083,0,USIowaHardin,Iowa,Hardin,2020-07-18 16:08:22.595382,2020-04-28 00:00:00.000000,0.00153423,2.24392474,12.71013034,0,378,2141,0,79,463,0.00112421,0.47136030,2.74911141,0.34384600,0.67918175,1.99906288
19083,0,USIowaHardin,Iowa,Hardin,2020-07-18 16:08:22.595382,2020-04-29 00:00:00.000000,0.00000000,2.44400113,14.56244781,0,411,2453,0,87,498,0.00000000,0.52117454,2.96196720,0.34052033,0.68445150,2.02526641
19083,0,USIowaHardin,Iowa,Hardin,2020-07-18 16:08:22.595382,2020-04-30 00:00:00.000000,0.00175570,2.53538579,14.74655472,0,427,2484,0,91,537,0.00132498,0.54510453,3.18980558,0.34244847,0.67916045,2.07731677
19083,0,USIowaHardin,Iowa,Hardin,2020-07-18 16:08:22.595382,2020-05-01 00:00:00.000000,0.00000000,2.67194075,16.23406051,0,450,2734,0,99,578,0.00000000,0.58951173,3.43363066,0.34716788,0.65815479,2.09126458
19083,0,USIowaHardin,Iowa,Hardin,2020-07-18 16:08:22.595382,2020-05-02 00:00:00.000000,0.00222230,2.79652696,17.29421580,0,471,2913,0,101,624,0.00170304,0.60266245,3.70508462,0.35180332,0.64299652,2.19064147
19083,0,USIowaHardin,Iowa,Hardin,2020-07-18 16:08:22.595382,2020-05-03 00:00:00.000000,0.00000000,2.94731322,18.80465212,0,496,3167,0,109,677,0.00000000,0.65166217,4.02098367,0.35356298,0.63808104,2.31986649
19083,0,USIowaHardin,Iowa,Hardin,2020-07-18 16:08:22.595382,2020-05-04 00:00:00.000000,0.00297820,3.10509778,20.55945364,0,523,3463,0,111,734,0.00228429,0.65896132,4.35909896,0.35247506,0.62364395,2.35314017
19083,0,USIowaHardin,Iowa,Hardin,2020-07-18 16:08:22.595382,2020-05-05 00:00:00.000000,0.00000000,3.26898325,22.47442562,0,550,3786,0,122,794,0.00000000,0.72429981,4.71732355,0.33921007,0.62123614,2.35860057
19083,0,USIowaHardin,Iowa,Hardin,2020-07-18 16:08:22.595382,2020-05-06 00:00:00.000000,0.00401650,3.43835009,24.54592708,0,579,4135,0,125,858,0.00309709,0.74616096,5.09811758,0.31206535,0.62011301,2.35941218
19083,0,USIowaHardin,Iowa,Hardin,2020-07-18 16:08:22.595382,2020-05-07 00:00:00.000000,0.00000000,3.61277525,26.76875971,0,608,4509,0,141,927,0.00000000,0.83995805,5.50449883,0.28867512,0.61959705,2.35948235
19083,0,USIowaHardin,Iowa,Hardin,2020-07-18 16:08:22.595382,2020-05-08 00:00:00.000000,0.00540723,3.77351549,29.14243549,0,635,4909,0,146,1000,0.00429825,0.86767987,5.93950147,0.27964102,0.61938828,2.35922257
19083,0,USIowaHardin,Iowa,Hardin,2020-07-18 16:08:22.595382,2020-05-09 00:00:00.000000,0.00000000,3.97748138,31.68427848,0,670,5337,0,165,1079,0.00000000,0.98109855,6.40602917,0.27939291,0.63113432,2.35780794
19083,0,USIowaHardin,Iowa,Hardin,2020-07-18 16:08:22.595382,2020-05-10 00:00:00.000000,0.00803019,4.09438277,34.45565773,1,689,5804,1,170,1163,0.00643241,1.00990542,6.90697081,0.28081559,0.62461811,2.35142253
19083,0,USIowaHardin,Iowa,Hardin,2020-07-18 16:08:22.595382,2020-05-11 00:00:00.000000,0.00000000,4.29710381,37.54488830,0,723,6324,0,189,1254,0.00000000,1.12711372,7.44616681,0.27440699,0.63430990,2.33228658
19083,0,USIowaHardin,Iowa,Hardin,2020-07-18 16:08:22.595382,2020-05-12 00:00:00.000000,0.01314667,4.45950746,40.90811414,2,751,6891,1,194,1352,0.00945812,1.15468094,8.02927963,0.27344587,0.63251217,2.30780189
19083,0,USIowaHardin,Iowa,Hardin,2020-07-18 16:08:22.595382,2020-05-13 00:00:00.000000,0.00000000,4.63237594,44.40537228,0,780,7480,0,212,1459,0.00000000,1.26142220,8.66132779,0.27461756,0.63190914,2.29505884
19083,0,USIowaHardin,Iowa,Hardin,2020-07-18 16:08:22.595382,2020-05-14 00:00:00.000000,0.01938652,4.79814090,47.72641423,3,808,8039,2,218,1574,0.01263353,1.29762786,9.34417354,0.27843376,0.63186563,2.28281244
19083,0,USIowaHardin,Iowa,Hardin,2020-07-18 16:08:22.595382,2020-05-15 00:00:00.000000,0.00000000,4.95440168,50.33711576,0,834,8479,0,246,1697,0.00000000,1.46249693,10.07728170,0.28415825,0.63213438,2.38761682
19083,0,USIowaHardin,Iowa,Hardin,2020-07-18 16:08:22.595382,2020-05-16 00:00:00.000000,0.02575084,5.10104737,52.97053543,4,859,8923,2,245,1829,0.01580426,1.45811964,10.85820200,0.28626909,0.61453233,2.54268355
19083,0,USIowaHardin,Iowa,Hardin,2020-07-18 16:08:22.595382,2020-05-17 00:00:00.000000,0.00115738,5.24453778,55.62280115,0,883,9370,0,280,1967,0.00000000,1.66230964,11.68154223,0.28513281,0.60972323,2.54615820
19083,0,USIowaHardin,Iowa,Hardin,2020-07-18 16:08:22.595382,2020-05-18 00:00:00.000000,0.03222779,5.42478672,58.28633313,5,913,9818,3,270,2112,0.01900882,1.60700102,12.53986460,0.28324836,0.61837210,2.54553320
19083,0,USIowaHardin,Iowa,Hardin,2020-07-18 16:08:22.595382,2020-05-19 00:00:00.000000,0.00398557,5.72182161,60.94981940,0,963,10267,0,308,2261,0.00000000,1.83419479,13.42626381,0.28486531,0.62871491,2.54611359
19083,0,USIowaHardin,Iowa,Hardin,2020-07-18 16:08:22.595382,2020-05-20 00:00:00.000000,0.03888989,5.90518460,63.59843174,6,994,10713,3,295,2414,0.02229387,1.75203029,14.33383182,0.29003333,0.63091937,2.54744513
19083,0,USIowaHardin,Iowa,Hardin,2020-07-18 16:08:22.595382,2020-05-21 00:00:00.000000,0.00688938,6.30834327,66.21580007,1,1062,11154,0,340,2569,0.00000000,2.02307469,15.25569079,0.29270033,0.63303692,2.54950205
19083,0,USIowaHardin,Iowa,Hardin,2020-07-18 16:08:22.595382,2020-05-22 00:00:00.000000,0.04572630,6.34238095,68.79747756,7,1068,11589,4,321,2726,0.02566189,1.90781273,16.18568656,0.29332556,0.63343110,2.55225552
19083,0,USIowaHardin,Iowa,Hardin,2020-07-18 16:08:22.595382,2020-05-23 00:00:00.000000,0.00997227,6.92643427,71.39726653,1,1166,12027,0,375,2903,0.00000000,2.23178908,17.23445710,0.29353931,0.61593134,2.55494532
19083,0,USIowaHardin,Iowa,Hardin,2020-07-18 16:08:22.595382,2020-05-24 00:00:00.000000,0.05296871,6.71774898,74.03613956,8,1131,12472,4,348,3085,0.02921790,2.07135386,18.31680042,0.29067551,0.61524772,2.55564065
19083,0,USIowaHardin,Iowa,Hardin,2020-07-18 16:08:22.595382,2020-05-25 00:00:00.000000,0.01406338,7.40329938,76.56477861,2,1247,12898,0,412,3268,0.00000000,2.45148889,19.40441537,0.27765862,0.61717628,2.55575775
19083,0,USIowaHardin,Iowa,Hardin,2020-07-18 16:08:22.595382,2020-05-26 00:00:00.000000,0.06246396,7.45307820,78.71585180,10,1255,13260,5,380,3451,0.03379055,2.26088821,20.48966392,0.27052508,0.62003227,2.56613706
19083,0,USIowaHardin,Iowa,Hardin,2020-07-18 16:08:22.595382,2020-05-27 00:00:00.000000,0.02190522,7.84752195,80.49613261,3,1321,13560,0,451,3632,0.00000000,2.68044095,21.56441207,0.26832546,0.62154509,2.59342307
19083,0,USIowaHardin,Iowa,Hardin,2020-07-18 16:08:22.595382,2020-05-28 00:00:00.000000,0.08036505,8.24795298,82.02755453,13,1389,13818,7,415,3810,0.04217677,2.46833185,22.62054895,0.27201326,0.61976586,2.63357805
19083,0,USIowaHardin,Iowa,Hardin,2020-07-18 16:08:22.595382,2020-05-29 00:00:00.000000,0.03665875,8.64968861,83.35142332,6,1457,14041,0,492,3984,0.00000000,2.92064649,23.65094789,0.27086915,0.62435564,2.68094227
19083,0,USIowaHardin,Iowa,Hardin,2020-07-18 16:08:22.595382,2020-05-30 00:00:00.000000,0.11394918,9.04110987,84.50487232,19,1523,14235,9,452,4152,0.05783465,2.68796178,24.64973751,0.26157444,0.63399024,2.73237794
19083,0,USIowaHardin,Iowa,Hardin,2020-07-18 16:08:22.595382,2020-05-31 00:00:00.000000,0.05853421,9.40311708,85.55307262,9,1584,14412,0,534,4314,0.00000000,3.17233218,25.61240522,0.25517681,0.63765495,2.78685086
19083,0,USIowaHardin,Iowa,Hardin,2020-07-18 16:08:22.595382,2020-06-01 00:00:00.000000,0.16374033,9.72647679,86.84901084,27,1638,14630,13,491,4470,0.08104478,2.91912381,26.53550877,0.25027527,0.63414613,2.84388183
19083,0,USIowaHardin,Iowa,Hardin,2020-07-18 16:08:22.595382,2020-06-02 00:00:00.000000,0.08602918,10.01822129,88.13989990,14,1687,14848,0,578,4618,0.00000000,3.43264057,27.41646325,0.23829300,0.62092214,2.90411420
19083,0,USIowaHardin,Iowa,Hardin,2020-07-18 16:08:22.595382,2020-06-03 00:00:00.000000,0.22464287,10.28571247,89.25645030,37,1732,15036,18,531,4759,0.10809364,3.15725063,28.25343661,0.23231116,0.60076388,2.97310823
19083,0,USIowaHardin,Iowa,Hardin,2020-07-18 16:08:22.595382,2020-06-04 00:00:00.000000,0.11229979,10.39874887,90.20799770,18,1751,15196,0,623,4892,0.00000000,3.69898983,29.04526938,0.22728462,0.57785930,3.05927615
19083,0,USIowaHardin,Iowa,Hardin,2020-07-18 16:08:22.595382,2020-06-05 00:00:00.000000,0.28283340,10.52481673,90.59698079,47,1773,15261,22,573,5018,0.13393800,3.40336024,29.79139411,0.22334145,0.54628763,3.14706587
19083,0,USIowaHardin,Iowa,Hardin,2020-07-18 16:08:22.595382,2020-06-06 00:00:00.000000,0.13334861,10.81094495,90.53080771,22,1821,15250,0,662,5136,0.00000000,3.93200024,30.49176233,0.21661758,0.54883360,3.20420387
19083,0,USIowaHardin,Iowa,Hardin,2020-07-18 16:08:22.595382,2020-06-07 00:00:00.000000,0.32945742,11.08525679,90.36884427,55,1867,15223,26,616,5246,0.15464529,3.65833477,31.14678155,0.21399907,0.56520943,3.22966517
19083,0,USIowaHardin,Iowa,Hardin,2020-07-18 16:08:22.595382,2020-06-08 00:00:00.000000,0.14789642,11.35495882,90.46674747,24,1912,15240,0,692,5349,0.00000000,4.11008857,31.75723301,0.21183506,0.56004469,3.24406870
19083,0,USIowaHardin,Iowa,Hardin,2020-07-18 16:08:22.595382,2020-06-09 00:00:00.000000,0.36168145,11.47988008,90.72295282,60,1933,15283,28,660,5445,0.16895706,3.92300423,32.32416538,0.21043040,0.54473663,3.26107819
19083,0,USIowaHardin,Iowa,Hardin,2020-07-18 16:08:22.595382,2020-06-10 00:00:00.000000,0.15554413,11.82973166,91.24276439,26,1992,15370,0,724,5533,0.00000000,4.29839975,32.84880488,0.21055605,0.53118196,3.24030846
19083,0,USIowaHardin,Iowa,Hardin,2020-07-18 16:08:22.595382,2020-06-11 00:00:00.000000,0.37862147,11.72229962,91.68251479,63,1974,15444,29,706,5615,0.17648069,4.19608591,33.33249493,0.21354555,0.51989395,3.18320348
19083,0,USIowaHardin,Iowa,Hardin,2020-07-18 16:08:22.595382,2020-06-12 00:00:00.000000,0.15330023,12.18234371,91.97372444,25,2052,15493,0,756,5690,0.00000000,4.49137568,33.77664950,0.20527535,0.51071282,3.15155188
19083,0,USIowaHardin,Iowa,Hardin,2020-07-18 16:08:22.595382,2020-06-13 00:00:00.000000,0.37365114,11.96399866,92.05894997,62,2015,15508,29,753,5758,0.17427320,4.47189735,34.18271109,0.19810728,0.50320946,3.32459641
19083,0,USIowaHardin,Iowa,Hardin,2020-07-18 16:08:22.595382,2020-06-14 00:00:00.000000,0.14317724,12.34107986,92.04119889,24,2078,15505,0,788,5820,0.00000000,4.67849029,34.55212897,0.19473829,0.50065639,3.49977904
19083,0,USIowaHardin,Iowa,Hardin,2020-07-18 16:08:22.595382,2020-06-15 00:00:00.000000,0.35122828,12.07271936,91.94672484,59,2033,15489,27,800,5876,0.16431446,4.74916942,34.88635612,0.18788873,0.50575266,3.50089343
19083,0,USIowaHardin,Iowa,Hardin,2020-07-18 16:08:22.595382,2020-06-16 00:00:00.000000,0.13150213,12.32653235,91.78349696,22,2076,15461,0,817,5927,0.00000000,4.85376150,35.18684481,0.18299989,0.49098406,3.50383685
19083,0,USIowaHardin,Iowa,Hardin,2020-07-18 16:08:22.595382,2020-06-17 00:00:00.000000,0.32536740,12.04868990,91.65135705,54,2029,15439,25,832,5972,0.15282877,4.93994309,35.45503921,0.18264754,0.47000590,3.47114423
19083,0,USIowaHardin,Iowa,Hardin,2020-07-18 16:08:22.595382,2020-06-18 00:00:00.000000,0.12154436,12.29482976,92.33448851,20,2071,15554,0,847,6012,0.00000000,5.02850206,35.69236786,0.18487080,0.45504798,3.34560906
19083,0,USIowaHardin,Iowa,Hardin,2020-07-18 16:08:22.595382,2020-06-19 00:00:00.000000,0.30331052,12.34804942,92.72712725,51,2080,15620,24,862,6047,0.14303258,5.12246252,35.90023627,0.18316297,0.43839946,3.23028911
19083,0,USIowaHardin,Iowa,Hardin,2020-07-18 16:08:22.595382,2020-06-20 00:00:00.000000,0.11982684,12.60286435,92.96514034,20,2123,15660,0,880,6078,0.00000000,5.22394282,36.08001940,0.17588568,0.43074626,3.17518229
19083,0,USIowaHardin,Iowa,Hardin,2020-07-18 16:08:22.595382,2020-06-21 00:00:00.000000,0.29950614,12.49758567,93.15165492,50,2105,15692,23,898,6103,0.14134292,5.33184047,36.23305572,0.16994421,0.41906970,3.15336723
19083,0,USIowaHardin,Iowa,Hardin,2020-07-18 16:08:22.595382,2020-06-22 00:00:00.000000,0.12014295,13.41955324,93.27833423,20,2260,15713,0,916,6125,0.00000000,5.44268698,36.36064706,0.16635613,0.41653895,3.15010603
19083,0,USIowaHardin,Iowa,Hardin,2020-07-18 16:08:22.595382,2020-06-23 00:00:00.000000,0.30020633,12.88428868,93.09569256,50,2170,15682,23,935,6142,0.14165390,5.55284456,36.46406129,0.16461066,0.41312873,3.14750891
19083,0,USIowaHardin,Iowa,Hardin,2020-07-18 16:08:22.595382,2020-06-24 00:00:00.000000,0.12052326,14.00711735,92.89451447,20,2359,15649,0,953,6156,0.00000000,5.65933658,36.54452691,0.16231409,0.40647833,3.14593743
19083,0,USIowaHardin,Iowa,Hardin,2020-07-18 16:08:22.595382,2020-06-25 00:00:00.000000,0.30104873,13.27947765,92.67561371,50,2237,15612,23,970,6166,0.14202804,5.76093354,36.60322720,0.15885399,0.39424411,3.14848786
19083,0,USIowaHardin,Iowa,Hardin,2020-07-18 16:08:22.595382,2020-06-26 00:00:00.000000,0.12243539,14.44071148,92.44273506,20,2432,15572,0,986,6172,0.00000000,5.85871377,36.64129870,0.15507378,0.38689600,3.16852334
19083,0,USIowaHardin,Iowa,Hardin,2020-07-18 16:08:22.595382,2020-06-27 00:00:00.000000,0.30528417,13.65038501,92.19990009,51,2299,15531,24,1003,6175,0.14390914,5.95450596,36.65983186,0.14470575,0.38818867,3.32918169
19083,0,USIowaHardin,Iowa,Hardin,2020-07-18 16:08:22.595382,2020-06-28 00:00:00.000000,0.13386212,14.88916711,91.94901486,22,2508,15489,0,1019,6175,0.00000000,6.04956491,36.65987233,0.13780751,0.38230831,3.47809332
19083,0,USIowaHardin,Iowa,Hardin,2020-07-18 16:08:22.595382,2020-06-29 00:00:00.000000,0.33059488,14.26457656,91.69131267,55,2403,15446,26,1035,6172,0.15515047,6.14443177,36.64242235,0.13558770,0.37433525,3.53744120
19083,0,USIowaHardin,Iowa,Hardin,2020-07-18 16:08:22.595382,2020-06-30 00:00:00.000000,0.15959811,15.25142213,91.42745527,26,2569,15401,0,1051,6167,0.00000000,6.23920972,36.60844223,0.13479112,0.36905072,3.57629339
19083,0,USIowaHardin,Iowa,Hardin,2020-07-18 16:08:22.595382,2020-07-01 00:00:00.000000,0.38760121,14.75890848,91.15769813,65,2486,15356,30,1066,6158,0.18046889,6.33375651,36.55885179,0.13418054,0.36682396,3.61669508
19083,0,USIowaHardin,Iowa,Hardin,2020-07-18 16:08:22.595382,2020-07-02 00:00:00.000000,0.19213189,15.67479887,90.88241152,32,2640,15310,0,1082,6147,0.00000000,6.42417603,36.49453183,0.13149105,0.36590162,3.66355822
19083,0,USIowaHardin,Iowa,Hardin,2020-07-18 16:08:22.595382,2020-07-03 00:00:00.000000,0.45966493,15.24593754,90.60218550,77,2568,15262,35,1090,6134,0.21247480,6.47057066,36.41632553,0.12122473,0.36260079,3.74183087
19083,0,USIowaHardin,Iowa,Hardin,2020-07-18 16:08:22.595382,2020-07-04 00:00:00.000000,0.22873823,15.92615820,90.31769501,38,2682,15214,0,1097,6119,0.00000000,6.51602410,36.32503986,0.11348491,0.35541248,3.84131969
19083,0,USIowaHardin,Iowa,Hardin,2020-07-18 16:08:22.595382,2020-07-05 00:00:00.000000,0.54074954,15.69348167,90.02961917,91,2643,15166,41,1105,6101,0.24848719,6.56009968,36.22144690,0.11052513,0.35637702,3.88431727
19083,0,USIowaHardin,Iowa,Hardin,2020-07-18 16:08:22.595382,2020-07-06 00:00:00.000000,0.22209879,16.15963215,89.73852193,37,2722,15117,0,1112,6082,0.00000000,6.60266219,36.10628517,0.10996757,0.36081881,3.89473898
19083,0,USIowaHardin,Iowa,Hardin,2020-07-18 16:08:22.595382,2020-07-07 00:00:00.000000,0.52604288,16.04623135,89.44481713,88,2703,15067,40,1119,6061,0.24195547,6.64387574,35.98026089,0.10989080,0.36334143,3.88210655
19083,0,USIowaHardin,Iowa,Hardin,2020-07-18 16:08:22.595382,2020-07-08 00:00:00.000000,0.20649515,16.41404105,89.14892023,34,2765,15018,0,1125,6038,0.00000000,6.68401454,35.84404930,0.10987723,0.36900523,3.90525242
19083,0,USIowaHardin,Iowa,Hardin,2020-07-18 16:08:22.595382,2020-07-09 00:00:00.000000,0.49148016,16.31758292,88.85122527,82,2748,14967,38,1132,6013,0.22660501,6.72327071,35.69829583,0.10987483,0.37276644,3.91334881
19083,0,USIowaHardin,Iowa,Hardin,2020-07-18 16:08:22.595382,2020-07-10 00:00:00.000000,0.19191834,16.67859859,88.55206584,32,2809,14917,0,1139,5987,0.00000000,6.76170002,35.54361716,0.10987439,0.37497727,3.91609388
19083,0,USIowaHardin,Iowa,Hardin,2020-07-18 16:08:22.595382,2020-07-11 00:00:00.000000,0.45919190,16.47110509,88.25171961,77,2774,14866,35,1145,5960,0.21226472,6.79926662,35.38060244,0.10987430,0.37619531,3.91701261
19083,0,USIowaHardin,Iowa,Hardin,2020-07-18 16:08:22.595382,2020-07-12 00:00:00.000000,0.17830552,16.48356832,87.95042168,30,2776,14816,0,1151,5931,0.00000000,6.83590041,35.20981425,0.10987427,0.37684349,3.91731767
19083,0,USIowaHardin,Iowa,Hardin,2020-07-18 16:08:22.595382,2020-07-13 00:00:00.000000,0.42918157,16.34871298,87.64837485,72,2754,14765,33,1157,5901,0.19893612,6.87153140,35.03178977,0.10987426,0.37718273,3.91741811
19083,0,USIowaHardin,Iowa,Hardin,2020-07-18 16:08:22.595382,2020-07-14 00:00:00.000000,0.16498988,16.76906445,87.34575656,27,2824,14714,0,1166,5870,0.00000000,6.92661276,34.84704169,0.10987426,0.37735908,3.91745079
19083,0,USIowaHardin,Iowa,Hardin,2020-07-18 16:08:22.595382,2020-07-15 00:00:00.000000,0.40139263,16.88439993,87.04272349,67,2844,14663,31,1181,5838,0.18627400,7.01178980,34.65605926,0.10987426,0.37745061,3.91746121
19083,0,USIowaHardin,Iowa,Hardin,2020-07-18 16:08:22.595382,2020-07-16 00:00:00.000000,0.15279338,17.33578604,86.73941506,25,2920,14612,0,1195,5847,0.00000000,7.09804718,34.71407402,0.10987425,0.37749816,3.91746444
19083,0,USIowaHardin,Iowa,Hardin,2020-07-18 16:08:22.595382,2020-07-17 00:00:00.000000,0.37574756,17.42249703,86.43595594,63,2934,14561,29,1210,5874,0.17426051,7.18537436,34.87382773,0.10987425,0.37752293,3.91746538
19083,0,USIowaHardin,Iowa,Hardin,2020-07-18 16:08:22.595382,2020-07-18 00:00:00.000000,0.14103154,17.77510330,86.13245820,23,2994,14509,0,1225,5900,0.00000000,7.27376490,35.02873706,0.10987425,0.37753587,3.91746563
19083,0,USIowaHardin,Iowa,Hardin,2020-07-18 16:08:22.595382,2020-07-19 00:00:00.000000,0.35215187,17.69859512,85.82902303,59,2981,14458,27,1240,5926,0.16328958,7.36321351,35.17904240,0.10987425,0.37754265,3.91746567
19083,0,USIowaHardin,Iowa,Hardin,2020-07-18 16:08:22.595382,2020-07-20 00:00:00.000000,0.12881891,18.04809609,85.52574211,21,3040,14407,0,1255,5950,0.00000000,7.45371456,35.32497251,0.10987425,0.37754623,3.91746567
19083,0,USIowaHardin,Iowa,Hardin,2020-07-18 16:08:22.595382,2020-07-21 00:00:00.000000,0.32943695,17.94845084,85.22269887,55,3023,14356,25,1271,5974,0.15279459,7.54526123,35.46674502,0.10987425,0.37754811,3.91746566
19083,0,USIowaHardin,Iowa,Hardin,2020-07-18 16:08:22.595382,2020-07-22 00:00:00.000000,0.11796664,18.31739294,84.91996941,19,3085,14305,0,1286,5997,0.00000000,7.63784519,35.60456692,0.10987425,0.37754912,3.91746566
19083,0,USIowaHardin,Iowa,Hardin,2020-07-18 16:08:22.595382,2020-07-23 00:00:00.000000,0.30879819,18.19342878,84.61762343,52,3064,14254,23,1302,6020,0.14178540,7.73145635,35.73863501,0.10987425,0.37754965,3.91746565
19083,0,USIowaHardin,Iowa,Hardin,2020-07-18 16:08:22.595382,2020-07-24 00:00:00.000000,0.10948699,18.58173860,84.31572489,18,3130,14203,0,1318,6042,0.00000000,7.82608282,35.86913634,0.10987425,0.37754993,3.91746565
19083,0,USIowaHardin,Iowa,Hardin,2020-07-18 16:08:22.595382,2020-07-25 00:00:00.000000,0.29008564,18.43130617,84.01433263,48,3104,14153,22,1334,6063,0.13202479,7.92171088,35.99624868,0.10987425,0.37755009,3.91746564
19083,0,USIowaHardin,Iowa,Hardin,2020-07-18 16:08:22.595382,2020-07-26 00:00:00.000000,0.10301785,18.84003950,83.71350090,17,3173,14102,0,1350,6054,0.00000000,8.01832492,35.93968474,0.10987425,0.37755017,3.91746564
19083,0,USIowaHardin,Iowa,Hardin,2020-07-18 16:08:22.595382,2020-07-27 00:00:00.000000,0.27315140,18.66013729,83.41327978,46,3143,14051,21,1367,6038,0.12474605,8.11886782,35.84666592,0.10987425,0.37755021,3.91746564
19083,0,USIowaHardin,Iowa,Hardin,2020-07-18 16:08:22.595382,2020-07-28 00:00:00.000000,0.09714968,18.59171486,83.11371561,16,3131,14001,0,1386,6022,0.00000000,8.22898753,35.75217316,0.10987425,0.37755024,3.91746564
19083,0,USIowaHardin,Iowa,Hardin,2020-07-18 16:08:22.595382,2020-07-29 00:00:00.000000,0.25785175,18.78491445,82.81485127,43,3164,13950,20,1404,6006,0.11899631,8.33991820,35.65641514,0.10987425,0.37755025,3.91746564
19083,0,USIowaHardin,Iowa,Hardin,2020-07-18 16:08:22.595382,2020-07-30 00:00:00.000000,0.09183308,18.97531951,82.51672652,15,3196,13900,0,1423,5990,0.00000000,8.45162136,35.55958848,0.10987425,0.37755026,3.91746564
