0 Divergences 
Computed from 160 by 124 log-likelihood matrix

         Estimate       SE
elpd_loo  -215.55    18.05
p_loo       19.05        -

There has been a warning during the calculation. Please check the results.
------

Pareto k diagnostic values:
                         Count   Pct.
(-Inf, 0.5]   (good)      114   91.9%
 (0.5, 0.7]   (ok)          8    6.5%
   (0.7, 1]   (bad)         2    1.6%
   (1, Inf)   (very bad)    0    0.0%


The scale is now log by default. Use 'scale' argument or 'stats.ic_scale' rcParam if
you rely on a specific value.
A higher log-score (or a lower deviance) indicates a model with better predictive
accuracy.