FIPS,HR_UID,nameid,province,region,analysisTime,dates,pointprevalence_025,pointprevalence_50,pointprevalence_975,pointinfections_025,pointinfections_50,pointinfections_975,pointinfectious_025,pointinfectious_50,pointinfectious_975,pointinfectiousprevalence_05,pointinfectiousprevalence_50,pointinfectiousprevalence_95,infectrate_025,infectrate_50,infectrate_975
47135,0,USTennesseePerry,Tennessee,Perry,2020-07-18 03:41:45.173416,2020-03-09 00:00:00.000000,158.78953753,158.78953753,158.78953753,12823,12823,12823,11023,11023,11023,136.50024745,136.50024745,136.50024745,1.14105408,1.14105408,1.14105408
47135,0,USTennesseePerry,Tennessee,Perry,2020-07-18 03:41:45.173416,2020-03-10 00:00:00.000000,248.35924635,248.35924635,248.35924635,20057,20057,20057,8074,8074,8074,99.97523526,99.97523526,99.97523526,1.14104979,1.14104979,1.14104979
47135,0,USTennesseePerry,Tennessee,Perry,2020-07-18 03:41:45.173416,2020-03-11 00:00:00.000000,133.72080056,133.72080056,133.72080056,10799,10799,10799,9685,9685,9685,119.92837789,119.92837789,119.92837789,1.14103962,1.14103962,1.14103962
47135,0,USTennesseePerry,Tennessee,Perry,2020-07-18 03:41:45.173416,2020-03-12 00:00:00.000000,128.69228849,128.69228849,128.69228849,10393,10393,10393,8074,8074,8074,99.97523526,99.97523526,99.97523526,1.14101563,1.14101563,1.14101563
47135,0,USTennesseePerry,Tennessee,Perry,2020-07-18 03:41:45.173416,2020-03-13 00:00:00.000000,101.73827547,101.73827547,101.73827547,8216,8216,8216,8103,8103,8103,100.34324200,100.34324200,100.34324200,1.14095913,1.14095913,1.14095913
47135,0,USTennesseePerry,Tennessee,Perry,2020-07-18 03:41:45.173416,2020-03-14 00:00:00.000000,100.65893659,100.65893659,100.65893659,8129,8129,8129,7995,7995,7995,99.00504653,99.00504653,99.00504653,1.14082645,1.14082645,1.14082645
47135,0,USTennesseePerry,Tennessee,Perry,2020-07-18 03:41:45.173416,2020-03-15 00:00:00.000000,99.06055776,99.06055776,99.06055776,8000,8000,8000,7909,7909,7909,97.93276230,97.93276230,97.93276230,1.14051621,1.14051621,1.14051621
47135,0,USTennesseePerry,Tennessee,Perry,2020-07-18 03:41:45.173416,2020-03-16 00:00:00.000000,97.94277162,97.94277162,97.94277162,7909,7909,7909,7817,7817,7817,96.80350807,96.80350807,96.80350807,1.13979666,1.13979666,1.13979666
47135,0,USTennesseePerry,Tennessee,Perry,2020-07-18 03:41:45.173416,2020-03-17 00:00:00.000000,96.79988662,96.79988662,96.79988662,7817,7817,7817,7728,7728,7728,95.69754733,95.69754733,95.69754733,1.13815605,1.13815605,1.13815605
47135,0,USTennesseePerry,Tennessee,Perry,2020-07-18 03:41:45.173416,2020-03-18 00:00:00.000000,95.68881780,95.68881780,95.68881780,7727,7727,7727,7639,7639,7639,94.59771866,94.59771866,94.59771866,1.13455164,1.13455164,1.13455164
47135,0,USTennesseePerry,Tennessee,Perry,2020-07-18 03:41:45.173416,2020-03-19 00:00:00.000000,94.58693814,94.58693814,94.58693814,7638,7638,7638,7551,7551,7551,93.51096420,93.51096420,93.51096420,1.12723221,1.12723221,1.12723221
47135,0,USTennesseePerry,Tennessee,Perry,2020-07-18 03:41:45.173416,2020-03-20 00:00:00.000000,93.49937503,93.49937503,93.49937503,7551,7551,7551,7465,7465,7465,92.43594429,92.43594429,92.43594429,1.11448759,1.11448759,1.11448759
47135,0,USTennesseePerry,Tennessee,Perry,2020-07-18 03:41:45.173416,2020-03-21 00:00:00.000000,92.42407647,92.42407647,92.42407647,7464,7464,7464,7379,7379,7379,91.37322599,91.37322599,91.37322599,1.09735486,1.09735486,1.09735486
47135,0,USTennesseePerry,Tennessee,Perry,2020-07-18 03:41:45.173416,2020-03-22 00:00:00.000000,91.36131022,91.36131022,91.36131022,7378,7378,7378,7294,7294,7294,90.32261974,90.32261974,90.32261974,1.08123859,1.08123859,1.08123859
47135,0,USTennesseePerry,Tennessee,Perry,2020-07-18 03:41:45.173416,2020-03-23 00:00:00.000000,90.31075706,90.31075706,90.31075706,7293,7293,7293,7210,7210,7210,89.28406875,89.28406875,89.28406875,1.07153319,1.07153319,1.07153319
47135,0,USTennesseePerry,Tennessee,Perry,2020-07-18 03:41:45.173416,2020-03-24 00:00:00.000000,89.27230326,89.27230326,89.27230326,7209,7209,7209,7127,7127,7127,88.25744086,88.25744086,88.25744086,1.06966564,1.06966564,1.06966564
47135,0,USTennesseePerry,Tennessee,Perry,2020-07-18 03:41:45.173416,2020-03-25 00:00:00.000000,88.24579172,88.24579172,88.24579172,7126,7126,7126,7045,7045,7045,87.24261076,87.24261076,87.24261076,1.07476980,1.07476980,1.07476980
47135,0,USTennesseePerry,Tennessee,Perry,2020-07-18 03:41:45.173416,2020-03-26 00:00:00.000000,87.23108612,87.23108612,87.23108612,7044,7044,7044,6964,6964,6964,86.23944567,86.23944567,86.23944567,1.08531124,1.08531124,1.08531124
47135,0,USTennesseePerry,Tennessee,Perry,2020-07-18 03:41:45.173416,2020-03-27 00:00:00.000000,86.22804871,86.22804871,86.22804871,6963,6963,6963,6884,6884,6884,85.24781366,85.24781366,85.24781366,1.09859973,1.09859973,1.09859973
47135,0,USTennesseePerry,Tennessee,Perry,2020-07-18 03:41:45.173416,2020-03-28 00:00:00.000000,85.23654522,85.23654522,85.23654522,6883,6883,6883,6805,6805,6805,84.26758298,84.26758298,84.26758298,1.11108387,1.11108387,1.11108387
47135,0,USTennesseePerry,Tennessee,Perry,2020-07-18 03:41:45.173416,2020-03-29 00:00:00.000000,84.25644278,84.25644278,84.25644278,6804,6804,6804,6727,6727,6727,83.29862305,83.29862305,83.29862305,1.12027199,1.12027199,1.12027199
47135,0,USTennesseePerry,Tennessee,Perry,2020-07-18 03:41:45.173416,2020-03-30 00:00:00.000000,83.28761025,83.28761025,83.28761025,6726,6726,6726,6649,6649,6649,82.34080452,82.34080452,82.34080452,1.12530201,1.12530201,1.12530201
47135,0,USTennesseePerry,Tennessee,Perry,2020-07-18 03:41:45.173416,2020-03-31 00:00:00.000000,82.32991799,82.32991799,82.32991799,6648,6648,6648,6573,6573,6573,81.39399943,81.39399943,81.39399943,1.12419865,1.12419865,1.12419865
47135,0,USTennesseePerry,Tennessee,Perry,2020-07-18 03:41:45.173416,2020-04-01 00:00:00.000000,81.38323788,81.38323788,81.38323788,6572,6572,6572,6497,6497,6497,80.45808120,80.45808120,80.45808120,1.10697362,1.10697362,1.10697362
47135,0,USTennesseePerry,Tennessee,Perry,2020-07-18 03:41:45.173416,2020-04-02 00:00:00.000000,80.44744330,80.44744330,80.44744330,6496,6496,6496,6423,6423,6423,79.53292470,79.53292470,79.53292470,1.06222107,1.06222107,1.06222107
47135,0,USTennesseePerry,Tennessee,Perry,2020-07-18 03:41:45.173416,2020-04-03 00:00:00.000000,79.52240906,79.52240906,79.52240906,6422,6422,6422,6349,6349,6349,78.61840620,78.61840620,78.61840620,1.02429862,1.02429862,1.02429862
47135,0,USTennesseePerry,Tennessee,Perry,2020-07-18 03:41:45.173416,2020-04-04 00:00:00.000000,78.60801145,78.60801145,78.60801145,6348,6348,6348,6276,6276,6276,77.71440338,77.71440338,77.71440338,1.01192282,1.01192282,1.01192282
47135,0,USTennesseePerry,Tennessee,Perry,2020-07-18 03:41:45.173416,2020-04-05 00:00:00.000000,77.70412814,77.70412814,77.70412814,6275,6275,6275,6204,6204,6204,76.82079533,76.82079533,76.82079533,1.00929522,1.00929522,1.00929522
47135,0,USTennesseePerry,Tennessee,Perry,2020-07-18 03:41:45.173416,2020-04-06 00:00:00.000000,76.81063824,76.81063824,76.81063824,6203,6203,6203,6132,6132,6132,75.93746254,75.93746254,75.93746254,1.00881375,1.00881375,1.00881375
47135,0,USTennesseePerry,Tennessee,Perry,2020-07-18 03:41:45.173416,2020-04-07 00:00:00.000000,75.92742223,75.92742223,75.92742223,6131,6131,6131,6062,6062,6062,75.06428685,75.06428685,75.06428685,1.00873766,1.00873766,1.00873766
47135,0,USTennesseePerry,Tennessee,Perry,2020-07-18 03:41:45.173416,2020-04-08 00:00:00.000000,75.05436199,75.05436199,75.05436199,6061,6061,6061,5992,5992,5992,74.20115147,74.20115147,74.20115147,1.00872975,1.00872975,1.00872975
47135,0,USTennesseePerry,Tennessee,Perry,2020-07-18 03:41:45.173416,2020-04-09 00:00:00.000000,74.19134073,74.19134073,74.19134073,5991,5991,5991,5923,5923,5923,73.34794095,73.34794095,73.34794095,1.00872073,1.00872073,1.00872073
47135,0,USTennesseePerry,Tennessee,Perry,2020-07-18 03:41:45.173416,2020-04-10 00:00:00.000000,73.33824303,73.33824303,73.33824303,5922,5922,5922,5855,5855,5855,72.50454118,72.50454118,72.50454118,1.00863312,1.00863312,1.00863312
47135,0,USTennesseePerry,Tennessee,Perry,2020-07-18 03:41:45.173416,2020-04-11 00:00:00.000000,72.49495476,72.49495476,72.49495476,5854,5854,5854,5788,5788,5788,71.67083933,71.67083933,71.67083933,1.00795141,1.00795141,1.00795141
47135,0,USTennesseePerry,Tennessee,Perry,2020-07-18 03:41:45.173416,2020-04-12 00:00:00.000000,71.66136314,71.66136314,71.66136314,5787,5787,5787,5721,5721,5721,70.84672389,70.84672389,70.84672389,1.00287957,1.00287957,1.00287957
47135,0,USTennesseePerry,Tennessee,Perry,2020-07-18 03:41:45.173416,2020-04-13 00:00:00.000000,70.83735667,70.83735667,70.83735667,5720,5720,5720,5655,5655,5655,70.03208465,70.03208465,70.03208465,0.97013983,0.97013983,0.97013983
47135,0,USTennesseePerry,Tennessee,Perry,2020-07-18 03:41:45.173416,2020-04-14 00:00:00.000000,70.02282514,70.02282514,70.02282514,5655,5655,5655,5590,5590,5590,69.22681263,69.22681263,69.22681263,0.86301529,0.86301529,0.86301529
47135,0,USTennesseePerry,Tennessee,Perry,2020-07-18 03:41:45.173416,2020-04-15 00:00:00.000000,69.21765959,69.21765959,69.21765959,5590,5590,5590,5526,5526,5526,68.43080012,68.43080012,68.43080012,0.77962990,0.77962990,0.77962990
47135,0,USTennesseePerry,Tennessee,Perry,2020-07-18 03:41:45.173416,2020-04-16 00:00:00.000000,68.42175233,68.42175233,68.42175233,5525,5525,5525,5462,5462,5462,67.64394065,67.64394065,67.64394065,0.76180082,0.76180082,0.76180082
47135,0,USTennesseePerry,Tennessee,Perry,2020-07-18 03:41:45.173416,2020-04-17 00:00:00.000000,67.63499690,67.63499690,67.63499690,5462,5462,5462,5400,5400,5400,66.86612898,66.86612898,66.86612898,0.76262424,0.76262424,0.76262424
47135,0,USTennesseePerry,Tennessee,Perry,2020-07-18 03:41:45.173416,2020-04-18 00:00:00.000000,66.85728806,66.85728806,66.85728806,5399,5399,5399,5338,5338,5338,66.09726107,66.09726107,66.09726107,0.77499326,0.77499326,0.77499326
47135,0,USTennesseePerry,Tennessee,Perry,2020-07-18 03:41:45.173416,2020-04-19 00:00:00.000000,66.08852181,66.08852181,66.08852181,5337,5337,5337,5276,5276,5276,65.33723407,65.33723407,65.33723407,0.80532754,0.80532754,0.80532754
47135,0,USTennesseePerry,Tennessee,Perry,2020-07-18 03:41:45.173416,2020-04-20 00:00:00.000000,65.32859530,65.32859530,65.32859530,5275,5275,5275,5215,5215,5215,64.58594633,64.58594633,64.58594633,0.83757806,0.83757806,0.83757806
47135,0,USTennesseePerry,Tennessee,Perry,2020-07-18 03:41:45.173416,2020-04-21 00:00:00.000000,64.57740689,64.57740689,64.57740689,5215,5215,5215,5155,5155,5155,63.84329736,63.84329736,63.84329736,0.85147319,0.85147319,0.85147319
47135,0,USTennesseePerry,Tennessee,Perry,2020-07-18 03:41:45.173416,2020-04-22 00:00:00.000000,63.83485611,63.83485611,63.83485611,5155,5155,5155,5096,5096,5096,63.10918782,63.10918782,63.10918782,0.85127434,0.85127434,0.85127434
47135,0,USTennesseePerry,Tennessee,Perry,2020-07-18 03:41:45.173416,2020-04-23 00:00:00.000000,63.10084364,63.10084364,63.10084364,5096,5096,5096,5038,5038,5038,62.38351953,62.38351953,62.38351953,0.83511233,0.83511233,0.83511233
47135,0,USTennesseePerry,Tennessee,Perry,2020-07-18 03:41:45.173416,2020-04-24 00:00:00.000000,62.37527130,62.37527130,62.37527130,5037,5037,5037,4980,4980,4980,61.66619542,61.66619542,61.66619542,0.78849044,0.78849044,0.78849044
47135,0,USTennesseePerry,Tennessee,Perry,2020-07-18 03:41:45.173416,2020-04-25 00:00:00.000000,61.65804203,61.65804203,61.65804203,4979,4979,4979,4922,4922,4922,60.95711954,60.95711954,60.95711954,0.72841406,0.72841406,0.72841406
47135,0,USTennesseePerry,Tennessee,Perry,2020-07-18 03:41:45.173416,2020-04-26 00:00:00.000000,60.94905990,60.94905990,60.94905990,4922,4922,4922,4866,4866,4866,60.25619705,60.25619705,60.25619705,0.69706827,0.69706827,0.69706827
47135,0,USTennesseePerry,Tennessee,Perry,2020-07-18 03:41:45.173416,2020-04-27 00:00:00.000000,60.24823009,60.24823009,60.24823009,4865,4865,4865,4810,4810,4810,59.56333421,59.56333421,59.56333421,0.68853776,0.68853776,0.68853776
47135,0,USTennesseePerry,Tennessee,Perry,2020-07-18 03:41:45.173416,2020-04-28 00:00:00.000000,59.55545885,59.55545885,59.55545885,4809,4809,4809,4755,4755,4755,58.87843832,58.87843832,58.87843832,0.68882689,0.68882689,0.68882689
47135,0,USTennesseePerry,Tennessee,Perry,2020-07-18 03:41:45.173416,2020-04-29 00:00:00.000000,58.87065352,58.87065352,58.87065352,4754,4754,4754,4700,4700,4700,58.20141779,58.20141779,58.20141779,0.69519354,0.69519354,0.69519354
47135,0,USTennesseePerry,Tennessee,Perry,2020-07-18 03:41:45.173416,2020-04-30 00:00:00.000000,58.19372251,58.19372251,58.19372251,4699,4699,4699,4646,4646,4646,57.53218206,57.53218206,57.53218206,0.71247577,0.71247577,0.71247577
47135,0,USTennesseePerry,Tennessee,Perry,2020-07-18 03:41:45.173416,2020-05-01 00:00:00.000000,57.52457526,57.52457526,57.52457526,4645,4645,4645,4592,4592,4592,56.87064161,56.87064161,56.87064161,0.75149687,0.75149687,0.75149687
47135,0,USTennesseePerry,Tennessee,Perry,2020-07-18 03:41:45.173416,2020-05-02 00:00:00.000000,56.86312228,56.86312228,56.86312228,4592,4592,4592,4540,4540,4540,56.21670797,56.21670797,56.21670797,0.81998359,0.81998359,0.81998359
47135,0,USTennesseePerry,Tennessee,Perry,2020-07-18 03:41:45.173416,2020-05-03 00:00:00.000000,56.20927510,56.20927510,56.20927510,4539,4539,4539,4487,4487,4487,55.57029365,55.57029365,55.57029365,0.90047074,0.90047074,0.90047074
47135,0,USTennesseePerry,Tennessee,Perry,2020-07-18 03:41:45.173416,2020-05-04 00:00:00.000000,55.56294625,55.56294625,55.56294625,4487,4487,4487,4436,4436,4436,54.93131220,54.93131220,54.93131220,0.96034719,0.96034719,0.96034719
47135,0,USTennesseePerry,Tennessee,Perry,2020-07-18 03:41:45.173416,2020-05-05 00:00:00.000000,54.92404929,54.92404929,54.92404929,4435,4435,4435,4385,4385,4385,54.29967816,54.29967816,54.29967816,0.99148150,0.99148150,0.99148150
47135,0,USTennesseePerry,Tennessee,Perry,2020-07-18 03:41:45.173416,2020-05-06 00:00:00.000000,54.29249876,54.29249876,54.29249876,4384,4384,4384,4334,4334,4334,53.67530703,53.67530703,53.67530703,1.00460942,1.00460942,1.00460942
47135,0,USTennesseePerry,Tennessee,Perry,2020-07-18 03:41:45.173416,2020-05-07 00:00:00.000000,53.66821018,53.66821018,53.66821018,4334,4334,4334,4284,4284,4284,53.05811531,53.05811531,53.05811531,1.00925893,1.00925893,1.00925893
47135,0,USTennesseePerry,Tennessee,Perry,2020-07-18 03:41:45.173416,2020-05-08 00:00:00.000000,53.05110006,53.05110006,53.05110006,4284,4284,4284,4235,4235,4235,52.44802044,52.44802044,52.44802044,1.00959316,1.00959316,1.00959316
47135,0,USTennesseePerry,Tennessee,Perry,2020-07-18 03:41:45.173416,2020-05-09 00:00:00.000000,52.44108586,52.44108586,52.44108586,4235,4235,4235,4186,4186,4186,51.84494081,51.84494081,51.84494081,1.00663582,1.00663582,1.00663582
47135,0,USTennesseePerry,Tennessee,Perry,2020-07-18 03:41:45.173416,2020-05-10 00:00:00.000000,51.83808597,51.83808597,51.83808597,4186,4186,4186,4138,4138,4138,51.24879576,51.24879576,51.24879576,1.00227288,1.00227288,1.00227288
47135,0,USTennesseePerry,Tennessee,Perry,2020-07-18 03:41:45.173416,2020-05-11 00:00:00.000000,51.24201974,51.24201974,51.24201974,4138,4138,4138,4091,4091,4091,50.65950556,50.65950556,50.65950556,0.99945714,0.99945714,0.99945714
47135,0,USTennesseePerry,Tennessee,Perry,2020-07-18 03:41:45.173416,2020-05-12 00:00:00.000000,50.65280745,50.65280745,50.65280745,4090,4090,4090,4044,4044,4044,50.07699138,50.07699138,50.07699138,0.99823562,0.99823562,0.99823562
47135,0,USTennesseePerry,Tennessee,Perry,2020-07-18 03:41:45.173416,2020-05-13 00:00:00.000000,50.07037029,50.07037029,50.07037029,4043,4043,4043,3997,3997,3997,49.50117531,49.50117531,49.50117531,0.99742298,0.99742298,0.99742298
47135,0,USTennesseePerry,Tennessee,Perry,2020-07-18 03:41:45.173416,2020-05-14 00:00:00.000000,49.49463035,49.49463035,49.49463035,3997,3997,3997,3951,3951,3951,48.93198032,48.93198032,48.93198032,0.99554359,0.99554359,0.99554359
47135,0,USTennesseePerry,Tennessee,Perry,2020-07-18 03:41:45.173416,2020-05-15 00:00:00.000000,48.92551062,48.92551062,48.92551062,3951,3951,3951,3906,3906,3906,48.36933029,48.36933029,48.36933029,0.98951866,0.98951866,0.98951866
47135,0,USTennesseePerry,Tennessee,Perry,2020-07-18 03:41:45.173416,2020-05-16 00:00:00.000000,48.36293498,48.36293498,48.36293498,3905,3905,3905,3861,3861,3861,47.81314995,47.81314995,47.81314995,0.98126762,0.98126762,0.98126762
47135,0,USTennesseePerry,Tennessee,Perry,2020-07-18 03:41:45.173416,2020-05-17 00:00:00.000000,47.80682818,47.80682818,47.80682818,3860,3860,3860,3816,3816,3816,47.26336492,47.26336492,47.26336492,0.97677358,0.97677358,0.97677358
47135,0,USTennesseePerry,Tennessee,Perry,2020-07-18 03:41:45.173416,2020-05-18 00:00:00.000000,47.25711584,47.25711584,47.25711584,3816,3816,3816,3773,3773,3773,46.71990165,46.71990165,46.71990165,0.97338170,0.97338170,0.97338170
47135,0,USTennesseePerry,Tennessee,Perry,2020-07-18 03:41:45.173416,2020-05-19 00:00:00.000000,46.71372443,46.71372443,46.71372443,3772,3772,3772,3729,3729,3729,46.18268746,46.18268746,46.18268746,0.96886474,0.96886474,0.96886474
47135,0,USTennesseePerry,Tennessee,Perry,2020-07-18 03:41:45.173416,2020-05-20 00:00:00.000000,46.17658127,46.17658127,46.17658127,3729,3729,3729,3686,3686,3686,45.65165049,45.65165049,45.65165049,0.96225912,0.96225912,0.96225912
47135,0,USTennesseePerry,Tennessee,Perry,2020-07-18 03:41:45.173416,2020-05-21 00:00:00.000000,45.64561451,45.64561451,45.64561451,3686,3686,3686,3644,3644,3644,45.12671971,45.12671971,45.12671971,0.95292595,0.95292595,0.95292595
47135,0,USTennesseePerry,Tennessee,Perry,2020-07-18 03:41:45.173416,2020-05-22 00:00:00.000000,45.12075314,45.12075314,45.12075314,3643,3643,3643,3602,3602,3602,44.60782490,44.60782490,44.60782490,0.94059388,0.94059388,0.94059388
47135,0,USTennesseePerry,Tennessee,Perry,2020-07-18 03:41:45.173416,2020-05-23 00:00:00.000000,44.60192694,44.60192694,44.60192694,3602,3602,3602,3561,3561,3561,44.09489667,44.09489667,44.09489667,0.92569403,0.92569403,0.92569403
47135,0,USTennesseePerry,Tennessee,Perry,2020-07-18 03:41:45.173416,2020-05-24 00:00:00.000000,44.08906653,44.08906653,44.08906653,3560,3560,3560,3520,3520,3520,43.58786641,43.58786641,43.58786641,0.90952342,0.90952342,0.90952342
47135,0,USTennesseePerry,Tennessee,Perry,2020-07-18 03:41:45.173416,2020-05-25 00:00:00.000000,43.58210330,43.58210330,43.58210330,3519,3519,3519,3479,3479,3479,43.08666628,43.08666628,43.08666628,0.89388826,0.89388826,0.89388826
47135,0,USTennesseePerry,Tennessee,Perry,2020-07-18 03:41:45.173416,2020-05-26 00:00:00.000000,43.08096944,43.08096944,43.08096944,3479,3479,3479,3439,3439,3439,42.59122927,42.59122927,42.59122927,0.88031234,0.88031234,0.88031234
47135,0,USTennesseePerry,Tennessee,Perry,2020-07-18 03:41:45.173416,2020-05-27 00:00:00.000000,42.58559794,42.58559794,42.58559794,3439,3439,3439,3400,3400,3400,42.10148910,42.10148910,42.10148910,0.86910564,0.86910564,0.86910564
47135,0,USTennesseePerry,Tennessee,Perry,2020-07-18 03:41:45.173416,2020-05-28 00:00:00.000000,42.09592252,42.09592252,42.09592252,3399,3399,3399,3361,3361,3361,41.61738026,41.61738026,41.61738026,0.85652627,0.85652627,0.85652627
47135,0,USTennesseePerry,Tennessee,Perry,2020-07-18 03:41:45.173416,2020-05-29 00:00:00.000000,41.61187768,41.61187768,41.61187768,3360,3360,3360,3322,3322,3322,41.13883800,41.13883800,41.13883800,0.81884540,0.81884540,0.81884540
47135,0,USTennesseePerry,Tennessee,Perry,2020-07-18 03:41:45.173416,2020-05-30 00:00:00.000000,41.13339870,41.13339870,41.13339870,3321,3321,3321,3284,3284,3284,40.66579831,40.66579831,40.66579831,0.71780343,0.71780343,0.71780343
47135,0,USTennesseePerry,Tennessee,Perry,2020-07-18 03:41:45.173416,2020-05-31 00:00:00.000000,40.66042156,40.66042156,40.66042156,3283,3283,3283,3246,3246,3246,40.19819793,40.19819793,40.19819793,0.65218870,0.65218870,0.65218870
47135,0,USTennesseePerry,Tennessee,Perry,2020-07-18 03:41:45.173416,2020-06-01 00:00:00.000000,40.19288300,40.19288300,40.19288300,3245,3245,3245,3209,3209,3209,39.73597430,39.73597430,39.73597430,0.63752246,0.63752246,0.63752246
47135,0,USTennesseePerry,Tennessee,Perry,2020-07-18 03:41:45.173416,2020-06-02 00:00:00.000000,39.73072049,39.73072049,39.73072049,3208,3208,3208,3172,3172,3172,39.27906561,39.27906561,39.27906561,0.63158340,0.63158340,0.63158340
47135,0,USTennesseePerry,Tennessee,Perry,2020-07-18 03:41:45.173416,2020-06-03 00:00:00.000000,39.27387220,39.27387220,39.27387220,3171,3171,3171,3135,3135,3135,38.82741073,38.82741073,38.82741073,0.62248132,0.62248132,0.62248132
47135,0,USTennesseePerry,Tennessee,Perry,2020-07-18 03:41:45.173416,2020-06-04 00:00:00.000000,38.82227704,38.82227704,38.82227704,3135,3135,3135,3099,3099,3099,38.38094926,38.38094926,38.38094926,0.60653146,0.60653146,0.60653146
47135,0,USTennesseePerry,Tennessee,Perry,2020-07-18 03:41:45.173416,2020-06-05 00:00:00.000000,38.37587460,38.37587460,38.37587460,3099,3099,3099,3064,3064,3064,37.93962148,37.93962148,37.93962148,0.58667813,0.58667813,0.58667813
47135,0,USTennesseePerry,Tennessee,Perry,2020-07-18 03:41:45.173416,2020-06-06 00:00:00.000000,37.93460517,37.93460517,37.93460517,3063,3063,3063,3028,3028,3028,37.50336836,37.50336836,37.50336836,0.57100788,0.57100788,0.57100788
47135,0,USTennesseePerry,Tennessee,Perry,2020-07-18 03:41:45.173416,2020-06-07 00:00:00.000000,37.49840973,37.49840973,37.49840973,3028,3028,3028,2993,2993,2993,37.07213154,37.07213154,37.07213154,0.56254732,0.56254732,0.56254732
47135,0,USTennesseePerry,Tennessee,Perry,2020-07-18 03:41:45.173416,2020-06-08 00:00:00.000000,37.06722993,37.06722993,37.06722993,2993,2993,2993,2959,2959,2959,36.64585335,36.64585335,36.64585335,0.55888836,0.55888836,0.55888836
47135,0,USTennesseePerry,Tennessee,Perry,2020-07-18 03:41:45.173416,2020-06-09 00:00:00.000000,36.64100810,36.64100810,36.64100810,2959,2959,2959,2925,2925,2925,36.22447677,36.22447677,36.22447677,0.55745374,0.55745374,0.55745374
47135,0,USTennesseePerry,Tennessee,Perry,2020-07-18 03:41:45.173416,2020-06-10 00:00:00.000000,36.21968723,36.21968723,36.21968723,2925,2925,2925,2891,2891,2891,35.80794543,35.80794543,35.80794543,0.55689923,0.55689923,0.55689923
47135,0,USTennesseePerry,Tennessee,Perry,2020-07-18 03:41:45.173416,2020-06-11 00:00:00.000000,35.80321097,35.80321097,35.80321097,2891,2891,2891,2858,2858,2858,35.39620363,35.39620363,35.39620363,0.55663811,0.55663811,0.55663811
47135,0,USTennesseePerry,Tennessee,Perry,2020-07-18 03:41:45.173416,2020-06-12 00:00:00.000000,35.39152361,35.39152361,35.39152361,2858,2858,2858,2825,2825,2825,34.98919629,34.98919629,34.98919629,0.55633245,0.55633245,0.55633245
47135,0,USTennesseePerry,Tennessee,Perry,2020-07-18 03:41:45.173416,2020-06-13 00:00:00.000000,34.98457009,34.98457009,34.98457009,2825,2825,2825,2793,2793,2793,34.58686897,34.58686897,34.58686897,0.55543219,0.55543219,0.55543219
47135,0,USTennesseePerry,Tennessee,Perry,2020-07-18 03:41:45.173416,2020-06-14 00:00:00.000000,34.58229596,34.58229596,34.58229596,2792,2792,2792,2761,2761,2761,34.18916786,34.18916786,34.18916786,0.55228120,0.55228120,0.55228120
47135,0,USTennesseePerry,Tennessee,Perry,2020-07-18 03:41:45.173416,2020-06-15 00:00:00.000000,34.18464743,34.18464743,34.18464743,2760,2760,2760,2729,2729,2729,33.79603976,33.79603976,33.79603976,0.54271030,0.54271030,0.54271030
47135,0,USTennesseePerry,Tennessee,Perry,2020-07-18 03:41:45.173416,2020-06-16 00:00:00.000000,33.79157131,33.79157131,33.79157131,2729,2729,2729,2697,2697,2697,33.40743209,33.40743209,33.40743209,0.52397456,0.52397456,0.52397456
47135,0,USTennesseePerry,Tennessee,Perry,2020-07-18 03:41:45.173416,2020-06-17 00:00:00.000000,33.40301502,33.40301502,33.40301502,2697,2697,2697,2666,2666,2666,33.02329287,33.02329287,33.02329287,0.50641325,0.50641325,0.50641325
47135,0,USTennesseePerry,Tennessee,Perry,2020-07-18 03:41:45.173416,2020-06-18 00:00:00.000000,33.01892659,33.01892659,33.01892659,2666,2666,2666,2636,2636,2636,32.64357072,32.64357072,32.64357072,0.49826740,0.49826740,0.49826740
47135,0,USTennesseePerry,Tennessee,Perry,2020-07-18 03:41:45.173416,2020-06-19 00:00:00.000000,32.63925465,32.63925465,32.63925465,2635,2635,2635,2605,2605,2605,32.26821485,32.26821485,32.26821485,0.49570102,0.49570102,0.49570102
47135,0,USTennesseePerry,Tennessee,Perry,2020-07-18 03:41:45.173416,2020-06-20 00:00:00.000000,32.26394841,32.26394841,32.26394841,2605,2605,2605,2576,2576,2576,31.89717505,31.89717505,31.89717505,0.49498500,0.49498500,0.49498500
47135,0,USTennesseePerry,Tennessee,Perry,2020-07-18 03:41:45.173416,2020-06-21 00:00:00.000000,31.89295766,31.89295766,31.89295766,2575,2575,2575,2546,2546,2546,31.53040170,31.53040170,31.53040170,0.49469957,0.49469957,0.49469957
47135,0,USTennesseePerry,Tennessee,Perry,2020-07-18 03:41:45.173416,2020-06-22 00:00:00.000000,31.52623280,31.52623280,31.52623280,2546,2546,2546,2517,2517,2517,31.16784573,31.16784573,31.16784573,0.49438221,0.49438221,0.49438221
47135,0,USTennesseePerry,Tennessee,Perry,2020-07-18 03:41:45.173416,2020-06-23 00:00:00.000000,31.16372477,31.16372477,31.16372477,2516,2516,2516,2488,2488,2488,30.80945865,30.80945865,30.80945865,0.49424594,0.49424594,0.49424594
47135,0,USTennesseePerry,Tennessee,Perry,2020-07-18 03:41:45.173416,2020-06-24 00:00:00.000000,30.80538508,30.80538508,30.80538508,2487,2487,2487,2459,2459,2459,30.45519253,30.45519253,30.45519253,0.49417878,0.49417878,0.49417878
47135,0,USTennesseePerry,Tennessee,Perry,2020-07-18 03:41:45.173416,2020-06-25 00:00:00.000000,30.45116580,30.45116580,30.45116580,2459,2459,2459,2431,2431,2431,30.10499997,30.10499997,30.10499997,0.49393418,0.49393418,0.49393418
47135,0,USTennesseePerry,Tennessee,Perry,2020-07-18 03:41:45.173416,2020-06-26 00:00:00.000000,30.10101955,30.10101955,30.10101955,2430,2430,2430,2403,2403,2403,29.75883415,29.75883415,29.75883415,0.49274108,0.49274108,0.49274108
47135,0,USTennesseePerry,Tennessee,Perry,2020-07-18 03:41:45.173416,2020-06-27 00:00:00.000000,29.75489949,29.75489949,29.75489949,2403,2403,2403,2375,2375,2375,29.41664876,29.41664876,29.41664876,0.48820168,0.48820168,0.48820168
47135,0,USTennesseePerry,Tennessee,Perry,2020-07-18 03:41:45.173416,2020-06-28 00:00:00.000000,29.41275934,29.41275934,29.41275934,2375,2375,2375,2348,2348,2348,29.07839802,29.07839802,29.07839802,0.48041790,0.48041790,0.48041790
47135,0,USTennesseePerry,Tennessee,Perry,2020-07-18 03:41:45.173416,2020-06-29 00:00:00.000000,29.07455333,29.07455333,29.07455333,2348,2348,2348,2321,2321,2321,28.74403670,28.74403670,28.74403670,0.47609245,0.47609245,0.47609245
47135,0,USTennesseePerry,Tennessee,Perry,2020-07-18 03:41:45.173416,2020-06-30 00:00:00.000000,28.74023622,28.74023622,28.74023622,2321,2321,2321,2294,2294,2294,28.41352007,28.41352007,28.41352007,0.47488925,0.47488925,0.47488925
47135,0,USTennesseePerry,Tennessee,Perry,2020-07-18 03:41:45.173416,2020-07-01 00:00:00.000000,28.40976329,28.40976329,28.40976329,2294,2294,2294,2268,2268,2268,28.08680392,28.08680392,28.08680392,0.47447437,0.47447437,0.47447437
47135,0,USTennesseePerry,Tennessee,Perry,2020-07-18 03:41:45.173416,2020-07-02 00:00:00.000000,28.08309034,28.08309034,28.08309034,2267,2267,2267,2242,2242,2242,27.76384456,27.76384456,27.76384456,0.47411119,0.47411119,0.47411119
47135,0,USTennesseePerry,Tennessee,Perry,2020-07-18 03:41:45.173416,2020-07-03 00:00:00.000000,27.76017368,27.76017368,27.76017368,2241,2241,2241,2216,2216,2216,27.44459879,27.44459879,27.44459879,0.47360272,0.47360272,0.47360272
47135,0,USTennesseePerry,Tennessee,Perry,2020-07-18 03:41:45.173416,2020-07-04 00:00:00.000000,27.44097011,27.44097011,27.44097011,2216,2216,2216,2190,2190,2190,27.12902389,27.12902389,27.12902389,0.47285683,0.47285683,0.47285683
47135,0,USTennesseePerry,Tennessee,Perry,2020-07-18 03:41:45.173416,2020-07-05 00:00:00.000000,27.12543694,27.12543694,27.12543694,2190,2190,2190,2165,2165,2165,26.81707768,26.81707768,26.81707768,0.47181436,0.47181436,0.47181436
47135,0,USTennesseePerry,Tennessee,Perry,2020-07-18 03:41:45.173416,2020-07-06 00:00:00.000000,26.81353197,26.81353197,26.81353197,2165,2165,2165,2140,2140,2140,26.50871841,26.50871841,26.50871841,0.47047027,0.47047027,0.47047027
47135,0,USTennesseePerry,Tennessee,Perry,2020-07-18 03:41:45.173416,2020-07-07 00:00:00.000000,26.50521347,26.50521347,26.50521347,2140,2140,2140,2116,2116,2116,26.20390484,26.20390484,26.20390484,0.46890902,0.46890902,0.46890902
47135,0,USTennesseePerry,Tennessee,Perry,2020-07-18 03:41:45.173416,2020-07-08 00:00:00.000000,26.20044021,26.20044021,26.20044021,2115,2115,2115,2091,2091,2091,25.90259622,25.90259622,25.90259622,0.46730124,0.46730124,0.46730124
47135,0,USTennesseePerry,Tennessee,Perry,2020-07-18 03:41:45.173416,2020-07-09 00:00:00.000000,25.89917142,25.89917142,25.89917142,2091,2091,2091,2067,2067,2067,25.60475222,25.60475222,25.60475222,0.46583834,0.46583834,0.46583834
47135,0,USTennesseePerry,Tennessee,Perry,2020-07-18 03:41:45.173416,2020-07-10 00:00:00.000000,25.60136680,25.60136680,25.60136680,2067,2067,2067,2044,2044,2044,25.31033301,25.31033301,25.31033301,0.46464979,0.46464979,0.46464979
47135,0,USTennesseePerry,Tennessee,Perry,2020-07-18 03:41:45.173416,2020-07-11 00:00:00.000000,25.30698653,25.30698653,25.30698653,2043,2043,2043,2020,2020,2020,25.01929922,25.01929922,25.01929922,0.46376987,0.46376987,0.46376987
47135,0,USTennesseePerry,Tennessee,Perry,2020-07-18 03:41:45.173416,2020-07-12 00:00:00.000000,25.01599122,25.01599122,25.01599122,2020,2020,2020,1997,1997,1997,24.73161192,24.73161192,24.73161192,0.46316226,0.46316226,0.46316226
47135,0,USTennesseePerry,Tennessee,Perry,2020-07-18 03:41:45.173416,2020-07-13 00:00:00.000000,24.72834195,24.72834195,24.72834195,1997,1997,1997,1974,1974,1974,24.44723262,24.44723262,24.44723262,0.46276259,0.46276259,0.46276259
47135,0,USTennesseePerry,Tennessee,Perry,2020-07-18 03:41:45.173416,2020-07-14 00:00:00.000000,24.44400025,24.44400025,24.44400025,1974,1974,1974,1951,1951,1951,24.16612329,24.16612329,24.16612329,0.46250804,0.46250804,0.46250804
47135,0,USTennesseePerry,Tennessee,Perry,2020-07-18 03:41:45.173416,2020-07-15 00:00:00.000000,24.16292809,24.16292809,24.16292809,1951,1951,1951,1929,1929,1929,23.88824633,23.88824633,23.88824633,0.46234923,0.46234923,0.46234923
47135,0,USTennesseePerry,Tennessee,Perry,2020-07-18 03:41:45.173416,2020-07-16 00:00:00.000000,23.88508787,23.88508787,23.88508787,1928,1928,1928,1907,1907,1907,23.61356457,23.61356457,23.61356457,0.46225142,0.46225142,0.46225142
47135,0,USTennesseePerry,Tennessee,Perry,2020-07-18 03:41:45.173416,2020-07-17 00:00:00.000000,23.61044242,23.61044242,23.61044242,1906,1906,1906,1885,1885,1885,23.34204126,23.34204126,23.34204126,0.46219166,0.46219166,0.46219166
47135,0,USTennesseePerry,Tennessee,Perry,2020-07-18 03:41:45.173416,2020-07-18 00:00:00.000000,23.33895502,23.33895502,23.33895502,1884,1884,1884,1863,1863,1863,23.07364010,23.07364010,23.07364010,0.46215533,0.46215533,0.46215533
47135,0,USTennesseePerry,Tennessee,Perry,2020-07-18 03:41:45.173416,2020-07-19 00:00:00.000000,23.07058935,23.07058935,23.07058935,1863,1863,1863,1842,1842,1842,22.80832518,22.80832518,22.80832518,0.46213330,0.46213330,0.46213330
47135,0,USTennesseePerry,Tennessee,Perry,2020-07-18 03:41:45.173416,2020-07-20 00:00:00.000000,22.80530951,22.80530951,22.80530951,1841,1841,1841,1820,1820,1820,22.54606102,22.54606102,22.54606102,0.46211998,0.46211998,0.46211998
47135,0,USTennesseePerry,Tennessee,Perry,2020-07-18 03:41:45.173416,2020-07-21 00:00:00.000000,22.54308002,22.54308002,22.54308002,1820,1820,1820,1799,1799,1799,22.28681253,22.28681253,22.28681253,0.46211192,0.46211192,0.46211192
47135,0,USTennesseePerry,Tennessee,Perry,2020-07-18 03:41:45.173416,2020-07-22 00:00:00.000000,22.28386581,22.28386581,22.28386581,1799,1799,1799,1779,1779,1779,22.03054504,22.03054504,22.03054504,0.46210706,0.46210706,0.46210706
47135,0,USTennesseePerry,Tennessee,Perry,2020-07-18 03:41:45.173416,2020-07-23 00:00:00.000000,22.02763220,22.02763220,22.02763220,1778,1778,1778,1758,1758,1758,21.77722427,21.77722427,21.77722427,0.46210412,0.46210412,0.46210412
47135,0,USTennesseePerry,Tennessee,Perry,2020-07-18 03:41:45.173416,2020-07-24 00:00:00.000000,21.77434493,21.77434493,21.77434493,1758,1758,1758,1738,1738,1738,21.52681634,21.52681634,21.52681634,0.46210235,0.46210235,0.46210235
47135,0,USTennesseePerry,Tennessee,Perry,2020-07-18 03:41:45.173416,2020-07-25 00:00:00.000000,21.52397010,21.52397010,21.52397010,1738,1738,1738,1718,1718,1718,21.27928775,21.27928775,21.27928775,0.46210128,0.46210128,0.46210128
47135,0,USTennesseePerry,Tennessee,Perry,2020-07-18 03:41:45.173416,2020-07-26 00:00:00.000000,21.27647425,21.27647425,21.27647425,1718,1718,1718,1698,1698,1698,21.03460540,21.03460540,21.03460540,0.46210063,0.46210063,0.46210063
47135,0,USTennesseePerry,Tennessee,Perry,2020-07-18 03:41:45.173416,2020-07-27 00:00:00.000000,21.03182425,21.03182425,21.03182425,1698,1698,1698,1679,1679,1679,20.79273656,20.79273656,20.79273656,0.46210024,0.46210024,0.46210024
47135,0,USTennesseePerry,Tennessee,Perry,2020-07-18 03:41:45.173416,2020-07-28 00:00:00.000000,20.78998738,20.78998738,20.78998738,1678,1678,1678,1659,1659,1659,20.55364888,20.55364888,20.55364888,0.46210000,0.46210000,0.46210000
47135,0,USTennesseePerry,Tennessee,Perry,2020-07-18 03:41:45.173416,2020-07-29 00:00:00.000000,20.55093131,20.55093131,20.55093131,1659,1659,1659,1640,1640,1640,20.31731037,20.31731037,20.31731037,0.46209986,0.46209986,0.46209986
47135,0,USTennesseePerry,Tennessee,Perry,2020-07-18 03:41:45.173416,2020-07-30 00:00:00.000000,20.31462405,20.31462405,20.31462405,1640,1640,1640,1621,1621,1621,20.08368943,20.08368943,20.08368943,0.46209978,0.46209978,0.46209978
