FIPS,HR_UID,nameid,province,region,analysisTime,dates,pointprevalence_025,pointprevalence_50,pointprevalence_975,pointinfections_025,pointinfections_50,pointinfections_975,pointinfectious_025,pointinfectious_50,pointinfectious_975,pointinfectiousprevalence_05,pointinfectiousprevalence_50,pointinfectiousprevalence_95,infectrate_025,infectrate_50,infectrate_975
28049,0,USMississippiHinds,Mississippi,Hinds,2020-07-18 10:58:00.325240,2020-03-09 00:00:00.000000,0.00626367,0.03741524,0.22287215,14,86,516,6,26,158,0.00291372,0.01149809,0.06852913,0.55435578,0.73021199,0.99574993
28049,0,USMississippiHinds,Mississippi,Hinds,2020-07-18 10:58:00.325240,2020-03-10 00:00:00.000000,0.01029317,0.04203924,0.68354710,23,97,1584,10,32,125,0.00465630,0.01410084,0.05410593,0.55435149,0.73021199,0.99572781
28049,0,USMississippiHinds,Mississippi,Hinds,2020-07-18 10:58:00.325240,2020-03-11 00:00:00.000000,0.00974813,0.04236995,0.20286428,22,98,470,8,38,126,0.00373008,0.01658357,0.05475013,0.55434236,0.73021199,0.99569009
28049,0,USMississippiHinds,Mississippi,Hinds,2020-07-18 10:58:00.325240,2020-03-12 00:00:00.000000,0.01440804,0.04553987,0.76925710,33,105,1783,14,41,123,0.00641669,0.01803469,0.05311417,0.55432302,0.73021199,0.99562583
28049,0,USMississippiHinds,Mississippi,Hinds,2020-07-18 10:58:00.325240,2020-03-13 00:00:00.000000,0.01271229,0.05103241,0.19965541,29,118,462,11,46,122,0.00512933,0.02003025,0.05268142,0.55428211,0.73021199,0.99551645
28049,0,USMississippiHinds,Mississippi,Hinds,2020-07-18 10:58:00.325240,2020-03-14 00:00:00.000000,0.01879627,0.05662710,0.83065854,43,131,1925,20,52,124,0.00873098,0.02244097,0.05376812,0.55419608,0.73021199,0.99533056
28049,0,USMississippiHinds,Mississippi,Hinds,2020-07-18 10:58:00.325240,2020-03-15 00:00:00.000000,0.01676389,0.06371514,0.21206712,38,147,491,16,58,130,0.00696699,0.02510994,0.05610071,0.55401759,0.73021199,0.99501551
28049,0,USMississippiHinds,Mississippi,Hinds,2020-07-18 10:58:00.325240,2020-03-16 00:00:00.000000,0.02406111,0.07062215,0.89988081,55,163,2086,26,63,138,0.01141856,0.02725367,0.05958157,0.55365894,0.73196005,0.99477975
28049,0,USMississippiHinds,Mississippi,Hinds,2020-07-18 10:58:00.325240,2020-03-17 00:00:00.000000,0.02224989,0.07861274,0.24771835,51,182,574,21,68,152,0.00921191,0.02955852,0.06591058,0.55230473,0.73148318,0.99637249
28049,0,USMississippiHinds,Mississippi,Hinds,2020-07-18 10:58:00.325240,2020-03-18 00:00:00.000000,0.02991583,0.08595277,0.97559189,69,199,2261,34,74,166,0.01499412,0.03215290,0.07163605,0.55106154,0.73459726,1.00185928
28049,0,USMississippiHinds,Mississippi,Hinds,2020-07-18 10:58:00.325240,2020-03-19 00:00:00.000000,0.02985153,0.09193626,0.28472694,69,213,660,26,85,178,0.01149545,0.03708611,0.07709338,0.54698221,0.72824114,1.01093542
28049,0,USMississippiHinds,Mississippi,Hinds,2020-07-18 10:58:00.325240,2020-03-20 00:00:00.000000,0.03790700,0.10026500,1.04519173,87,232,2423,44,93,188,0.01935266,0.04036661,0.08140275,0.53777082,0.70902157,1.01353578
28049,0,USMississippiHinds,Mississippi,Hinds,2020-07-18 10:58:00.325240,2020-03-21 00:00:00.000000,0.04108182,0.10718090,0.32700497,95,248,758,32,102,201,0.01391994,0.04408156,0.08693192,0.51185887,0.69700963,1.01096865
28049,0,USMississippiHinds,Mississippi,Hinds,2020-07-18 10:58:00.325240,2020-03-22 00:00:00.000000,0.05077859,0.11546335,1.09035520,117,267,2527,55,113,217,0.02388200,0.04876770,0.09402654,0.46601983,0.69356489,1.01735354
28049,0,USMississippiHinds,Mississippi,Hinds,2020-07-18 10:58:00.325240,2020-03-23 00:00:00.000000,0.05255017,0.12201778,0.37584552,121,282,871,38,121,241,0.01645836,0.05246067,0.10418894,0.46036524,0.69458173,1.03051662
28049,0,USMississippiHinds,Mississippi,Hinds,2020-07-18 10:58:00.325240,2020-03-24 00:00:00.000000,0.06643394,0.13504164,1.13174186,154,313,2623,65,131,271,0.02843142,0.05685155,0.11694849,0.44015776,0.67872077,1.03514275
28049,0,USMississippiHinds,Mississippi,Hinds,2020-07-18 10:58:00.325240,2020-03-25 00:00:00.000000,0.06173376,0.14160961,0.42855557,143,328,993,44,143,289,0.01909393,0.06208836,0.12489938,0.42739483,0.65993446,1.02719315
28049,0,USMississippiHinds,Mississippi,Hinds,2020-07-18 10:58:00.325240,2020-03-26 00:00:00.000000,0.07911387,0.15524869,1.18900073,183,359,2756,77,157,309,0.03348856,0.06801657,0.13331398,0.41329019,0.64269489,1.01947819
28049,0,USMississippiHinds,Mississippi,Hinds,2020-07-18 10:58:00.325240,2020-03-27 00:00:00.000000,0.07782750,0.16185566,0.48102344,180,375,1115,50,170,337,0.02177742,0.07354009,0.14560591,0.40121687,0.63291030,1.00800965
28049,0,USMississippiHinds,Mississippi,Hinds,2020-07-18 10:58:00.325240,2020-03-28 00:00:00.000000,0.09505631,0.17627584,1.27532430,220,408,2956,91,182,359,0.03964934,0.07884922,0.15524032,0.38919582,0.61618900,1.00666924
28049,0,USMississippiHinds,Mississippi,Hinds,2020-07-18 10:58:00.325240,2020-03-29 00:00:00.000000,0.09245446,0.18066101,0.53622364,214,418,1243,56,193,380,0.02439333,0.08354118,0.16427665,0.37892481,0.58213053,0.99769600
28049,0,USMississippiHinds,Mississippi,Hinds,2020-07-18 10:58:00.325240,2020-03-30 00:00:00.000000,0.11119230,0.19689898,1.36431643,257,456,3163,102,204,404,0.04433110,0.08834961,0.17434857,0.36160402,0.54941725,0.99579660
28049,0,USMississippiHinds,Mississippi,Hinds,2020-07-18 10:58:00.325240,2020-03-31 00:00:00.000000,0.10669839,0.20627409,0.58677167,247,478,1360,62,219,436,0.02678716,0.09462817,0.18809736,0.35441045,0.53592461,0.96410484
28049,0,USMississippiHinds,Mississippi,Hinds,2020-07-18 10:58:00.325240,2020-04-01 00:00:00.000000,0.12428343,0.22224182,1.41445803,288,515,3279,112,233,466,0.04856436,0.10078420,0.20100413,0.33669616,0.52283543,0.92787370
28049,0,USMississippiHinds,Mississippi,Hinds,2020-07-18 10:58:00.325240,2020-04-02 00:00:00.000000,0.11487683,0.22578975,0.62647947,266,523,1452,66,245,494,0.02883822,0.10592081,0.21321880,0.31959588,0.50591388,0.91356608
28049,0,USMississippiHinds,Mississippi,Hinds,2020-07-18 10:58:00.325240,2020-04-03 00:00:00.000000,0.13857645,0.24708951,1.44633192,321,572,3353,123,262,522,0.05317584,0.11314675,0.22542025,0.31669003,0.49143561,0.89795883
28049,0,USMississippiHinds,Mississippi,Hinds,2020-07-18 10:58:00.325240,2020-04-04 00:00:00.000000,0.12174049,0.24305256,0.66450523,282,563,1540,71,272,551,0.03064435,0.11745680,0.23779076,0.30794545,0.46102968,0.88483771
28049,0,USMississippiHinds,Mississippi,Hinds,2020-07-18 10:58:00.325240,2020-04-05 00:00:00.000000,0.15166916,0.26395978,1.44715738,351,611,3355,135,285,578,0.05839903,0.12315656,0.24937921,0.28584485,0.44839578,0.87914779
28049,0,USMississippiHinds,Mississippi,Hinds,2020-07-18 10:58:00.325240,2020-04-06 00:00:00.000000,0.12842310,0.25939300,0.73230594,297,601,1697,76,295,607,0.03288572,0.12766389,0.26203507,0.27226025,0.43682028,0.86745520
28049,0,USMississippiHinds,Mississippi,Hinds,2020-07-18 10:58:00.325240,2020-04-07 00:00:00.000000,0.16420158,0.28150725,1.44002050,380,652,3338,144,303,634,0.06219492,0.13107609,0.27353183,0.26046066,0.42805678,0.86809251
28049,0,USMississippiHinds,Mississippi,Hinds,2020-07-18 10:58:00.325240,2020-04-08 00:00:00.000000,0.13527482,0.27870991,0.78983184,313,646,1831,80,314,665,0.03468474,0.13570751,0.28709365,0.24092563,0.41728860,0.84189090
28049,0,USMississippiHinds,Mississippi,Hinds,2020-07-18 10:58:00.325240,2020-04-09 00:00:00.000000,0.17167698,0.29685605,1.45069763,398,688,3363,154,323,692,0.06663450,0.13945065,0.29888749,0.23988688,0.40854888,0.82681941
28049,0,USMississippiHinds,Mississippi,Hinds,2020-07-18 10:58:00.325240,2020-04-10 00:00:00.000000,0.13734971,0.29444784,0.83576090,318,682,1937,82,331,716,0.03552897,0.14297781,0.30906940,0.24024119,0.39715669,0.82094810
28049,0,USMississippiHinds,Mississippi,Hinds,2020-07-18 10:58:00.325240,2020-04-11 00:00:00.000000,0.17335526,0.31734064,1.45971703,401,735,3384,168,337,732,0.07277720,0.14550700,0.31606369,0.24106706,0.38893461,0.79667055
28049,0,USMississippiHinds,Mississippi,Hinds,2020-07-18 10:58:00.325240,2020-04-12 00:00:00.000000,0.13976503,0.30810270,0.86322759,324,714,2001,85,344,749,0.03670299,0.14870055,0.32334828,0.24160705,0.37540149,0.77908488
28049,0,USMississippiHinds,Mississippi,Hinds,2020-07-18 10:58:00.325240,2020-04-13 00:00:00.000000,0.17470017,0.32491984,1.49940549,405,753,3476,172,351,762,0.07428806,0.15172634,0.32877058,0.23497708,0.37517175,0.77776488
28049,0,USMississippiHinds,Mississippi,Hinds,2020-07-18 10:58:00.325240,2020-04-14 00:00:00.000000,0.14214272,0.32122974,0.88874117,329,744,2060,86,358,778,0.03739468,0.15465581,0.33567276,0.22991468,0.37475623,0.78495474
28049,0,USMississippiHinds,Mississippi,Hinds,2020-07-18 10:58:00.325240,2020-04-15 00:00:00.000000,0.17514343,0.34154383,1.63780880,406,791,3797,176,364,793,0.07626877,0.15709895,0.34219742,0.22975029,0.37448245,0.77765857
28049,0,USMississippiHinds,Mississippi,Hinds,2020-07-18 10:58:00.325240,2020-04-16 00:00:00.000000,0.14429282,0.32926130,0.91497917,334,763,2121,92,374,805,0.03988520,0.16174028,0.34752675,0.22577727,0.37364406,0.77595470
28049,0,USMississippiHinds,Mississippi,Hinds,2020-07-18 10:58:00.325240,2020-04-17 00:00:00.000000,0.18101516,0.35722285,1.75341680,419,828,4065,183,382,823,0.07902651,0.16492681,0.35510024,0.22240385,0.37127686,0.76859405
28049,0,USMississippiHinds,Mississippi,Hinds,2020-07-18 10:58:00.325240,2020-04-18 00:00:00.000000,0.14434278,0.34079649,0.94101754,334,790,2181,99,389,840,0.04290734,0.16805715,0.36244086,0.21311552,0.36598297,0.76825975
28049,0,USMississippiHinds,Mississippi,Hinds,2020-07-18 10:58:00.325240,2020-04-19 00:00:00.000000,0.18438796,0.36742823,1.84418206,427,851,4275,187,396,855,0.08081074,0.17113849,0.36890534,0.21493536,0.35633061,0.75524245
28049,0,USMississippiHinds,Mississippi,Hinds,2020-07-18 10:58:00.325240,2020-04-20 00:00:00.000000,0.14363728,0.34637295,0.96536145,333,803,2238,106,401,868,0.04603114,0.17330295,0.37472149,0.21007318,0.34377770,0.73571486
28049,0,USMississippiHinds,Mississippi,Hinds,2020-07-18 10:58:00.325240,2020-04-21 00:00:00.000000,0.18703469,0.37720450,1.90176071,433,874,4409,190,406,890,0.08197580,0.17533920,0.38416672,0.20410029,0.33685648,0.73153026
28049,0,USMississippiHinds,Mississippi,Hinds,2020-07-18 10:58:00.325240,2020-04-22 00:00:00.000000,0.14007037,0.35377475,0.98875590,324,820,2292,112,408,910,0.04870549,0.17609563,0.39269211,0.20799244,0.33155139,0.72068705
28049,0,USMississippiHinds,Mississippi,Hinds,2020-07-18 10:58:00.325240,2020-04-23 00:00:00.000000,0.19013004,0.38345741,1.89314703,440,889,4389,190,407,928,0.08235655,0.17589439,0.40065309,0.21554426,0.32976752,0.70642154
28049,0,USMississippiHinds,Mississippi,Hinds,2020-07-18 10:58:00.325240,2020-04-24 00:00:00.000000,0.13534376,0.36697186,1.01329211,313,850,2349,117,412,935,0.05054824,0.17777097,0.40365593,0.21740063,0.33011906,0.69071133
28049,0,USMississippiHinds,Mississippi,Hinds,2020-07-18 10:58:00.325240,2020-04-25 00:00:00.000000,0.19435331,0.38735452,1.86797868,450,898,4330,195,413,931,0.08424913,0.17824572,0.40184524,0.21366716,0.33641603,0.68782658
28049,0,USMississippiHinds,Mississippi,Hinds,2020-07-18 10:58:00.325240,2020-04-26 00:00:00.000000,0.14006472,0.37769228,1.04002044,324,875,2411,120,414,924,0.05177533,0.17898153,0.39865672,0.20671468,0.34378382,0.68660324
28049,0,USMississippiHinds,Mississippi,Hinds,2020-07-18 10:58:00.325240,2020-04-27 00:00:00.000000,0.19814327,0.39691501,1.85827000,459,920,4308,199,418,932,0.08623622,0.18050690,0.40210424,0.20384043,0.34435457,0.71140282
28049,0,USMississippiHinds,Mississippi,Hinds,2020-07-18 10:58:00.325240,2020-04-28 00:00:00.000000,0.14703202,0.37553908,1.05716873,340,870,2450,121,420,946,0.05259012,0.18157810,0.40815346,0.20309222,0.34233145,0.73053629
28049,0,USMississippiHinds,Mississippi,Hinds,2020-07-18 10:58:00.325240,2020-04-29 00:00:00.000000,0.19999740,0.40717344,1.84658818,463,943,4281,205,427,960,0.08859317,0.18435822,0.41416740,0.20328999,0.33885757,0.73402845
28049,0,USMississippiHinds,Mississippi,Hinds,2020-07-18 10:58:00.325240,2020-04-30 00:00:00.000000,0.15198776,0.37458053,1.07225889,352,868,2485,122,432,974,0.05304485,0.18660404,0.42014086,0.20140865,0.33143018,0.72937926
28049,0,USMississippiHinds,Mississippi,Hinds,2020-07-18 10:58:00.325240,2020-05-01 00:00:00.000000,0.19395710,0.41775888,1.82518492,449,968,4231,211,436,987,0.09117417,0.18834049,0.42609639,0.20222830,0.32799239,0.71969099
28049,0,USMississippiHinds,Mississippi,Hinds,2020-07-18 10:58:00.325240,2020-05-02 00:00:00.000000,0.15614516,0.37975381,1.08451027,362,880,2514,124,446,1001,0.05352529,0.19248673,0.43208748,0.20100039,0.32251390,0.69447431
28049,0,USMississippiHinds,Mississippi,Hinds,2020-07-18 10:58:00.325240,2020-05-03 00:00:00.000000,0.18096061,0.42023136,1.80228763,419,974,4178,210,459,1011,0.09073786,0.19811894,0.43638876,0.20223966,0.31827133,0.67778548
28049,0,USMississippiHinds,Mississippi,Hinds,2020-07-18 10:58:00.325240,2020-05-04 00:00:00.000000,0.16126938,0.38360911,1.08052949,373,889,2505,125,458,1021,0.05429917,0.19757707,0.44070550,0.20241474,0.31582225,0.67052551
28049,0,USMississippiHinds,Mississippi,Hinds,2020-07-18 10:58:00.325240,2020-05-05 00:00:00.000000,0.17066851,0.42154567,1.78523833,395,977,4138,211,457,1031,0.09114623,0.19735581,0.44496747,0.20035032,0.31266575,0.66956485
28049,0,USMississippiHinds,Mississippi,Hinds,2020-07-18 10:58:00.325240,2020-05-06 00:00:00.000000,0.16780164,0.39299479,1.07496459,389,911,2492,127,459,1041,0.05488134,0.19806554,0.44913489,0.20016774,0.31060807,0.66889204
28049,0,USMississippiHinds,Mississippi,Hinds,2020-07-18 10:58:00.325240,2020-05-07 00:00:00.000000,0.16845549,0.42930921,1.77570419,390,995,4116,214,464,1050,0.09237686,0.20042905,0.45324603,0.20197428,0.30790351,0.68049008
28049,0,USMississippiHinds,Mississippi,Hinds,2020-07-18 10:58:00.325240,2020-05-08 00:00:00.000000,0.16416108,0.40170929,1.09175341,380,931,2531,127,468,1060,0.05504378,0.20199656,0.45734264,0.20554751,0.30723963,0.67288776
28049,0,USMississippiHinds,Mississippi,Hinds,2020-07-18 10:58:00.325240,2020-05-09 00:00:00.000000,0.17805649,0.43699754,1.77118882,412,1013,4106,215,466,1069,0.09291226,0.20121479,0.46148752,0.20569982,0.30876384,0.67863672
28049,0,USMississippiHinds,Mississippi,Hinds,2020-07-18 10:58:00.325240,2020-05-10 00:00:00.000000,0.16459202,0.40236131,1.07486162,381,932,2491,126,464,1080,0.05470624,0.20052599,0.46593771,0.20390938,0.31031517,0.67940041
28049,0,USMississippiHinds,Mississippi,Hinds,2020-07-18 10:58:00.325240,2020-05-11 00:00:00.000000,0.18818097,0.43958124,1.80281919,436,1019,4179,216,471,1091,0.09320197,0.20358394,0.47092286,0.20030894,0.31491124,0.68051059
28049,0,USMississippiHinds,Mississippi,Hinds,2020-07-18 10:58:00.325240,2020-05-12 00:00:00.000000,0.16474072,0.40458664,1.08656394,381,937,2519,125,478,1103,0.05402218,0.20651244,0.47617545,0.19527247,0.32009626,0.68145443
28049,0,USMississippiHinds,Mississippi,Hinds,2020-07-18 10:58:00.325240,2020-05-13 00:00:00.000000,0.19143942,0.45075825,1.84551195,443,1045,4278,215,479,1116,0.09303995,0.20687867,0.48138522,0.19089522,0.32622467,0.68213948
28049,0,USMississippiHinds,Mississippi,Hinds,2020-07-18 10:58:00.325240,2020-05-14 00:00:00.000000,0.16335892,0.41264565,1.09968402,378,956,2549,123,483,1127,0.05319791,0.20857041,0.48637610,0.18913953,0.33717509,0.68274283
28049,0,USMississippiHinds,Mississippi,Hinds,2020-07-18 10:58:00.325240,2020-05-15 00:00:00.000000,0.19221295,0.45148253,1.88766163,445,1046,4376,211,489,1138,0.09134560,0.21109123,0.49107504,0.18833358,0.35386603,0.68627163
28049,0,USMississippiHinds,Mississippi,Hinds,2020-07-18 10:58:00.325240,2020-05-16 00:00:00.000000,0.16381976,0.41187939,1.15068425,379,954,2667,122,490,1148,0.05277810,0.21167296,0.49547747,0.18921618,0.36515594,0.67762981
28049,0,USMississippiHinds,Mississippi,Hinds,2020-07-18 10:58:00.325240,2020-05-17 00:00:00.000000,0.19238235,0.45555497,1.92634548,446,1056,4466,212,492,1158,0.09164298,0.21262088,0.49969230,0.19147966,0.36107033,0.67814567
28049,0,USMississippiHinds,Mississippi,Hinds,2020-07-18 10:58:00.325240,2020-05-18 00:00:00.000000,0.16474331,0.41469807,1.19938050,381,961,2780,122,497,1168,0.05277537,0.21473351,0.50392345,0.18790050,0.36029371,0.69409706
28049,0,USMississippiHinds,Mississippi,Hinds,2020-07-18 10:58:00.325240,2020-05-19 00:00:00.000000,0.19237049,0.46184014,1.96112313,445,1070,4546,212,503,1178,0.09171150,0.21720470,0.50830240,0.18701842,0.36214483,0.70398744
28049,0,USMississippiHinds,Mississippi,Hinds,2020-07-18 10:58:00.325240,2020-05-20 00:00:00.000000,0.16374520,0.42291118,1.27178809,379,980,2948,124,510,1189,0.05370778,0.22037203,0.51286079,0.18641035,0.36512265,0.71325282
28049,0,USMississippiHinds,Mississippi,Hinds,2020-07-18 10:58:00.325240,2020-05-21 00:00:00.000000,0.19230994,0.46931403,1.99615779,445,1088,4627,212,513,1200,0.09155054,0.22169235,0.51763278,0.18546486,0.37477195,0.72363434
28049,0,USMississippiHinds,Mississippi,Hinds,2020-07-18 10:58:00.325240,2020-05-22 00:00:00.000000,0.16240985,0.42962595,1.34422176,376,996,3116,130,523,1211,0.05620947,0.22580208,0.52272084,0.18597271,0.37939549,0.73284278
28049,0,USMississippiHinds,Mississippi,Hinds,2020-07-18 10:58:00.325240,2020-05-23 00:00:00.000000,0.19246398,0.47911026,2.03875043,446,1110,4726,211,533,1224,0.09105074,0.23024150,0.52832942,0.18885366,0.38442286,0.74545164
28049,0,USMississippiHinds,Mississippi,Hinds,2020-07-18 10:58:00.325240,2020-05-24 00:00:00.000000,0.16230853,0.44359443,1.41318779,376,1028,3276,138,540,1239,0.05957583,0.23304111,0.53482820,0.19391586,0.38949059,0.76427614
28049,0,USMississippiHinds,Mississippi,Hinds,2020-07-18 10:58:00.325240,2020-05-25 00:00:00.000000,0.19617890,0.49057146,2.11423295,454,1137,4901,210,546,1258,0.09086280,0.23591905,0.54293403,0.20105436,0.39155289,0.80644655
28049,0,USMississippiHinds,Mississippi,Hinds,2020-07-18 10:58:00.325240,2020-05-26 00:00:00.000000,0.17168115,0.45809888,1.47769173,398,1062,3425,147,552,1282,0.06359688,0.23837405,0.55339807,0.20518235,0.39428967,0.83938077
28049,0,USMississippiHinds,Mississippi,Hinds,2020-07-18 10:58:00.325240,2020-05-27 00:00:00.000000,0.21190442,0.50929280,2.24049473,491,1180,5194,221,556,1319,0.09566862,0.24022476,0.56926345,0.20392902,0.39967069,0.85502317
28049,0,USMississippiHinds,Mississippi,Hinds,2020-07-18 10:58:00.325240,2020-05-28 00:00:00.000000,0.19485039,0.48114379,1.53809427,451,1115,3565,158,568,1366,0.06837688,0.24523445,0.58932012,0.20203423,0.40505470,0.86263606
28049,0,USMississippiHinds,Mississippi,Hinds,2020-07-18 10:58:00.325240,2020-05-29 00:00:00.000000,0.22483901,0.52925022,2.35309823,521,1227,5455,233,581,1413,0.10086000,0.25098436,0.60969383,0.20378960,0.40952326,0.87229564
28049,0,USMississippiHinds,Mississippi,Hinds,2020-07-18 10:58:00.325240,2020-05-30 00:00:00.000000,0.21067908,0.51522470,1.61659039,488,1194,3747,170,593,1453,0.07367305,0.25620945,0.62699069,0.21486688,0.41660284,0.86404505
28049,0,USMississippiHinds,Mississippi,Hinds,2020-07-18 10:58:00.325240,2020-05-31 00:00:00.000000,0.24267925,0.55061200,2.47735730,562,1276,5743,241,606,1500,0.10400032,0.26170855,0.64707053,0.22351797,0.43189386,0.85006353
28049,0,USMississippiHinds,Mississippi,Hinds,2020-07-18 10:58:00.325240,2020-06-01 00:00:00.000000,0.22326945,0.53538413,1.73057362,517,1241,4012,182,621,1536,0.07862477,0.26827331,0.66262390,0.22522853,0.45033571,0.85412838
28049,0,USMississippiHinds,Mississippi,Hinds,2020-07-18 10:58:00.325240,2020-06-02 00:00:00.000000,0.26680278,0.57773083,2.57988025,618,1339,5981,252,642,1572,0.10883650,0.27710735,0.67846220,0.23222675,0.45109186,0.86548474
28049,0,USMississippiHinds,Mississippi,Hinds,2020-07-18 10:58:00.325240,2020-06-03 00:00:00.000000,0.23642972,0.58586353,1.87636219,548,1358,4350,191,674,1609,0.08265705,0.29107782,0.69432983,0.24153418,0.46299200,0.96103119
28049,0,USMississippiHinds,Mississippi,Hinds,2020-07-18 10:58:00.325240,2020-06-04 00:00:00.000000,0.30222056,0.63211516,2.64716858,700,1465,6137,266,710,1656,0.11484372,0.30660459,0.71436796,0.25324776,0.46736907,1.03224296
28049,0,USMississippiHinds,Mississippi,Hinds,2020-07-18 10:58:00.325240,2020-06-05 00:00:00.000000,0.25759065,0.64889830,2.01463151,597,1504,4670,199,731,1713,0.08618016,0.31541368,0.73890161,0.25917974,0.47754415,1.01342553
28049,0,USMississippiHinds,Mississippi,Hinds,2020-07-18 10:58:00.325240,2020-06-06 00:00:00.000000,0.32495332,0.69225159,2.73830954,753,1604,6348,282,771,1773,0.12163571,0.33297315,0.76518182,0.26187015,0.48142546,0.96759546
28049,0,USMississippiHinds,Mississippi,Hinds,2020-07-18 10:58:00.325240,2020-06-07 00:00:00.000000,0.30038340,0.71706187,2.18218493,696,1662,5059,207,808,1838,0.08961870,0.34884995,0.79314325,0.26705869,0.48434238,1.03592059
28049,0,USMississippiHinds,Mississippi,Hinds,2020-07-18 10:58:00.325240,2020-06-08 00:00:00.000000,0.35738619,0.76186702,3.01132327,828,1766,6981,305,836,1904,0.13184302,0.36090618,0.82165705,0.26838205,0.49731055,1.10870220
28049,0,USMississippiHinds,Mississippi,Hinds,2020-07-18 10:58:00.325240,2020-06-09 00:00:00.000000,0.34075219,0.79234716,2.34318807,789,1836,5432,217,871,1977,0.09361464,0.37583140,0.85289797,0.27131734,0.50132821,1.11931683
28049,0,USMississippiHinds,Mississippi,Hinds,2020-07-18 10:58:00.325240,2020-06-10 00:00:00.000000,0.41240791,0.85967028,3.47660213,956,1993,8060,339,907,2075,0.14626267,0.39151090,0.89533221,0.27524093,0.50654027,1.13422555
28049,0,USMississippiHinds,Mississippi,Hinds,2020-07-18 10:58:00.325240,2020-06-11 00:00:00.000000,0.36061813,0.87848899,2.53313869,836,2036,5872,231,937,2186,0.09984887,0.40419473,0.94318012,0.27718744,0.51854510,1.14811322
28049,0,USMississippiHinds,Mississippi,Hinds,2020-07-18 10:58:00.325240,2020-06-12 00:00:00.000000,0.46153863,0.94381957,3.97347215,1070,2188,9212,379,987,2305,0.16366351,0.42608330,0.99440838,0.29084823,0.51899654,1.15286271
28049,0,USMississippiHinds,Mississippi,Hinds,2020-07-18 10:58:00.325240,2020-06-13 00:00:00.000000,0.39265539,0.95690601,2.75635757,910,2218,6390,254,1034,2429,0.10962326,0.44632406,1.04780081,0.30461252,0.51309654,1.15105564
28049,0,USMississippiHinds,Mississippi,Hinds,2020-07-18 10:58:00.325240,2020-06-14 00:00:00.000000,0.51361784,1.04790101,4.49481144,1190,2429,10420,426,1093,2554,0.18384589,0.47185546,1.10176290,0.30525087,0.50175266,1.15813844
28049,0,USMississippiHinds,Mississippi,Hinds,2020-07-18 10:58:00.325240,2020-06-15 00:00:00.000000,0.43936799,1.04710397,3.00786649,1018,2427,6973,278,1136,2674,0.12013427,0.49023887,1.15345837,0.30280257,0.49531220,1.15466026
28049,0,USMississippiHinds,Mississippi,Hinds,2020-07-18 10:58:00.325240,2020-06-16 00:00:00.000000,0.56499825,1.14081774,5.04296957,1309,2644,11691,483,1209,2779,0.20852472,0.52159911,1.19882127,0.30304507,0.50503005,1.14077449
28049,0,USMississippiHinds,Mississippi,Hinds,2020-07-18 10:58:00.325240,2020-06-17 00:00:00.000000,0.49404735,1.17057685,3.28326215,1145,2713,7611,308,1261,2860,0.13304818,0.54402332,1.23369498,0.30319153,0.50718094,1.14212873
28049,0,USMississippiHinds,Mississippi,Hinds,2020-07-18 10:58:00.325240,2020-06-18 00:00:00.000000,0.62767585,1.23411532,5.59459350,1455,2861,12970,547,1314,2954,0.23594460,0.56685108,1.27450839,0.30380141,0.50620488,1.15095012
28049,0,USMississippiHinds,Mississippi,Hinds,2020-07-18 10:58:00.325240,2020-06-19 00:00:00.000000,0.55577104,1.28024303,3.62421466,1288,2968,8402,348,1374,3049,0.15023961,0.59265026,1.31516159,0.30889988,0.50131225,1.13997115
28049,0,USMississippiHinds,Mississippi,Hinds,2020-07-18 10:58:00.325240,2020-06-20 00:00:00.000000,0.70086210,1.37443167,6.05609670,1624,3186,14040,602,1436,3162,0.26003802,0.61941332,1.36405567,0.32897128,0.50331190,1.08419795
28049,0,USMississippiHinds,Mississippi,Hinds,2020-07-18 10:58:00.325240,2020-06-21 00:00:00.000000,0.62332378,1.38146436,3.92447039,1445,3202,9098,384,1494,3305,0.16579232,0.64474388,1.42589079,0.34594198,0.49324514,1.04444688
28049,0,USMississippiHinds,Mississippi,Hinds,2020-07-18 10:58:00.325240,2020-06-22 00:00:00.000000,0.79375810,1.52489613,6.27223998,1840,3535,14541,663,1597,3450,0.28620782,0.68890465,1.48842924,0.33629433,0.48839670,1.04687722
28049,0,USMississippiHinds,Mississippi,Hinds,2020-07-18 10:58:00.325240,2020-06-23 00:00:00.000000,0.69164676,1.52733444,4.18101217,1603,3540,9693,418,1681,3568,0.18042712,0.72528817,1.53915321,0.33419846,0.48496513,1.05730171
28049,0,USMississippiHinds,Mississippi,Hinds,2020-07-18 10:58:00.325240,2020-06-24 00:00:00.000000,0.92640450,1.65474086,6.37753545,2147,3836,14785,739,1783,3730,0.31887592,0.76911869,1.60908447,0.32995050,0.47909725,1.06279096
28049,0,USMississippiHinds,Mississippi,Hinds,2020-07-18 10:58:00.325240,2020-06-25 00:00:00.000000,0.73276972,1.67592499,4.50300997,1698,3885,10439,450,1858,3927,0.19422564,0.80169471,1.69408982,0.32069736,0.47909087,1.05467292
28049,0,USMississippiHinds,Mississippi,Hinds,2020-07-18 10:58:00.325240,2020-06-26 00:00:00.000000,1.03701280,1.79131014,6.83132831,2404,4152,15837,811,1937,4113,0.35018796,0.83550067,1.77434365,0.31381388,0.47941353,1.01545412
28049,0,USMississippiHinds,Mississippi,Hinds,2020-07-18 10:58:00.325240,2020-06-27 00:00:00.000000,0.76942164,1.77648666,4.89262209,1783,4118,11343,487,2018,4258,0.21031101,0.87054134,1.83670272,0.29864411,0.48209921,1.01026675
28049,0,USMississippiHinds,Mississippi,Hinds,2020-07-18 10:58:00.325240,2020-06-28 00:00:00.000000,1.13285660,1.93852087,7.45359507,2626,4494,17280,878,2098,4394,0.37904229,0.90512648,1.89542014,0.28685539,0.49612066,1.00449064
28049,0,USMississippiHinds,Mississippi,Hinds,2020-07-18 10:58:00.325240,2020-06-29 00:00:00.000000,0.80081207,1.92232981,5.30071376,1856,4456,12289,533,2175,4551,0.23015609,0.93840857,1.96335651,0.28231698,0.49417129,0.98648175
28049,0,USMississippiHinds,Mississippi,Hinds,2020-07-18 10:58:00.325240,2020-06-30 00:00:00.000000,1.20576864,2.11584068,7.86324068,2795,4905,18230,952,2263,4701,0.41089062,0.97616781,2.02776200,0.27890048,0.48803953,0.94829755
28049,0,USMississippiHinds,Mississippi,Hinds,2020-07-18 10:58:00.325240,2020-07-01 00:00:00.000000,0.82924149,2.04683332,5.67251610,1922,4745,13151,581,2320,4846,0.25070279,1.00081611,2.09025884,0.27668642,0.45607669,0.90886711
28049,0,USMississippiHinds,Mississippi,Hinds,2020-07-18 10:58:00.325240,2020-07-02 00:00:00.000000,1.26195868,2.24358675,7.89576501,2925,5201,18305,993,2395,4988,0.42859963,1.03340134,2.15157145,0.27477759,0.41576012,0.89011784
28049,0,USMississippiHinds,Mississippi,Hinds,2020-07-18 10:58:00.325240,2020-07-03 00:00:00.000000,0.82371123,2.16187744,5.95852390,1909,5012,13814,618,2477,5108,0.26693507,1.06856774,2.20358966,0.26961887,0.40812718,0.86751833
28049,0,USMississippiHinds,Mississippi,Hinds,2020-07-18 10:58:00.325240,2020-07-04 00:00:00.000000,1.30660128,2.26606987,7.87745755,3029,5253,18263,1020,2547,5270,0.43996581,1.09890121,2.27318780,0.26328985,0.39943906,0.83998092
28049,0,USMississippiHinds,Mississippi,Hinds,2020-07-18 10:58:00.325240,2020-07-05 00:00:00.000000,0.82015343,2.22866343,6.10352945,1901,5166,14150,647,2588,5402,0.27933324,1.11631671,2.33006545,0.25310174,0.40392430,0.81631354
28049,0,USMississippiHinds,Mississippi,Hinds,2020-07-18 10:58:00.325240,2020-07-06 00:00:00.000000,1.31381495,2.28153014,7.88365656,3045,5289,18277,1035,2566,5508,0.44677404,1.10699304,2.37615633,0.24637971,0.40196849,0.80376801
28049,0,USMississippiHinds,Mississippi,Hinds,2020-07-18 10:58:00.325240,2020-07-07 00:00:00.000000,0.82315652,2.16782993,6.34333559,1908,5025,14706,667,2610,5624,0.28773301,1.12579266,2.42593711,0.24430628,0.39956725,0.79395472
28049,0,USMississippiHinds,Mississippi,Hinds,2020-07-18 10:58:00.325240,2020-07-08 00:00:00.000000,1.29643955,2.35791859,8.07730956,3005,5466,18726,1047,2674,5774,0.45173741,1.15357156,2.49071186,0.24375238,0.39898185,0.79325900
28049,0,USMississippiHinds,Mississippi,Hinds,2020-07-18 10:58:00.325240,2020-07-09 00:00:00.000000,0.82022666,2.17893460,6.59026267,1901,5051,15278,679,2673,5850,0.29314928,1.15299660,2.52369137,0.24360809,0.39865008,0.80477148
28049,0,USMississippiHinds,Mississippi,Hinds,2020-07-18 10:58:00.325240,2020-07-10 00:00:00.000000,1.34677098,2.41221478,8.61446620,3122,5592,19971,1056,2626,5896,0.45561909,1.13289383,2.54330804,0.24357002,0.39760491,0.81227785
28049,0,USMississippiHinds,Mississippi,Hinds,2020-07-18 10:58:00.325240,2020-07-11 00:00:00.000000,0.81592096,2.27457525,6.84350266,1891,5273,15865,688,2624,5933,0.29685045,1.13215282,2.55913345,0.24355968,0.39713103,0.81694732
28049,0,USMississippiHinds,Mississippi,Hinds,2020-07-18 10:58:00.325240,2020-07-12 00:00:00.000000,1.38095984,2.50994464,9.15714781,3201,5819,21229,1068,2646,6065,0.46066825,1.14170944,2.61613619,0.24355678,0.39713102,0.81976850
28049,0,USMississippiHinds,Mississippi,Hinds,2020-07-18 10:58:00.325240,2020-07-13 00:00:00.000000,0.81275973,2.37209879,7.10149517,1884,5499,16464,694,2661,6249,0.29957716,1.14820256,2.69566773,0.24355593,0.39713102,0.82144320
28049,0,USMississippiHinds,Mississippi,Hinds,2020-07-18 10:58:00.325240,2020-07-14 00:00:00.000000,1.37269552,2.58801553,9.02923518,3182,6000,20933,1081,2721,6435,0.46636433,1.17387371,2.77580380,0.24355566,0.39713103,0.82242696
28049,0,USMississippiHinds,Mississippi,Hinds,2020-07-18 10:58:00.325240,2020-07-15 00:00:00.000000,0.81039155,2.46601372,7.36272720,1878,5717,17069,699,2740,6622,0.30165619,1.18221027,2.85664144,0.24355558,0.39713103,0.82300130
28049,0,USMississippiHinds,Mississippi,Hinds,2020-07-18 10:58:00.325240,2020-07-16 00:00:00.000000,1.36512244,2.70025128,9.19200180,3164,6260,21310,1093,2785,6785,0.47153490,1.20126180,2.92670588,0.24355555,0.39713103,0.82333540
28049,0,USMississippiHinds,Mississippi,Hinds,2020-07-18 10:58:00.325240,2020-07-17 00:00:00.000000,0.80809980,2.55500949,7.62579051,1873,5923,17679,704,2824,6930,0.30376375,1.21826801,2.98914611,0.24355554,0.39713103,0.82352933
28049,0,USMississippiHinds,Mississippi,Hinds,2020-07-18 10:58:00.325240,2020-07-18 00:00:00.000000,1.35770649,2.78572904,9.63419424,3147,6458,22335,1112,2865,7098,0.47991750,1.23613049,3.06177238,0.24355554,0.39713103,0.82364177
28049,0,USMississippiHinds,Mississippi,Hinds,2020-07-18 10:58:00.325240,2020-07-19 00:00:00.000000,0.79469867,2.66751993,7.88934973,1842,6184,18290,712,2902,7288,0.30722747,1.25200653,3.14370012,0.24355554,0.39713103,0.82370692
28049,0,USMississippiHinds,Mississippi,Hinds,2020-07-18 10:58:00.325240,2020-07-20 00:00:00.000000,1.35012107,2.81276542,10.08178617,3130,6521,23373,1132,2940,7466,0.48831403,1.26852405,3.22039594,0.24355554,0.39713103,0.82374464
28049,0,USMississippiHinds,Mississippi,Hinds,2020-07-18 10:58:00.325240,2020-07-21 00:00:00.000000,0.77875778,2.77122031,8.15210895,1805,6424,18899,719,2974,7644,0.31033236,1.28311225,3.29715705,0.24355554,0.39713103,0.82376648
28049,0,USMississippiHinds,Mississippi,Hinds,2020-07-18 10:58:00.325240,2020-07-22 00:00:00.000000,1.34303928,2.88081875,10.48975652,3113,6678,24319,1151,3004,7839,0.49673866,1.29573763,3.38127851,0.24355554,0.39713103,0.82377913
28049,0,USMississippiHinds,Mississippi,Hinds,2020-07-18 10:58:00.325240,2020-07-23 00:00:00.000000,0.76634097,2.82606593,8.41278828,1776,6551,19504,725,3040,8078,0.31307645,1.31129321,3.48431542,0.24355554,0.39713103,0.82378644
28049,0,USMississippiHinds,Mississippi,Hinds,2020-07-18 10:58:00.325240,2020-07-24 00:00:00.000000,1.32570380,2.99126629,10.81461374,3073,6934,25072,1175,3065,8356,0.50717261,1.32231249,3.60446363,0.24355554,0.39713103,0.82379068
28049,0,USMississippiHinds,Mississippi,Hinds,2020-07-18 10:58:00.325240,2020-07-25 00:00:00.000000,0.75381661,2.90962399,8.67010981,1747,6745,20100,731,3110,8637,0.31545478,1.34162250,3.72559244,0.24355554,0.39713103,0.82379313
28049,0,USMississippiHinds,Mississippi,Hinds,2020-07-18 10:58:00.325240,2020-07-26 00:00:00.000000,1.27566471,3.07633871,10.99963720,2957,7132,25501,1193,3164,8919,0.51477515,1.36505147,3.84742443,0.24355554,0.39713103,0.82379455
28049,0,USMississippiHinds,Mississippi,Hinds,2020-07-18 10:58:00.325240,2020-07-27 00:00:00.000000,0.74120096,2.97462976,8.92279095,1718,6896,20686,737,3206,9203,0.31801497,1.38317130,3.96966179,0.24355554,0.39713103,0.82379537
28049,0,USMississippiHinds,Mississippi,Hinds,2020-07-18 10:58:00.325240,2020-07-28 00:00:00.000000,1.22592033,3.15318365,11.13114145,2842,7310,25806,1181,3235,9486,0.50981536,1.39574733,4.09198698,0.24355554,0.39713103,0.82379585
28049,0,USMississippiHinds,Mississippi,Hinds,2020-07-18 10:58:00.325240,2020-07-29 00:00:00.000000,0.73213906,2.99943245,9.23829457,1697,6953,21418,748,3264,9769,0.32306745,1.40788764,4.21406367,0.24355554,0.39713103,0.82379612
28049,0,USMississippiHinds,Mississippi,Hinds,2020-07-18 10:58:00.325240,2020-07-30 00:00:00.000000,1.17751550,3.21023583,11.14755234,2729,7442,25844,1178,3304,10051,0.50842070,1.42524288,4.33553799,0.24355554,0.39713103,0.82379628
