FIPS,HR_UID,nameid,province,region,analysisTime,dates,pointprevalence_025,pointprevalence_50,pointprevalence_975,pointinfections_025,pointinfections_50,pointinfections_975,pointinfectious_025,pointinfectious_50,pointinfectious_975,pointinfectiousprevalence_05,pointinfectiousprevalence_50,pointinfectiousprevalence_95,infectrate_025,infectrate_50,infectrate_975
29121,0,USMissouriMacon,Missouri,Macon,2020-07-18 09:36:36.442560,2020-03-09 00:00:00.000000,100.09565942,100.59987679,101.45703737,15131,15207,15337,14714,14817,15116,97.33501363,98.01568088,99.99363580,1.92112252,1.96705367,2.11411952
29121,0,USMissouriMacon,Missouri,Macon,2020-07-18 09:36:36.442560,2020-03-10 00:00:00.000000,97.24449266,97.97186390,99.97701551,14700,14810,15113,14283,14445,15024,94.48507614,95.56081289,99.38567057,1.92112250,1.96716843,2.11400698
29121,0,USMissouriMacon,Missouri,Macon,2020-07-18 09:36:36.442560,2020-03-11 00:00:00.000000,94.40354350,95.51919364,99.37539514,14270,14439,15022,13867,14088,14932,91.73456424,93.19555455,98.78219913,1.92112245,1.96737353,2.11376800
29121,0,USMissouriMacon,Missouri,Macon,2020-07-18 09:36:36.442560,2020-03-12 00:00:00.000000,91.65677386,93.14168494,98.77832442,13855,14080,14932,13463,13750,14843,89.06464414,90.95969149,98.18833570,1.92112237,1.96781450,2.11326109
29121,0,USMissouriMacon,Missouri,Macon,2020-07-18 09:36:36.442560,2020-03-13 00:00:00.000000,88.98919378,90.90741686,98.18477350,13452,13742,14842,13072,13420,14753,86.47244811,88.77918258,97.59804321,1.92112222,1.96866768,2.11218848
29121,0,USMissouriMacon,Missouri,Macon,2020-07-18 09:36:36.442560,2020-03-14 00:00:00.000000,86.39919856,88.72815748,97.59451547,13060,13413,14753,12691,13099,14665,83.95569897,86.65080040,97.01133178,1.92112207,1.97030725,2.10993055
29121,0,USMissouriMacon,Missouri,Macon,2020-07-18 09:36:36.442560,2020-03-15 00:00:00.000000,83.88458174,86.60099855,97.00782590,12680,13091,14664,12322,12784,14577,81.51219907,84.57345413,96.42814501,1.92112231,1.97340162,2.10522876
29121,0,USMissouriMacon,Missouri,Macon,2020-07-18 09:36:36.442560,2020-03-16 00:00:00.000000,81.44315173,84.52484621,96.42466024,12311,12777,14576,11960,12478,14489,79.12143694,82.54590896,95.84846445,1.92112499,1.97912172,2.09565591
29121,0,USMissouriMacon,Missouri,Macon,2020-07-18 09:36:36.442560,2020-03-17 00:00:00.000000,79.05267176,82.49846636,95.84500063,11950,12471,14488,11604,12179,14402,76.76534919,80.56697176,95.27226862,1.92113855,1.98925977,2.07702809
29121,0,USMissouriMacon,Missouri,Macon,2020-07-18 09:36:36.442560,2020-03-18 00:00:00.000000,76.69672210,80.52066654,95.26882562,11594,12172,14401,11257,11887,14315,74.47039320,78.63547715,94.69953661,1.92119551,2.00588675,2.04377191
29121,0,USMissouriMacon,Missouri,Macon,2020-07-18 09:36:36.442560,2020-03-19 00:00:00.000000,74.40381881,78.59028204,94.69611431,11247,11880,14315,10921,11602,14229,72.24406430,76.75028777,94.13024759,1.92141511,1.99252581,2.03028291
29121,0,USMissouriMacon,Missouri,Macon,2020-07-18 09:36:36.442560,2020-03-20 00:00:00.000000,72.17746411,76.70617615,94.12684587,10911,11595,14229,10589,11324,14144,70.05051021,74.91029349,93.56438087,1.92220916,1.92952252,2.05962941
29121,0,USMissouriMacon,Missouri,Macon,2020-07-18 09:36:36.442560,2020-03-21 00:00:00.000000,69.98592539,74.86723940,93.56099960,10579,11317,14143,10268,11052,14059,67.92355631,73.11441083,93.00191588,1.86939235,1.92480953,2.08873252
29121,0,USMissouriMacon,Missouri,Macon,2020-07-18 09:36:36.442560,2020-03-22 00:00:00.000000,67.86093272,73.07238891,92.99855493,10258,11046,14058,9956,10787,13974,65.86118724,71.36158226,92.44283216,1.82576009,1.93153225,2.11212786
29121,0,USMissouriMacon,Missouri,Macon,2020-07-18 09:36:36.442560,2020-03-23 00:00:00.000000,65.80046532,71.32056776,92.43949141,9947,10781,13974,9653,10529,13890,63.86144175,69.65077560,91.88710938,1.79936954,1.94190639,2.12799373
29121,0,USMissouriMacon,Missouri,Macon,2020-07-18 09:36:36.442560,2020-03-24 00:00:00.000000,63.80256375,69.61074438,91.88378872,9645,10523,13890,9360,10276,13807,61.92241819,67.98098345,91.33472736,1.78523281,1.94868738,2.13752456
29121,0,USMissouriMacon,Missouri,Macon,2020-07-18 09:36:36.442560,2020-03-25 00:00:00.000000,61.86532811,67.94191192,91.33142666,9352,10270,13806,9075,10030,13724,60.03721862,66.35122252,90.78566599,1.77823465,1.94730458,2.14279624
29121,0,USMissouriMacon,Missouri,Macon,2020-07-18 09:36:36.442560,2020-03-26 00:00:00.000000,59.98112266,66.31308769,90.78238513,9067,10024,13723,8798,9789,13641,58.20210285,64.76053311,90.23990532,1.77526065,1.93647227,2.14534568
29121,0,USMissouriMacon,Missouri,Macon,2020-07-18 09:36:36.442560,2020-03-27 00:00:00.000000,58.14772173,64.72331252,90.23664418,8790,9784,13641,8529,9555,13559,56.42468795,63.20940944,89.69742550,1.77551397,1.91131671,2.14438366
29121,0,USMissouriMacon,Missouri,Macon,2020-07-18 09:36:36.442560,2020-03-28 00:00:00.000000,56.37303957,63.17320676,89.69418398,8521,9549,13559,8271,9326,13478,54.71757326,61.69667998,89.15820682,1.78114098,1.86296317,2.12634274
29121,0,USMissouriMacon,Missouri,Macon,2020-07-18 09:36:36.442560,2020-03-29 00:00:00.000000,54.66748750,61.66134369,89.15498478,8264,9321,13477,8021,9103,13397,53.06210695,60.22015320,88.62222967,1.78627072,1.79492134,2.01179357
29121,0,USMissouriMacon,Missouri,Macon,2020-07-18 09:36:36.442560,2020-03-30 00:00:00.000000,53.01353652,60.18566258,88.61902700,8014,9098,13396,7778,8885,13316,51.45672640,58.77896270,88.08947456,1.69450548,1.71139901,1.80766225
29121,0,USMissouriMacon,Missouri,Macon,2020-07-18 09:36:36.442560,2020-03-31 00:00:00.000000,51.40962546,58.74529752,88.08629114,7771,8880,13316,7543,8672,13236,49.89991627,57.37226281,87.55992213,1.58236507,1.61797740,1.81307297
29121,0,USMissouriMacon,Missouri,Macon,2020-07-18 09:36:36.442560,2020-04-01 00:00:00.000000,49.85424036,57.33940331,87.55675784,7536,8667,13235,7315,8465,13156,48.39020708,55.99922811,87.03355311,1.56128319,1.57830270,1.81414549
29121,0,USMissouriMacon,Missouri,Macon,2020-07-18 09:36:36.442560,2020-04-02 00:00:00.000000,48.34591309,55.96715500,87.03040785,7308,8460,13156,7093,8262,13077,46.92617380,54.65905292,86.51034838,1.55645643,1.57798934,1.81151189
29121,0,USMissouriMacon,Missouri,Macon,2020-07-18 09:36:36.442560,2020-04-03 00:00:00.000000,46.88321991,54.62774738,86.50722202,7087,8258,13077,6879,8065,12999,45.50643451,53.35095084,85.99028890,1.52848062,1.60714211,1.79402227
29121,0,USMissouriMacon,Missouri,Macon,2020-07-18 09:36:36.442560,2020-04-04 00:00:00.000000,45.46478018,53.32039451,85.98718134,6872,8060,12998,6671,7872,12921,44.12964910,52.07415430,85.47335578,1.38344315,1.64610229,1.71691651
29121,0,USMissouriMacon,Missouri,Macon,2020-07-18 09:36:36.442560,2020-04-05 00:00:00.000000,44.08925502,52.04432924,85.47026690,6664,7867,12920,6469,7683,12843,42.79451802,50.82791409,84.95953022,1.30270273,1.57820356,1.67664671
29121,0,USMissouriMacon,Missouri,Macon,2020-07-18 09:36:36.442560,2020-04-06 00:00:00.000000,42.75534606,50.79880280,84.95645991,6463,7679,12842,6273,7499,12766,41.49978102,49.61149894,84.44879353,1.29237540,1.50898674,1.69426345
29121,0,USMissouriMacon,Missouri,Macon,2020-07-18 09:36:36.442560,2020-04-07 00:00:00.000000,41.46179420,49.58308434,84.44574168,6267,7495,12765,6083,7320,12689,40.24421599,48.42419507,83.94112716,1.28958695,1.49334780,1.70310125
29121,0,USMissouriMacon,Missouri,Macon,2020-07-18 09:36:36.442560,2020-04-08 00:00:00.000000,40.20737845,48.39646049,83.93809365,6078,7316,12688,5899,7145,12613,39.02663779,47.26530579,83.43651263,1.28642890,1.48819541,1.70788383
29121,0,USMissouriMacon,Missouri,Macon,2020-07-18 09:36:36.442560,2020-04-09 00:00:00.000000,38.99091476,47.23823496,83.43349736,5894,7141,12612,5721,6974,12537,37.84589713,46.13415109,82.93493161,1.28230763,1.47810069,1.71194273
29121,0,USMissouriMacon,Missouri,Macon,2020-07-18 09:36:36.442560,2020-04-10 00:00:00.000000,37.81125489,46.10772812,82.93193447,5715,6970,12536,5548,6807,12461,36.70087950,45.03006721,82.43636586,1.27797602,1.45967537,1.71814955
29121,0,USMissouriMacon,Missouri,Macon,2020-07-18 09:36:36.442560,2020-04-11 00:00:00.000000,36.66728535,45.00427660,82.43338674,5542,6803,12461,5380,6644,12386,35.59050411,43.95240630,81.94079725,1.27774608,1.44723619,1.73017071
29121,0,USMissouriMacon,Missouri,Macon,2020-07-18 09:36:36.442560,2020-04-12 00:00:00.000000,35.55792635,43.92723291,81.93783603,5375,6640,12386,5217,6485,12312,34.51372286,42.90053601,81.44820777,1.29472756,1.44360719,1.75264276
29121,0,USMissouriMacon,Missouri,Macon,2020-07-18 09:36:36.442560,2020-04-13 00:00:00.000000,34.48213073,42.87596507,81.44526435,5212,6481,12312,5059,6330,12238,33.46951937,41.87383910,80.95857950,1.33669743,1.44332837,1.78776025
29121,0,USMissouriMacon,Missouri,Macon,2020-07-18 09:36:36.442560,2020-04-14 00:00:00.000000,33.43888306,41.84985619,80.95565378,5054,6326,12238,4906,6178,12164,32.45690802,40.87171314,80.47189465,1.36480315,1.44492026,1.82899658
29121,0,USMissouriMacon,Missouri,Macon,2020-07-18 09:36:36.442560,2020-04-15 00:00:00.000000,32.42719860,40.84830419,80.46898651,4902,6175,12164,4758,6030,12091,31.47493297,39.89357008,79.98813551,1.35778902,1.45030173,1.86381841
29121,0,USMissouriMacon,Missouri,Macon,2020-07-18 09:36:36.442560,2020-04-16 00:00:00.000000,31.44612240,39.87072136,79.98524486,4753,6027,12091,4614,5886,12019,30.52266735,38.93883598,79.50728451,1.33837712,1.46580341,1.88652538
29121,0,USMissouriMacon,Missouri,Macon,2020-07-18 09:36:36.442560,2020-04-17 00:00:00.000000,30.49472844,38.91653407,79.50441124,4609,5883,12018,4474,5745,11946,29.59921229,38.00695060,79.02932416,1.31727005,1.50257085,1.90350504
29121,0,USMissouriMacon,Missouri,Macon,2020-07-18 09:36:36.442560,2020-04-18 00:00:00.000000,29.57211866,37.98518242,79.02646816,4470,5742,11946,4339,5608,11875,28.70369614,37.09736712,78.55423708,1.29826619,1.56098843,1.92046985
29121,0,USMissouriMacon,Missouri,Macon,2020-07-18 09:36:36.442560,2020-04-19 00:00:00.000000,28.67742223,37.07611990,78.55139825,4335,5604,11874,4207,5473,11803,27.83527361,36.20955183,78.08200600,1.28262197,1.61293749,1.92534224
29121,0,USMissouriMacon,Missouri,Macon,2020-07-18 09:36:36.442560,2020-04-20 00:00:00.000000,27.80979461,36.18881310,78.07918424,4204,5470,11803,4080,5342,11732,26.99312500,35.34298376,77.61261375,1.27049851,1.64020124,1.92239241
29121,0,USMissouriMacon,Missouri,Macon,2020-07-18 09:36:36.442560,2020-04-21 00:00:00.000000,26.96841686,35.32274135,77.60980895,4076,5339,11732,3957,5214,11662,26.17645539,34.49715442,77.14604327,1.26152961,1.65066978,1.91246992
29121,0,USMissouriMacon,Missouri,Macon,2020-07-18 09:36:36.442560,2020-04-22 00:00:00.000000,26.15249479,34.47739645,77.14325533,3953,5211,11661,3837,5090,11592,25.38449391,33.67156749,76.68227759,1.25509881,1.65419483,1.89332448
29121,0,USMissouriMacon,Missouri,Macon,2020-07-18 09:36:36.442560,2020-04-23 00:00:00.000000,25.36125823,33.65228237,76.67950641,3833,5087,11591,3721,4968,11522,24.61649304,32.86573854,76.22129985,1.25058362,1.65531206,1.86852221
29121,0,USMissouriMacon,Missouri,Macon,2020-07-18 09:36:36.442560,2020-04-24 00:00:00.000000,24.59396035,32.84691495,76.21854533,3717,4965,11521,3608,4849,11453,23.87172784,32.07919471,75.76309329,1.24742530,1.65553709,1.84804274
29121,0,USMissouriMacon,Missouri,Macon,2020-07-18 09:36:36.442560,2020-04-25 00:00:00.000000,23.84987687,32.06082160,75.76035533,3605,4846,11452,3499,4733,11384,23.14949532,31.31147447,75.30764125,1.24473230,1.65462661,1.83620951
29121,0,USMissouriMacon,Missouri,Macon,2020-07-18 09:36:36.442560,2020-04-26 00:00:00.000000,23.12830546,31.29354107,75.30491975,3496,4730,11383,3393,4620,11315,22.44911378,30.56203342,74.85492718,1.23448648,1.64709545,1.82999288
29121,0,USMissouriMacon,Missouri,Macon,2020-07-18 09:36:36.442560,2020-04-27 00:00:00.000000,22.42856500,30.54450410,74.85222203,3390,4617,11315,3290,4509,11247,21.76992210,29.83009654,74.40493461,1.15891667,1.60290133,1.82519734
29121,0,USMissouriMacon,Missouri,Macon,2020-07-18 09:36:36.442560,2020-04-28 00:00:00.000000,21.74999502,29.81298703,74.40224573,3287,4506,11247,3191,4401,11180,21.11127919,29.11568897,73.95764718,1.08366924,1.50071604,1.81799585
29121,0,USMissouriMacon,Missouri,Macon,2020-07-18 09:36:36.442560,2020-04-29 00:00:00.000000,21.09195501,29.09898922,73.95497446,3188,4398,11179,3094,4296,11112,20.47256336,28.41839090,73.51304863,1.07154510,1.44827272,1.80351967
29121,0,USMissouriMacon,Missouri,Macon,2020-07-18 09:36:36.442560,2020-04-30 00:00:00.000000,20.45382383,28.40209110,73.51039198,3092,4293,11112,3001,4193,11046,19.85317172,27.73779258,73.07112281,1.06350723,1.43865222,1.77499059
29121,0,USMissouriMacon,Missouri,Macon,2020-07-18 09:36:36.442560,2020-05-01 00:00:00.000000,19.83499914,27.72188315,73.06848213,2998,4190,11045,2910,4092,10979,19.25251961,27.07349406,72.63185363,1.05706776,1.43714638,1.72754449
29121,0,USMissouriMacon,Missouri,Macon,2020-07-18 09:36:36.442560,2020-05-02 00:00:00.000000,19.23489684,27.05796565,72.62922882,2907,4090,10979,2822,3994,10913,18.67004008,26.42510498,72.19522513,1.05457485,1.43627264,1.66828376
29121,0,USMissouriMacon,Missouri,Macon,2020-07-18 09:36:36.442560,2020-05-03 00:00:00.000000,18.65295049,26.40994846,72.19261610,2819,3992,10913,2736,3899,10848,18.10518332,25.79224430,71.76122143,1.05390891,1.43365853,1.61587797
29121,0,USMissouriMacon,Missouri,Macon,2020-07-18 09:36:36.442560,2020-05-04 00:00:00.000000,18.08861077,25.77745077,71.75862809,2734,3896,10847,2654,3805,10782,17.55741616,25.17454015,71.32982677,1.05367392,1.42457254,1.58102352
29121,0,USMissouriMacon,Missouri,Macon,2020-07-18 09:36:36.442560,2020-05-05 00:00:00.000000,17.54134500,25.16010091,71.32724901,2651,3803,10782,2573,3714,10718,17.02622155,24.57162953,70.90102544,1.05318127,1.39797829,1.55841247
29121,0,USMissouriMacon,Missouri,Macon,2020-07-18 09:36:36.442560,2020-05-06 00:00:00.000000,17.01063662,24.55753610,70.89846318,2571,3712,10717,2495,3625,10653,16.51109810,23.98315815,70.47480186,1.04980485,1.34774523,1.53383726
29121,0,USMissouriMacon,Missouri,Macon,2020-07-18 09:36:36.442560,2020-05-07 00:00:00.000000,16.49598469,23.96940224,70.47225501,2493,3623,10653,2420,3538,10589,16.01155957,23.40878020,70.05114055,1.02853151,1.29519807,1.49940630
29121,0,USMissouriMacon,Missouri,Macon,2020-07-18 09:36:36.442560,2020-05-08 00:00:00.000000,15.99690342,23.39535373,70.04860900,2418,3536,10589,2347,3453,10525,15.52713446,22.84815815,69.63002608,0.97619381,1.24838783,1.47270702
29121,0,USMissouriMacon,Missouri,Macon,2020-07-18 09:36:36.442560,2020-05-09 00:00:00.000000,15.51292172,22.83505324,69.62750975,2345,3451,10525,2276,3371,10462,15.05736549,22.30096257,69.21144315,0.95056945,1.20510799,1.45977710
29121,0,USMissouriMacon,Missouri,Macon,2020-07-18 09:36:36.442560,2020-05-10 00:00:00.000000,15.04358276,22.28817151,69.20894196,2274,3369,10462,2207,3290,10399,14.60180927,21.76687189,68.79537655,0.94598813,1.17848703,1.45097160
29121,0,USMissouriMacon,Missouri,Macon,2020-07-18 09:36:36.442560,2020-05-11 00:00:00.000000,14.58844353,21.75438717,68.79289039,2205,3288,10399,2140,3211,10337,14.16003578,21.24557227,68.38181115,0.94560950,1.16525253,1.44029781
29121,0,USMissouriMacon,Missouri,Macon,2020-07-18 09:36:36.442560,2020-05-12 00:00:00.000000,14.14707442,21.23338655,68.37933993,2138,3209,10336,2075,3134,10275,13.73162803,20.73675737,67.97073190,0.94605662,1.15238703,1.42481775
29121,0,USMissouriMacon,Missouri,Macon,2020-07-18 09:36:36.442560,2020-05-13 00:00:00.000000,13.71905881,20.72486348,67.96827554,2073,3132,10274,2013,3059,10213,13.31618164,20.24012818,67.56212387,0.94702144,1.12648161,1.40265178
29121,0,USMissouriMacon,Missouri,Macon,2020-07-18 09:36:36.442560,2020-05-14 00:00:00.000000,13.30399270,20.22851915,67.55968228,2011,3057,10212,1952,2986,10151,12.91330448,19.75539288,67.15597220,0.94832862,1.07464228,1.37304557
29121,0,USMissouriMacon,Missouri,Macon,2020-07-18 09:36:36.442560,2020-05-15 00:00:00.000000,12.90148431,19.74406188,67.15354528,1950,2984,10151,1893,2914,10090,12.52261626,19.28226662,66.75226212,0.94910836,1.00275350,1.33725997
29121,0,USMissouriMacon,Missouri,Macon,2020-07-18 09:36:36.442560,2020-05-16 00:00:00.000000,12.51115370,19.27120698,66.74984979,1891,2913,10090,1835,2845,10030,12.14374820,18.82047136,66.35097896,0.94268016,0.94846343,1.29892687
29121,0,USMissouriMacon,Missouri,Macon,2020-07-18 09:36:36.442560,2020-05-17 00:00:00.000000,12.13263244,18.80967659,66.34858113,1834,2843,10029,1780,2776,9969,11.77634270,18.36973573,65.95210812,0.91038131,0.94486149,1.26283197
29121,0,USMissouriMacon,Missouri,Macon,2020-07-18 09:36:36.442560,2020-05-18 00:00:00.000000,11.76556325,18.35919949,65.94972471,1778,2775,9969,1726,2710,9910,11.42005295,17.92979488,65.55563510,0.89647017,0.93762883,1.23272690
29121,0,USMissouriMacon,Missouri,Macon,2020-07-18 09:36:36.442560,2020-05-19 00:00:00.000000,11.40959963,17.91951097,65.55326602,1724,2708,9909,1674,2645,9850,11.07454265,17.50039026,65.16154550,0.88994686,0.92643790,1.21002004
29121,0,USMissouriMacon,Missouri,Macon,2020-07-18 09:36:36.442560,2020-05-20 00:00:00.000000,11.06440559,17.49035264,65.15919066,1672,2644,9850,1623,2582,9791,10.73948567,17.08126955,64.76982497,0.88442601,0.91159108,1.19409320
29121,0,USMissouriMacon,Missouri,Macon,2020-07-18 09:36:36.442560,2020-05-21 00:00:00.000000,10.72965531,17.07147233,64.76748429,1622,2580,9790,1574,2520,9732,10.41456575,16.67218645,64.38045929,0.87588794,0.89430467,1.18336713
29121,0,USMissouriMacon,Missouri,Macon,2020-07-18 09:36:36.442560,2020-05-22 00:00:00.000000,10.40503280,16.66262387,64.37813268,1572,2518,9732,1526,2459,9673,10.09947620,16.27290058,63.99343429,0.86197039,0.87661252,1.17613800
29121,0,USMissouriMacon,Missouri,Macon,2020-07-18 09:36:36.442560,2020-05-23 00:00:00.000000,10.09023166,16.26356701,63.99112166,1525,2458,9673,1480,2401,9615,9.79391959,15.88317729,63.60873590,0.84460912,0.86063471,1.17086340
29121,0,USMissouriMacon,Missouri,Macon,2020-07-18 09:36:36.442560,2020-05-24 00:00:00.000000,9.78495475,15.87406725,63.60643717,1479,2399,9615,1435,2343,9557,9.49760751,15.50278757,63.22635013,0.82942864,0.84772857,1.16552164
29121,0,USMissouriMacon,Missouri,Macon,2020-07-18 09:36:36.442560,2020-05-25 00:00:00.000000,9.48891390,15.49389571,63.22406523,1434,2342,9557,1392,2287,9500,9.21026028,15.13150789,62.84626309,0.82009475,0.83820466,1.15200845
29121,0,USMissouriMacon,Missouri,Macon,2020-07-18 09:36:36.442560,2020-05-26 00:00:00.000000,9.20182969,15.12282898,62.84399192,1391,2286,9500,1350,2232,9443,8.93160665,14.76912006,62.46846095,0.81594671,0.83163452,1.08523411
29121,0,USMissouriMacon,Missouri,Macon,2020-07-18 09:36:36.442560,2020-05-27 00:00:00.000000,8.92343113,14.76064901,62.46620344,1348,2231,9443,1309,2179,9386,8.66138362,14.41541114,62.09292998,0.81716366,0.82731379,0.91827268
29121,0,USMissouriMacon,Missouri,Macon,2020-07-18 09:36:36.442560,2020-05-28 00:00:00.000000,8.65345544,14.40714297,62.09068604,1308,2177,9386,1269,2126,9330,8.39933611,14.07017328,61.71965653,0.82224172,0.82982298,0.83816933
29121,0,USMissouriMacon,Missouri,Macon,2020-07-18 09:36:36.442560,2020-05-29 00:00:00.000000,8.39164780,14.06210312,61.71742608,1268,2125,9329,1231,2076,9274,8.14521677,13.73320359,61.34862702,0.81161343,0.82294649,0.90839594
29121,0,USMissouriMacon,Missouri,Macon,2020-07-18 09:36:36.442560,2020-05-30 00:00:00.000000,8.13776107,13.72532671,61.34640998,1230,2074,9273,1194,2026,9218,7.89878574,13.40430407,60.97982797,0.80628181,0.82251168,0.96419419
29121,0,USMissouriMacon,Missouri,Macon,2020-07-18 09:36:36.442560,2020-05-31 00:00:00.000000,7.89155561,13.39661583,60.97762425,1192,2025,9217,1157,1977,9162,7.65981042,13.08328143,60.61324596,0.80328152,0.82479389,0.97730624
29121,0,USMissouriMacon,Missouri,Macon,2020-07-18 09:36:36.442560,2020-06-01 00:00:00.000000,7.65279903,13.07577731,60.61105549,1156,1976,9162,1122,1930,9107,7.42806522,12.76994703,60.24886767,0.80130008,0.83744255,0.98048450
29121,0,USMissouriMacon,Missouri,Macon,2020-07-18 09:36:36.442560,2020-06-02 00:00:00.000000,7.42126596,12.76262264,60.24669037,1121,1929,9107,1088,1884,9053,7.20333141,12.46411675,59.88667985,0.80012202,0.88331231,0.98347275
29121,0,USMissouriMacon,Missouri,Macon,2020-07-18 09:36:36.442560,2020-06-03 00:00:00.000000,7.19673787,12.45696777,59.88451564,1087,1883,9052,1055,1839,8998,6.98539686,12.16561087,59.52666933,0.79980779,0.96846641,0.98879497
29121,0,USMissouriMacon,Missouri,Macon,2020-07-18 09:36:36.442560,2020-06-04 00:00:00.000000,6.97900280,12.15863310,59.52451813,1055,1838,8998,1024,1795,8944,6.77405586,11.87425397,59.16882303,0.80099072,0.99856806,1.03245289
29121,0,USMissouriMacon,Missouri,Macon,2020-07-18 09:36:36.442560,2020-06-05 00:00:00.000000,6.76785525,11.86744331,59.16668476,1023,1794,8944,993,1752,8890,6.56910892,11.58987484,58.81312793,0.80584681,1.01658301,1.05334608
29121,0,USMissouriMacon,Missouri,Macon,2020-07-18 09:36:36.442560,2020-06-06 00:00:00.000000,6.56309591,11.58322729,58.81100252,992,1751,8890,963,1710,8837,6.37036259,11.31230636,58.45957110,0.81999249,1.04694576,1.05644244
29121,0,USMissouriMacon,Missouri,Macon,2020-07-18 09:36:36.442560,2020-06-07 00:00:00.000000,6.36453150,11.30581802,58.45745846,962,1709,8837,933,1669,8784,6.17762928,11.04138544,58.10813969,0.85222564,1.04881893,1.09309215
29121,0,USMissouriMacon,Missouri,Macon,2020-07-18 09:36:36.442560,2020-06-08 00:00:00.000000,6.17197460,11.03505249,58.10603975,933,1668,8783,905,1629,8731,5.99072705,10.77695286,57.75882092,0.90073322,1.03558243,1.15165602
29121,0,USMissouriMacon,Missouri,Macon,2020-07-18 09:36:36.442560,2020-06-09 00:00:00.000000,5.98524346,10.77077158,57.75673361,904,1628,8731,878,1590,8678,5.80947950,10.51885324,57.41160209,0.94223009,1.00986822,1.21184876
29121,0,USMissouriMacon,Missouri,Macon,2020-07-18 09:36:36.442560,2020-06-10 00:00:00.000000,5.80416181,10.51281999,57.40952732,877,1589,8678,851,1552,8626,5.63371554,10.26693490,57.06647058,0.96368983,0.97541945,1.26077865
29121,0,USMissouriMacon,Missouri,Macon,2020-07-18 09:36:36.442560,2020-06-11 00:00:00.000000,5.62855874,10.26104614,57.06440828,850,1551,8626,825,1514,8574,5.46326927,10.02104981,56.72341383,0.94514033,0.97382550,1.29177670
29121,0,USMissouriMacon,Missouri,Macon,2020-07-18 09:36:36.442560,2020-06-12 00:00:00.000000,5.45826848,10.01530208,56.72136393,825,1514,8574,800,1478,8523,5.29797980,9.78105347,56.38241938,0.92780495,0.99611304,1.30457211
29121,0,USMissouriMacon,Missouri,Macon,2020-07-18 09:36:36.442560,2020-06-13 00:00:00.000000,5.29313031,9.77544340,56.38038181,800,1477,8523,776,1443,8472,5.13769112,9.54680487,56.04347483,0.91999033,1.07035900,1.30103895
29121,0,USMissouriMacon,Missouri,Macon,2020-07-18 09:36:36.442560,2020-06-14 00:00:00.000000,5.13298835,9.54132915,56.04144950,775,1442,8471,753,1408,8421,4.98225192,9.31816633,55.70656785,0.91663361,1.12096426,1.28050158
29121,0,USMissouriMacon,Missouri,Macon,2020-07-18 09:36:36.442560,2020-06-15 00:00:00.000000,4.97769143,9.31282175,55.70455470,752,1407,8420,730,1374,8370,4.83151549,9.09500350,55.37168620,0.91464294,1.12526545,1.23731494
29121,0,USMissouriMacon,Missouri,Macon,2020-07-18 09:36:36.442560,2020-06-16 00:00:00.000000,4.82709298,9.08978693,55.36968515,729,1374,8370,708,1341,8320,4.68533955,8.87718526,55.03881770,0.91201018,1.11850720,1.15472071
29121,0,USMissouriMacon,Missouri,Macon,2020-07-18 09:36:36.442560,2020-06-17 00:00:00.000000,4.68105084,8.87209361,55.03682868,707,1341,8319,686,1309,8270,4.54358611,8.66458359,54.70795025,0.90653627,1.03131223,1.10788987
29121,0,USMissouriMacon,Missouri,Macon,2020-07-18 09:36:36.442560,2020-06-18 00:00:00.000000,4.53942716,8.65961388,54.70597318,686,1309,8269,666,1278,8220,4.40612139,8.45707356,54.37907181,0.89564589,0.93573015,1.09371211
29121,0,USMissouriMacon,Missouri,Macon,2020-07-18 09:36:36.442560,2020-06-19 00:00:00.000000,4.40208826,8.45222288,54.37710664,665,1277,8220,645,1247,8171,4.27281562,8.25453324,54.05217044,0.87550569,0.87950252,1.07541722
29121,0,USMissouriMacon,Missouri,Macon,2020-07-18 09:36:36.442560,2020-06-20 00:00:00.000000,4.26890451,8.24979873,54.05021708,645,1247,8170,626,1217,8121,4.14354298,8.05684360,53.72723425,0.83577295,0.86211247,1.05254014
29121,0,USMissouriMacon,Missouri,Macon,2020-07-18 09:36:36.442560,2020-06-21 00:00:00.000000,4.13975020,8.05222248,53.72529263,625,1217,8121,607,1188,8073,4.01818144,7.86388847,53.40425142,0.81039933,0.85141908,1.02535532
29121,0,USMissouriMacon,Missouri,Macon,2020-07-18 09:36:36.442560,2020-06-22 00:00:00.000000,4.01450341,7.85937802,53.40232147,606,1188,8072,589,1160,8024,3.89661268,7.67555447,53.08321021,0.79518819,0.84883264,0.99577294
29121,0,USMissouriMacon,Missouri,Macon,2020-07-18 09:36:36.442560,2020-06-23 00:00:00.000000,3.89304593,7.67115204,53.08129186,588,1159,8024,571,1132,7976,3.77872194,7.49173092,52.76409895,0.78653832,0.85452580,0.96741251
29121,0,USMissouriMacon,Missouri,Macon,2020-07-18 09:36:36.442560,2020-06-24 00:00:00.000000,3.77526310,7.48743393,52.76219213,570,1131,7976,553,1105,7928,3.66439795,7.31230981,52.44690603,0.78179800,0.86848078,0.94377022
29121,0,USMissouriMacon,Missouri,Macon,2020-07-18 09:36:36.442560,2020-06-25 00:00:00.000000,3.66104376,7.30811572,52.44501068,553,1104,7928,537,1078,7880,3.55353280,7.13718568,52.13161993,0.77971513,0.88434575,0.92623366
29121,0,USMissouriMacon,Missouri,Macon,2020-07-18 09:36:36.442560,2020-06-26 00:00:00.000000,3.55028009,7.13309204,52.12973598,536,1078,7880,520,1053,7833,3.44602185,6.96625565,51.81822919,0.78006557,0.89431340,0.91416061
29121,0,USMissouriMacon,Missouri,Macon,2020-07-18 09:36:36.442560,2020-06-27 00:00:00.000000,3.44286754,6.96226005,51.81635655,520,1052,7833,505,1027,7786,3.34176360,6.79941925,51.50672240,0.78356041,0.89854362,0.90614401
29121,0,USMissouriMacon,Missouri,Macon,2020-07-18 09:36:36.442560,2020-06-28 00:00:00.000000,3.33870473,6.79551934,51.50486102,504,1027,7785,489,1003,7739,3.24065965,6.63657846,51.19708824,0.79016602,0.90003468,0.90187803
29121,0,USMissouriMacon,Missouri,Macon,2020-07-18 09:36:36.442560,2020-06-29 00:00:00.000000,3.23769333,6.63277195,51.19523805,489,1002,7739,475,979,7692,3.14261458,6.47763758,50.88931545,0.79671301,0.89755589,0.90225385
29121,0,USMissouriMacon,Missouri,Macon,2020-07-18 09:36:36.442560,2020-06-30 00:00:00.000000,3.13973800,6.47392223,50.88747639,474,978,7692,460,955,7646,3.04753583,6.32250320,50.58339285,0.80047150,0.89602642,0.90228808
29121,0,USMissouriMacon,Missouri,Macon,2020-07-18 09:36:36.442560,2020-07-01 00:00:00.000000,3.04474628,6.31887684,50.58156485,460,955,7646,446,932,7600,2.95533365,6.17108418,50.27930932,0.80200904,0.89890792,0.90210089
29121,0,USMissouriMacon,Missouri,Macon,2020-07-18 09:36:36.442560,2020-07-02 00:00:00.000000,2.95262850,6.16754466,50.27749230,446,932,7600,433,910,7555,2.86592103,6.02329152,49.97705379,0.80254102,0.90047917,0.91878633
29121,0,USMissouriMacon,Missouri,Macon,2020-07-18 09:36:36.442560,2020-07-03 00:00:00.000000,2.86329772,6.01983677,49.97524769,432,910,7554,420,888,7509,2.77921355,5.87903838,49.67661528,0.80267625,0.90014623,0.96717229
29121,0,USMissouriMacon,Missouri,Macon,2020-07-18 09:36:36.442560,2020-07-04 00:00:00.000000,2.77666961,5.87566637,49.67482004,419,888,7509,407,867,7464,2.69512939,5.73823999,49.37798286,0.80211321,0.89951174,1.00063516
29121,0,USMissouriMacon,Missouri,Macon,2020-07-18 09:36:36.442560,2020-07-05 00:00:00.000000,2.69266241,5.73494874,49.37619842,407,866,7464,395,846,7419,2.61358916,5.60081362,49.08114568,0.79362453,0.89854016,1.00912415
29121,0,USMissouriMacon,Missouri,Macon,2020-07-18 09:36:36.442560,2020-07-06 00:00:00.000000,2.61119683,5.59760119,49.07937196,394,846,7419,383,826,7374,2.53451591,5.46667849,48.78609295,0.76430102,0.89744264,1.01048591
29121,0,USMissouriMacon,Missouri,Macon,2020-07-18 09:36:36.442560,2020-07-07 00:00:00.000000,2.53219595,5.46354300,48.78432989,382,825,7374,371,806,7330,2.45783500,5.33575580,48.49281393,0.75554947,0.89660233,1.01058682
29121,0,USMissouriMacon,Missouri,Macon,2020-07-18 09:36:36.442560,2020-07-08 00:00:00.000000,2.45558523,5.33269540,48.49106148,371,806,7330,360,787,7286,2.38347404,5.20796861,48.20129797,0.75491649,0.89610308,1.01051472
29121,0,USMissouriMacon,Missouri,Macon,2020-07-18 09:36:36.442560,2020-07-09 00:00:00.000000,2.38129234,5.20498150,48.19955605,359,786,7286,349,768,7242,2.31136285,5.08324182,47.91153447,0.75487895,0.89584396,1.01044154
29121,0,USMissouriMacon,Missouri,Macon,2020-07-18 09:36:36.442560,2020-07-10 00:00:00.000000,2.30924715,5.08032625,47.90980302,349,767,7242,338,750,7199,2.24143336,4.96150214,47.62351289,0.75487657,0.89572380,1.01038726
29121,0,USMissouriMacon,Missouri,Macon,2020-07-18 09:36:36.442560,2020-07-11 00:00:00.000000,2.23938167,4.95865639,47.62179185,338,749,7198,328,732,7155,2.17361957,4.84267803,47.33722275,0.75487631,0.89567057,1.01034923
29121,0,USMissouriMacon,Missouri,Macon,2020-07-18 09:36:36.442560,2020-07-12 00:00:00.000000,2.17162995,4.83990044,47.33551206,328,731,7155,318,714,7112,2.10785746,4.72669966,47.05265366,0.75487622,0.89564745,1.01032291
29121,0,USMissouriMacon,Missouri,Macon,2020-07-18 09:36:36.442560,2020-07-13 00:00:00.000000,2.10592804,4.72398859,47.05095325,318,714,7112,309,697,7070,2.04408496,4.61349889,46.76979527,0.75487618,0.89563750,1.01030474
29121,0,USMissouriMacon,Missouri,Macon,2020-07-18 09:36:36.442560,2020-07-14 00:00:00.000000,2.04221392,4.61085275,46.76810508,308,697,7069,299,680,7027,1.98224188,4.50300919,46.48863729,0.75487615,0.89563324,1.01029221
29121,0,USMissouriMacon,Missouri,Macon,2020-07-18 09:36:36.442560,2020-07-15 00:00:00.000000,1.98042744,4.50042642,46.48695726,299,680,7027,290,664,6985,1.92226984,4.39516562,46.20916949,0.75487614,0.89563142,1.01028356
29121,0,USMissouriMacon,Missouri,Macon,2020-07-18 09:36:36.442560,2020-07-16 00:00:00.000000,1.92051030,4.39264471,46.20749956,290,664,6985,281,648,6943,1.86411224,4.28990483,45.93138173,0.75487613,0.89563064,1.01027760
29121,0,USMissouriMacon,Missouri,Macon,2020-07-18 09:36:36.442560,2020-07-17 00:00:00.000000,1.86240593,4.28744429,45.92972184,281,648,6943,273,632,6901,1.80771417,4.18716495,45.65526389,0.75487613,0.89563030,1.01027348
29121,0,USMissouriMacon,Missouri,Macon,2020-07-18 09:36:36.442560,2020-07-18 00:00:00.000000,1.80605949,4.18476334,45.65361398,273,632,6901,265,617,6860,1.75302241,4.08688562,45.38080594,0.75487612,0.89563016,1.01027064
29121,0,USMissouriMacon,Missouri,Macon,2020-07-18 09:36:36.442560,2020-07-19 00:00:00.000000,1.75141779,4.08454152,45.37916595,264,617,6859,256,603,6818,1.69998534,3.98900789,45.10799791,0.75487612,0.89563010,1.01026867
29121,0,USMissouriMacon,Missouri,Macon,2020-07-18 09:36:36.442560,2020-07-20 00:00:00.000000,1.69842926,3.98671993,45.10636778,256,602,6818,249,588,6777,1.64855288,3.89347426,44.83682987,0.75487612,0.89563007,1.01026732
29121,0,USMissouriMacon,Missouri,Macon,2020-07-18 09:36:36.442560,2020-07-21 00:00:00.000000,1.64704388,3.89124110,44.83520954,248,588,6777,241,574,6737,1.59867649,3.80022858,44.56729196,0.75487612,0.89563006,1.01026639
29121,0,USMissouriMacon,Missouri,Macon,2020-07-18 09:36:36.442560,2020-07-22 00:00:00.000000,1.59721315,3.79804891,44.56568137,241,574,6736,234,560,6696,1.55030910,3.70921607,44.29937439,0.75487612,0.89563006,1.01026574
29121,0,USMissouriMacon,Missouri,Macon,2020-07-18 09:36:36.442560,2020-07-23 00:00:00.000000,1.54889004,3.70708859,44.29777348,234,560,6696,227,547,6656,1.50340505,3.62038324,44.03306742,0.75487612,0.89563005,1.01026529
29121,0,USMissouriMacon,Missouri,Macon,2020-07-18 09:36:36.442560,2020-07-24 00:00:00.000000,1.50202892,3.61830671,44.03147613,227,546,6656,220,534,6616,1.45792007,3.53367788,43.76836135,0.75487612,0.89563005,1.01026499
29121,0,USMissouriMacon,Missouri,Macon,2020-07-18 09:36:36.442560,2020-07-25 00:00:00.000000,1.45658557,3.53165108,43.76677963,220,533,6616,213,521,6576,1.41381121,3.44904905,43.50524658,0.75487612,0.89563005,1.01026477
29121,0,USMissouriMacon,Missouri,Macon,2020-07-18 09:36:36.442560,2020-07-26 00:00:00.000000,1.41251709,3.44707079,43.50367436,213,521,6576,207,508,6537,1.37103686,3.36644701,43.24371352,0.75487612,0.89563005,1.01026463
29121,0,USMissouriMacon,Missouri,Macon,2020-07-18 09:36:36.442560,2020-07-27 00:00:00.000000,1.36978189,3.36451613,43.24215076,207,508,6536,200,496,6497,1.32955663,3.28582323,42.98375268,0.75487612,0.89563005,1.01026453
29121,0,USMissouriMacon,Missouri,Macon,2020-07-18 09:36:36.442560,2020-07-28 00:00:00.000000,1.32833963,3.28393859,42.98219931,200,496,6497,194,484,6458,1.28933137,3.20713032,42.72535460,0.75487612,0.89563005,1.01026446
29121,0,USMissouriMacon,Missouri,Macon,2020-07-18 09:36:36.442560,2020-07-29 00:00:00.000000,1.28815119,3.20529082,42.72381057,194,484,6458,189,473,6419,1.25032312,3.13032205,42.46850989,0.75487612,0.89563005,1.01026441
29121,0,USMissouriMacon,Missouri,Macon,2020-07-18 09:36:36.442560,2020-07-30 00:00:00.000000,1.24917864,3.12852661,42.46697514,188,472,6419,183,461,6381,1.21249504,3.05535327,42.21320921,0.75487612,0.89563005,1.01026437
