FIPS,HR_UID,nameid,province,region,analysisTime,dates,pointprevalence_025,pointprevalence_50,pointprevalence_975,pointinfections_025,pointinfections_50,pointinfections_975,pointinfectious_025,pointinfectious_50,pointinfectious_975,pointinfectiousprevalence_05,pointinfectiousprevalence_50,pointinfectiousprevalence_95,infectrate_025,infectrate_50,infectrate_975
0,2415,CanadaQuebecLaurentides,Quebec,Laurentides,2020-07-14 00:57:42.685669,2020-03-09 00:00:00.000000,0.00473448,0.00940445,0.02215230,28,57,135,23,27,73,0.00383700,0.00456491,0.01195956,0.70330440,0.74860147,0.97293343
0,2415,CanadaQuebecLaurentides,Quebec,Laurentides,2020-07-14 00:57:42.685669,2020-03-10 00:00:00.000000,0.00506483,0.01101791,0.02332142,30,67,142,15,31,85,0.00253906,0.00519089,0.01396097,0.70330442,0.74873390,0.97295925
0,2415,CanadaQuebecLaurentides,Quebec,Laurentides,2020-07-14 00:57:42.685669,2020-03-11 00:00:00.000000,0.00588700,0.01277704,0.02461687,35,78,150,30,37,87,0.00498001,0.00611622,0.01433992,0.70330439,0.74908446,0.97301879
0,2415,CanadaQuebecLaurentides,Quebec,Laurentides,2020-07-14 00:57:42.685669,2020-03-12 00:00:00.000000,0.00650071,0.01475541,0.02643728,39,90,161,21,43,94,0.00351046,0.00713746,0.01552342,0.70330417,0.75000723,0.97315601
0,2415,CanadaQuebecLaurentides,Quebec,Laurentides,2020-07-14 00:57:42.685669,2020-03-13 00:00:00.000000,0.00754861,0.01698219,0.02868571,46,103,175,39,50,103,0.00639886,0.00828793,0.01686546,0.70330317,0.75240976,0.97347833
0,2415,CanadaQuebecLaurentides,Quebec,Laurentides,2020-07-14 00:57:42.685669,2020-03-14 00:00:00.000000,0.00843412,0.01950825,0.03148505,51,119,192,28,58,113,0.00462558,0.00958839,0.01852602,0.70329908,0.75853188,0.97420326
0,2415,CanadaQuebecLaurentides,Quebec,Laurentides,2020-07-14 00:57:42.685669,2020-03-15 00:00:00.000000,0.00981929,0.02239422,0.03479069,59,136,212,50,68,124,0.00829460,0.01116130,0.02045443,0.70328319,0.77233820,0.97585891
0,2415,CanadaQuebecLaurentides,Quebec,Laurentides,2020-07-14 00:57:42.685669,2020-03-16 00:00:00.000000,0.01129983,0.02569740,0.03861377,69,157,235,37,79,138,0.00608987,0.01307184,0.02270009,0.70322236,0.79752842,0.97961230
0,2415,CanadaQuebecLaurentides,Quebec,Laurentides,2020-07-14 00:57:42.685669,2020-03-17 00:00:00.000000,0.01342936,0.02955592,0.04298292,82,180,262,69,92,154,0.01129397,0.01510453,0.02524496,0.70299212,0.83205805,0.98791475
0,2415,CanadaQuebecLaurentides,Quebec,Laurentides,2020-07-14 00:57:42.685669,2020-03-18 00:00:00.000000,0.01611413,0.03413450,0.04797622,98,208,293,51,106,172,0.00840981,0.01749949,0.02815731,0.70214167,0.86373431,1.00522354
0,2415,CanadaQuebecLaurentides,Quebec,Laurentides,2020-07-14 00:57:42.685669,2020-03-19 00:00:00.000000,0.01968354,0.03964831,0.05353377,120,242,327,100,124,192,0.01651303,0.02035988,0.03142799,0.69917799,0.88373772,1.03761099
0,2415,CanadaQuebecLaurentides,Quebec,Laurentides,2020-07-14 00:57:42.685669,2020-03-20 00:00:00.000000,0.02400909,0.04637365,0.05964729,146,283,364,75,145,214,0.01239452,0.02380704,0.03508563,0.69116154,0.89321359,1.08741292
0,2415,CanadaQuebecLaurentides,Quebec,Laurentides,2020-07-14 00:57:42.685669,2020-03-21 00:00:00.000000,0.02963374,0.05461160,0.06622095,181,333,404,141,175,239,0.02310389,0.02872665,0.03914588,0.67978213,0.89687849,1.14540627
0,2415,CanadaQuebecLaurentides,Quebec,Laurentides,2020-07-14 00:57:42.685669,2020-03-22 00:00:00.000000,0.03623777,0.06463194,0.07336403,221,394,448,114,202,265,0.01874362,0.03308507,0.04352439,0.67160926,0.89781881,1.19300733
0,2415,CanadaQuebecLaurentides,Quebec,Laurentides,2020-07-14 00:57:42.685669,2020-03-23 00:00:00.000000,0.04473785,0.07498858,0.08469780,273,458,517,190,257,294,0.03112299,0.04212903,0.04824905,0.66777022,0.89727712,1.22221523
0,2415,CanadaQuebecLaurentides,Quebec,Laurentides,2020-07-14 00:57:42.685669,2020-03-24 00:00:00.000000,0.05459702,0.08819157,0.09984059,333,538,610,173,271,337,0.02838105,0.04435743,0.05526478,0.66435980,0.89540965,1.23700359
0,2415,CanadaQuebecLaurentides,Quebec,Laurentides,2020-07-14 00:57:42.685669,2020-03-25 00:00:00.000000,0.06727128,0.10247654,0.11780029,411,626,719,262,350,405,0.04288197,0.05732282,0.06635409,0.65576758,0.89167602,1.24360355
0,2415,CanadaQuebecLaurentides,Quebec,Laurentides,2020-07-14 00:57:42.685669,2020-03-26 00:00:00.000000,0.08146200,0.11786725,0.13899353,497,720,849,261,350,486,0.04275909,0.05733313,0.07967448,0.63077156,0.88490060,1.24501974
0,2415,CanadaQuebecLaurentides,Quebec,Laurentides,2020-07-14 00:57:42.685669,2020-03-27 00:00:00.000000,0.09978174,0.13490774,0.16376790,609,824,1000,362,468,584,0.05939115,0.07664055,0.09565814,0.58686469,0.87317403,1.23867908
0,2415,CanadaQuebecLaurentides,Quebec,Laurentides,2020-07-14 00:57:42.685669,2020-03-28 00:00:00.000000,0.11818801,0.15233775,0.19174243,722,930,1171,387,448,701,0.06349735,0.07337099,0.11480193,0.54941303,0.85322517,1.20650310
0,2415,CanadaQuebecLaurentides,Quebec,Laurentides,2020-07-14 00:57:42.685669,2020-03-29 00:00:00.000000,0.12570169,0.17758443,0.22019294,768,1085,1345,471,621,840,0.07723049,0.10168234,0.13752679,0.53233693,0.81581598,1.10708846
0,2415,CanadaQuebecLaurentides,Quebec,Laurentides,2020-07-14 00:57:42.685669,2020-03-30 00:00:00.000000,0.13222409,0.20005046,0.25075910,807,1222,1532,497,576,997,0.08135932,0.09433408,0.16328892,0.52654785,0.73858911,0.96725946
0,2415,CanadaQuebecLaurentides,Quebec,Laurentides,2020-07-14 00:57:42.685669,2020-03-31 00:00:00.000000,0.13920447,0.22577776,0.27577763,850,1379,1685,523,818,1147,0.08570225,0.13390620,0.18781325,0.52488213,0.63661791,0.86889050
0,2415,CanadaQuebecLaurentides,Quebec,Laurentides,2020-07-14 00:57:42.685669,2020-04-01 00:00:00.000000,0.14672236,0.24480640,0.29508646,896,1495,1803,552,745,1256,0.09034333,0.12203832,0.20556820,0.46821057,0.60926959,0.77229936
0,2415,CanadaQuebecLaurentides,Quebec,Laurentides,2020-07-14 00:57:42.685669,2020-04-02 00:00:00.000000,0.15473607,0.26658060,0.31250692,945,1628,1909,582,1000,1340,0.09533284,0.16380470,0.21946519,0.44464238,0.59048671,0.66673647
0,2415,CanadaQuebecLaurentides,Quebec,Laurentides,2020-07-14 00:57:42.685669,2020-04-03 00:00:00.000000,0.16282951,0.27772647,0.32902340,994,1696,2010,614,883,1420,0.10061517,0.14453455,0.23250751,0.42979950,0.55869320,0.60571682
0,2415,CanadaQuebecLaurentides,Quebec,Laurentides,2020-07-14 00:57:42.685669,2020-04-04 00:00:00.000000,0.16968245,0.29398154,0.34373379,1036,1796,2100,646,1132,1497,0.10583510,0.18534988,0.24514557,0.40823953,0.51211781,0.58275935
0,2415,CanadaQuebecLaurentides,Quebec,Laurentides,2020-07-14 00:57:42.685669,2020-04-05 00:00:00.000000,0.17507555,0.29758910,0.35539002,1069,1818,2171,671,981,1563,0.10996330,0.16068843,0.25595573,0.38008389,0.47746927,0.57423978
0,2415,CanadaQuebecLaurentides,Quebec,Laurentides,2020-07-14 00:57:42.685669,2020-04-06 00:00:00.000000,0.18017903,0.30411480,0.36387656,1100,1858,2223,692,1186,1616,0.11329685,0.19411021,0.26450857,0.35544357,0.46477002,0.56571771
0,2415,CanadaQuebecLaurentides,Quebec,Laurentides,2020-07-14 00:57:42.685669,2020-04-07 00:00:00.000000,0.18558050,0.30429673,0.37020044,1133,1859,2261,713,1025,1654,0.11675435,0.16780602,0.27070613,0.34067755,0.46112115,0.55278342
0,2415,CanadaQuebecLaurentides,Quebec,Laurentides,2020-07-14 00:57:42.685669,2020-04-08 00:00:00.000000,0.19128152,0.31231929,0.37543204,1168,1908,2293,735,1219,1682,0.12043818,0.19959618,0.27540328,0.33371571,0.45931988,0.54094666
0,2415,CanadaQuebecLaurentides,Quebec,Laurentides,2020-07-14 00:57:42.685669,2020-04-09 00:00:00.000000,0.19712011,0.31080854,0.38022548,1204,1899,2323,759,1051,1707,0.12426537,0.17204341,0.27937344,0.33076790,0.45623942,0.53530483
0,2415,CanadaQuebecLaurentides,Quebec,Laurentides,2020-07-14 00:57:42.685669,2020-04-10 00:00:00.000000,0.20278854,0.31911567,0.38486514,1239,1949,2351,782,1244,1729,0.12812421,0.20362769,0.28303936,0.32950310,0.44741772,0.53364126
0,2415,CanadaQuebecLaurentides,Quebec,Laurentides,2020-07-14 00:57:42.685669,2020-04-11 00:00:00.000000,0.20783581,0.31285523,0.38946225,1269,1911,2379,805,1070,1751,0.13180350,0.17514182,0.28658418,0.32883307,0.42740336,0.53318293
0,2415,CanadaQuebecLaurentides,Quebec,Laurentides,2020-07-14 00:57:42.685669,2020-04-12 00:00:00.000000,0.21183502,0.31729027,0.39405694,1294,1938,2407,824,1235,1772,0.13499952,0.20227047,0.29007698,0.32829254,0.40718380,0.53313166
0,2415,CanadaQuebecLaurentides,Quebec,Laurentides,2020-07-14 00:57:42.685669,2020-04-13 00:00:00.000000,0.21471049,0.30771909,0.39862791,1311,1880,2435,839,1064,1793,0.13746987,0.17426006,0.29353992,0.32790683,0.39705940,0.53345244
0,2415,CanadaQuebecLaurentides,Quebec,Laurentides,2020-07-14 00:57:42.685669,2020-04-14 00:00:00.000000,0.21685425,0.30829661,0.40310021,1325,1883,2463,850,1204,1814,0.13925939,0.19711299,0.29698654,0.32682337,0.39340919,0.53490671
0,2415,CanadaQuebecLaurentides,Quebec,Laurentides,2020-07-14 00:57:42.685669,2020-04-15 00:00:00.000000,0.21886274,0.30527607,0.40720666,1337,1865,2488,857,1041,1835,0.14028250,0.17048009,0.30032465,0.32430179,0.39458371,0.54064943
0,2415,CanadaQuebecLaurentides,Quebec,Laurentides,2020-07-14 00:57:42.685669,2020-04-16 00:00:00.000000,0.22124109,0.30749477,0.41074067,1351,1878,2509,862,1179,1853,0.14115044,0.19300364,0.30335963,0.32062533,0.40020996,0.55838599
0,2415,CanadaQuebecLaurentides,Quebec,Laurentides,2020-07-14 00:57:42.685669,2020-04-17 00:00:00.000000,0.22431386,0.30427837,0.41354375,1370,1859,2526,872,1027,1869,0.14281950,0.16812769,0.30595625,0.31630810,0.41027515,0.58972119
0,2415,CanadaQuebecLaurentides,Quebec,Laurentides,2020-07-14 00:57:42.685669,2020-04-18 00:00:00.000000,0.22826096,0.31095217,0.41558111,1394,1899,2539,886,1180,1881,0.14501889,0.19319610,0.30800622,0.31226344,0.42500632,0.61333029
0,2415,CanadaQuebecLaurentides,Quebec,Laurentides,2020-07-14 00:57:42.685669,2020-04-19 00:00:00.000000,0.23316534,0.31311119,0.41706859,1424,1913,2548,903,1044,1891,0.14783420,0.17097028,0.30950802,0.30920204,0.43822114,0.62231120
0,2415,CanadaQuebecLaurentides,Quebec,Laurentides,2020-07-14 00:57:42.685669,2020-04-20 00:00:00.000000,0.23903978,0.32320490,0.41814537,1460,1974,2554,923,1220,1897,0.15121549,0.19969200,0.31062576,0.30724370,0.44883788,0.62475076
0,2415,CanadaQuebecLaurentides,Quebec,Laurentides,2020-07-14 00:57:42.685669,2020-04-21 00:00:00.000000,0.24583819,0.32727558,0.41905984,1502,1999,2560,948,1086,1902,0.15517840,0.17787960,0.31144679,0.30616936,0.45626427,0.62541088
0,2415,CanadaQuebecLaurentides,Quebec,Laurentides,2020-07-14 00:57:42.685669,2020-04-22 00:00:00.000000,0.25345807,0.33956038,0.41990304,1548,2074,2565,975,1278,1907,0.15970135,0.20928731,0.31215015,0.30590617,0.46115236,0.62570248
0,2415,CanadaQuebecLaurentides,Quebec,Laurentides,2020-07-14 00:57:42.685669,2020-04-23 00:00:00.000000,0.26173230,0.34433951,0.42098768,1599,2103,2572,1005,1136,1911,0.16461538,0.18599561,0.31280129,0.30753066,0.46475408,0.62606567
0,2415,CanadaQuebecLaurentides,Quebec,Laurentides,2020-07-14 00:57:42.685669,2020-04-24 00:00:00.000000,0.27032047,0.35767701,0.42354019,1651,2185,2587,1033,1344,1916,0.16908913,0.22003370,0.31364004,0.31663127,0.47106363,0.62678149
0,2415,CanadaQuebecLaurentides,Quebec,Laurentides,2020-07-14 00:57:42.685669,2020-04-25 00:00:00.000000,0.27889907,0.36631305,0.43002188,1704,2238,2627,1063,1194,1928,0.17404280,0.19552888,0.31566159,0.34047313,0.48978771,0.62822661
0,2415,CanadaQuebecLaurentides,Quebec,Laurentides,2020-07-14 00:57:42.685669,2020-04-26 00:00:00.000000,0.28700626,0.38549119,0.44006781,1753,2355,2688,1095,1447,1960,0.17934847,0.23686963,0.32080900,0.35976000,0.50941477,0.63082694
0,2415,CanadaQuebecLaurentides,Quebec,Laurentides,2020-07-14 00:57:42.685669,2020-04-27 00:00:00.000000,0.29411363,0.39959750,0.45176670,1797,2441,2760,1125,1301,2007,0.18427436,0.21293890,0.32850360,0.36587724,0.50692811,0.63464434
0,2415,CanadaQuebecLaurentides,Quebec,Laurentides,2020-07-14 00:57:42.685669,2020-04-28 00:00:00.000000,0.29995694,0.42346036,0.46547439,1832,2587,2844,1153,1597,2110,0.18884987,0.26146995,0.34535203,0.36841877,0.49380017,0.63908343
0,2415,CanadaQuebecLaurentides,Quebec,Laurentides,2020-07-14 00:57:42.685669,2020-04-29 00:00:00.000000,0.30456025,0.43536147,0.48069631,1860,2660,2937,1187,1411,2115,0.19427707,0.23106353,0.34627267,0.37178883,0.47876237,0.64365133
0,2415,CanadaQuebecLaurentides,Quebec,Laurentides,2020-07-14 00:57:42.685669,2020-04-30 00:00:00.000000,0.30851228,0.45702389,0.49668093,1885,2792,3034,1210,1734,2329,0.19808485,0.28381316,0.38130027,0.37810083,0.46542984,0.64647137
0,2415,CanadaQuebecLaurentides,Quebec,Laurentides,2020-07-14 00:57:42.685669,2020-05-01 00:00:00.000000,0.31222857,0.46857123,0.51332426,1907,2863,3136,1226,1520,2243,0.20076653,0.24878809,0.36710906,0.38898019,0.45522656,0.64788962
0,2415,CanadaQuebecLaurentides,Quebec,Laurentides,2020-07-14 00:57:42.685669,2020-05-02 00:00:00.000000,0.31604644,0.48801993,0.53070348,1931,2981,3242,1242,1846,2485,0.20327596,0.30216713,0.40676300,0.40418900,0.44825337,0.64847373
0,2415,CanadaQuebecLaurentides,Quebec,Laurentides,2020-07-14 00:57:42.685669,2020-05-03 00:00:00.000000,0.32001576,0.49805554,0.55484991,1955,3043,3390,1257,1620,2417,0.20582474,0.26513285,0.39563131,0.41197750,0.44759117,0.64876246
0,2415,CanadaQuebecLaurentides,Quebec,Laurentides,2020-07-14 00:57:42.685669,2020-05-04 00:00:00.000000,0.32476010,0.51710067,0.58362567,1984,3159,3566,1274,1943,2601,0.20851522,0.31814002,0.42572332,0.41710194,0.45130103,0.64927364
0,2415,CanadaQuebecLaurentides,Quebec,Laurentides,2020-07-14 00:57:42.685669,2020-05-05 00:00:00.000000,0.33254538,0.52781695,0.61553750,2031,3225,3761,1294,1709,2663,0.21186605,0.27972237,0.43590954,0.43748976,0.45350311,0.64938283
0,2415,CanadaQuebecLaurentides,Quebec,Laurentides,2020-07-14 00:57:42.685669,2020-05-06 00:00:00.000000,0.34314317,0.54602613,0.65007419,2096,3336,3972,1332,2037,2809,0.21809362,0.33339271,0.45980452,0.44315619,0.45847015,0.64873095
0,2415,CanadaQuebecLaurentides,Quebec,Laurentides,2020-07-14 00:57:42.685669,2020-05-07 00:00:00.000000,0.35450380,0.55188519,0.68633763,2166,3372,4193,1377,1795,2966,0.22539324,0.29379744,0.48549475,0.44286947,0.45870860,0.64466057
0,2415,CanadaQuebecLaurentides,Quebec,Laurentides,2020-07-14 00:57:42.685669,2020-05-08 00:00:00.000000,0.36599197,0.57143954,0.72291981,2236,3491,4417,1422,2129,3130,0.23278242,0.34843740,0.51238163,0.43712583,0.45830646,0.62735526
0,2415,CanadaQuebecLaurentides,Quebec,Laurentides,2020-07-14 00:57:42.685669,2020-05-09 00:00:00.000000,0.37767958,0.57193185,0.75704175,2307,3494,4625,1467,1876,3296,0.24022832,0.30709895,0.53957620,0.42107825,0.45794625,0.58608462
0,2415,CanadaQuebecLaurentides,Quebec,Laurentides,2020-07-14 00:57:42.685669,2020-05-10 00:00:00.000000,0.38946114,0.58742463,0.78503659,2379,3589,4796,1513,2205,3449,0.24774265,0.36092477,0.56460377,0.39514496,0.45767308,0.55080321
0,2415,CanadaQuebecLaurentides,Quebec,Laurentides,2020-07-14 00:57:42.685669,2020-05-11 00:00:00.000000,0.40113223,0.58247172,0.80696583,2450,3559,4930,1560,1927,3573,0.25534580,0.31545218,0.58487515,0.37323121,0.45705243,0.53821943
0,2415,CanadaQuebecLaurentides,Quebec,Laurentides,2020-07-14 00:57:42.685669,2020-05-12 00:00:00.000000,0.41096028,0.59184727,0.82556000,2511,3616,5044,1606,2247,3670,0.26294762,0.36789732,0.60079680,0.36265990,0.45078246,0.53535922
0,2415,CanadaQuebecLaurentides,Quebec,Laurentides,2020-07-14 00:57:42.685669,2020-05-13 00:00:00.000000,0.40317067,0.58688358,0.84288331,2463,3585,5150,1641,1955,3755,0.26862231,0.31995732,0.61466095,0.33759148,0.40941386,0.53477113
0,2415,CanadaQuebecLaurentides,Quebec,Laurentides,2020-07-14 00:57:42.685669,2020-05-14 00:00:00.000000,0.38232623,0.59618755,0.85912901,2336,3642,5249,1577,2279,3835,0.25818295,0.37302390,0.62773889,0.29554364,0.40727493,0.53468192
0,2415,CanadaQuebecLaurentides,Quebec,Laurentides,2020-07-14 00:57:42.685669,2020-05-15 00:00:00.000000,0.36324631,0.59331339,0.87125582,2219,3625,5323,1495,1977,3910,0.24473470,0.32371634,0.63995654,0.29942347,0.40045945,0.53471273
0,2415,CanadaQuebecLaurentides,Quebec,Laurentides,2020-07-14 00:57:42.685669,2020-05-16 00:00:00.000000,0.34809253,0.59745758,0.87254002,2126,3650,5331,1431,2308,3964,0.23430076,0.37782238,0.64880917,0.30329269,0.38549619,0.53475415
0,2415,CanadaQuebecLaurentides,Quebec,Laurentides,2020-07-14 00:57:42.685669,2020-05-17 00:00:00.000000,0.33521375,0.59345276,0.86373183,2048,3626,5277,1379,1999,3965,0.22576780,0.32731663,0.64904124,0.28163985,0.38532988,0.53415310
0,2415,CanadaQuebecLaurentides,Quebec,Laurentides,2020-07-14 00:57:42.685669,2020-05-18 00:00:00.000000,0.32362145,0.60204797,0.85086236,1977,3678,5198,1333,2334,3922,0.21818729,0.38211360,0.64192512,0.27318536,0.38277855,0.52238126
0,2415,CanadaQuebecLaurentides,Quebec,Laurentides,2020-07-14 00:57:42.685669,2020-05-19 00:00:00.000000,0.31278769,0.58859564,0.83697465,1911,3596,5114,1290,2016,3864,0.21118718,0.33009982,0.63246205,0.27113987,0.36321281,0.44361901
0,2415,CanadaQuebecLaurentides,Quebec,Laurentides,2020-07-14 00:57:42.685669,2020-05-20 00:00:00.000000,0.30223106,0.58575881,0.82290201,1846,3579,5028,1249,2317,3803,0.20450555,0.37924057,0.62250559,0.26987033,0.31831052,0.42532825
0,2415,CanadaQuebecLaurentides,Quebec,Laurentides,2020-07-14 00:57:42.685669,2020-05-21 00:00:00.000000,0.29137193,0.54755238,0.80831342,1780,3345,4938,1208,1952,3741,0.19785343,0.31946696,0.61231187,0.26717391,0.30925036,0.40450333
0,2415,CanadaQuebecLaurentides,Quebec,Laurentides,2020-07-14 00:57:42.685669,2020-05-22 00:00:00.000000,0.27948386,0.52403859,0.79184586,1707,3201,4838,1166,2170,3675,0.19085736,0.35517359,0.60159285,0.26041502,0.30366216,0.38687909
0,2415,CanadaQuebecLaurentides,Quebec,Laurentides,2020-07-14 00:57:42.685669,2020-05-23 00:00:00.000000,0.26595103,0.49089912,0.77112213,1625,2999,4711,1118,1806,3600,0.18304583,0.29558680,0.58930988,0.24602550,0.29574270,0.36899490
0,2415,CanadaQuebecLaurentides,Quebec,Laurentides,2020-07-14 00:57:42.685669,2020-05-24 00:00:00.000000,0.25066618,0.47094469,0.74400871,1531,2877,4546,1065,1973,3505,0.17434209,0.32297475,0.57364466,0.22462410,0.28494695,0.34664619
0,2415,CanadaQuebecLaurentides,Quebec,Laurentides,2020-07-14 00:57:42.685669,2020-05-25 00:00:00.000000,0.23282231,0.43633250,0.71129426,1422,2666,4346,1001,1635,3379,0.16392382,0.26767829,0.55307900,0.20526654,0.27338688,0.32387749
0,2415,CanadaQuebecLaurentides,Quebec,Laurentides,2020-07-14 00:57:42.685669,2020-05-26 00:00:00.000000,0.21397365,0.41377053,0.67603415,1307,2528,4130,930,1743,3229,0.15220711,0.28540895,0.52848060,0.19438729,0.25716012,0.32168709
0,2415,CanadaQuebecLaurentides,Quebec,Laurentides,2020-07-14 00:57:42.685669,2020-05-27 00:00:00.000000,0.19588024,0.38029864,0.64095810,1196,2323,3916,856,1443,3069,0.14016290,0.23622176,0.50230353,0.19047548,0.24766407,0.31790448
0,2415,CanadaQuebecLaurentides,Quebec,Laurentides,2020-07-14 00:57:42.685669,2020-05-28 00:00:00.000000,0.18016052,0.35748317,0.60778634,1100,2184,3713,787,1513,2911,0.12890132,0.24765695,0.47648917,0.19119732,0.24641931,0.31174274
0,2415,CanadaQuebecLaurentides,Quebec,Laurentides,2020-07-14 00:57:42.685669,2020-05-29 00:00:00.000000,0.16752061,0.32723233,0.57753759,1023,1999,3528,729,1250,2762,0.11935898,0.20470919,0.45212246,0.19590191,0.24979795,0.30329798
0,2415,CanadaQuebecLaurentides,Quebec,Laurentides,2020-07-14 00:57:42.685669,2020-05-30 00:00:00.000000,0.15735178,0.30630688,0.55043974,961,1871,3363,682,1304,2626,0.11173615,0.21357444,0.42991155,0.20214251,0.25269351,0.29420384
0,2415,CanadaQuebecLaurentides,Quebec,Laurentides,2020-07-14 00:57:42.685669,2020-05-31 00:00:00.000000,0.14862344,0.27958593,0.52572601,908,1708,3212,644,1075,2504,0.10540161,0.17601160,0.40997052,0.20601298,0.25086778,0.29102052
0,2415,CanadaQuebecLaurentides,Quebec,Laurentides,2020-07-14 00:57:42.685669,2020-06-01 00:00:00.000000,0.14070884,0.26120583,0.50251583,859,1596,3070,609,1131,2393,0.09974801,0.18511123,0.39166912,0.20709542,0.24862709,0.29252931
0,2415,CanadaQuebecLaurentides,Quebec,Laurentides,2020-07-14 00:57:42.685669,2020-06-02 00:00:00.000000,0.13338465,0.23824800,0.48026895,815,1455,2934,572,943,2287,0.09373185,0.15436640,0.37437696,0.20659841,0.24742635,0.29517780
0,2415,CanadaQuebecLaurentides,Quebec,Laurentides,2020-07-14 00:57:42.685669,2020-06-03 00:00:00.000000,0.12661278,0.22276951,0.45872232,773,1361,2802,530,997,2185,0.08678854,0.16329714,0.35775884,0.20520998,0.24733814,0.29890448
0,2415,CanadaQuebecLaurentides,Quebec,Laurentides,2020-07-14 00:57:42.685669,2020-06-04 00:00:00.000000,0.12043529,0.20354152,0.43772483,735,1243,2674,488,833,2087,0.07993744,0.13648986,0.34164961,0.20317811,0.24842345,0.30348253
0,2415,CanadaQuebecLaurentides,Quebec,Laurentides,2020-07-14 00:57:42.685669,2020-06-05 00:00:00.000000,0.11493959,0.19096860,0.41718067,702,1166,2549,443,887,1991,0.07251943,0.14519560,0.32596706,0.20066176,0.25106249,0.30855583
0,2415,CanadaQuebecLaurentides,Quebec,Laurentides,2020-07-14 00:57:42.685669,2020-06-06 00:00:00.000000,0.11022158,0.17514594,0.39707307,673,1070,2426,401,744,1898,0.06577423,0.12187596,0.31063260,0.19793199,0.25741038,0.31363077
0,2415,CanadaQuebecLaurentides,Quebec,Laurentides,2020-07-14 00:57:42.685669,2020-06-07 00:00:00.000000,0.10630964,0.16783607,0.37745103,649,1025,2306,364,798,1806,0.05973112,0.13064641,0.29563492,0.19537003,0.28309651,0.33538527
0,2415,CanadaQuebecLaurentides,Quebec,Laurentides,2020-07-14 00:57:42.685669,2020-06-08 00:00:00.000000,0.10308839,0.15850005,0.35842155,629,968,2190,336,674,1717,0.05507749,0.11034628,0.28101200,0.19328272,0.29057725,0.47275304
0,2415,CanadaQuebecLaurentides,Quebec,Laurentides,2020-07-14 00:57:42.685669,2020-06-09 00:00:00.000000,0.10043630,0.15400440,0.34016799,613,940,2078,323,728,1630,0.05290342,0.11916701,0.26684428,0.19235724,0.29697796,0.51468712
0,2415,CanadaQuebecLaurentides,Quebec,Laurentides,2020-07-14 00:57:42.685669,2020-06-10 00:00:00.000000,0.09815281,0.14647448,0.32310493,599,894,1974,317,618,1547,0.05204264,0.10120995,0.25327045,0.19456861,0.30210284,0.53495175
0,2415,CanadaQuebecLaurentides,Quebec,Laurentides,2020-07-14 00:57:42.685669,2020-06-11 00:00:00.000000,0.09609539,0.14429008,0.30815225,587,881,1882,316,670,1470,0.05180270,0.10974782,0.24061365,0.20434701,0.30651424,0.55781145
0,2415,CanadaQuebecLaurentides,Quebec,Laurentides,2020-07-14 00:57:42.685669,2020-06-12 00:00:00.000000,0.09429031,0.13917490,0.29587512,576,850,1807,317,572,1402,0.05198295,0.09362458,0.22959357,0.21941100,0.31098485,0.57855921
0,2415,CanadaQuebecLaurentides,Quebec,Laurentides,2020-07-14 00:57:42.685669,2020-06-13 00:00:00.000000,0.09282232,0.13794771,0.28535045,567,842,1743,320,621,1347,0.05249214,0.10170412,0.22059173,0.22797011,0.31634295,0.59216003
0,2415,CanadaQuebecLaurentides,Quebec,Laurentides,2020-07-14 00:57:42.685669,2020-06-14 00:00:00.000000,0.09179307,0.13387221,0.27563876,560,817,1684,325,533,1300,0.05322704,0.08726902,0.21278833,0.23037673,0.32321741,0.59925198
0,2415,CanadaQuebecLaurentides,Quebec,Laurentides,2020-07-14 00:57:42.685669,2020-06-15 00:00:00.000000,0.09125447,0.13326254,0.26637202,557,814,1627,330,581,1255,0.05409161,0.09509590,0.20550480,0.23083034,0.33213559,0.60244305
0,2415,CanadaQuebecLaurentides,Quebec,Laurentides,2020-07-14 00:57:42.685669,2020-06-16 00:00:00.000000,0.09113148,0.13211731,0.25738939,556,807,1572,336,503,1213,0.05502057,0.08237977,0.19853109,0.23079928,0.34257204,0.60366336
0,2415,CanadaQuebecLaurentides,Quebec,Laurentides,2020-07-14 00:57:42.685669,2020-06-17 00:00:00.000000,0.09119238,0.13328618,0.24861470,557,814,1519,342,553,1171,0.05597719,0.09050920,0.19178334,0.23022029,0.35014112,0.60371421
0,2415,CanadaQuebecLaurentides,Quebec,Laurentides,2020-07-14 00:57:42.685669,2020-06-18 00:00:00.000000,0.09113582,0.12975019,0.23985367,556,792,1465,345,483,1131,0.05647444,0.07904872,0.18520748,0.22776005,0.35243387,0.60242734
0,2415,CanadaQuebecLaurentides,Quebec,Laurentides,2020-07-14 00:57:42.685669,2020-06-19 00:00:00.000000,0.09076591,0.12946881,0.23110983,554,791,1412,350,531,1091,0.05730744,0.08691494,0.17864054,0.22523052,0.35155210,0.59825762
0,2415,CanadaQuebecLaurentides,Quebec,Laurentides,2020-07-14 00:57:42.685669,2020-06-20 00:00:00.000000,0.09007671,0.12755887,0.22257902,550,779,1360,355,461,1051,0.05823973,0.07552046,0.17209974,0.22465771,0.35017413,0.58739901
0,2415,CanadaQuebecLaurentides,Quebec,Laurentides,2020-07-14 00:57:42.685669,2020-06-21 00:00:00.000000,0.08916884,0.12796176,0.21431529,544,781,1309,353,508,1012,0.05789812,0.08319998,0.16574451,0.22457920,0.34951721,0.56422096
0,2415,CanadaQuebecLaurentides,Quebec,Laurentides,2020-07-14 00:57:42.685669,2020-06-22 00:00:00.000000,0.08813576,0.12407661,0.20637177,538,758,1260,355,440,975,0.05813182,0.07213732,0.15960487,0.22456639,0.34951953,0.52976689
0,2415,CanadaQuebecLaurentides,Quebec,Laurentides,2020-07-14 00:57:42.685669,2020-06-23 00:00:00.000000,0.08701796,0.12284560,0.19874913,531,750,1214,353,485,939,0.05777918,0.07948393,0.15368453,0.22456351,0.34978652,0.49943434
0,2415,CanadaQuebecLaurentides,Quebec,Laurentides,2020-07-14 00:57:42.685669,2020-06-24 00:00:00.000000,0.08579551,0.11893517,0.19138453,524,726,1169,349,423,904,0.05714356,0.06938346,0.14800667,0.22457066,0.35025666,0.48575982
0,2415,CanadaQuebecLaurentides,Quebec,Laurentides,2020-07-14 00:57:42.685669,2020-06-25 00:00:00.000000,0.08437423,0.11715439,0.18429968,515,715,1126,343,464,870,0.05615118,0.07596838,0.14253284,0.22464030,0.35075820,0.48743167
0,2415,CanadaQuebecLaurentides,Quebec,Laurentides,2020-07-14 00:57:42.685669,2020-06-26 00:00:00.000000,0.08257694,0.11366760,0.17752932,504,694,1084,336,404,838,0.05509431,0.06617682,0.13725573,0.22517952,0.35049757,0.49845177
0,2415,CanadaQuebecLaurentides,Quebec,Laurentides,2020-07-14 00:57:42.685669,2020-06-27 00:00:00.000000,0.08023537,0.11302468,0.17126844,490,690,1046,330,443,807,0.05410324,0.07265719,0.13221016,0.22907186,0.34908223,0.51119039
0,2415,CanadaQuebecLaurentides,Quebec,Laurentides,2020-07-14 00:57:42.685669,2020-06-28 00:00:00.000000,0.07731136,0.11028025,0.16654162,472,673,1017,321,384,779,0.05259984,0.06286087,0.12756831,0.24910961,0.34857779,0.52047995
0,2415,CanadaQuebecLaurentides,Quebec,Laurentides,2020-07-14 00:57:42.685669,2020-06-29 00:00:00.000000,0.07409173,0.11050958,0.16419907,452,675,1003,309,422,758,0.05063781,0.06921654,0.12414806,0.27983112,0.35460451,0.52580890
0,2415,CanadaQuebecLaurentides,Quebec,Laurentides,2020-07-14 00:57:42.685669,2020-06-30 00:00:00.000000,0.07089510,0.10924138,0.16293746,433,667,995,296,368,748,0.04855737,0.06029626,0.12255817,0.27549909,0.37642513,0.52840027
0,2415,CanadaQuebecLaurentides,Quebec,Laurentides,2020-07-14 00:57:42.685669,2020-07-01 00:00:00.000000,0.06786172,0.11060283,0.16193757,414,675,989,284,412,743,0.04653387,0.06749560,0.12163491,0.27363069,0.39102110,0.52909702
0,2415,CanadaQuebecLaurentides,Quebec,Laurentides,2020-07-14 00:57:42.685669,2020-07-02 00:00:00.000000,0.06501649,0.11014652,0.16093487,397,673,983,272,367,738,0.04462219,0.06010065,0.12081662,0.27242119,0.39730663,0.52797520
0,2415,CanadaQuebecLaurentides,Quebec,Laurentides,2020-07-14 00:57:42.685669,2020-07-03 00:00:00.000000,0.06231076,0.11310182,0.15986350,380,691,976,261,422,733,0.04281945,0.06909608,0.12000629,0.27044472,0.39909129,0.52260960
0,2415,CanadaQuebecLaurentides,Quebec,Laurentides,2020-07-14 00:57:42.685669,2020-07-04 00:00:00.000000,0.05972440,0.11172531,0.15865126,364,682,969,251,371,728,0.04108476,0.06075349,0.11915780,0.26865225,0.39738271,0.50767696
0,2415,CanadaQuebecLaurentides,Quebec,Laurentides,2020-07-14 00:57:42.685669,2020-07-05 00:00:00.000000,0.05728370,0.11177546,0.15720285,350,682,960,240,432,722,0.03942168,0.07080396,0.11821130,0.26827129,0.38218106,0.50767962
0,2415,CanadaQuebecLaurentides,Quebec,Laurentides,2020-07-14 00:57:42.685669,2020-07-06 00:00:00.000000,0.05499279,0.11054891,0.15550720,336,675,950,231,375,715,0.03785441,0.06138947,0.11710021,0.26821146,0.36827505,0.50779356
0,2415,CanadaQuebecLaurentides,Quebec,Laurentides,2020-07-14 00:57:42.685669,2020-07-07 00:00:00.000000,0.05283575,0.11295363,0.15363851,322,690,938,222,439,707,0.03637640,0.07192335,0.11581341,0.26820102,0.36150047,0.50782632
0,2415,CanadaQuebecLaurentides,Quebec,Laurentides,2020-07-14 00:57:42.685669,2020-07-08 00:00:00.000000,0.05079620,0.11027497,0.15169360,310,673,926,213,374,699,0.03497741,0.06132802,0.11440957,0.26819889,0.35905958,0.50783576
0,2415,CanadaQuebecLaurentides,Quebec,Laurentides,2020-07-14 00:57:42.685669,2020-07-09 00:00:00.000000,0.04886059,0.10952956,0.14976779,298,669,915,205,443,690,0.03364861,0.07266102,0.11303739,0.26819843,0.35828072,0.50783850
0,2415,CanadaQuebecLaurentides,Quebec,Laurentides,2020-07-14 00:57:42.685669,2020-07-10 00:00:00.000000,0.04701800,0.10795013,0.14785113,287,659,903,197,374,681,0.03238282,0.06126180,0.11154833,0.26819838,0.35803934,0.50783930
0,2415,CanadaQuebecLaurentides,Quebec,Laurentides,2020-07-14 00:57:42.685669,2020-07-11 00:00:00.000000,0.04525958,0.10907964,0.14593889,276,666,891,190,449,702,0.03117418,0.07350125,0.11499592,0.26819841,0.35796451,0.50783954
0,2415,CanadaQuebecLaurentides,Quebec,Laurentides,2020-07-14 00:57:42.685669,2020-07-12 00:00:00.000000,0.04357810,0.10764362,0.14407892,266,657,880,183,376,664,0.03001791,0.06156357,0.10869229,0.26819846,0.35794107,0.50783961
0,2415,CanadaQuebecLaurentides,Quebec,Laurentides,2020-07-14 00:57:42.685669,2020-07-13 00:00:00.000000,0.04196759,0.10904608,0.14682937,256,666,897,176,455,743,0.02891006,0.07457462,0.12174791,0.26819850,0.35793362,0.50783964
0,2415,CanadaQuebecLaurentides,Quebec,Laurentides,2020-07-14 00:57:42.685669,2020-07-14 00:00:00.000000,0.04042307,0.10773285,0.14746436,246,658,901,170,379,646,0.02784728,0.06208143,0.10586916,0.26819852,0.35793122,0.50783965
0,2415,CanadaQuebecLaurentides,Quebec,Laurentides,2020-07-14 00:57:42.685669,2020-07-15 00:00:00.000000,0.03894029,0.10940639,0.15540815,237,668,949,163,443,787,0.02682675,0.07258298,0.12880485,0.26819854,0.35793043,0.50783965
0,2415,CanadaQuebecLaurentides,Quebec,Laurentides,2020-07-14 00:57:42.685669,2020-07-16 00:00:00.000000,0.03751561,0.10820613,0.15587007,229,661,952,157,383,630,0.02584603,0.06281457,0.10322748,0.26819855,0.35793017,0.50783965
0,2415,CanadaQuebecLaurentides,Quebec,Laurentides,2020-07-14 00:57:42.685669,2020-07-17 00:00:00.000000,0.03614587,0.10687076,0.16424382,220,653,1003,152,426,831,0.02490298,0.06985841,0.13611915,0.26819856,0.35793008,0.50783965
0,2415,CanadaQuebecLaurentides,Quebec,Laurentides,2020-07-14 00:57:42.685669,2020-07-18 00:00:00.000000,0.03482826,0.10465462,0.16470830,212,639,1006,146,389,641,0.02399570,0.06376463,0.10504764,0.26819856,0.35793005,0.50783966
0,2415,CanadaQuebecLaurentides,Quebec,Laurentides,2020-07-14 00:57:42.685669,2020-07-19 00:00:00.000000,0.03356028,0.10250026,0.17353144,205,626,1060,141,410,878,0.02312251,0.06726157,0.14380618,0.26819856,0.35793004,0.50783966
0,2415,CanadaQuebecLaurentides,Quebec,Laurentides,2020-07-14 00:57:42.685669,2020-07-20 00:00:00.000000,0.03233966,0.10039900,0.17399813,197,613,1063,136,396,678,0.02228187,0.06492193,0.11099763,0.26819856,0.35793004,0.50783966
0,2415,CanadaQuebecLaurentides,Quebec,Laurentides,2020-07-14 00:57:42.685669,2020-07-21 00:00:00.000000,0.03116433,0.09834915,0.18329128,190,600,1119,131,395,928,0.02147236,0.06478004,0.15188537,0.26819857,0.35793004,0.50783966
0,2415,CanadaQuebecLaurentides,Quebec,Laurentides,2020-07-14 00:57:42.685669,2020-07-22 00:00:00.000000,0.03003238,0.09634915,0.18375902,183,588,1122,126,388,716,0.02069269,0.06358042,0.11725128,0.26819857,0.35793004,0.50783966
0,2415,CanadaQuebecLaurentides,Quebec,Laurentides,2020-07-14 00:57:42.685669,2020-07-23 00:00:00.000000,0.02894204,0.09439753,0.19354307,176,576,1182,121,381,979,0.01994164,0.06240719,0.16037174,0.26819857,0.35793004,0.50783966
0,2415,CanadaQuebecLaurentides,Quebec,Laurentides,2020-07-14 00:57:42.685669,2020-07-24 00:00:00.000000,0.02789165,0.09249287,0.19400866,170,565,1185,117,374,756,0.01921808,0.06125964,0.12382022,0.26819857,0.35793004,0.50783966
0,2415,CanadaQuebecLaurentides,Quebec,Laurentides,2020-07-14 00:57:42.685669,2020-07-25 00:00:00.000000,0.02687964,0.09063384,0.20430493,164,553,1248,113,367,1034,0.01852093,0.06013707,0.16928029,0.26819857,0.35793004,0.50783966
0,2415,CanadaQuebecLaurentides,Quebec,Laurentides,2020-07-14 00:57:42.685669,2020-07-26 00:00:00.000000,0.02590454,0.08881915,0.20476466,158,542,1251,109,360,798,0.01784920,0.05903884,0.13071607,0.26819857,0.35793004,0.50783966
0,2415,CanadaQuebecLaurentides,Quebec,Laurentides,2020-07-14 00:57:42.685669,2020-07-27 00:00:00.000000,0.02496494,0.08704756,0.21559480,152,531,1317,105,354,1091,0.01720190,0.05796431,0.17862587,0.26819857,0.35793004,0.50783966
