0 Divergences 
Computed from 120 by 121 log-likelihood matrix

         Estimate       SE
elpd_loo  -311.91    10.85
p_loo       22.94        -

There has been a warning during the calculation. Please check the results.
------

Pareto k diagnostic values:
                         Count   Pct.
(-Inf, 0.5]   (good)      120   99.2%
 (0.5, 0.7]   (ok)          0    0.0%
   (0.7, 1]   (bad)         1    0.8%
   (1, Inf)   (very bad)    0    0.0%


The scale is now log by default. Use 'scale' argument or 'stats.ic_scale' rcParam if
you rely on a specific value.
A higher log-score (or a lower deviance) indicates a model with better predictive
accuracy.