FIPS,HR_UID,nameid,province,region,analysisTime,dates,pointprevalence_025,pointprevalence_50,pointprevalence_975,pointinfections_025,pointinfections_50,pointinfections_975,pointinfectious_025,pointinfectious_50,pointinfectious_975,pointinfectiousprevalence_05,pointinfectiousprevalence_50,pointinfectiousprevalence_95,infectrate_025,infectrate_50,infectrate_975
42097,0,USPennsylvaniaNorthumberland,Pennsylvania,Northumberland,2020-07-18 06:46:51.632333,2020-03-09 00:00:00.000000,0.00715572,0.02304974,0.08222139,6,20,74,0,5,43,0.00003717,0.00617736,0.04747478,0.58808746,0.75358370,1.20422984
42097,0,USPennsylvaniaNorthumberland,Pennsylvania,Northumberland,2020-07-18 06:46:51.632333,2020-03-10 00:00:00.000000,0.00854147,0.02683805,0.31489880,7,24,286,2,7,39,0.00255299,0.00772855,0.04312288,0.58808749,0.75358386,1.20399883
42097,0,USPennsylvaniaNorthumberland,Pennsylvania,Northumberland,2020-07-18 06:46:51.632333,2020-03-11 00:00:00.000000,0.00839867,0.02490411,0.09459851,7,22,85,0,6,36,0.00066047,0.00722953,0.04017507,0.58808758,0.75358447,1.20359674
42097,0,USPennsylvaniaNorthumberland,Pennsylvania,Northumberland,2020-07-18 06:46:51.632333,2020-03-12 00:00:00.000000,0.01009352,0.03056078,0.34296646,9,27,311,3,8,35,0.00351550,0.00887445,0.03912801,0.58808780,0.75358669,1.20289814
42097,0,USPennsylvaniaNorthumberland,Pennsylvania,Northumberland,2020-07-18 06:46:51.632333,2020-03-13 00:00:00.000000,0.00955601,0.02803573,0.10786266,8,25,97,1,7,33,0.00111443,0.00872637,0.03706684,0.58808834,0.75359444,1.20168800
42097,0,USPennsylvaniaNorthumberland,Pennsylvania,Northumberland,2020-07-18 06:46:51.632333,2020-03-14 00:00:00.000000,0.01208543,0.03497767,0.36085347,10,31,327,4,9,34,0.00449892,0.01020484,0.03780743,0.58808969,0.75362089,1.19960218
42097,0,USPennsylvaniaNorthumberland,Pennsylvania,Northumberland,2020-07-18 06:46:51.632333,2020-03-15 00:00:00.000000,0.01142398,0.03253812,0.12367935,10,29,112,1,9,33,0.00173237,0.00999790,0.03636801,0.58809306,0.75208181,1.19603730
42097,0,USPennsylvaniaNorthumberland,Pennsylvania,Northumberland,2020-07-18 06:46:51.632333,2020-03-16 00:00:00.000000,0.01431912,0.03872143,0.37613590,13,35,341,4,11,35,0.00532987,0.01242352,0.03905811,0.58810144,0.75050098,1.23887803
42097,0,USPennsylvaniaNorthumberland,Pennsylvania,Northumberland,2020-07-18 06:46:51.632333,2020-03-17 00:00:00.000000,0.01437434,0.03687599,0.13956106,13,33,126,2,10,33,0.00240148,0.01153601,0.03723294,0.58812222,0.75655119,1.35716662
42097,0,USPennsylvaniaNorthumberland,Pennsylvania,Northumberland,2020-07-18 06:46:51.632333,2020-03-18 00:00:00.000000,0.01704758,0.04423938,0.39123744,15,40,355,5,12,36,0.00650779,0.01387268,0.04058190,0.58817339,0.76403871,1.43815917
42097,0,USPennsylvaniaNorthumberland,Pennsylvania,Northumberland,2020-07-18 06:46:51.632333,2020-03-19 00:00:00.000000,0.01790797,0.04254709,0.15602754,16,38,141,2,11,36,0.00315516,0.01299123,0.04025363,0.58829591,0.76288308,1.51271462
42097,0,USPennsylvaniaNorthumberland,Pennsylvania,Northumberland,2020-07-18 06:46:51.632333,2020-03-20 00:00:00.000000,0.02091176,0.05154213,0.40717657,18,46,369,7,14,41,0.00788084,0.01579564,0.04524276,0.57279492,0.79634678,1.54417819
42097,0,USPennsylvaniaNorthumberland,Pennsylvania,Northumberland,2020-07-18 06:46:51.632333,2020-03-21 00:00:00.000000,0.02118431,0.05006142,0.17297033,19,45,157,3,13,42,0.00405526,0.01449118,0.04722171,0.57058373,0.81498938,1.55484556
42097,0,USPennsylvaniaNorthumberland,Pennsylvania,Northumberland,2020-07-18 06:46:51.632333,2020-03-22 00:00:00.000000,0.02580291,0.05859123,0.42506122,23,53,386,8,16,45,0.00902163,0.01784771,0.05011866,0.57453666,0.83600092,1.55750814
42097,0,USPennsylvaniaNorthumberland,Pennsylvania,Northumberland,2020-07-18 06:46:51.632333,2020-03-23 00:00:00.000000,0.02587016,0.05860341,0.18911580,23,53,171,4,14,46,0.00513750,0.01631911,0.05152778,0.54601006,0.85308497,1.55682596
42097,0,USPennsylvaniaNorthumberland,Pennsylvania,Northumberland,2020-07-18 06:46:51.632333,2020-03-24 00:00:00.000000,0.03158848,0.06617635,0.44735733,28,60,406,9,18,48,0.00994552,0.02017786,0.05378171,0.51341252,0.84674914,1.55379939
42097,0,USPennsylvaniaNorthumberland,Pennsylvania,Northumberland,2020-07-18 06:46:51.632333,2020-03-25 00:00:00.000000,0.03018008,0.06771639,0.20582391,27,61,186,5,17,51,0.00640054,0.01904006,0.05688585,0.50132986,0.85288251,1.54766228
42097,0,USPennsylvaniaNorthumberland,Pennsylvania,Northumberland,2020-07-18 06:46:51.632333,2020-03-26 00:00:00.000000,0.03842764,0.07933185,0.47245487,34,72,429,9,21,54,0.01086985,0.02323001,0.05954962,0.49908169,0.85503950,1.53617710
42097,0,USPennsylvaniaNorthumberland,Pennsylvania,Northumberland,2020-07-18 06:46:51.632333,2020-03-27 00:00:00.000000,0.03454889,0.07733202,0.22388333,31,70,203,7,20,56,0.00834627,0.02213723,0.06240607,0.49660880,0.85546489,1.51532763
42097,0,USPennsylvaniaNorthumberland,Pennsylvania,Northumberland,2020-07-18 06:46:51.632333,2020-03-28 00:00:00.000000,0.04592551,0.09324018,0.49897607,41,84,453,10,24,59,0.01175962,0.02740291,0.06601610,0.48982458,0.85690426,1.48207755
42097,0,USPennsylvaniaNorthumberland,Pennsylvania,Northumberland,2020-07-18 06:46:51.632333,2020-03-29 00:00:00.000000,0.04027992,0.08729717,0.24352120,36,79,221,9,23,66,0.01023999,0.02601076,0.07325847,0.46903384,0.85298634,1.42872938
42097,0,USPennsylvaniaNorthumberland,Pennsylvania,Northumberland,2020-07-18 06:46:51.632333,2020-03-30 00:00:00.000000,0.05311849,0.10614004,0.52772387,48,96,479,12,29,75,0.01329791,0.03220740,0.08354681,0.47458665,0.84077543,1.34681959
42097,0,USPennsylvaniaNorthumberland,Pennsylvania,Northumberland,2020-07-18 06:46:51.632333,2020-03-31 00:00:00.000000,0.04515904,0.10374855,0.27057908,41,94,245,11,26,86,0.01227528,0.02901139,0.09503340,0.47084325,0.81735120,1.29076216
42097,0,USPennsylvaniaNorthumberland,Pennsylvania,Northumberland,2020-07-18 06:46:51.632333,2020-04-01 00:00:00.000000,0.05957325,0.12309918,0.55825414,54,111,507,13,33,92,0.01493810,0.03706196,0.10217926,0.46747845,0.79810554,1.27796183
42097,0,USPennsylvaniaNorthumberland,Pennsylvania,Northumberland,2020-07-18 06:46:51.632333,2020-04-02 00:00:00.000000,0.05081169,0.12055504,0.30077279,46,109,273,12,31,97,0.01385118,0.03451968,0.10773063,0.46970145,0.77584224,1.23024135
42097,0,USPennsylvaniaNorthumberland,Pennsylvania,Northumberland,2020-07-18 06:46:51.632333,2020-04-03 00:00:00.000000,0.06718392,0.14126309,0.58572799,61,128,532,15,38,105,0.01728519,0.04291335,0.11636748,0.43469622,0.75497365,1.21368209
42097,0,USPennsylvaniaNorthumberland,Pennsylvania,Northumberland,2020-07-18 06:46:51.632333,2020-04-04 00:00:00.000000,0.05769215,0.13418347,0.33078816,52,121,300,14,34,111,0.01546655,0.03850785,0.12319869,0.39737222,0.73103689,1.26379063
42097,0,USPennsylvaniaNorthumberland,Pennsylvania,Northumberland,2020-07-18 06:46:51.632333,2020-04-05 00:00:00.000000,0.07553143,0.15922010,0.59991649,68,144,544,17,42,120,0.01937015,0.04718248,0.13265784,0.37903390,0.70089316,1.30810582
42097,0,USPennsylvaniaNorthumberland,Pennsylvania,Northumberland,2020-07-18 06:46:51.632333,2020-04-06 00:00:00.000000,0.06286638,0.14832610,0.37636228,57,134,341,16,40,130,0.01791317,0.04455619,0.14420145,0.36717293,0.68408959,1.30139906
42097,0,USPennsylvaniaNorthumberland,Pennsylvania,Northumberland,2020-07-18 06:46:51.632333,2020-04-07 00:00:00.000000,0.08650057,0.17073811,0.60412066,78,155,548,19,48,139,0.02168844,0.05367089,0.15330756,0.36101450,0.66683663,1.30333349
42097,0,USPennsylvaniaNorthumberland,Pennsylvania,Northumberland,2020-07-18 06:46:51.632333,2020-04-08 00:00:00.000000,0.06760570,0.15674319,0.40582780,61,142,368,18,44,147,0.02037983,0.04880681,0.16271016,0.35742181,0.63521311,1.30390517
42097,0,USPennsylvaniaNorthumberland,Pennsylvania,Northumberland,2020-07-18 06:46:51.632333,2020-04-09 00:00:00.000000,0.09988318,0.18338372,0.61145399,90,166,555,21,52,153,0.02357253,0.05790375,0.16948097,0.35401810,0.62180620,1.30258672
42097,0,USPennsylvaniaNorthumberland,Pennsylvania,Northumberland,2020-07-18 06:46:51.632333,2020-04-10 00:00:00.000000,0.07237626,0.16982426,0.42954750,65,154,390,20,49,158,0.02257852,0.05450870,0.17451516,0.33992521,0.59537280,1.29181981
42097,0,USPennsylvaniaNorthumberland,Pennsylvania,Northumberland,2020-07-18 06:46:51.632333,2020-04-11 00:00:00.000000,0.10513431,0.19300059,0.61235786,95,175,556,24,57,162,0.02656181,0.06310921,0.17874424,0.31202583,0.57876468,1.24406823
42097,0,USPennsylvaniaNorthumberland,Pennsylvania,Northumberland,2020-07-18 06:46:51.632333,2020-04-12 00:00:00.000000,0.07498597,0.17849969,0.46766867,68,162,424,22,53,165,0.02422606,0.05868760,0.18264390,0.30857661,0.55189140,1.12752616
42097,0,USPennsylvaniaNorthumberland,Pennsylvania,Northumberland,2020-07-18 06:46:51.632333,2020-04-13 00:00:00.000000,0.10711337,0.20070909,0.60135684,97,182,546,25,60,171,0.02776644,0.06624241,0.18854279,0.28937927,0.52236278,1.04196448
42097,0,USPennsylvaniaNorthumberland,Pennsylvania,Northumberland,2020-07-18 06:46:51.632333,2020-04-14 00:00:00.000000,0.06928402,0.18164858,0.49417150,62,165,448,23,54,173,0.02534689,0.05976347,0.19060761,0.27270199,0.50655850,1.00904444
42097,0,USPennsylvaniaNorthumberland,Pennsylvania,Northumberland,2020-07-18 06:46:51.632333,2020-04-15 00:00:00.000000,0.10334278,0.20443962,0.59679157,93,185,542,25,64,175,0.02834380,0.07096093,0.19324630,0.25353122,0.49462050,0.97782364
42097,0,USPennsylvaniaNorthumberland,Pennsylvania,Northumberland,2020-07-18 06:46:51.632333,2020-04-16 00:00:00.000000,0.06866438,0.18668619,0.51677053,62,169,469,24,56,174,0.02642082,0.06220831,0.19193720,0.24743881,0.48009582,0.95257957
42097,0,USPennsylvaniaNorthumberland,Pennsylvania,Northumberland,2020-07-18 06:46:51.632333,2020-04-17 00:00:00.000000,0.10277410,0.20808775,0.59703707,93,189,542,26,65,176,0.02890077,0.07217697,0.19471081,0.23022450,0.46204184,0.91949779
42097,0,USPennsylvaniaNorthumberland,Pennsylvania,Northumberland,2020-07-18 06:46:51.632333,2020-04-18 00:00:00.000000,0.06957231,0.19073268,0.53964258,63,173,490,24,58,181,0.02691290,0.06492116,0.20003286,0.20726194,0.43611992,0.87828708
42097,0,USPennsylvaniaNorthumberland,Pennsylvania,Northumberland,2020-07-18 06:46:51.632333,2020-04-19 00:00:00.000000,0.10408626,0.20833855,0.60403436,94,189,548,28,66,186,0.03114682,0.07300125,0.20478166,0.19216601,0.42439531,0.83722700
42097,0,USPennsylvaniaNorthumberland,Pennsylvania,Northumberland,2020-07-18 06:46:51.632333,2020-04-20 00:00:00.000000,0.07052548,0.19698429,0.56117321,64,178,509,25,60,187,0.02800871,0.06706175,0.20602589,0.18718838,0.41525793,0.80552736
42097,0,USPennsylvaniaNorthumberland,Pennsylvania,Northumberland,2020-07-18 06:46:51.632333,2020-04-21 00:00:00.000000,0.10127045,0.20875375,0.62057168,91,189,563,28,66,187,0.03185487,0.07297270,0.20621312,0.18839636,0.41205893,0.79057058
42097,0,USPennsylvaniaNorthumberland,Pennsylvania,Northumberland,2020-07-18 06:46:51.632333,2020-04-22 00:00:00.000000,0.07137100,0.20050929,0.58207145,64,182,528,26,61,186,0.02889672,0.06801199,0.20568505,0.19249873,0.41162944,0.78055878
42097,0,USPennsylvaniaNorthumberland,Pennsylvania,Northumberland,2020-07-18 06:46:51.632333,2020-04-23 00:00:00.000000,0.10034349,0.20987452,0.63575360,91,190,577,29,67,186,0.03221825,0.07443732,0.20554774,0.19639750,0.40511609,0.77271343
42097,0,USPennsylvaniaNorthumberland,Pennsylvania,Northumberland,2020-07-18 06:46:51.632333,2020-04-24 00:00:00.000000,0.06950246,0.19764839,0.59859367,63,179,543,26,61,188,0.02886418,0.06779284,0.20738983,0.19864236,0.40383917,0.78304835
42097,0,USPennsylvaniaNorthumberland,Pennsylvania,Northumberland,2020-07-18 06:46:51.632333,2020-04-25 00:00:00.000000,0.10102851,0.21048510,0.64532618,91,191,586,29,66,189,0.03234745,0.07344002,0.20900360,0.19961155,0.40312486,0.82209273
42097,0,USPennsylvaniaNorthumberland,Pennsylvania,Northumberland,2020-07-18 06:46:51.632333,2020-04-26 00:00:00.000000,0.07050035,0.19871337,0.60797635,64,180,552,26,60,191,0.02887461,0.06713687,0.21048777,0.19665572,0.40292750,0.87222381
42097,0,USPennsylvaniaNorthumberland,Pennsylvania,Northumberland,2020-07-18 06:46:51.632333,2020-04-27 00:00:00.000000,0.09992296,0.20951344,0.65477663,90,190,594,29,65,192,0.03225465,0.07196793,0.21190660,0.19248547,0.40143903,0.90021147
42097,0,USPennsylvaniaNorthumberland,Pennsylvania,Northumberland,2020-07-18 06:46:51.632333,2020-04-28 00:00:00.000000,0.06894065,0.19879547,0.61017603,62,180,554,26,62,193,0.02863640,0.06923887,0.21310949,0.18590796,0.40133067,0.90921658
42097,0,USPennsylvaniaNorthumberland,Pennsylvania,Northumberland,2020-07-18 06:46:51.632333,2020-04-29 00:00:00.000000,0.09884513,0.20774708,0.66155713,89,188,600,29,63,191,0.03196075,0.07039465,0.21098890,0.18155605,0.40992451,0.91119806
42097,0,USPennsylvaniaNorthumberland,Pennsylvania,Northumberland,2020-07-18 06:46:51.632333,2020-04-30 00:00:00.000000,0.06797253,0.20060585,0.60839575,61,182,552,25,63,189,0.02851937,0.06961924,0.20850846,0.18012685,0.41010669,0.91024997
42097,0,USPennsylvaniaNorthumberland,Pennsylvania,Northumberland,2020-07-18 06:46:51.632333,2020-05-01 00:00:00.000000,0.09657239,0.20709778,0.66463674,87,188,603,28,65,187,0.03191089,0.07164661,0.20588731,0.18062528,0.40716438,0.91957627
42097,0,USPennsylvaniaNorthumberland,Pennsylvania,Northumberland,2020-07-18 06:46:51.632333,2020-05-02 00:00:00.000000,0.06650178,0.20026567,0.60149947,60,181,546,25,63,186,0.02845737,0.07026465,0.20570818,0.18121249,0.40979076,0.92862320
42097,0,USPennsylvaniaNorthumberland,Pennsylvania,Northumberland,2020-07-18 06:46:51.632333,2020-05-03 00:00:00.000000,0.09630630,0.20731902,0.66575567,87,188,604,29,66,184,0.03212878,0.07297210,0.20337131,0.18223526,0.41138221,0.95428409
42097,0,USPennsylvaniaNorthumberland,Pennsylvania,Northumberland,2020-07-18 06:46:51.632333,2020-05-04 00:00:00.000000,0.06530696,0.20112019,0.59085818,59,182,536,26,64,182,0.02863033,0.07112064,0.20065581,0.18507411,0.42053486,0.97269520
42097,0,USPennsylvaniaNorthumberland,Pennsylvania,Northumberland,2020-07-18 06:46:51.632333,2020-05-05 00:00:00.000000,0.09638858,0.21256797,0.66693832,87,193,605,29,67,180,0.03262288,0.07383817,0.19901120,0.18670534,0.42095042,0.98446176
42097,0,USPennsylvaniaNorthumberland,Pennsylvania,Northumberland,2020-07-18 06:46:51.632333,2020-05-06 00:00:00.000000,0.06477101,0.20177809,0.59028179,58,183,536,26,64,180,0.02892007,0.07146344,0.19878312,0.18876794,0.42080279,0.99126765
42097,0,USPennsylvaniaNorthumberland,Pennsylvania,Northumberland,2020-07-18 06:46:51.632333,2020-05-07 00:00:00.000000,0.09730157,0.21366861,0.67086393,88,194,609,30,68,181,0.03314019,0.07487483,0.20012632,0.18955389,0.42627169,0.99500318
42097,0,USPennsylvaniaNorthumberland,Pennsylvania,Northumberland,2020-07-18 06:46:51.632333,2020-05-08 00:00:00.000000,0.06510164,0.20874539,0.59130750,59,189,537,26,65,182,0.02885679,0.07190831,0.20084656,0.19500877,0.43223911,0.99640284
42097,0,USPennsylvaniaNorthumberland,Pennsylvania,Northumberland,2020-07-18 06:46:51.632333,2020-05-09 00:00:00.000000,0.09919026,0.21938096,0.68145066,90,199,619,30,68,182,0.03389085,0.07535619,0.20143634,0.19881872,0.42897600,0.99389359
42097,0,USPennsylvaniaNorthumberland,Pennsylvania,Northumberland,2020-07-18 06:46:51.632333,2020-05-10 00:00:00.000000,0.06567044,0.21542169,0.59558325,59,195,541,26,65,183,0.02889090,0.07179130,0.20208430,0.20081678,0.42971202,0.97991566
42097,0,USPennsylvaniaNorthumberland,Pennsylvania,Northumberland,2020-07-18 06:46:51.632333,2020-05-11 00:00:00.000000,0.09998146,0.22395431,0.69728343,90,203,633,31,69,183,0.03512056,0.07624056,0.20207889,0.19946583,0.43567852,0.93440141
42097,0,USPennsylvaniaNorthumberland,Pennsylvania,Northumberland,2020-07-18 06:46:51.632333,2020-05-12 00:00:00.000000,0.06610910,0.21790944,0.60249639,60,197,547,26,65,183,0.02919366,0.07181399,0.20235401,0.20036165,0.43679927,0.89681390
42097,0,USPennsylvaniaNorthumberland,Pennsylvania,Northumberland,2020-07-18 06:46:51.632333,2020-05-13 00:00:00.000000,0.09935384,0.22836011,0.71510284,90,207,649,33,70,184,0.03643151,0.07776154,0.20298134,0.20055315,0.42768532,0.87873467
42097,0,USPennsylvaniaNorthumberland,Pennsylvania,Northumberland,2020-07-18 06:46:51.632333,2020-05-14 00:00:00.000000,0.06675103,0.22126819,0.61061855,60,201,554,26,66,186,0.02900352,0.07304918,0.20552538,0.20053433,0.41825074,0.85770921
42097,0,USPennsylvaniaNorthumberland,Pennsylvania,Northumberland,2020-07-18 06:46:51.632333,2020-05-15 00:00:00.000000,0.10114909,0.23368273,0.73371554,91,212,666,33,70,188,0.03681857,0.07714290,0.20800971,0.20059926,0.41174779,0.82864669
42097,0,USPennsylvaniaNorthumberland,Pennsylvania,Northumberland,2020-07-18 06:46:51.632333,2020-05-16 00:00:00.000000,0.07055676,0.22558600,0.61952091,64,204,562,26,65,191,0.02901654,0.07252320,0.21041197,0.19910368,0.40619287,0.82851380
42097,0,USPennsylvaniaNorthumberland,Pennsylvania,Northumberland,2020-07-18 06:46:51.632333,2020-05-17 00:00:00.000000,0.10788753,0.23511126,0.75245892,98,213,683,33,70,192,0.03696916,0.07711201,0.21158751,0.19262747,0.40638114,0.84190450
42097,0,USPennsylvaniaNorthumberland,Pennsylvania,Northumberland,2020-07-18 06:46:51.632333,2020-05-18 00:00:00.000000,0.07584567,0.22708903,0.62911072,68,206,571,26,64,192,0.02904964,0.07069618,0.21194407,0.19252154,0.41737291,0.84784549
42097,0,USPennsylvaniaNorthumberland,Pennsylvania,Northumberland,2020-07-18 06:46:51.632333,2020-05-19 00:00:00.000000,0.11479515,0.23644016,0.76940409,104,214,698,33,70,193,0.03699358,0.07765823,0.21250290,0.18807397,0.41988830,0.84986940
42097,0,USPennsylvaniaNorthumberland,Pennsylvania,Northumberland,2020-07-18 06:46:51.632333,2020-05-20 00:00:00.000000,0.07137534,0.22666248,0.63799895,64,205,579,26,64,192,0.02873983,0.07152396,0.21215348,0.18274699,0.42109972,0.84995172
42097,0,USPennsylvaniaNorthumberland,Pennsylvania,Northumberland,2020-07-18 06:46:51.632333,2020-05-21 00:00:00.000000,0.11623101,0.24013601,0.78529066,105,218,713,33,73,193,0.03679177,0.08080874,0.21246425,0.17771509,0.42249783,0.84884513
42097,0,USPennsylvaniaNorthumberland,Pennsylvania,Northumberland,2020-07-18 06:46:51.632333,2020-05-22 00:00:00.000000,0.07036591,0.22480339,0.64600020,63,204,586,26,64,194,0.02914557,0.07082384,0.21398604,0.17318149,0.42037046,0.84523296
42097,0,USPennsylvaniaNorthumberland,Pennsylvania,Northumberland,2020-07-18 06:46:51.632333,2020-05-23 00:00:00.000000,0.11625808,0.24086381,0.80176187,105,218,728,33,75,197,0.03649271,0.08295466,0.21717944,0.16907379,0.41798922,0.84407357
42097,0,USPennsylvaniaNorthumberland,Pennsylvania,Northumberland,2020-07-18 06:46:51.632333,2020-05-24 00:00:00.000000,0.06993941,0.22437247,0.65008363,63,203,590,26,64,201,0.02918852,0.07100882,0.22164600,0.16584419,0.40362105,0.84308055
42097,0,USPennsylvaniaNorthumberland,Pennsylvania,Northumberland,2020-07-18 06:46:51.632333,2020-05-25 00:00:00.000000,0.11147505,0.24158761,0.81625371,101,219,741,33,74,205,0.03649637,0.08201780,0.22616425,0.16567597,0.39116429,0.84194259
42097,0,USPennsylvaniaNorthumberland,Pennsylvania,Northumberland,2020-07-18 06:46:51.632333,2020-05-26 00:00:00.000000,0.06830695,0.22642273,0.64655156,62,205,587,26,65,209,0.02896972,0.07196458,0.23051876,0.16903497,0.38824147,0.84113942
42097,0,USPennsylvaniaNorthumberland,Pennsylvania,Northumberland,2020-07-18 06:46:51.632333,2020-05-27 00:00:00.000000,0.11034395,0.23955126,0.81514222,100,217,740,32,72,213,0.03565731,0.07989412,0.23472235,0.17617492,0.38992793,0.83999814
42097,0,USPennsylvaniaNorthumberland,Pennsylvania,Northumberland,2020-07-18 06:46:51.632333,2020-05-28 00:00:00.000000,0.06739561,0.22843086,0.64690242,61,207,587,26,65,216,0.02883826,0.07217742,0.23879497,0.18663034,0.39212244,0.83712822
42097,0,USPennsylvaniaNorthumberland,Pennsylvania,Northumberland,2020-07-18 06:46:51.632333,2020-05-29 00:00:00.000000,0.10914145,0.24111335,0.81308238,99,219,738,33,71,220,0.03642179,0.07887612,0.24275822,0.18585183,0.39339344,0.82758904
42097,0,USPennsylvaniaNorthumberland,Pennsylvania,Northumberland,2020-07-18 06:46:51.632333,2020-05-30 00:00:00.000000,0.07158162,0.22805603,0.65322622,65,207,593,25,66,224,0.02846868,0.07321339,0.24661943,0.18953164,0.39706031,0.80292282
42097,0,USPennsylvaniaNorthumberland,Pennsylvania,Northumberland,2020-07-18 06:46:51.632333,2020-05-31 00:00:00.000000,0.11153486,0.24162185,0.82791447,101,219,752,33,72,227,0.03655135,0.08017528,0.25031411,0.18505682,0.40255843,0.75640650
42097,0,USPennsylvaniaNorthumberland,Pennsylvania,Northumberland,2020-07-18 06:46:51.632333,2020-06-01 00:00:00.000000,0.07742226,0.22514201,0.66014212,70,204,599,25,68,230,0.02806869,0.07546154,0.25354759,0.16713261,0.41329089,0.76502646
42097,0,USPennsylvaniaNorthumberland,Pennsylvania,Northumberland,2020-07-18 06:46:51.632333,2020-06-02 00:00:00.000000,0.11902041,0.23593336,0.84276972,108,214,765,32,72,232,0.03615687,0.08029109,0.25606712,0.15923169,0.41746688,0.78719942
42097,0,USPennsylvaniaNorthumberland,Pennsylvania,Northumberland,2020-07-18 06:46:51.632333,2020-06-03 00:00:00.000000,0.07971616,0.22136379,0.66692924,72,201,605,25,70,234,0.02834365,0.07761714,0.25759147,0.15999517,0.41843516,0.79790721
42097,0,USPennsylvaniaNorthumberland,Pennsylvania,Northumberland,2020-07-18 06:46:51.632333,2020-06-04 00:00:00.000000,0.11729308,0.23682082,0.85779866,106,215,779,32,73,233,0.03621107,0.08095682,0.25675267,0.16297636,0.42571154,0.81286297
42097,0,USPennsylvaniaNorthumberland,Pennsylvania,Northumberland,2020-07-18 06:46:51.632333,2020-06-05 00:00:00.000000,0.07898450,0.21987270,0.67344926,71,199,611,26,71,234,0.02902698,0.07822934,0.25769225,0.16560871,0.42437110,0.83967549
42097,0,USPennsylvaniaNorthumberland,Pennsylvania,Northumberland,2020-07-18 06:46:51.632333,2020-06-06 00:00:00.000000,0.11247285,0.23831198,0.87309489,102,216,793,32,74,234,0.03610326,0.08151482,0.25844306,0.16735345,0.42552108,0.87121192
42097,0,USPennsylvaniaNorthumberland,Pennsylvania,Northumberland,2020-07-18 06:46:51.632333,2020-06-07 00:00:00.000000,0.07832847,0.22295775,0.67940310,71,202,617,27,72,235,0.02984104,0.07932059,0.25907527,0.16832686,0.42615663,0.90870127
42097,0,USPennsylvaniaNorthumberland,Pennsylvania,Northumberland,2020-07-18 06:46:51.632333,2020-06-08 00:00:00.000000,0.10887113,0.24347612,0.88913815,98,221,807,32,74,235,0.03538564,0.08211639,0.25962656,0.16865687,0.42608244,0.91943115
42097,0,USPennsylvaniaNorthumberland,Pennsylvania,Northumberland,2020-07-18 06:46:51.632333,2020-06-09 00:00:00.000000,0.07777865,0.22463239,0.68485420,70,204,622,27,72,236,0.03018972,0.07941859,0.26011327,0.16899942,0.43399166,0.90415920
42097,0,USPennsylvaniaNorthumberland,Pennsylvania,Northumberland,2020-07-18 06:46:51.632333,2020-06-10 00:00:00.000000,0.10412769,0.24359743,0.90686911,94,221,823,31,73,236,0.03467927,0.08099633,0.26052854,0.16657868,0.43299598,0.88193201
42097,0,USPennsylvaniaNorthumberland,Pennsylvania,Northumberland,2020-07-18 06:46:51.632333,2020-06-11 00:00:00.000000,0.07950187,0.22650191,0.70389306,72,205,639,27,71,237,0.03033460,0.07872300,0.26117460,0.16476010,0.42815852,0.88748468
42097,0,USPennsylvaniaNorthumberland,Pennsylvania,Northumberland,2020-07-18 06:46:51.632333,2020-06-12 00:00:00.000000,0.10432575,0.24493203,0.92510992,94,222,840,31,74,239,0.03440908,0.08172177,0.26357182,0.16318886,0.43699940,0.88868003
42097,0,USPennsylvaniaNorthumberland,Pennsylvania,Northumberland,2020-07-18 06:46:51.632333,2020-06-13 00:00:00.000000,0.08111066,0.23126626,0.70525839,73,210,640,27,70,241,0.03022540,0.07803880,0.26598495,0.16275446,0.43962093,0.89122488
42097,0,USPennsylvaniaNorthumberland,Pennsylvania,Northumberland,2020-07-18 06:46:51.632333,2020-06-14 00:00:00.000000,0.10576356,0.24412909,0.94147141,96,221,855,31,74,243,0.03469870,0.08216124,0.26786504,0.16288229,0.43876874,0.89187599
42097,0,USPennsylvaniaNorthumberland,Pennsylvania,Northumberland,2020-07-18 06:46:51.632333,2020-06-15 00:00:00.000000,0.08139290,0.23175212,0.72561432,73,210,659,27,71,243,0.03076120,0.07844828,0.26814731,0.16309500,0.43900468,0.88311872
42097,0,USPennsylvaniaNorthumberland,Pennsylvania,Northumberland,2020-07-18 06:46:51.632333,2020-06-16 00:00:00.000000,0.10641886,0.24425898,0.95616273,96,221,868,31,75,243,0.03491886,0.08261398,0.26836624,0.16316235,0.44080357,0.87844828
42097,0,USPennsylvaniaNorthumberland,Pennsylvania,Northumberland,2020-07-18 06:46:51.632333,2020-06-17 00:00:00.000000,0.08278238,0.23450819,0.73943482,75,213,671,28,71,243,0.03113041,0.07839003,0.26854077,0.16310084,0.44503222,0.88099828
42097,0,USPennsylvaniaNorthumberland,Pennsylvania,Northumberland,2020-07-18 06:46:51.632333,2020-06-18 00:00:00.000000,0.10659163,0.24876028,0.97007208,96,225,881,31,74,244,0.03490691,0.08239943,0.26891925,0.16423124,0.44044718,0.88263730
42097,0,USPennsylvaniaNorthumberland,Pennsylvania,Northumberland,2020-07-18 06:46:51.632333,2020-06-19 00:00:00.000000,0.08448409,0.23633408,0.73419327,76,214,666,28,71,244,0.03165259,0.07858069,0.26937094,0.16441598,0.42489190,0.87977164
42097,0,USPennsylvaniaNorthumberland,Pennsylvania,Northumberland,2020-07-18 06:46:51.632333,2020-06-20 00:00:00.000000,0.10671207,0.25028259,0.98280324,96,227,892,31,75,246,0.03458806,0.08285430,0.27100998,0.16640721,0.42192272,0.83889106
42097,0,USPennsylvaniaNorthumberland,Pennsylvania,Northumberland,2020-07-18 06:46:51.632333,2020-06-21 00:00:00.000000,0.08442390,0.23386472,0.72614114,76,212,659,28,72,250,0.03146823,0.07970628,0.27569775,0.16906160,0.42066092,0.82758997
42097,0,USPennsylvaniaNorthumberland,Pennsylvania,Northumberland,2020-07-18 06:46:51.632333,2020-06-22 00:00:00.000000,0.10651687,0.24476530,0.98933097,96,222,898,31,75,254,0.03427988,0.08264381,0.28007095,0.17139310,0.41594750,0.82687955
42097,0,USPennsylvaniaNorthumberland,Pennsylvania,Northumberland,2020-07-18 06:46:51.632333,2020-06-23 00:00:00.000000,0.08189309,0.23451526,0.71294831,74,213,647,28,72,257,0.03124521,0.08006897,0.28302557,0.17283589,0.40279350,0.82684487
42097,0,USPennsylvaniaNorthumberland,Pennsylvania,Northumberland,2020-07-18 06:46:51.632333,2020-06-24 00:00:00.000000,0.10637602,0.23891313,0.98647792,96,217,896,30,74,257,0.03402687,0.08204022,0.28388199,0.17203355,0.39371653,0.82682933
42097,0,USPennsylvaniaNorthumberland,Pennsylvania,Northumberland,2020-07-18 06:46:51.632333,2020-06-25 00:00:00.000000,0.08039030,0.23432423,0.69744397,73,212,633,28,72,257,0.03100321,0.07946243,0.28324814,0.16911564,0.38480587,0.82661286
42097,0,USPennsylvaniaNorthumberland,Pennsylvania,Northumberland,2020-07-18 06:46:51.632333,2020-06-26 00:00:00.000000,0.10675077,0.23709220,0.98099930,96,215,891,30,74,255,0.03379964,0.08214278,0.28147593,0.16790519,0.37403924,0.82281859
42097,0,USPennsylvaniaNorthumberland,Pennsylvania,Northumberland,2020-07-18 06:46:51.632333,2020-06-27 00:00:00.000000,0.07989900,0.23037489,0.68142445,72,209,619,27,71,253,0.03070859,0.07831806,0.27874234,0.16524953,0.36782665,0.76401347
42097,0,USPennsylvaniaNorthumberland,Pennsylvania,Northumberland,2020-07-18 06:46:51.632333,2020-06-28 00:00:00.000000,0.10456701,0.23484972,0.97911115,94,213,889,30,74,250,0.03355611,0.08241608,0.27520741,0.15932889,0.36250781,0.72125808
42097,0,USPennsylvaniaNorthumberland,Pennsylvania,Northumberland,2020-07-18 06:46:51.632333,2020-06-29 00:00:00.000000,0.07339919,0.22447134,0.66710122,66,203,606,27,70,250,0.03028220,0.07801442,0.27554281,0.15622772,0.36048195,0.70472863
42097,0,USPennsylvaniaNorthumberland,Pennsylvania,Northumberland,2020-07-18 06:46:51.632333,2020-06-30 00:00:00.000000,0.10381946,0.22983093,0.98129870,94,208,891,30,74,250,0.03307739,0.08239913,0.27585340,0.15292508,0.35682363,0.70313357
42097,0,USPennsylvaniaNorthumberland,Pennsylvania,Northumberland,2020-07-18 06:46:51.632333,2020-07-01 00:00:00.000000,0.06958718,0.22064587,0.66329754,63,200,602,26,70,250,0.02958715,0.07730544,0.27601494,0.15098713,0.35433124,0.70307626
42097,0,USPennsylvaniaNorthumberland,Pennsylvania,Northumberland,2020-07-18 06:46:51.632333,2020-07-02 00:00:00.000000,0.10520257,0.22332184,0.99448966,95,202,903,29,72,250,0.03249483,0.08014092,0.27605753,0.14196463,0.35456884,0.70300947
42097,0,USPennsylvaniaNorthumberland,Pennsylvania,Northumberland,2020-07-18 06:46:51.632333,2020-07-03 00:00:00.000000,0.06821522,0.21217577,0.66112913,61,192,600,26,68,250,0.02866907,0.07523457,0.27600893,0.13866436,0.35970401,0.70081620
42097,0,USPennsylvaniaNorthumberland,Pennsylvania,Northumberland,2020-07-18 06:46:51.632333,2020-07-04 00:00:00.000000,0.10428009,0.21878209,1.01929826,94,198,925,29,71,250,0.03219678,0.07915580,0.27589130,0.13970385,0.36340544,0.64664910
42097,0,USPennsylvaniaNorthumberland,Pennsylvania,Northumberland,2020-07-18 06:46:51.632333,2020-07-05 00:00:00.000000,0.06621933,0.21051159,0.65881608,60,191,598,24,65,250,0.02741416,0.07254734,0.27572138,0.14208529,0.35752834,0.60318479
42097,0,USPennsylvaniaNorthumberland,Pennsylvania,Northumberland,2020-07-18 06:46:51.632333,2020-07-06 00:00:00.000000,0.10080236,0.21378478,1.02823990,91,194,934,28,70,250,0.03166804,0.07744414,0.27551142,0.14200518,0.34823451,0.60710568
42097,0,USPennsylvaniaNorthumberland,Pennsylvania,Northumberland,2020-07-18 06:46:51.632333,2020-07-07 00:00:00.000000,0.06592679,0.19918347,0.65656668,59,180,596,23,64,250,0.02633692,0.07070777,0.27527038,0.14199664,0.34705358,0.60734835
42097,0,USPennsylvaniaNorthumberland,Pennsylvania,Northumberland,2020-07-18 06:46:51.632333,2020-07-08 00:00:00.000000,0.09550112,0.20693331,1.03620308,86,187,941,28,69,249,0.03155343,0.07618953,0.27500485,0.14203230,0.34372814,0.60734770
42097,0,USPennsylvaniaNorthumberland,Pennsylvania,Northumberland,2020-07-18 06:46:51.632333,2020-07-09 00:00:00.000000,0.06814466,0.18874782,0.65262140,61,171,592,23,62,249,0.02602171,0.06914956,0.27471975,0.14205222,0.34433238,0.60864637
42097,0,USPennsylvaniaNorthumberland,Pennsylvania,Northumberland,2020-07-18 06:46:51.632333,2020-07-10 00:00:00.000000,0.08962416,0.19972448,1.04323892,81,181,947,27,66,249,0.03003021,0.07322133,0.27441883,0.14206292,0.34535430,0.61399388
42097,0,USPennsylvaniaNorthumberland,Pennsylvania,Northumberland,2020-07-18 06:46:51.632333,2020-07-11 00:00:00.000000,0.06825613,0.18559196,0.61767322,62,168,561,22,61,248,0.02494522,0.06777041,0.27405241,0.14206854,0.34619502,0.61597696
42097,0,USPennsylvaniaNorthumberland,Pennsylvania,Northumberland,2020-07-18 06:46:51.632333,2020-07-12 00:00:00.000000,0.08365497,0.19599981,1.05069853,75,178,954,24,66,248,0.02739374,0.07327903,0.27351756,0.14207147,0.34639065,0.61644489
42097,0,USPennsylvaniaNorthumberland,Pennsylvania,Northumberland,2020-07-18 06:46:51.632333,2020-07-13 00:00:00.000000,0.06592210,0.17748822,0.60887963,59,161,553,21,58,247,0.02327706,0.06488567,0.27296815,0.14207298,0.34652293,0.61650790
42097,0,USPennsylvaniaNorthumberland,Pennsylvania,Northumberland,2020-07-18 06:46:51.632333,2020-07-14 00:00:00.000000,0.07943522,0.18904563,1.05850543,72,171,961,23,67,247,0.02546479,0.07474743,0.27240680,0.14207376,0.34661197,0.61652133
42097,0,USPennsylvaniaNorthumberland,Pennsylvania,Northumberland,2020-07-18 06:46:51.632333,2020-07-15 00:00:00.000000,0.06369930,0.17134867,0.60878403,57,155,553,19,55,246,0.02180207,0.06103395,0.27183565,0.14207416,0.34667173,0.61652423
42097,0,USPennsylvaniaNorthumberland,Pennsylvania,Northumberland,2020-07-18 06:46:51.632333,2020-07-16 00:00:00.000000,0.07322044,0.18273175,1.06645297,66,165,968,21,67,246,0.02319840,0.07377698,0.27125642,0.14207436,0.34671174,0.61652487
42097,0,USPennsylvaniaNorthumberland,Pennsylvania,Northumberland,2020-07-18 06:46:51.632333,2020-07-17 00:00:00.000000,0.06153880,0.16180805,0.60866018,55,146,552,19,54,245,0.02158443,0.05971001,0.27067049,0.14207447,0.34673851,0.61652501
42097,0,USPennsylvaniaNorthumberland,Pennsylvania,Northumberland,2020-07-18 06:46:51.632333,2020-07-18 00:00:00.000000,0.06711966,0.17495449,1.07444755,60,158,976,19,67,245,0.02110792,0.07378683,0.27007902,0.14207452,0.34675640,0.61652504
42097,0,USPennsylvaniaNorthumberland,Pennsylvania,Northumberland,2020-07-18 06:46:51.632333,2020-07-19 00:00:00.000000,0.05948733,0.15961467,0.60850657,54,144,552,17,52,244,0.01968674,0.05809806,0.26948294,0.14207455,0.34676835,0.61652505
42097,0,USPennsylvaniaNorthumberland,Pennsylvania,Northumberland,2020-07-18 06:46:51.632333,2020-07-20 00:00:00.000000,0.06137508,0.17137182,1.08245175,55,155,983,17,65,244,0.01924402,0.07259340,0.26888300,0.14207456,0.34677634,0.61652505
42097,0,USPennsylvaniaNorthumberland,Pennsylvania,Northumberland,2020-07-18 06:46:51.632333,2020-07-21 00:00:00.000000,0.05753739,0.15667551,0.60832227,52,142,552,16,51,243,0.01795568,0.05627326,0.26827983,0.14207457,0.34678167,0.61652505
42097,0,USPennsylvaniaNorthumberland,Pennsylvania,Northumberland,2020-07-18 06:46:51.632333,2020-07-22 00:00:00.000000,0.05599203,0.16530306,1.09045039,50,150,990,16,61,243,0.01762572,0.06810376,0.26767393,0.14207457,0.34678523,0.61652505
42097,0,USPennsylvaniaNorthumberland,Pennsylvania,Northumberland,2020-07-18 06:46:51.632333,2020-07-23 00:00:00.000000,0.05306172,0.15211543,0.60810672,48,138,552,14,51,242,0.01643876,0.05670769,0.26706572,0.14207457,0.34678761,0.61652505
42097,0,USPennsylvaniaNorthumberland,Pennsylvania,Northumberland,2020-07-18 06:46:51.632333,2020-07-24 00:00:00.000000,0.05093728,0.15962848,1.09843673,46,145,997,14,61,245,0.01614313,0.06741564,0.27069863,0.14207458,0.34678920,0.61652505
42097,0,USPennsylvaniaNorthumberland,Pennsylvania,Northumberland,2020-07-18 06:46:51.632333,2020-07-25 00:00:00.000000,0.04878437,0.14831740,0.61484044,44,134,558,13,51,242,0.01515552,0.05627113,0.26701715,0.14207458,0.34679026,0.61652505
42097,0,USPennsylvaniaNorthumberland,Pennsylvania,Northumberland,2020-07-18 06:46:51.632333,2020-07-26 00:00:00.000000,0.04634241,0.15709117,1.10640723,42,142,1005,13,59,240,0.01478495,0.06564628,0.26523037,0.14207458,0.34679097,0.61652505
42097,0,USPennsylvaniaNorthumberland,Pennsylvania,Northumberland,2020-07-18 06:46:51.632333,2020-07-27 00:00:00.000000,0.04420585,0.14460065,0.62368306,40,131,566,12,48,240,0.01381897,0.05366085,0.26468642,0.14207458,0.34679145,0.61652505
42097,0,USPennsylvaniaNorthumberland,Pennsylvania,Northumberland,2020-07-18 06:46:51.632333,2020-07-28 00:00:00.000000,0.04215147,0.15468549,1.11435951,38,140,1012,12,57,240,0.01354078,0.06284102,0.26420611,0.14207458,0.34679177,0.61652505
42097,0,USPennsylvaniaNorthumberland,Pennsylvania,Northumberland,2020-07-18 06:46:51.632333,2020-07-29 00:00:00.000000,0.04020978,0.14137868,0.63260741,36,128,574,11,49,239,0.01295845,0.05398743,0.26372370,0.14207458,0.34679198,0.61652505
42097,0,USPennsylvaniaNorthumberland,Pennsylvania,Northumberland,2020-07-18 06:46:51.632333,2020-07-30 00:00:00.000000,0.03834342,0.15304968,1.12229157,34,139,1019,11,54,239,0.01240111,0.06041660,0.26323927,0.14207458,0.34679212,0.61652505
