FIPS,HR_UID,nameid,province,region,analysisTime,dates,pointprevalence_025,pointprevalence_50,pointprevalence_975,pointinfections_025,pointinfections_50,pointinfections_975,pointinfectious_025,pointinfectious_50,pointinfectious_975,pointinfectiousprevalence_05,pointinfectiousprevalence_50,pointinfectiousprevalence_95,infectrate_025,infectrate_50,infectrate_975
19059,0,USIowaDickinson,Iowa,Dickinson,2020-07-18 16:17:08.335506,2020-03-09 00:00:00.000000,0.00756509,0.04887552,0.36133645,1,8,62,0,3,26,0.00222199,0.02226732,0.15618983,0.50060770,0.67439295,0.81056286
19059,0,USIowaDickinson,Iowa,Dickinson,2020-07-18 16:17:08.335506,2020-03-10 00:00:00.000000,0.00666787,0.04499422,0.24907942,1,7,42,0,3,22,0.00388854,0.02186334,0.12768319,0.50060769,0.67385973,0.81056273
19059,0,USIowaDickinson,Iowa,Dickinson,2020-07-18 16:17:08.335506,2020-03-11 00:00:00.000000,0.00784050,0.03950933,0.19828043,1,6,34,0,3,19,0.00325687,0.01988425,0.11045990,0.50060768,0.67309644,0.81056248
19059,0,USIowaDickinson,Iowa,Dickinson,2020-07-18 16:17:08.335506,2020-03-12 00:00:00.000000,0.00802963,0.04118645,0.17432418,1,7,30,0,3,15,0.00369686,0.02097228,0.09006655,0.50060766,0.67201318,0.81056198
19059,0,USIowaDickinson,Iowa,Dickinson,2020-07-18 16:17:08.335506,2020-03-13 00:00:00.000000,0.00763658,0.03616366,0.14851951,1,6,25,0,3,13,0.00343037,0.01862170,0.08112151,0.50060760,0.67049451,0.81056100
19059,0,USIowaDickinson,Iowa,Dickinson,2020-07-18 16:17:08.335506,2020-03-14 00:00:00.000000,0.00801514,0.03583019,0.13372421,1,6,23,0,3,11,0.00405568,0.01870080,0.06778599,0.50060746,0.66840152,0.81055913
19059,0,USIowaDickinson,Iowa,Dickinson,2020-07-18 16:17:08.335506,2020-03-15 00:00:00.000000,0.00746870,0.03126623,0.11294616,1,5,19,0,2,10,0.00381792,0.01578948,0.06265691,0.50060698,0.66558397,0.81035535
19059,0,USIowaDickinson,Iowa,Dickinson,2020-07-18 16:17:08.335506,2020-03-16 00:00:00.000000,0.00886859,0.03148933,0.10393150,1,5,17,0,2,10,0.00433486,0.01542622,0.05830316,0.50060482,0.66346112,0.80966340
19059,0,USIowaDickinson,Iowa,Dickinson,2020-07-18 16:17:08.335506,2020-03-17 00:00:00.000000,0.00827305,0.02607341,0.09581730,1,4,16,0,2,9,0.00405104,0.01362735,0.05502769,0.50059106,0.66250642,0.80863255
19059,0,USIowaDickinson,Iowa,Dickinson,2020-07-18 16:17:08.335506,2020-03-18 00:00:00.000000,0.01006616,0.02735974,0.09195956,1,4,15,0,2,8,0.00418522,0.01300088,0.04975357,0.50048541,0.66091731,0.80715014
19059,0,USIowaDickinson,Iowa,Dickinson,2020-07-18 16:17:08.335506,2020-03-19 00:00:00.000000,0.00904955,0.02276302,0.08798218,1,3,15,0,2,8,0.00398460,0.01179814,0.04658851,0.49961478,0.65640535,0.80896528
19059,0,USIowaDickinson,Iowa,Dickinson,2020-07-18 16:17:08.335506,2020-03-20 00:00:00.000000,0.00880700,0.02105723,0.08218769,1,3,14,0,1,7,0.00438612,0.01099496,0.04257971,0.49257464,0.63843273,0.81643265
19059,0,USIowaDickinson,Iowa,Dickinson,2020-07-18 16:17:08.335506,2020-03-21 00:00:00.000000,0.00764228,0.01976443,0.07591562,1,3,13,0,1,6,0.00400927,0.01034971,0.03946729,0.47797044,0.62877403,0.82532951
19059,0,USIowaDickinson,Iowa,Dickinson,2020-07-18 16:17:08.335506,2020-03-22 00:00:00.000000,0.00749021,0.02080813,0.07620810,1,3,13,0,1,6,0.00398807,0.01008081,0.03781609,0.46005110,0.62418566,0.84233954
19059,0,USIowaDickinson,Iowa,Dickinson,2020-07-18 16:17:08.335506,2020-03-23 00:00:00.000000,0.00652175,0.01959086,0.07121491,1,3,12,0,1,6,0.00326475,0.00970256,0.03586033,0.44647433,0.61794414,0.86231121
19059,0,USIowaDickinson,Iowa,Dickinson,2020-07-18 16:17:08.335506,2020-03-24 00:00:00.000000,0.00626382,0.01921333,0.07621673,1,3,13,0,1,6,0.00298882,0.01011274,0.03525271,0.43507147,0.61506823,0.87787862
19059,0,USIowaDickinson,Iowa,Dickinson,2020-07-18 16:17:08.335506,2020-03-25 00:00:00.000000,0.00537435,0.01825135,0.06850714,0,3,11,0,1,5,0.00272205,0.00901957,0.03259167,0.43283655,0.60679074,0.89985866
19059,0,USIowaDickinson,Iowa,Dickinson,2020-07-18 16:17:08.335506,2020-03-26 00:00:00.000000,0.00479861,0.01737577,0.07811618,0,2,13,0,1,5,0.00238388,0.00954659,0.03268905,0.42905609,0.59932964,0.92253461
19059,0,USIowaDickinson,Iowa,Dickinson,2020-07-18 16:17:08.335506,2020-03-27 00:00:00.000000,0.00427297,0.01661438,0.06933606,0,2,11,0,1,5,0.00196188,0.00830897,0.03059615,0.42318798,0.60374738,0.92535821
19059,0,USIowaDickinson,Iowa,Dickinson,2020-07-18 16:17:08.335506,2020-03-28 00:00:00.000000,0.00368701,0.01658006,0.08457213,0,2,14,0,1,5,0.00180949,0.00811826,0.03173198,0.40981631,0.61057847,0.90894628
19059,0,USIowaDickinson,Iowa,Dickinson,2020-07-18 16:17:08.335506,2020-03-29 00:00:00.000000,0.00319140,0.01508139,0.06543581,0,2,11,0,1,4,0.00156194,0.00756704,0.02860994,0.39898979,0.61176860,0.92410347
19059,0,USIowaDickinson,Iowa,Dickinson,2020-07-18 16:17:08.335506,2020-03-30 00:00:00.000000,0.00278689,0.01376409,0.09201394,0,2,15,0,1,5,0.00136482,0.00734340,0.03083357,0.39152656,0.60826627,0.94627426
19059,0,USIowaDickinson,Iowa,Dickinson,2020-07-18 16:17:08.335506,2020-03-31 00:00:00.000000,0.00245703,0.01230255,0.07043853,0,2,12,0,1,4,0.00119668,0.00642661,0.02542717,0.39072395,0.59978579,0.95770429
19059,0,USIowaDickinson,Iowa,Dickinson,2020-07-18 16:17:08.335506,2020-04-01 00:00:00.000000,0.00219262,0.01123519,0.09749135,0,1,16,0,1,5,0.00106370,0.00612702,0.03194373,0.39650997,0.58390210,1.01583296
19059,0,USIowaDickinson,Iowa,Dickinson,2020-07-18 16:17:08.335506,2020-04-02 00:00:00.000000,0.00198103,0.00982979,0.07591026,0,1,13,0,0,3,0.00095588,0.00550336,0.02240179,0.40571758,0.57044088,1.07241962
19059,0,USIowaDickinson,Iowa,Dickinson,2020-07-18 16:17:08.335506,2020-04-03 00:00:00.000000,0.00181125,0.00982707,0.10391106,0,1,17,0,0,5,0.00087091,0.00512031,0.03325401,0.41019349,0.56989570,1.09967317
19059,0,USIowaDickinson,Iowa,Dickinson,2020-07-18 16:17:08.335506,2020-04-04 00:00:00.000000,0.00167080,0.00854574,0.08425090,0,1,14,0,0,4,0.00080095,0.00476778,0.02467889,0.41499042,0.56883534,1.14301120
19059,0,USIowaDickinson,Iowa,Dickinson,2020-07-18 16:17:08.335506,2020-04-05 00:00:00.000000,0.00155085,0.00794559,0.11065550,0,1,19,0,0,5,0.00074229,0.00444006,0.03468165,0.42383725,0.57070152,1.17937669
19059,0,USIowaDickinson,Iowa,Dickinson,2020-07-18 16:17:08.335506,2020-04-06 00:00:00.000000,0.00144488,0.00738640,0.09488035,0,1,16,0,0,4,0.00069075,0.00405989,0.02695830,0.43626781,0.57494420,1.19072402
19059,0,USIowaDickinson,Iowa,Dickinson,2020-07-18 16:17:08.335506,2020-04-07 00:00:00.000000,0.00134921,0.00695278,0.11726935,0,1,20,0,0,6,0.00064468,0.00377967,0.03610654,0.44025989,0.57952764,1.19391197
19059,0,USIowaDickinson,Iowa,Dickinson,2020-07-18 16:17:08.335506,2020-04-08 00:00:00.000000,0.00126146,0.00654023,0.10621027,0,1,18,0,0,5,0.00060250,0.00347395,0.03003574,0.45444467,0.58544528,1.19436418
19059,0,USIowaDickinson,Iowa,Dickinson,2020-07-18 16:17:08.335506,2020-04-09 00:00:00.000000,0.00118036,0.00628478,0.12758642,0,1,22,0,0,6,0.00056366,0.00333860,0.03762951,0.46250236,0.62247633,1.19318255
19059,0,USIowaDickinson,Iowa,Dickinson,2020-07-18 16:17:08.335506,2020-04-10 00:00:00.000000,0.00110507,0.00627072,0.11810374,0,1,20,0,0,5,0.00052759,0.00323863,0.03341864,0.47492991,0.63699366,1.22050494
19059,0,USIowaDickinson,Iowa,Dickinson,2020-07-18 16:17:08.335506,2020-04-11 00:00:00.000000,0.00105563,0.00610483,0.14127018,0,1,24,0,0,6,0.00051185,0.00321433,0.03978706,0.48591127,0.64400681,1.29432042
19059,0,USIowaDickinson,Iowa,Dickinson,2020-07-18 16:17:08.335506,2020-04-12 00:00:00.000000,0.00099916,0.00598607,0.12964652,0,1,22,0,0,6,0.00052865,0.00314015,0.03719487,0.48991427,0.64611995,1.28348116
19059,0,USIowaDickinson,Iowa,Dickinson,2020-07-18 16:17:08.335506,2020-04-13 00:00:00.000000,0.00097260,0.00595130,0.15264210,0,1,26,0,0,7,0.00045956,0.00308537,0.04367285,0.49152850,0.64660387,1.21811887
19059,0,USIowaDickinson,Iowa,Dickinson,2020-07-18 16:17:08.335506,2020-04-14 00:00:00.000000,0.00096399,0.00587531,0.14024792,0,1,24,0,0,7,0.00048579,0.00308567,0.04095184,0.49508988,0.65236762,1.11921921
19059,0,USIowaDickinson,Iowa,Dickinson,2020-07-18 16:17:08.335506,2020-04-15 00:00:00.000000,0.00095621,0.00575404,0.16135678,0,0,27,0,0,8,0.00044520,0.00300625,0.04788158,0.49593027,0.65980685,1.12429582
19059,0,USIowaDickinson,Iowa,Dickinson,2020-07-18 16:17:08.335506,2020-04-16 00:00:00.000000,0.00095193,0.00567815,0.15362922,0,0,26,0,0,7,0.00046931,0.00296378,0.04503638,0.49825460,0.66919576,1.17900631
19059,0,USIowaDickinson,Iowa,Dickinson,2020-07-18 16:17:08.335506,2020-04-17 00:00:00.000000,0.00095088,0.00555082,0.18011796,0,0,31,0,0,9,0.00044148,0.00285079,0.05279671,0.50199964,0.67277401,1.21239341
19059,0,USIowaDickinson,Iowa,Dickinson,2020-07-18 16:17:08.335506,2020-04-18 00:00:00.000000,0.00090760,0.00547181,0.17315286,0,0,29,0,0,8,0.00047294,0.00275979,0.04958866,0.50937335,0.71231337,1.24113956
19059,0,USIowaDickinson,Iowa,Dickinson,2020-07-18 16:17:08.335506,2020-04-19 00:00:00.000000,0.00090519,0.00539395,0.20493508,0,0,35,0,0,10,0.00044792,0.00271475,0.05950211,0.51409717,0.74611976,1.27161961
19059,0,USIowaDickinson,Iowa,Dickinson,2020-07-18 16:17:08.335506,2020-04-20 00:00:00.000000,0.00093251,0.00522838,0.19995032,0,0,34,0,0,9,0.00046840,0.00266334,0.05488079,0.51596925,0.76860607,1.28773443
19059,0,USIowaDickinson,Iowa,Dickinson,2020-07-18 16:17:08.335506,2020-04-21 00:00:00.000000,0.00097023,0.00504553,0.24077138,0,0,41,0,0,11,0.00044658,0.00260500,0.06844956,0.52425792,0.77798585,1.29522541
19059,0,USIowaDickinson,Iowa,Dickinson,2020-07-18 16:17:08.335506,2020-04-22 00:00:00.000000,0.00100152,0.00504503,0.22973488,0,0,39,0,0,10,0.00046708,0.00256092,0.06042541,0.52594355,0.81706876,1.29939271
19059,0,USIowaDickinson,Iowa,Dickinson,2020-07-18 16:17:08.335506,2020-04-23 00:00:00.000000,0.00106363,0.00517992,0.27454086,0,0,47,0,0,13,0.00048309,0.00261062,0.07740305,0.52359848,0.85752296,1.36579968
19059,0,USIowaDickinson,Iowa,Dickinson,2020-07-18 16:17:08.335506,2020-04-24 00:00:00.000000,0.00115728,0.00529066,0.26461035,0,0,45,0,0,11,0.00052252,0.00268673,0.06699027,0.52323933,0.90616153,1.42522616
19059,0,USIowaDickinson,Iowa,Dickinson,2020-07-18 16:17:08.335506,2020-04-25 00:00:00.000000,0.00130050,0.00548995,0.31117757,0,0,53,0,0,15,0.00056696,0.00277919,0.08799248,0.52629617,0.93770271,1.47805115
19059,0,USIowaDickinson,Iowa,Dickinson,2020-07-18 16:17:08.335506,2020-04-26 00:00:00.000000,0.00147581,0.00573650,0.30969644,0,0,53,0,0,13,0.00063649,0.00291036,0.07690700,0.52604103,0.95236002,1.48802136
19059,0,USIowaDickinson,Iowa,Dickinson,2020-07-18 16:17:08.335506,2020-04-27 00:00:00.000000,0.00167804,0.00600284,0.35191978,0,1,60,0,0,17,0.00072051,0.00304027,0.09945493,0.52833035,0.95929079,1.49472139
19059,0,USIowaDickinson,Iowa,Dickinson,2020-07-18 16:17:08.335506,2020-04-28 00:00:00.000000,0.00179965,0.00633989,0.36918532,0,1,63,0,0,15,0.00082051,0.00318459,0.09006682,0.53313167,0.96136888,1.50311081
19059,0,USIowaDickinson,Iowa,Dickinson,2020-07-18 16:17:08.335506,2020-04-29 00:00:00.000000,0.00184459,0.00682306,0.41930512,0,1,72,0,0,19,0.00089234,0.00333118,0.11202793,0.53614614,0.97632357,1.51499834
19059,0,USIowaDickinson,Iowa,Dickinson,2020-07-18 16:17:08.335506,2020-04-30 00:00:00.000000,0.00185749,0.00753396,0.44616932,0,1,76,0,0,18,0.00090716,0.00350223,0.10483173,0.53901522,0.98318348,1.52992680
19059,0,USIowaDickinson,Iowa,Dickinson,2020-07-18 16:17:08.335506,2020-05-01 00:00:00.000000,0.00187299,0.00809167,0.49548370,0,1,85,0,0,21,0.00091145,0.00367269,0.12673541,0.54639263,0.97641194,1.54705924
19059,0,USIowaDickinson,Iowa,Dickinson,2020-07-18 16:17:08.335506,2020-05-02 00:00:00.000000,0.00196561,0.00841249,0.53844288,0,1,92,0,0,21,0.00100319,0.00395220,0.12239672,0.55975687,0.98614429,1.57155709
19059,0,USIowaDickinson,Iowa,Dickinson,2020-07-18 16:17:08.335506,2020-05-03 00:00:00.000000,0.00215255,0.00896688,0.58369922,0,1,100,0,0,24,0.00100861,0.00433677,0.14442809,0.56723408,0.98758919,1.58751157
19059,0,USIowaDickinson,Iowa,Dickinson,2020-07-18 16:17:08.335506,2020-05-04 00:00:00.000000,0.00240773,0.00994496,0.63413172,0,1,109,0,0,24,0.00111602,0.00461151,0.14153301,0.56826524,1.01279728,1.61276325
19059,0,USIowaDickinson,Iowa,Dickinson,2020-07-18 16:17:08.335506,2020-05-05 00:00:00.000000,0.00266778,0.01047020,0.69303797,0,1,119,0,0,28,0.00123081,0.00491455,0.16492924,0.57611079,1.01327914,1.69431867
19059,0,USIowaDickinson,Iowa,Dickinson,2020-07-18 16:17:08.335506,2020-05-06 00:00:00.000000,0.00287834,0.01121259,0.75598142,0,1,130,0,0,28,0.00135499,0.00518158,0.16313311,0.57552867,1.02878114,1.74405456
19059,0,USIowaDickinson,Iowa,Dickinson,2020-07-18 16:17:08.335506,2020-05-07 00:00:00.000000,0.00300054,0.01245246,0.82654222,0,2,142,0,0,32,0.00149636,0.00578938,0.19011578,0.57895768,1.04798262,1.76547951
19059,0,USIowaDickinson,Iowa,Dickinson,2020-07-18 16:17:08.335506,2020-05-08 00:00:00.000000,0.00314917,0.01334080,0.91504005,0,2,157,0,1,32,0.00155943,0.00630910,0.18822635,0.58428864,1.07204645,1.77839055
19059,0,USIowaDickinson,Iowa,Dickinson,2020-07-18 16:17:08.335506,2020-05-09 00:00:00.000000,0.00334693,0.01465713,1.01808808,0,2,175,0,1,38,0.00163149,0.00701591,0.22301324,0.60178857,1.13462797,1.79651223
19059,0,USIowaDickinson,Iowa,Dickinson,2020-07-18 16:17:08.335506,2020-05-10 00:00:00.000000,0.00364163,0.01657585,1.15512427,0,2,199,0,1,38,0.00172934,0.00793655,0.22563768,0.61983092,1.17037225,1.83485459
19059,0,USIowaDickinson,Iowa,Dickinson,2020-07-18 16:17:08.335506,2020-05-11 00:00:00.000000,0.00390982,0.01958213,1.25242656,0,3,216,0,1,48,0.00189927,0.00906560,0.27822003,0.61766593,1.20651649,1.85308030
19059,0,USIowaDickinson,Iowa,Dickinson,2020-07-18 16:17:08.335506,2020-05-12 00:00:00.000000,0.00423344,0.02225125,1.35741501,0,3,234,0,1,48,0.00217628,0.01034337,0.28168129,0.62129304,1.19185082,1.86664213
19059,0,USIowaDickinson,Iowa,Dickinson,2020-07-18 16:17:08.335506,2020-05-13 00:00:00.000000,0.00461870,0.02593483,1.47101621,0,4,253,0,2,61,0.00244566,0.01203350,0.35481553,0.63249770,1.24443189,1.86946152
19059,0,USIowaDickinson,Iowa,Dickinson,2020-07-18 16:17:08.335506,2020-05-14 00:00:00.000000,0.00512255,0.03024149,1.59421591,0,5,275,0,2,62,0.00268690,0.01394708,0.36398157,0.65344558,1.29767150,1.94758474
19059,0,USIowaDickinson,Iowa,Dickinson,2020-07-18 16:17:08.335506,2020-05-15 00:00:00.000000,0.00578103,0.03528352,1.88808915,0,6,325,0,2,78,0.00300049,0.01589548,0.45697897,0.66400113,1.29803207,2.06088487
19059,0,USIowaDickinson,Iowa,Dickinson,2020-07-18 16:17:08.335506,2020-05-16 00:00:00.000000,0.00663689,0.04118696,1.98424877,1,7,342,0,3,80,0.00340684,0.01857512,0.46799022,0.67032886,1.29010415,2.09003187
19059,0,USIowaDickinson,Iowa,Dickinson,2020-07-18 16:17:08.335506,2020-05-17 00:00:00.000000,0.00773811,0.04809980,2.42843274,1,8,419,0,3,103,0.00393268,0.02181745,0.59861916,0.69426755,1.29516964,2.23630043
19059,0,USIowaDickinson,Iowa,Dickinson,2020-07-18 16:17:08.335506,2020-05-18 00:00:00.000000,0.00913993,0.05619339,2.56604173,1,9,442,0,4,104,0.00460648,0.02556539,0.60330231,0.71931823,1.33906612,2.60940458
19059,0,USIowaDickinson,Iowa,Dickinson,2020-07-18 16:17:08.335506,2020-05-19 00:00:00.000000,0.01090022,0.06550161,3.43590767,1,11,592,0,5,131,0.00546047,0.03015565,0.76471111,0.73986204,1.37735857,2.78543609
19059,0,USIowaDickinson,Iowa,Dickinson,2020-07-18 16:17:08.335506,2020-05-20 00:00:00.000000,0.01308079,0.07488157,3.68951991,2,12,636,1,6,135,0.00652651,0.03551556,0.78688243,0.77401525,1.40302740,2.87423875
19059,0,USIowaDickinson,Iowa,Dickinson,2020-07-18 16:17:08.335506,2020-05-21 00:00:00.000000,0.01573884,0.08840508,4.91655070,2,15,848,1,7,185,0.00783876,0.04164124,1.07414694,0.81483296,1.41726097,2.96240525
19059,0,USIowaDickinson,Iowa,Dickinson,2020-07-18 16:17:08.335506,2020-05-22 00:00:00.000000,0.01896955,0.10376103,5.59978762,3,17,966,1,8,192,0.00943916,0.04658789,1.11727916,0.88263079,1.42399119,3.07960055
19059,0,USIowaDickinson,Iowa,Dickinson,2020-07-18 16:17:08.335506,2020-05-23 00:00:00.000000,0.02288287,0.12271108,6.97374971,3,21,1203,1,9,274,0.01138100,0.05385256,1.59109871,0.96153593,1.42837480,3.15181150
19059,0,USIowaDickinson,Iowa,Dickinson,2020-07-18 16:17:08.335506,2020-05-24 00:00:00.000000,0.02761714,0.14278382,8.37927314,4,24,1446,2,11,279,0.01373151,0.06450685,1.62040877,0.99932521,1.43128497,3.30977218
19059,0,USIowaDickinson,Iowa,Dickinson,2020-07-18 16:17:08.335506,2020-05-25 00:00:00.000000,0.03334746,0.17335206,10.41878072,5,29,1798,2,13,411,0.01657496,0.07663412,2.38550810,1.00432078,1.43493269,3.62717523
19059,0,USIowaDickinson,Iowa,Dickinson,2020-07-18 16:17:08.335506,2020-05-26 00:00:00.000000,0.04030446,0.20607864,12.77978641,6,35,2205,3,15,411,0.02001892,0.09139847,2.38334788,1.01300702,1.43971544,3.76749884
19059,0,USIowaDickinson,Iowa,Dickinson,2020-07-18 16:17:08.335506,2020-05-27 00:00:00.000000,0.04882092,0.24476202,15.86919549,8,42,2738,4,18,586,0.02420868,0.10935341,3.40056313,1.01613892,1.44862296,3.84162579
19059,0,USIowaDickinson,Iowa,Dickinson,2020-07-18 16:17:08.335506,2020-05-28 00:00:00.000000,0.05944513,0.29063640,19.08856957,10,50,3294,5,22,646,0.02936390,0.13289284,3.74665258,1.01023818,1.47276846,3.88723440
19059,0,USIowaDickinson,Iowa,Dickinson,2020-07-18 16:17:08.335506,2020-05-29 00:00:00.000000,0.07315930,0.34577637,23.05797696,12,59,3979,6,27,831,0.03586598,0.16133688,4.82028282,0.98905754,1.51557382,3.93906255
19059,0,USIowaDickinson,Iowa,Dickinson,2020-07-18 16:17:08.335506,2020-05-30 00:00:00.000000,0.09156984,0.41212716,26.79617736,15,71,4624,7,33,921,0.04433401,0.19354932,5.34030585,1.00623367,1.57388565,4.09886680
19059,0,USIowaDickinson,Iowa,Dickinson,2020-07-18 16:17:08.335506,2020-05-31 00:00:00.000000,0.11650567,0.49674552,31.27302243,20,85,5397,9,39,1183,0.05592653,0.23036938,6.85702797,1.00781816,1.59518079,4.62983481
19059,0,USIowaDickinson,Iowa,Dickinson,2020-07-18 16:17:08.335506,2020-06-01 00:00:00.000000,0.15051920,0.60223744,33.43738734,25,103,5770,12,47,1286,0.07186262,0.27409795,7.45660509,1.00551351,1.63931520,4.69663125
19059,0,USIowaDickinson,Iowa,Dickinson,2020-07-18 16:17:08.335506,2020-06-02 00:00:00.000000,0.19577366,0.71997248,37.44022915,33,124,6461,16,57,1506,0.09320013,0.33104744,8.72785693,1.00114535,1.66823755,4.72379735
19059,0,USIowaDickinson,Iowa,Dickinson,2020-07-18 16:17:08.335506,2020-06-03 00:00:00.000000,0.25532207,0.84183551,37.52343293,44,145,6475,20,67,1590,0.12141933,0.39358870,9.21699936,0.99425513,1.64742365,4.76025856
19059,0,USIowaDickinson,Iowa,Dickinson,2020-07-18 16:17:08.335506,2020-06-04 00:00:00.000000,0.33319845,1.01886185,40.73020912,57,175,7029,27,81,1886,0.15840579,0.47122795,10.93237995,0.98397106,1.61555107,4.81801403
19059,0,USIowaDickinson,Iowa,Dickinson,2020-07-18 16:17:08.335506,2020-06-05 00:00:00.000000,0.43471997,1.19756601,39.97235896,75,206,6898,35,98,1727,0.20671913,0.57163370,10.01055518,0.96953541,1.61103906,4.89852192
19059,0,USIowaDickinson,Iowa,Dickinson,2020-07-18 16:17:08.335506,2020-06-06 00:00:00.000000,0.56645590,1.46045602,38.55477569,97,252,6653,46,115,2005,0.26963127,0.66970956,11.62232802,0.95078766,1.53990980,5.11436723
19059,0,USIowaDickinson,Iowa,Dickinson,2020-07-18 16:17:08.335506,2020-06-07 00:00:00.000000,0.73462945,1.71454587,35.81415860,126,295,6180,60,135,1758,0.35105381,0.78265406,10.19059587,0.90738458,1.48590992,5.38223750
19059,0,USIowaDickinson,Iowa,Dickinson,2020-07-18 16:17:08.335506,2020-06-08 00:00:00.000000,0.93601085,1.99695568,32.52611417,161,344,5613,77,152,1850,0.45107501,0.88622157,10.72539565,0.81396549,1.42998449,5.53594702
19059,0,USIowaDickinson,Iowa,Dickinson,2020-07-18 16:17:08.335506,2020-06-09 00:00:00.000000,1.13965485,2.31319977,24.96002812,196,399,4307,97,172,1595,0.56602277,1.00204078,9.24413429,0.77828822,1.34551067,5.61551527
19059,0,USIowaDickinson,Iowa,Dickinson,2020-07-18 16:17:08.335506,2020-06-10 00:00:00.000000,1.32365999,2.59655223,21.67738059,228,448,3741,115,195,1628,0.67150535,1.13394142,9.43624069,0.70593382,1.28076784,5.63901161
19059,0,USIowaDickinson,Iowa,Dickinson,2020-07-18 16:17:08.335506,2020-06-11 00:00:00.000000,1.48822843,2.65314120,16.73125317,256,457,2887,128,211,1416,0.74571744,1.22642745,8.20552077,0.66530414,1.17925220,5.62879777
19059,0,USIowaDickinson,Iowa,Dickinson,2020-07-18 16:17:08.335506,2020-06-12 00:00:00.000000,1.62615190,2.60180317,14.70568709,280,449,2537,135,211,1354,0.78341300,1.22440962,7.85123760,0.58853715,1.05473651,5.61074781
19059,0,USIowaDickinson,Iowa,Dickinson,2020-07-18 16:17:08.335506,2020-06-13 00:00:00.000000,1.66230923,2.48791330,11.87033496,286,429,2048,141,217,1288,0.81866534,1.26052656,7.46547113,0.51894374,0.91434495,5.61811585
19059,0,USIowaDickinson,Iowa,Dickinson,2020-07-18 16:17:08.335506,2020-06-14 00:00:00.000000,1.65383104,2.46614320,10.31613599,285,425,1780,140,218,1253,0.81535914,1.26628932,7.26592636,0.49363970,0.80899170,5.69436737
19059,0,USIowaDickinson,Iowa,Dickinson,2020-07-18 16:17:08.335506,2020-06-15 00:00:00.000000,1.61428750,2.37690379,8.86480973,278,410,1529,137,212,1233,0.79712537,1.23398481,7.14764655,0.48293677,0.76610225,5.67827656
19059,0,USIowaDickinson,Iowa,Dickinson,2020-07-18 16:17:08.335506,2020-06-16 00:00:00.000000,1.51854291,2.24687598,8.74703640,262,387,1509,128,206,1211,0.74559554,1.19527949,7.02014610,0.47969954,0.76286727,5.47250104
19059,0,USIowaDickinson,Iowa,Dickinson,2020-07-18 16:17:08.335506,2020-06-17 00:00:00.000000,1.40195459,2.13720426,8.22429156,241,368,1419,120,190,1191,0.69973426,1.10187324,6.90244256,0.47875645,0.76085122,5.48695722
19059,0,USIowaDickinson,Iowa,Dickinson,2020-07-18 16:17:08.335506,2020-06-18 00:00:00.000000,1.31412276,2.04890896,8.03593639,226,353,1386,112,177,1178,0.65270959,1.03091736,6.83016747,0.47751663,0.75733819,5.49970246
19059,0,USIowaDickinson,Iowa,Dickinson,2020-07-18 16:17:08.335506,2020-06-19 00:00:00.000000,1.23020825,1.91748905,7.98645327,212,330,1378,103,167,1157,0.60144665,0.96899884,6.70909312,0.47423125,0.75103911,5.48228194
19059,0,USIowaDickinson,Iowa,Dickinson,2020-07-18 16:17:08.335506,2020-06-20 00:00:00.000000,1.13690519,1.81423747,7.91257710,196,313,1365,95,160,1148,0.55103732,0.93036258,6.65725752,0.46906633,0.75047499,5.63070827
19059,0,USIowaDickinson,Iowa,Dickinson,2020-07-18 16:17:08.335506,2020-06-21 00:00:00.000000,1.04475555,1.71568177,7.81329638,180,296,1348,87,150,1120,0.50570039,0.87391067,6.49415146,0.45638022,0.75365082,5.69710815
19059,0,USIowaDickinson,Iowa,Dickinson,2020-07-18 16:17:08.335506,2020-06-22 00:00:00.000000,0.95050461,1.65674145,7.68523568,164,285,1326,80,141,1112,0.46907728,0.81868188,6.44535104,0.45180062,0.75001664,5.70568065
19059,0,USIowaDickinson,Iowa,Dickinson,2020-07-18 16:17:08.335506,2020-06-23 00:00:00.000000,0.85622447,1.55761248,7.52392680,147,268,1298,75,133,1081,0.43525812,0.77342885,6.26858681,0.44645240,0.75421926,5.70493302
19059,0,USIowaDickinson,Iowa,Dickinson,2020-07-18 16:17:08.335506,2020-06-24 00:00:00.000000,0.78529010,1.47698342,7.32304633,135,254,1263,67,128,1072,0.39261328,0.74353014,6.21677547,0.44349571,0.75439206,5.69666118
19059,0,USIowaDickinson,Iowa,Dickinson,2020-07-18 16:17:08.335506,2020-06-25 00:00:00.000000,0.70820892,1.41521824,7.07846218,122,244,1221,60,119,1041,0.35147085,0.69176197,6.03750292,0.44792858,0.75493351,5.67690253
19059,0,USIowaDickinson,Iowa,Dickinson,2020-07-18 16:17:08.335506,2020-06-26 00:00:00.000000,0.64993916,1.34712381,6.78971618,112,232,1171,55,114,1034,0.32344360,0.66175756,5.99179597,0.45153878,0.76222981,5.63154787
19059,0,USIowaDickinson,Iowa,Dickinson,2020-07-18 16:17:08.335506,2020-06-27 00:00:00.000000,0.60219999,1.28898596,6.56397444,103,222,1132,51,107,1017,0.29936834,0.62484293,5.89363181,0.43470486,0.75641388,5.52582099
19059,0,USIowaDickinson,Iowa,Dickinson,2020-07-18 16:17:08.335506,2020-06-28 00:00:00.000000,0.55319215,1.20348777,6.35841646,95,207,1097,47,103,1013,0.27725267,0.59752690,5.87158049,0.42878967,0.77527484,5.32102283
19059,0,USIowaDickinson,Iowa,Dickinson,2020-07-18 16:17:08.335506,2020-06-29 00:00:00.000000,0.51107698,1.15533763,6.20311953,88,199,1070,44,102,999,0.25670743,0.59344606,5.79058906,0.42656896,0.79360835,5.18744613
19059,0,USIowaDickinson,Iowa,Dickinson,2020-07-18 16:17:08.335506,2020-06-30 00:00:00.000000,0.48270614,1.09995472,6.21936962,83,189,1073,41,96,994,0.24160111,0.56126591,5.76283473,0.42777995,0.80673935,5.09222092
19059,0,USIowaDickinson,Iowa,Dickinson,2020-07-18 16:17:08.335506,2020-07-01 00:00:00.000000,0.46764480,1.04047375,6.07973888,80,179,1049,39,91,982,0.23080273,0.53079413,5.69040067,0.43514452,0.81317217,4.88520333
19059,0,USIowaDickinson,Iowa,Dickinson,2020-07-18 16:17:08.335506,2020-07-02 00:00:00.000000,0.45398543,1.02116644,6.09574347,78,176,1052,38,88,976,0.22534702,0.51237570,5.66010507,0.44068893,0.82206508,4.72768588
19059,0,USIowaDickinson,Iowa,Dickinson,2020-07-18 16:17:08.335506,2020-07-03 00:00:00.000000,0.44464518,0.99225818,5.96809096,76,171,1029,37,84,965,0.21719888,0.48681698,5.59316233,0.45270705,0.84532356,4.63542957
19059,0,USIowaDickinson,Iowa,Dickinson,2020-07-18 16:17:08.335506,2020-07-04 00:00:00.000000,0.44382827,0.97810359,5.98057779,76,168,1032,35,79,959,0.20742674,0.46297283,5.56103084,0.46961432,0.87271723,4.60019609
19059,0,USIowaDickinson,Iowa,Dickinson,2020-07-18 16:17:08.335506,2020-07-05 00:00:00.000000,0.43756667,0.95009641,5.86389034,75,163,1011,35,78,948,0.20460022,0.45238687,5.49814188,0.47910447,0.89816795,4.59586653
19059,0,USIowaDickinson,Iowa,Dickinson,2020-07-18 16:17:08.335506,2020-07-06 00:00:00.000000,0.44412543,0.92446421,5.87250332,76,159,1013,35,76,943,0.20775474,0.44062005,5.46489414,0.48435978,0.91147695,4.84330679
19059,0,USIowaDickinson,Iowa,Dickinson,2020-07-18 16:17:08.335506,2020-07-07 00:00:00.000000,0.45351782,0.91094948,5.73476262,78,157,989,36,75,932,0.21207944,0.43917629,5.40503286,0.48653181,0.93246072,5.17444152
19059,0,USIowaDickinson,Iowa,Dickinson,2020-07-18 16:17:08.335506,2020-07-08 00:00:00.000000,0.45878432,0.90587219,5.69469600,79,156,982,37,75,926,0.21677698,0.43541636,5.37128932,0.49035443,0.93583566,5.23630145
19059,0,USIowaDickinson,Iowa,Dickinson,2020-07-18 16:17:08.335506,2020-07-09 00:00:00.000000,0.46446215,0.89777886,5.54803989,80,154,957,38,74,917,0.22168608,0.43303703,5.31364172,0.49345231,0.93879029,5.23584688
19059,0,USIowaDickinson,Iowa,Dickinson,2020-07-18 16:17:08.335506,2020-07-10 00:00:00.000000,0.46551479,0.89126879,5.49900324,80,153,949,39,74,911,0.22671876,0.43008326,5.27940678,0.49587474,0.93903149,5.23565275
19059,0,USIowaDickinson,Iowa,Dickinson,2020-07-18 16:17:08.335506,2020-07-11 00:00:00.000000,0.46268225,0.87977229,5.35873207,79,151,924,38,73,901,0.22410408,0.42363701,5.22290656,0.49767614,0.93911086,5.23556469
19059,0,USIowaDickinson,Iowa,Dickinson,2020-07-18 16:17:08.335506,2020-07-12 00:00:00.000000,0.46360341,0.86375126,5.29932108,80,149,914,38,72,895,0.22202453,0.41771072,5.18897960,0.49895844,0.93913694,5.23552222
19059,0,USIowaDickinson,Iowa,Dickinson,2020-07-18 16:17:08.335506,2020-07-13 00:00:00.000000,0.46358019,0.82484839,5.18325894,80,142,894,38,71,885,0.22081315,0.41396182,5.13345536,0.49984164,0.93914551,5.23550056
19059,0,USIowaDickinson,Iowa,Dickinson,2020-07-18 16:17:08.335506,2020-07-14 00:00:00.000000,0.46478659,0.79368882,5.16542000,80,136,891,38,69,880,0.22141499,0.40542715,5.10027198,0.50043595,0.93914832,5.23548900
19059,0,USIowaDickinson,Iowa,Dickinson,2020-07-18 16:17:08.335506,2020-07-15 00:00:00.000000,0.46574655,0.76880643,5.09154436,80,132,878,38,68,870,0.22411510,0.39679243,5.04539533,0.50082957,0.93914924,5.23548260
19059,0,USIowaDickinson,Iowa,Dickinson,2020-07-18 16:17:08.335506,2020-07-16 00:00:00.000000,0.46335563,0.76000928,5.07335812,79,131,875,38,67,865,0.22247657,0.39010375,5.01279654,0.50108752,0.93914955,5.23547897
19059,0,USIowaDickinson,Iowa,Dickinson,2020-07-18 16:17:08.335506,2020-07-17 00:00:00.000000,0.45778259,0.75958671,5.00206424,79,131,863,37,67,855,0.21869823,0.39025772,4.95870791,0.50125540,0.93914965,5.23547688
19059,0,USIowaDickinson,Iowa,Dickinson,2020-07-18 16:17:08.335506,2020-07-18 00:00:00.000000,0.45348399,0.75620601,4.98411220,78,130,860,36,66,850,0.21306759,0.38668527,4.92574245,0.50136415,0.93914968,5.23547565
19059,0,USIowaDickinson,Iowa,Dickinson,2020-07-18 16:17:08.335506,2020-07-19 00:00:00.000000,0.44613506,0.74877171,4.91457856,76,129,848,36,66,841,0.21309678,0.38518400,4.87345569,0.50143440,0.93914969,5.23547493
19059,0,USIowaDickinson,Iowa,Dickinson,2020-07-18 16:17:08.335506,2020-07-20 00:00:00.000000,0.43102931,0.73163307,4.89717776,74,126,845,36,65,835,0.21131571,0.37887594,4.84029187,0.50147969,0.93914969,5.23547451
19059,0,USIowaDickinson,Iowa,Dickinson,2020-07-18 16:17:08.335506,2020-07-21 00:00:00.000000,0.41791299,0.72194906,4.82904082,72,124,833,35,64,826,0.20786053,0.37180874,4.78965334,0.50150885,0.93914969,5.23547425
19059,0,USIowaDickinson,Iowa,Dickinson,2020-07-18 16:17:08.335506,2020-07-22 00:00:00.000000,0.40619714,0.70801491,4.81080422,70,122,830,34,64,820,0.20148510,0.37132879,4.75636354,0.50152762,0.93914969,5.23547410
19059,0,USIowaDickinson,Iowa,Dickinson,2020-07-18 16:17:08.335506,2020-07-23 00:00:00.000000,0.39147633,0.70677727,4.74533523,67,121,818,33,63,812,0.19570412,0.37079141,4.70727384,0.50153968,0.93914969,5.23547401
19059,0,USIowaDickinson,Iowa,Dickinson,2020-07-18 16:17:08.335506,2020-07-24 00:00:00.000000,0.37745984,0.69603241,4.72570916,65,120,815,31,62,806,0.18539779,0.36005195,4.67392411,0.50154744,0.93914969,5.23547396
19059,0,USIowaDickinson,Iowa,Dickinson,2020-07-18 16:17:08.335506,2020-07-25 00:00:00.000000,0.37147560,0.68674118,4.66331657,64,118,804,30,61,798,0.17678001,0.35513220,4.62629258,0.50155242,0.93914969,5.23547393
19059,0,USIowaDickinson,Iowa,Dickinson,2020-07-18 16:17:08.335506,2020-07-26 00:00:00.000000,0.35524924,0.67921912,4.64245349,61,117,801,29,59,792,0.17262010,0.34394769,4.59294265,0.50155563,0.93914969,5.23547391
19059,0,USIowaDickinson,Iowa,Dickinson,2020-07-18 16:17:08.335506,2020-07-27 00:00:00.000000,0.34013404,0.66418442,4.58287596,58,114,790,28,57,784,0.16597981,0.33078689,4.54668639,0.50155769,0.93914969,5.23547390
19059,0,USIowaDickinson,Iowa,Dickinson,2020-07-18 16:17:08.335506,2020-07-28 00:00:00.000000,0.32783634,0.64600019,4.56092298,56,111,787,27,56,778,0.15854495,0.32504057,4.51338988,0.50155901,0.93914969,5.23547389
19059,0,USIowaDickinson,Iowa,Dickinson,2020-07-18 16:17:08.335506,2020-07-29 00:00:00.000000,0.31685772,0.63355892,4.50393015,54,109,777,26,55,771,0.15140024,0.32414402,4.46843291,0.50155986,0.93914969,5.23547389
19059,0,USIowaDickinson,Iowa,Dickinson,2020-07-18 16:17:08.335506,2020-07-30 00:00:00.000000,0.29760447,0.60125771,4.48102652,51,103,773,24,53,765,0.14453844,0.31134560,4.43523780,0.50156040,0.93914969,5.23547388
