FIPS,HR_UID,nameid,province,region,analysisTime,dates,pointprevalence_025,pointprevalence_50,pointprevalence_975,pointinfections_025,pointinfections_50,pointinfections_975,pointinfectious_025,pointinfectious_50,pointinfectious_975,pointinfectiousprevalence_05,pointinfectiousprevalence_50,pointinfectiousprevalence_95,infectrate_025,infectrate_50,infectrate_975
18057,0,USIndianaHamilton,Indiana,Hamilton,2020-07-18 17:14:21.735678,2020-03-09 00:00:00.000000,0.00352560,0.00832570,0.02784572,11,28,94,2,13,44,0.00074242,0.00406059,0.01321433,0.66071328,0.89947145,1.24884865
18057,0,USIndianaHamilton,Indiana,Hamilton,2020-07-18 17:14:21.735678,2020-03-10 00:00:00.000000,0.00377895,0.00953596,0.02676018,12,32,90,7,17,48,0.00214528,0.00523157,0.01437076,0.66071328,0.89947307,1.24884834
18057,0,USIndianaHamilton,Indiana,Hamilton,2020-07-18 17:14:21.735678,2020-03-11 00:00:00.000000,0.00448477,0.01085131,0.03150450,15,36,106,8,20,55,0.00250591,0.00592488,0.01650193,0.66071328,0.89947751,1.24884812
18057,0,USIndianaHamilton,Indiana,Hamilton,2020-07-18 17:14:21.735678,2020-03-12 00:00:00.000000,0.00545499,0.01236749,0.03638203,18,41,122,10,23,62,0.00303601,0.00706593,0.01838950,0.66071328,0.89948960,1.24884982
18057,0,USIndianaHamilton,Indiana,Hamilton,2020-07-18 17:14:21.735678,2020-03-13 00:00:00.000000,0.00627023,0.01410519,0.04152414,21,47,140,11,27,70,0.00353923,0.00817233,0.02086959,0.66071331,0.89952227,1.24886288
18057,0,USIndianaHamilton,Indiana,Hamilton,2020-07-18 17:14:21.735678,2020-03-14 00:00:00.000000,0.00754080,0.01638889,0.04720815,25,55,159,14,32,78,0.00421458,0.00954214,0.02332960,0.66071347,0.89960999,1.24893042
18057,0,USIndianaHamilton,Indiana,Hamilton,2020-07-18 17:14:21.735678,2020-03-15 00:00:00.000000,0.00882582,0.01877329,0.05360771,29,63,181,16,36,90,0.00475876,0.01082342,0.02662651,0.66071442,0.89984402,1.24923569
18057,0,USIndianaHamilton,Indiana,Hamilton,2020-07-18 17:14:21.735678,2020-03-16 00:00:00.000000,0.01039100,0.02206631,0.06117322,35,74,206,19,42,101,0.00580399,0.01263186,0.03007625,0.66072024,0.90440706,1.25048506
18057,0,USIndianaHamilton,Indiana,Hamilton,2020-07-18 17:14:21.735678,2020-03-17 00:00:00.000000,0.01226419,0.02585374,0.07058819,41,87,238,22,49,119,0.00664261,0.01454854,0.03527200,0.66075663,0.90546877,1.25468295
18057,0,USIndianaHamilton,Indiana,Hamilton,2020-07-18 17:14:21.735678,2020-03-18 00:00:00.000000,0.01447163,0.02936188,0.08048960,48,99,272,26,57,139,0.00777061,0.01706295,0.04129248,0.66098737,0.90980826,1.30337065
18057,0,USIndianaHamilton,Indiana,Hamilton,2020-07-18 17:14:21.735678,2020-03-19 00:00:00.000000,0.01720930,0.03478857,0.09185402,58,117,310,31,66,162,0.00922593,0.01962202,0.04813720,0.66280239,0.91870452,1.37189158
18057,0,USIndianaHamilton,Indiana,Hamilton,2020-07-18 17:14:21.735678,2020-03-20 00:00:00.000000,0.02051206,0.04073278,0.11187669,69,137,378,37,78,186,0.01104505,0.02333341,0.05531950,0.65203031,0.91694365,1.52832989
18057,0,USIndianaHamilton,Indiana,Hamilton,2020-07-18 17:14:21.735678,2020-03-21 00:00:00.000000,0.02448761,0.04797207,0.13127451,82,162,443,44,91,216,0.01317576,0.02709127,0.06396097,0.66758623,0.91883680,1.64916621
18057,0,USIndianaHamilton,Indiana,Hamilton,2020-07-18 17:14:21.735678,2020-03-22 00:00:00.000000,0.02941689,0.05746031,0.14877004,99,194,502,53,107,251,0.01594054,0.03186992,0.07450887,0.66876364,0.93852676,1.68008106
18057,0,USIndianaHamilton,Indiana,Hamilton,2020-07-18 17:14:21.735678,2020-03-23 00:00:00.000000,0.03572134,0.06924752,0.17073524,120,234,577,65,125,294,0.01928531,0.03705072,0.08708016,0.67810504,0.94358486,1.68211630
18057,0,USIndianaHamilton,Indiana,Hamilton,2020-07-18 17:14:21.735678,2020-03-24 00:00:00.000000,0.04230420,0.08120464,0.20086970,142,274,678,78,147,346,0.02313985,0.04362875,0.10261804,0.66603349,0.94265890,1.68163806
18057,0,USIndianaHamilton,Indiana,Hamilton,2020-07-18 17:14:21.735678,2020-03-25 00:00:00.000000,0.05072769,0.09580504,0.23805626,171,323,804,93,173,417,0.02771675,0.05128271,0.12354379,0.64892530,0.94176448,1.67954647
18057,0,USIndianaHamilton,Indiana,Hamilton,2020-07-18 17:14:21.735678,2020-03-26 00:00:00.000000,0.06151190,0.11170372,0.28273294,207,377,955,112,203,499,0.03323807,0.06020522,0.14780895,0.62650064,0.93272925,1.67311131
18057,0,USIndianaHamilton,Indiana,Hamilton,2020-07-18 17:14:21.735678,2020-03-27 00:00:00.000000,0.07404937,0.13006735,0.33486789,250,439,1131,134,240,588,0.03974653,0.07123430,0.17416880,0.61441491,0.92105154,1.65702781
18057,0,USIndianaHamilton,Indiana,Hamilton,2020-07-18 17:14:21.735678,2020-03-28 00:00:00.000000,0.08642830,0.15182423,0.39441128,292,513,1333,160,279,688,0.04746080,0.08271498,0.20377820,0.56625495,0.90648598,1.61834094
18057,0,USIndianaHamilton,Indiana,Hamilton,2020-07-18 17:14:21.735678,2020-03-29 00:00:00.000000,0.10197603,0.17673105,0.47327433,344,597,1599,192,323,799,0.05697063,0.09572231,0.23650690,0.54902329,0.87236900,1.52127469
18057,0,USIndianaHamilton,Indiana,Hamilton,2020-07-18 17:14:21.735678,2020-03-30 00:00:00.000000,0.11975249,0.20091942,0.53725631,404,679,1815,226,371,942,0.06686806,0.10982615,0.27892679,0.51245231,0.81527795,1.38939902
18057,0,USIndianaHamilton,Indiana,Hamilton,2020-07-18 17:14:21.735678,2020-03-31 00:00:00.000000,0.13576783,0.22621198,0.58789570,458,764,1987,255,421,1084,0.07568960,0.12460886,0.32080887,0.49997177,0.77537148,1.26558221
18057,0,USIndianaHamilton,Indiana,Hamilton,2020-07-18 17:14:21.735678,2020-04-01 00:00:00.000000,0.14985937,0.25304904,0.62984780,506,855,2128,288,477,1235,0.08524051,0.14119064,0.36559140,0.49447783,0.72185495,1.17200194
18057,0,USIndianaHamilton,Indiana,Hamilton,2020-07-18 17:14:21.735678,2020-04-02 00:00:00.000000,0.16678713,0.27291392,0.67776411,563,922,2290,320,524,1390,0.09483724,0.15511919,0.41132711,0.44970265,0.66945772,1.07139395
18057,0,USIndianaHamilton,Indiana,Hamilton,2020-07-18 17:14:21.735678,2020-04-03 00:00:00.000000,0.17763882,0.28644815,0.71274902,600,968,2409,347,580,1528,0.10275850,0.17164628,0.45232293,0.38063613,0.62517844,0.98846156
18057,0,USIndianaHamilton,Indiana,Hamilton,2020-07-18 17:14:21.735678,2020-04-04 00:00:00.000000,0.18835660,0.29600714,0.74072547,636,1000,2503,373,617,1627,0.11043877,0.18268619,0.48149874,0.31055351,0.56524219,0.92084412
18057,0,USIndianaHamilton,Indiana,Hamilton,2020-07-18 17:14:21.735678,2020-04-05 00:00:00.000000,0.19239283,0.30741992,0.75371122,650,1039,2547,387,645,1701,0.11463366,0.19086025,0.50332243,0.26861019,0.51001165,0.86206819
18057,0,USIndianaHamilton,Indiana,Hamilton,2020-07-18 17:14:21.735678,2020-04-06 00:00:00.000000,0.19636370,0.31375693,0.76470808,663,1060,2584,391,669,1727,0.11590048,0.19804150,0.51100070,0.25991369,0.46858566,0.79764154
18057,0,USIndianaHamilton,Indiana,Hamilton,2020-07-18 17:14:21.735678,2020-04-07 00:00:00.000000,0.20261902,0.31555447,0.76537400,684,1066,2587,392,682,1702,0.11618418,0.20196837,0.50373291,0.25762537,0.44304444,0.73973521
18057,0,USIndianaHamilton,Indiana,Hamilton,2020-07-18 17:14:21.735678,2020-04-08 00:00:00.000000,0.19839191,0.31162575,0.77322855,670,1053,2613,389,685,1710,0.11517256,0.20288773,0.50596888,0.24349699,0.42295938,0.70269354
18057,0,USIndianaHamilton,Indiana,Hamilton,2020-07-18 17:14:21.735678,2020-04-09 00:00:00.000000,0.19350016,0.30836538,0.77082451,654,1042,2605,380,680,1697,0.11262269,0.20119363,0.50209089,0.21634601,0.40012429,0.67681397
18057,0,USIndianaHamilton,Indiana,Hamilton,2020-07-18 17:14:21.735678,2020-04-10 00:00:00.000000,0.18225872,0.30542160,0.76451902,616,1032,2584,367,669,1681,0.10877496,0.19818624,0.49734242,0.20947926,0.37340691,0.65530210
18057,0,USIndianaHamilton,Indiana,Hamilton,2020-07-18 17:14:21.735678,2020-04-11 00:00:00.000000,0.17309103,0.30417703,0.73789285,585,1028,2494,354,658,1632,0.10474805,0.19467592,0.48292116,0.20113776,0.35511098,0.65240409
18057,0,USIndianaHamilton,Indiana,Hamilton,2020-07-18 17:14:21.735678,2020-04-12 00:00:00.000000,0.16540085,0.29852379,0.70780555,559,1009,2392,340,644,1612,0.10059447,0.19071583,0.47694204,0.19458440,0.33317643,0.64929713
18057,0,USIndianaHamilton,Indiana,Hamilton,2020-07-18 17:14:21.735678,2020-04-13 00:00:00.000000,0.15809758,0.29331290,0.68008989,534,991,2298,325,640,1612,0.09638241,0.18948990,0.47716415,0.18556325,0.32892158,0.64655387
18057,0,USIndianaHamilton,Indiana,Hamilton,2020-07-18 17:14:21.735678,2020-04-14 00:00:00.000000,0.15120295,0.28678741,0.65729565,511,969,2221,311,633,1605,0.09220958,0.18735170,0.47493258,0.18510556,0.32853317,0.64682759
18057,0,USIndianaHamilton,Indiana,Hamilton,2020-07-18 17:14:21.735678,2020-04-15 00:00:00.000000,0.14405772,0.27784456,0.64108305,486,939,2166,297,621,1592,0.08813990,0.18383507,0.47099850,0.18760193,0.32822506,0.65599575
18057,0,USIndianaHamilton,Indiana,Hamilton,2020-07-18 17:14:21.735678,2020-04-16 00:00:00.000000,0.13691210,0.27196353,0.62299726,462,919,2105,278,605,1575,0.08251916,0.17904324,0.46605770,0.19549267,0.32976214,0.67863972
18057,0,USIndianaHamilton,Indiana,Hamilton,2020-07-18 17:14:21.735678,2020-04-17 00:00:00.000000,0.13108817,0.26563077,0.60497423,443,897,2044,261,597,1556,0.07722216,0.17675027,0.46053716,0.19573245,0.32819999,0.73618727
18057,0,USIndianaHamilton,Indiana,Hamilton,2020-07-18 17:14:21.735678,2020-04-18 00:00:00.000000,0.12615669,0.26138624,0.59799220,426,883,2021,244,589,1533,0.07238407,0.17449522,0.45357490,0.19277935,0.32819447,0.78788970
18057,0,USIndianaHamilton,Indiana,Hamilton,2020-07-18 17:14:21.735678,2020-04-19 00:00:00.000000,0.12237226,0.25777181,0.59180681,413,871,2000,235,575,1507,0.06972382,0.17016524,0.44602914,0.19169639,0.33169583,0.80818688
18057,0,USIndianaHamilton,Indiana,Hamilton,2020-07-18 17:14:21.735678,2020-04-20 00:00:00.000000,0.11913434,0.25103236,0.58177413,402,848,1966,231,561,1490,0.06836365,0.16618015,0.44098053,0.18477047,0.33994672,0.80980033
18057,0,USIndianaHamilton,Indiana,Hamilton,2020-07-18 17:14:21.735678,2020-04-21 00:00:00.000000,0.11931698,0.24616233,0.57705356,403,832,1950,230,556,1462,0.06819552,0.16466164,0.43278046,0.18167033,0.35017775,0.80846568
18057,0,USIndianaHamilton,Indiana,Hamilton,2020-07-18 17:14:21.735678,2020-04-22 00:00:00.000000,0.11906391,0.24168325,0.57361082,402,816,1938,229,554,1425,0.06799367,0.16394198,0.42167692,0.18062271,0.35205390,0.80526588
18057,0,USIndianaHamilton,Indiana,Hamilton,2020-07-18 17:14:21.735678,2020-04-23 00:00:00.000000,0.11615109,0.23751261,0.56276502,392,802,1902,226,547,1409,0.06690038,0.16190246,0.41691540,0.18043166,0.35216860,0.79990155
18057,0,USIndianaHamilton,Indiana,Hamilton,2020-07-18 17:14:21.735678,2020-04-24 00:00:00.000000,0.11373412,0.23815257,0.55052508,384,804,1860,221,539,1396,0.06561515,0.15961166,0.41314765,0.18104199,0.35045425,0.79558805
18057,0,USIndianaHamilton,Indiana,Hamilton,2020-07-18 17:14:21.735678,2020-04-25 00:00:00.000000,0.11157182,0.23172840,0.54200523,377,783,1832,218,534,1380,0.06460718,0.15800759,0.40844680,0.18275409,0.35434498,0.79201343
18057,0,USIndianaHamilton,Indiana,Hamilton,2020-07-18 17:14:21.735678,2020-04-26 00:00:00.000000,0.10970531,0.23014536,0.54107918,370,777,1828,215,532,1359,0.06381892,0.15757537,0.40221960,0.18350574,0.34904731,0.78354888
18057,0,USIndianaHamilton,Indiana,Hamilton,2020-07-18 17:14:21.735678,2020-04-27 00:00:00.000000,0.11040145,0.22335472,0.53204967,373,754,1798,213,526,1336,0.06317739,0.15566673,0.39526421,0.18482217,0.34612113,0.76533392
18057,0,USIndianaHamilton,Indiana,Hamilton,2020-07-18 17:14:21.735678,2020-04-28 00:00:00.000000,0.10816470,0.22196063,0.51810497,365,750,1751,211,511,1307,0.06262367,0.15143605,0.38668806,0.18308690,0.34572800,0.76069209
18057,0,USIndianaHamilton,Indiana,Hamilton,2020-07-18 17:14:21.735678,2020-04-29 00:00:00.000000,0.10560515,0.22005962,0.50357347,356,743,1702,209,502,1282,0.06211824,0.14871032,0.37943271,0.18213686,0.35087614,0.75621470
18057,0,USIndianaHamilton,Indiana,Hamilton,2020-07-18 17:14:21.735678,2020-04-30 00:00:00.000000,0.10386752,0.21857491,0.48938559,351,738,1654,209,490,1257,0.06202242,0.14501235,0.37197343,0.18337503,0.35639802,0.74901558
18057,0,USIndianaHamilton,Indiana,Hamilton,2020-07-18 17:14:21.735678,2020-05-01 00:00:00.000000,0.10249571,0.21282501,0.47537362,346,719,1606,208,484,1231,0.06164951,0.14332126,0.36429464,0.17882343,0.35815167,0.74430745
18057,0,USIndianaHamilton,Indiana,Hamilton,2020-07-18 17:14:21.735678,2020-05-02 00:00:00.000000,0.10164105,0.21179400,0.46147441,343,715,1559,205,478,1205,0.06081484,0.14153628,0.35650495,0.17444863,0.35130499,0.74901397
18057,0,USIndianaHamilton,Indiana,Hamilton,2020-07-18 17:14:21.735678,2020-05-03 00:00:00.000000,0.10087706,0.20434037,0.45448590,340,690,1536,202,471,1179,0.05996924,0.13959522,0.34885823,0.17101038,0.34864313,0.75225656
18057,0,USIndianaHamilton,Indiana,Hamilton,2020-07-18 17:14:21.735678,2020-05-04 00:00:00.000000,0.10014620,0.20370725,0.45106846,338,688,1524,199,467,1154,0.05914028,0.13822693,0.34147395,0.17090020,0.35531078,0.75465788
18057,0,USIndianaHamilton,Indiana,Hamilton,2020-07-18 17:14:21.735678,2020-05-05 00:00:00.000000,0.09948184,0.19723292,0.44968215,336,666,1519,197,456,1129,0.05834238,0.13505183,0.33417300,0.17388422,0.35889475,0.75617307
18057,0,USIndianaHamilton,Indiana,Hamilton,2020-07-18 17:14:21.735678,2020-05-06 00:00:00.000000,0.09894452,0.19565569,0.44170596,334,661,1493,194,445,1103,0.05744083,0.13191620,0.32658971,0.17827177,0.35653412,0.75586288
18057,0,USIndianaHamilton,Indiana,Hamilton,2020-07-18 17:14:21.735678,2020-05-07 00:00:00.000000,0.09861657,0.19286529,0.43466603,333,651,1469,189,433,1097,0.05602042,0.12815610,0.32482077,0.18142471,0.35332486,0.75205415
18057,0,USIndianaHamilton,Indiana,Hamilton,2020-07-18 17:14:21.735678,2020-05-08 00:00:00.000000,0.09674898,0.19022775,0.42769631,327,642,1445,183,420,1121,0.05428387,0.12435784,0.33173036,0.18201416,0.36666886,0.73799791
18057,0,USIndianaHamilton,Indiana,Hamilton,2020-07-18 17:14:21.735678,2020-05-09 00:00:00.000000,0.09648922,0.18737046,0.42091101,326,633,1422,178,408,1119,0.05268276,0.12075388,0.33109580,0.18267969,0.36366848,0.72400739
18057,0,USIndianaHamilton,Indiana,Hamilton,2020-07-18 17:14:21.735678,2020-05-10 00:00:00.000000,0.09629284,0.18421479,0.41426550,325,622,1400,173,400,1091,0.05127670,0.11841315,0.32277852,0.18230646,0.36918103,0.71974376
18057,0,USIndianaHamilton,Indiana,Hamilton,2020-07-18 17:14:21.735678,2020-05-11 00:00:00.000000,0.09579951,0.17841510,0.40772943,323,603,1378,169,392,1064,0.05011711,0.11598281,0.31490921,0.18098463,0.36359312,0.72063499
18057,0,USIndianaHamilton,Indiana,Hamilton,2020-07-18 17:14:21.735678,2020-05-12 00:00:00.000000,0.09496236,0.17174742,0.40128524,320,580,1356,166,385,1038,0.04920787,0.11390680,0.30736378,0.17853887,0.36053846,0.73256599
18057,0,USIndianaHamilton,Indiana,Hamilton,2020-07-18 17:14:21.735678,2020-05-13 00:00:00.000000,0.09411396,0.16886726,0.39818983,318,570,1345,163,379,1014,0.04849793,0.11225492,0.30004304,0.17788420,0.35643407,0.73664523
18057,0,USIndianaHamilton,Indiana,Hamilton,2020-07-18 17:14:21.735678,2020-05-14 00:00:00.000000,0.09321020,0.16754492,0.39770147,315,566,1344,161,369,989,0.04782765,0.10934108,0.29286869,0.17804258,0.35668813,0.73843282
18057,0,USIndianaHamilton,Indiana,Hamilton,2020-07-18 17:14:21.735678,2020-05-15 00:00:00.000000,0.09091947,0.16456412,0.39787973,307,556,1344,157,361,965,0.04671049,0.10706618,0.28575920,0.17963987,0.35270118,0.73934443
18057,0,USIndianaHamilton,Indiana,Hamilton,2020-07-18 17:14:21.735678,2020-05-16 00:00:00.000000,0.08810338,0.16289892,0.39569004,297,550,1337,154,357,941,0.04559672,0.10589929,0.27860929,0.17756352,0.35205705,0.73894568
18057,0,USIndianaHamilton,Indiana,Hamilton,2020-07-18 17:14:21.735678,2020-05-17 00:00:00.000000,0.08527469,0.15858751,0.38895384,288,536,1314,151,352,917,0.04471242,0.10427455,0.27133835,0.17662727,0.33785303,0.73162741
18057,0,USIndianaHamilton,Indiana,Hamilton,2020-07-18 17:14:21.735678,2020-05-18 00:00:00.000000,0.08248460,0.15483287,0.37183108,278,523,1256,148,345,892,0.04380465,0.10220872,0.26400240,0.17500533,0.33553647,0.70199292
18057,0,USIndianaHamilton,Indiana,Hamilton,2020-07-18 17:14:21.735678,2020-05-19 00:00:00.000000,0.07976468,0.15232906,0.35038121,269,514,1184,144,340,860,0.04276303,0.10070965,0.25453592,0.16961388,0.33063575,0.69121209
18057,0,USIndianaHamilton,Indiana,Hamilton,2020-07-18 17:14:21.735678,2020-05-20 00:00:00.000000,0.07746415,0.14852335,0.34097272,261,502,1152,139,331,824,0.04136670,0.09811342,0.24395608,0.16945718,0.33147785,0.67921839
18057,0,USIndianaHamilton,Indiana,Hamilton,2020-07-18 17:14:21.735678,2020-05-21 00:00:00.000000,0.07531922,0.14519547,0.33368229,254,490,1127,135,320,790,0.04017114,0.09478618,0.23393946,0.16895064,0.33258239,0.66940771
18057,0,USIndianaHamilton,Indiana,Hamilton,2020-07-18 17:14:21.735678,2020-05-22 00:00:00.000000,0.07371297,0.14149218,0.32476450,249,478,1097,131,312,765,0.03892965,0.09250204,0.22632613,0.16726207,0.33754957,0.66464095
18057,0,USIndianaHamilton,Indiana,Hamilton,2020-07-18 17:14:21.735678,2020-05-23 00:00:00.000000,0.07294612,0.13644012,0.31467753,246,461,1063,127,306,751,0.03764030,0.09058455,0.22218701,0.16511584,0.33819767,0.65296915
18057,0,USIndianaHamilton,Indiana,Hamilton,2020-07-18 17:14:21.735678,2020-05-24 00:00:00.000000,0.07197475,0.13021260,0.30365941,243,440,1026,123,293,737,0.03659237,0.08678488,0.21818402,0.16579945,0.33451832,0.65503374
18057,0,USIndianaHamilton,Indiana,Hamilton,2020-07-18 17:14:21.735678,2020-05-25 00:00:00.000000,0.06967937,0.12641047,0.29604823,235,427,1000,118,285,723,0.03499979,0.08441870,0.21416118,0.16888789,0.33197207,0.66328708
18057,0,USIndianaHamilton,Indiana,Hamilton,2020-07-18 17:14:21.735678,2020-05-26 00:00:00.000000,0.06736530,0.12402968,0.29128041,227,419,984,114,280,710,0.03373208,0.08299508,0.21030143,0.16887140,0.33037373,0.66859214
18057,0,USIndianaHamilton,Indiana,Hamilton,2020-07-18 17:14:21.735678,2020-05-27 00:00:00.000000,0.06386941,0.12106012,0.28667418,215,409,968,110,277,698,0.03280040,0.08203900,0.20659422,0.16886806,0.33013602,0.67174319
18057,0,USIndianaHamilton,Indiana,Hamilton,2020-07-18 17:14:21.735678,2020-05-28 00:00:00.000000,0.06099713,0.11868651,0.28282363,206,401,955,106,271,686,0.03143423,0.08021928,0.20301807,0.16886126,0.33111141,0.67362502
18057,0,USIndianaHamilton,Indiana,Hamilton,2020-07-18 17:14:21.735678,2020-05-29 00:00:00.000000,0.05855379,0.11723305,0.27797329,197,396,939,101,261,672,0.03013940,0.07741539,0.19885175,0.16884134,0.33706199,0.67498527
18057,0,USIndianaHamilton,Indiana,Hamilton,2020-07-18 17:14:21.735678,2020-05-30 00:00:00.000000,0.05598130,0.11398729,0.27329226,189,385,923,98,252,660,0.02904268,0.07472306,0.19545385,0.16879116,0.33866445,0.68756505
18057,0,USIndianaHamilton,Indiana,Hamilton,2020-07-18 17:14:21.735678,2020-05-31 00:00:00.000000,0.05425085,0.11290337,0.26869699,183,381,908,95,247,649,0.02836044,0.07335778,0.19220210,0.16868964,0.34999148,0.71106505
18057,0,USIndianaHamilton,Indiana,Hamilton,2020-07-18 17:14:21.735678,2020-06-01 00:00:00.000000,0.05318538,0.10921747,0.26416928,179,369,892,94,244,638,0.02797741,0.07241433,0.18901032,0.16862265,0.35491628,0.74527337
18057,0,USIndianaHamilton,Indiana,Hamilton,2020-07-18 17:14:21.735678,2020-06-02 00:00:00.000000,0.05138210,0.10741225,0.25972910,173,363,877,94,241,628,0.02804884,0.07149105,0.18585479,0.16868534,0.36270130,0.81522699
18057,0,USIndianaHamilton,Indiana,Hamilton,2020-07-18 17:14:21.735678,2020-06-03 00:00:00.000000,0.05157918,0.10556638,0.25540436,174,356,863,98,237,617,0.02905052,0.07025262,0.18274575,0.16917633,0.36683250,0.85762185
18057,0,USIndianaHamilton,Indiana,Hamilton,2020-07-18 17:14:21.735678,2020-06-04 00:00:00.000000,0.05224127,0.10423327,0.25121690,176,352,849,100,233,607,0.02973837,0.06910479,0.17970327,0.17096989,0.37595990,0.89446335
18057,0,USIndianaHamilton,Indiana,Hamilton,2020-07-18 17:14:21.735678,2020-06-05 00:00:00.000000,0.05165815,0.10186581,0.24718419,174,344,835,99,230,597,0.02931434,0.06811550,0.17674640,0.17606195,0.38133889,0.90297492
18057,0,USIndianaHamilton,Indiana,Hamilton,2020-07-18 17:14:21.735678,2020-06-06 00:00:00.000000,0.05117676,0.10101518,0.24334346,172,341,822,97,227,587,0.02882241,0.06722262,0.17389430,0.18022680,0.39036872,0.91643750
18057,0,USIndianaHamilton,Indiana,Hamilton,2020-07-18 17:14:21.735678,2020-06-07 00:00:00.000000,0.05018856,0.10057991,0.23983096,169,339,810,97,221,578,0.02872797,0.06554769,0.17118693,0.18405006,0.39022789,0.93743486
18057,0,USIndianaHamilton,Indiana,Hamilton,2020-07-18 17:14:21.735678,2020-06-08 00:00:00.000000,0.04966552,0.09988736,0.23704088,167,337,801,97,218,570,0.02890025,0.06459649,0.16875480,0.18954502,0.38905088,0.94597654
18057,0,USIndianaHamilton,Indiana,Hamilton,2020-07-18 17:14:21.735678,2020-06-09 00:00:00.000000,0.04927671,0.09937991,0.23551226,166,335,796,99,220,564,0.02942454,0.06515931,0.16694957,0.19640853,0.39635638,0.94420952
18057,0,USIndianaHamilton,Indiana,Hamilton,2020-07-18 17:14:21.735678,2020-06-10 00:00:00.000000,0.04825751,0.10166323,0.23479723,163,343,793,99,221,561,0.02947429,0.06558082,0.16621954,0.20479829,0.40509558,0.93129187
18057,0,USIndianaHamilton,Indiana,Hamilton,2020-07-18 17:14:21.735678,2020-06-11 00:00:00.000000,0.04807166,0.10035803,0.23572522,162,339,796,100,224,569,0.02974794,0.06653717,0.16853633,0.20650892,0.41344626,0.89359755
18057,0,USIndianaHamilton,Indiana,Hamilton,2020-07-18 17:14:21.735678,2020-06-12 00:00:00.000000,0.04877346,0.10002001,0.23907515,164,338,808,99,223,579,0.02943214,0.06614688,0.17131791,0.20713499,0.42373168,0.84314158
18057,0,USIndianaHamilton,Indiana,Hamilton,2020-07-18 17:14:21.735678,2020-06-13 00:00:00.000000,0.04995631,0.10211028,0.24235198,168,345,819,98,222,588,0.02916680,0.06583431,0.17407703,0.20893995,0.44217960,0.79867767
18057,0,USIndianaHamilton,Indiana,Hamilton,2020-07-18 17:14:21.735678,2020-06-14 00:00:00.000000,0.05067204,0.10419251,0.24549454,171,352,829,98,219,596,0.02906753,0.06505525,0.17661321,0.21390988,0.44835914,0.78401680
18057,0,USIndianaHamilton,Indiana,Hamilton,2020-07-18 17:14:21.735678,2020-06-15 00:00:00.000000,0.05121342,0.10547980,0.24864548,173,356,840,97,224,604,0.02879235,0.06638800,0.17888856,0.22272438,0.45140386,0.77922200
18057,0,USIndianaHamilton,Indiana,Hamilton,2020-07-18 17:14:21.735678,2020-06-16 00:00:00.000000,0.05240537,0.10578125,0.25188054,177,357,851,97,226,611,0.02888463,0.06701990,0.18094967,0.22551150,0.45213592,0.80500157
18057,0,USIndianaHamilton,Indiana,Hamilton,2020-07-18 17:14:21.735678,2020-06-17 00:00:00.000000,0.05349084,0.10758814,0.25528844,180,363,862,99,226,618,0.02937386,0.06712531,0.18286652,0.22939651,0.45360382,0.82910612
18057,0,USIndianaHamilton,Indiana,Hamilton,2020-07-18 17:14:21.735678,2020-06-18 00:00:00.000000,0.05477345,0.10738964,0.26276718,185,362,888,100,229,624,0.02983198,0.06794032,0.18471400,0.23207970,0.46006523,0.88284886
18057,0,USIndianaHamilton,Indiana,Hamilton,2020-07-18 17:14:21.735678,2020-06-19 00:00:00.000000,0.05645221,0.10886098,0.27081053,190,367,915,103,233,630,0.03056588,0.06917685,0.18658304,0.22795841,0.46663784,0.91954312
18057,0,USIndianaHamilton,Indiana,Hamilton,2020-07-18 17:14:21.735678,2020-06-20 00:00:00.000000,0.05831621,0.11207577,0.27724150,197,378,937,105,241,637,0.03129067,0.07144343,0.18872824,0.23034310,0.47330793,0.93007066
18057,0,USIndianaHamilton,Indiana,Hamilton,2020-07-18 17:14:21.735678,2020-06-21 00:00:00.000000,0.06042477,0.11274281,0.28142756,204,381,951,109,244,647,0.03235235,0.07238610,0.19158296,0.24271384,0.48207125,0.93249299
18057,0,USIndianaHamilton,Indiana,Hamilton,2020-07-18 17:14:21.735678,2020-06-22 00:00:00.000000,0.06305060,0.11601390,0.28609977,213,392,967,115,246,658,0.03421394,0.07298289,0.19478315,0.26112279,0.48817314,0.93319254
18057,0,USIndianaHamilton,Indiana,Hamilton,2020-07-18 17:14:21.735678,2020-06-23 00:00:00.000000,0.06609605,0.11893372,0.29481134,223,402,996,124,252,670,0.03670398,0.07463505,0.19831834,0.27415527,0.49509136,0.93711010
18057,0,USIndianaHamilton,Indiana,Hamilton,2020-07-18 17:14:21.735678,2020-06-24 00:00:00.000000,0.06956692,0.12299975,0.30692087,235,415,1037,131,262,684,0.03899814,0.07776366,0.20254801,0.28659323,0.50604695,0.93374460
18057,0,USIndianaHamilton,Indiana,Hamilton,2020-07-18 17:14:21.735678,2020-06-25 00:00:00.000000,0.07352955,0.12694978,0.31595982,248,429,1067,137,273,715,0.04063261,0.08081895,0.21166018,0.29825552,0.51185135,0.93770435
18057,0,USIndianaHamilton,Indiana,Hamilton,2020-07-18 17:14:21.735678,2020-06-26 00:00:00.000000,0.07823627,0.12990256,0.32801049,264,439,1108,141,280,755,0.04198095,0.08302657,0.22346739,0.31329539,0.51775584,0.95483838
18057,0,USIndianaHamilton,Indiana,Hamilton,2020-07-18 17:14:21.735678,2020-06-27 00:00:00.000000,0.08402739,0.13487911,0.33826537,284,455,1143,149,294,796,0.04424024,0.08711881,0.23558988,0.32451202,0.52245091,0.97166820
18057,0,USIndianaHamilton,Indiana,Hamilton,2020-07-18 17:14:21.735678,2020-06-28 00:00:00.000000,0.08842273,0.14363745,0.34852168,298,485,1178,160,306,838,0.04740777,0.09080631,0.24815199,0.33453223,0.52589945,0.99854782
18057,0,USIndianaHamilton,Indiana,Hamilton,2020-07-18 17:14:21.735678,2020-06-29 00:00:00.000000,0.09331621,0.15225503,0.36490899,315,514,1233,173,319,881,0.05119920,0.09454694,0.26065608,0.34185561,0.53121399,1.00963156
18057,0,USIndianaHamilton,Indiana,Hamilton,2020-07-18 17:14:21.735678,2020-06-30 00:00:00.000000,0.09735773,0.15905931,0.39052189,329,537,1320,183,333,925,0.05443102,0.09852324,0.27372414,0.34391489,0.53808455,1.00943685
18057,0,USIndianaHamilton,Indiana,Hamilton,2020-07-18 17:14:21.735678,2020-07-01 00:00:00.000000,0.10156546,0.16699421,0.41415234,343,564,1399,192,352,971,0.05685754,0.10428297,0.28745131,0.34926701,0.54275447,1.00858774
18057,0,USIndianaHamilton,Indiana,Hamilton,2020-07-18 17:14:21.735678,2020-07-02 00:00:00.000000,0.10674000,0.17705617,0.43623577,360,598,1474,198,369,1006,0.05884184,0.10921165,0.29775011,0.35448277,0.54822044,1.00990969
18057,0,USIndianaHamilton,Indiana,Hamilton,2020-07-18 17:14:21.735678,2020-07-03 00:00:00.000000,0.11402235,0.18790225,0.45874080,385,635,1550,206,387,1042,0.06108199,0.11478028,0.30853827,0.36999346,0.55741965,1.01210904
18057,0,USIndianaHamilton,Indiana,Hamilton,2020-07-18 17:14:21.735678,2020-07-04 00:00:00.000000,0.11999954,0.19688225,0.48115039,405,665,1626,218,410,1084,0.06451116,0.12144423,0.32070316,0.37109858,0.55998295,1.01585825
18057,0,USIndianaHamilton,Indiana,Hamilton,2020-07-18 17:14:21.735678,2020-07-05 00:00:00.000000,0.12577715,0.20593176,0.50512591,425,696,1707,230,433,1129,0.06827557,0.12824960,0.33428452,0.37375801,0.56316030,1.01378795
18057,0,USIndianaHamilton,Indiana,Hamilton,2020-07-18 17:14:21.735678,2020-07-06 00:00:00.000000,0.13252480,0.21524286,0.53201132,447,727,1798,244,452,1179,0.07220091,0.13393919,0.34902187,0.36676167,0.56945502,1.00976286
18057,0,USIndianaHamilton,Indiana,Hamilton,2020-07-18 17:14:21.735678,2020-07-07 00:00:00.000000,0.14266214,0.22485443,0.56263922,482,760,1901,257,474,1232,0.07627393,0.14048042,0.36467720,0.36601236,0.56731787,1.01049843
18057,0,USIndianaHamilton,Indiana,Hamilton,2020-07-18 17:14:21.735678,2020-07-08 00:00:00.000000,0.15158667,0.23744811,0.59748873,512,802,2019,272,501,1285,0.08047472,0.14835102,0.38036361,0.36581607,0.56818817,1.01259374
18057,0,USIndianaHamilton,Indiana,Hamilton,2020-07-18 17:14:21.735678,2020-07-09 00:00:00.000000,0.16335930,0.25017408,0.63639430,552,845,2151,290,532,1335,0.08590250,0.15743914,0.39512951,0.36576633,0.57054445,1.01427904
18057,0,USIndianaHamilton,Indiana,Hamilton,2020-07-18 17:14:21.735678,2020-07-10 00:00:00.000000,0.17334507,0.26397217,0.67890112,585,892,2294,311,557,1387,0.09226581,0.16495298,0.41043976,0.36575386,0.57066358,1.01557480
18057,0,USIndianaHamilton,Indiana,Hamilton,2020-07-18 17:14:21.735678,2020-07-11 00:00:00.000000,0.17962288,0.27993045,0.72313318,607,946,2444,325,590,1469,0.09640990,0.17473054,0.43488293,0.36510101,0.57073828,1.01653698
18057,0,USIndianaHamilton,Indiana,Hamilton,2020-07-18 17:14:21.735678,2020-07-12 00:00:00.000000,0.18537635,0.29950486,0.76961223,626,1012,2601,336,621,1559,0.09950682,0.18398402,0.46128199,0.36480117,0.57078541,1.01723314
18057,0,USIndianaHamilton,Indiana,Hamilton,2020-07-18 17:14:21.735678,2020-07-13 00:00:00.000000,0.18908156,0.31871055,0.81494222,639,1077,2754,343,662,1654,0.10171981,0.19605247,0.48934952,0.36466792,0.57081523,1.01772743
18057,0,USIndianaHamilton,Indiana,Hamilton,2020-07-18 17:14:21.735678,2020-07-14 00:00:00.000000,0.19286740,0.33726941,0.86142337,651,1140,2911,353,708,1754,0.10468021,0.20966545,0.51909741,0.36460909,0.57083410,1.01807370
18057,0,USIndianaHamilton,Indiana,Hamilton,2020-07-18 17:14:21.735678,2020-07-15 00:00:00.000000,0.19946792,0.35885344,0.91028742,674,1212,3076,365,753,1850,0.10817819,0.22290170,0.54746893,0.36458319,0.57084606,1.01831401
18057,0,USIndianaHamilton,Indiana,Hamilton,2020-07-18 17:14:21.735678,2020-07-16 00:00:00.000000,0.20634079,0.38071925,0.96161952,697,1286,3250,373,795,1948,0.11059990,0.23545482,0.57658891,0.36457181,0.57085363,1.01847970
18057,0,USIndianaHamilton,Indiana,Hamilton,2020-07-18 17:14:21.735678,2020-07-17 00:00:00.000000,0.21479806,0.40367406,1.01550460,726,1364,3432,381,840,2052,0.11283599,0.24875057,0.60714060,0.36456680,0.57085842,1.01859342
18057,0,USIndianaHamilton,Indiana,Hamilton,2020-07-18 17:14:21.735678,2020-07-18 00:00:00.000000,0.21896401,0.43061864,1.07118817,740,1455,3620,392,896,2192,0.11607407,0.26528608,0.64863555,0.36456461,0.57086146,1.01867123
18057,0,USIndianaHamilton,Indiana,Hamilton,2020-07-18 17:14:21.735678,2020-07-19 00:00:00.000000,0.22312347,0.45388974,1.12906866,754,1534,3816,405,946,2343,0.11999023,0.27987765,0.69329191,0.36456364,0.57086338,1.01872436
18057,0,USIndianaHamilton,Indiana,Hamilton,2020-07-18 17:14:21.735678,2020-07-20 00:00:00.000000,0.22733807,0.47777691,1.18959741,768,1614,4020,419,993,2503,0.12402935,0.29402406,0.74069013,0.36456322,0.57086460,1.01876058
18057,0,USIndianaHamilton,Indiana,Hamilton,2020-07-18 17:14:21.735678,2020-07-21 00:00:00.000000,0.23204840,0.50574042,1.25283860,784,1709,4234,433,1047,2673,0.12819474,0.30997609,0.79094914,0.36456303,0.57086537,1.01878525
18057,0,USIndianaHamilton,Indiana,Hamilton,2020-07-18 17:14:21.735678,2020-07-22 00:00:00.000000,0.23803007,0.53814457,1.31885096,804,1818,4457,447,1096,2853,0.13248955,0.32441370,0.84418569,0.36456295,0.57086586,1.01880204
18057,0,USIndianaHamilton,Indiana,Hamilton,2020-07-18 17:14:21.735678,2020-07-23 00:00:00.000000,0.24492323,0.56709489,1.38768661,827,1916,4690,461,1164,3043,0.13645958,0.34465837,0.90051298,0.36456291,0.57086617,1.01881347
18057,0,USIndianaHamilton,Indiana,Hamilton,2020-07-18 17:14:21.735678,2020-07-24 00:00:00.000000,0.25200273,0.59577926,1.45938994,851,2013,4932,472,1226,3239,0.13974346,0.36297522,0.95846899,0.36456290,0.57086637,1.01882123
18057,0,USIndianaHamilton,Indiana,Hamilton,2020-07-18 17:14:21.735678,2020-07-25 00:00:00.000000,0.25927222,0.63363381,1.54242480,876,2141,5213,483,1320,3439,0.14308877,0.39071923,1.01765511,0.36456289,0.57086649,1.01882652
18057,0,USIndianaHamilton,Indiana,Hamilton,2020-07-18 17:14:21.735678,2020-07-26 00:00:00.000000,0.26673522,0.66548811,1.63501358,901,2249,5526,495,1411,3650,0.14649573,0.41762574,1.08000968,0.36456289,0.57086657,1.01883011
18057,0,USIndianaHamilton,Indiana,Hamilton,2020-07-18 17:14:21.735678,2020-07-27 00:00:00.000000,0.27439519,0.70555898,1.73242291,927,2384,5855,506,1503,3872,0.14996451,0.44473211,1.14563649,0.36456289,0.57086662,1.01883255
18057,0,USIndianaHamilton,Indiana,Hamilton,2020-07-18 17:14:21.735678,2020-07-28 00:00:00.000000,0.28225544,0.74833792,1.83339335,954,2529,6197,518,1585,4105,0.15349520,0.46914018,1.21463344,0.36456289,0.57086665,1.01883421
18057,0,USIndianaHamilton,Indiana,Hamilton,2020-07-18 17:14:21.735678,2020-07-29 00:00:00.000000,0.29031921,0.78743914,1.95243372,981,2661,6599,530,1667,4350,0.15708782,0.49330804,1.28709091,0.36456289,0.57086667,1.01883534
18057,0,USIndianaHamilton,Indiana,Hamilton,2020-07-18 17:14:21.735678,2020-07-30 00:00:00.000000,0.29858959,0.82166710,2.07919353,1009,2777,7027,543,1746,4607,0.16074233,0.51671533,1.36308993,0.36456289,0.57086668,1.01883610
