FIPS,HR_UID,nameid,province,region,analysisTime,dates,pointprevalence_025,pointprevalence_50,pointprevalence_975,pointinfections_025,pointinfections_50,pointinfections_975,pointinfectious_025,pointinfectious_50,pointinfectious_975,pointinfectiousprevalence_05,pointinfectiousprevalence_50,pointinfectiousprevalence_95,infectrate_025,infectrate_50,infectrate_975
29011,0,USMissouriBarton,Missouri,Barton,2020-07-18 09:31:40.528979,2020-03-09 00:00:00.000000,100.50795112,101.17430036,102.28472859,11813,11892,12022,11422,11754,11766,97.18217164,100.00344387,100.10668075,1.75046378,1.87002810,1.98935495
29011,0,USMissouriBarton,Missouri,Barton,2020-07-18 09:31:40.528979,2020-03-10 00:00:00.000000,97.05307976,99.97980127,100.08981169,11407,11751,11764,10992,11610,11676,93.51717040,98.78102413,99.33717931,1.75046377,1.87002907,1.98942498
29011,0,USMissouriBarton,Missouri,Barton,2020-07-18 09:31:40.528979,2020-03-11 00:00:00.000000,93.36421167,98.75777913,99.32421054,10974,11607,11674,10560,11470,11599,89.84963855,97.59102577,98.68783075,1.75046374,1.87003126,1.98960718
29011,0,USMissouriBarton,Missouri,Barton,2020-07-18 09:31:40.528979,2020-03-12 00:00:00.000000,89.73242136,97.57613522,98.68270202,10547,11469,11599,10179,11333,11524,86.60305117,96.41914324,98.04963591,1.75046366,1.87003621,1.99008347
29011,0,USMissouriBarton,Missouri,Barton,2020-07-18 09:31:40.528979,2020-03-13 00:00:00.000000,86.48983928,96.40512332,98.04544351,10166,11331,11524,9798,11198,11450,83.36296863,95.27160691,97.41596283,1.75046343,1.87004733,1.99127049
29011,0,USMissouriBarton,Missouri,Barton,2020-07-18 09:31:40.528979,2020-03-14 00:00:00.000000,83.24245384,95.25944377,97.41188512,9784,11196,11449,9425,11064,11376,80.19335714,94.13726505,96.78641217,1.75046270,1.87007236,1.99416083
29011,0,USMissouriBarton,Missouri,Barton,2020-07-18 09:31:40.528979,2020-03-15 00:00:00.000000,80.07742488,94.12379417,96.78236911,9412,11063,11375,9067,10932,11302,77.14426022,93.01127397,96.16093234,1.75046048,1.87012866,1.99988871
29011,0,USMissouriBarton,Missouri,Barton,2020-07-18 09:31:40.528979,2020-03-16 00:00:00.000000,77.03273597,92.99796646,96.15691622,9054,10930,11302,8722,10801,11229,74.21109553,91.89875234,95.53949491,1.75045370,1.87025517,2.00802615
29011,0,USMissouriBarton,Missouri,Barton,2020-07-18 09:31:40.528979,2020-03-17 00:00:00.000000,74.10381164,91.88560435,95.53550483,8710,10800,11229,8391,10672,11157,71.38945509,90.79953806,94.92207352,1.75043300,1.87053862,2.01572062
29011,0,USMissouriBarton,Missouri,Barton,2020-07-18 09:31:40.528979,2020-03-18 00:00:00.000000,71.28625033,90.78654739,94.91810924,8378,10671,11156,8072,10544,11085,68.67509854,89.71347174,94.30864221,1.75036981,1.87116985,2.02062548
29011,0,USMissouriBarton,Missouri,Barton,2020-07-18 09:31:40.528979,2020-03-19 00:00:00.000000,68.57581781,89.70063646,94.30470354,8060,10543,11084,7765,10418,11013,66.06394675,88.64039608,93.69917518,1.75017705,1.85202207,2.02301049
29011,0,USMissouriBarton,Missouri,Barton,2020-07-18 09:31:40.528979,2020-03-20 00:00:00.000000,65.96844085,88.62771433,93.69526197,7753,10417,11012,7469,10296,10942,63.55207568,87.59967110,93.09364682,1.74338669,1.85780348,2.03497438
29011,0,USMissouriBarton,Missouri,Barton,2020-07-18 09:31:40.528979,2020-03-21 00:00:00.000000,63.46020109,87.58775041,93.08975889,7459,10295,10941,7185,10176,10871,61.13571051,86.57806574,92.49203166,1.60827592,1.88271742,2.07850155
29011,0,USMissouriBarton,Missouri,Barton,2020-07-18 09:31:40.528979,2020-03-22 00:00:00.000000,61.04732916,86.56628422,92.48816887,7175,10175,10871,6912,10057,10801,58.81121992,85.56838107,91.89430444,1.48481147,1.89486213,2.11354681
29011,0,USMissouriBarton,Missouri,Barton,2020-07-18 09:31:40.528979,2020-03-23 00:00:00.000000,58.72619899,85.55673710,91.89046660,6902,10056,10800,6649,9940,10731,56.57511068,84.57047792,91.30044000,1.40260375,1.90882506,2.13788118
29011,0,USMissouriBarton,Missouri,Barton,2020-07-18 09:31:40.528979,2020-03-24 00:00:00.000000,56.49332240,84.55896989,91.29662697,6640,9939,10731,6396,9824,10662,54.42402237,83.58421874,90.71041340,1.35575391,1.92411773,2.16972666
29011,0,USMissouriBarton,Missouri,Barton,2020-07-18 09:31:40.528979,2020-03-25 00:00:00.000000,54.34534383,83.57284507,90.70662501,6387,9823,10661,6153,9709,10593,52.35472234,82.60946760,90.12419983,1.33405246,1.79528650,2.23365107
29011,0,USMissouriBarton,Missouri,Barton,2020-07-18 09:31:40.528979,2020-03-26 00:00:00.000000,52.27903530,82.59822671,90.12043593,6144,9708,10592,5919,9596,10524,50.36410085,81.64609013,89.54177466,1.32541554,1.67283544,2.31297094
29011,0,USMissouriBarton,Missouri,Barton,2020-07-18 09:31:40.528979,2020-03-27 00:00:00.000000,50.29129157,81.63498047,89.53803507,5911,9595,10524,5694,9484,10456,48.44916640,80.69395356,88.96311339,1.12948959,1.67319235,2.36064828
29011,0,USMissouriBarton,Missouri,Barton,2020-07-18 09:31:40.528979,2020-03-28 00:00:00.000000,48.37912546,80.68297360,88.95939797,5686,9483,10456,5478,9374,10389,46.60704122,79.75292665,88.38819170,1.01736084,1.76210275,2.37808807
29011,0,USMissouriBarton,Missouri,Barton,2020-07-18 09:31:40.528979,2020-03-29 00:00:00.000000,46.53966337,79.74207487,88.38450029,5470,9372,10388,5269,9264,10322,44.83495699,78.82287970,87.81698543,1.01265640,1.70641409,2.38923272
29011,0,USMissouriBarton,Missouri,Barton,2020-07-18 09:31:40.528979,2020-03-30 00:00:00.000000,44.77014096,78.81215461,87.81331788,5262,9263,10321,5069,9156,10255,43.13025062,77.90368452,87.24947056,1.01323655,1.69179446,2.39340551
29011,0,USMissouriBarton,Missouri,Barton,2020-07-18 09:31:40.528979,2020-03-31 00:00:00.000000,43.06789901,77.89308464,87.24582671,5062,9155,10254,4876,9050,10189,41.49036027,76.99521443,86.68562325,1.01746128,1.68434407,2.39460913
29011,0,USMissouriBarton,Missouri,Barton,2020-07-18 09:31:40.528979,2020-04-01 00:00:00.000000,41.43037938,76.98473830,86.68200295,4869,9048,10188,4691,8944,10123,39.91282153,76.09734423,86.12541978,1.03697175,1.66852881,2.39304513
29011,0,USMissouriBarton,Missouri,Barton,2020-07-18 09:31:40.528979,2020-04-02 00:00:00.000000,39.85512122,76.08699039,86.12182288,4684,8943,10122,4512,8840,10057,38.39526367,75.20995016,85.56883661,1.09100126,1.63235824,2.36822722
29011,0,USMissouriBarton,Missouri,Barton,2020-07-18 09:31:40.528979,2020-04-03 00:00:00.000000,38.33975724,75.19971719,85.56526296,4506,8838,10057,4341,8737,9992,36.93540611,74.33290992,85.01585035,1.21828171,1.58580959,2.27977422
29011,0,USMissouriBarton,Missouri,Barton,2020-07-18 09:31:40.528979,2020-04-04 00:00:00.000000,36.88201013,74.32279642,85.01229979,4335,8735,9992,4176,8634,9928,35.53105499,73.45786326,84.46643775,1.33865093,1.57540407,2.18083418
29011,0,USMissouriBarton,Missouri,Barton,2020-07-18 09:31:40.528979,2020-04-05 00:00:00.000000,35.47968922,73.44766133,84.46291013,4170,8633,9927,4017,8532,9864,34.18009984,72.59224781,83.92057571,1.37999485,1.57188024,2.23138435
29011,0,USMissouriBarton,Missouri,Barton,2020-07-18 09:31:40.528979,2020-04-06 00:00:00.000000,34.13068709,72.58216613,83.91707089,4011,8531,9863,3864,8431,9800,32.88051045,71.73683430,83.37824129,1.38901273,1.60529392,2.25651124
29011,0,USMissouriBarton,Missouri,Barton,2020-07-18 09:31:40.528979,2020-04-07 00:00:00.000000,32.83297647,71.72687146,83.37475912,3859,8430,9799,3717,8332,9736,31.63033382,70.89150247,82.83941169,1.39103213,1.68588052,2.26810523
29011,0,USMissouriBarton,Missouri,Barton,2020-07-18 09:31:40.528979,2020-04-08 00:00:00.000000,31.58460716,70.88165706,82.83595203,3712,8331,9736,3576,8234,9674,30.42769116,70.05613347,82.30406427,1.39230322,1.70827200,2.27307800
29011,0,USMissouriBarton,Missouri,Barton,2020-07-18 09:31:40.528979,2020-04-09 00:00:00.000000,30.38370312,70.04640412,82.30062696,3571,8233,9673,3440,8137,9611,29.27077516,69.23060988,81.77217651,1.39518018,1.70978662,2.27465146
29011,0,USMissouriBarton,Missouri,Barton,2020-07-18 09:31:40.528979,2020-04-10 00:00:00.000000,29.22845962,69.22099522,81.76876142,3435,8136,9611,3309,8041,9549,28.15784720,68.41481564,81.24372607,1.38994621,1.69869584,2.27376394
29011,0,USMissouriBarton,Missouri,Barton,2020-07-18 09:31:40.528979,2020-04-11 00:00:00.000000,28.11714058,68.40531431,81.24033304,3304,8040,9548,3183,7946,9487,27.08723479,67.60863606,80.71869072,1.36615383,1.67110965,2.26948228
29011,0,USMissouriBarton,Missouri,Barton,2020-07-18 09:31:40.528979,2020-04-12 00:00:00.000000,27.04807590,67.59924673,80.71531962,3179,7945,9487,3062,7853,9426,26.05732900,66.81195781,80.19704840,1.35571065,1.63834162,2.25827352
29011,0,USMissouriBarton,Missouri,Barton,2020-07-18 09:31:40.528979,2020-04-13 00:00:00.000000,26.01965900,66.80267916,80.19369908,3058,7851,9425,2946,7760,9365,25.06658209,66.02466890,79.67877718,1.35146080,1.62029623,2.23230544
29011,0,USMissouriBarton,Missouri,Barton,2020-07-18 09:31:40.528979,2020-04-14 00:00:00.000000,25.03034438,66.01549961,79.67544951,2942,7759,9365,2834,7669,9304,24.11350518,65.24665863,79.16385527,1.35005128,1.61487058,2.17945449
29011,0,USMissouriBarton,Missouri,Barton,2020-07-18 09:31:40.528979,2020-04-15 00:00:00.000000,24.07864529,65.23759743,79.16054910,2830,7668,9304,2726,7578,9244,23.19666598,64.47781765,78.65226103,1.35006029,1.61480691,2.09417373
29011,0,USMissouriBarton,Missouri,Barton,2020-07-18 09:31:40.528979,2020-04-16 00:00:00.000000,23.16313153,64.46886326,78.64897623,2722,7577,9244,2622,7489,9185,22.31468667,63.71803788,78.14397296,1.35142523,1.52193962,1.99889324
29011,0,USMissouriBarton,Missouri,Barton,2020-07-18 09:31:40.528979,2020-04-17 00:00:00.000000,22.28242726,63.70918903,78.14070939,2619,7488,9184,2523,7401,9125,21.46624182,62.96721249,77.63896968,1.35529108,1.51120808,1.92987883
29011,0,USMissouriBarton,Missouri,Barton,2020-07-18 09:31:40.528979,2020-04-18 00:00:00.000000,21.43520897,62.95846795,77.63572720,2519,7400,9125,2427,7313,9066,20.65005637,62.22523594,77.13722998,1.36406252,1.47167856,2.02240515
29011,0,USMissouriBarton,Missouri,Barton,2020-07-18 09:31:40.528979,2020-04-19 00:00:00.000000,20.62020345,62.21659448,77.13400845,2423,7312,9066,2334,7227,9008,19.86490378,61.49200393,76.63873275,1.36137395,1.46436859,2.14912552
29011,0,USMissouriBarton,Missouri,Barton,2020-07-18 09:31:40.528979,2020-04-20 00:00:00.000000,19.83618592,61.48346433,76.63553204,2331,7226,9007,2246,7142,8949,19.10960411,60.76741339,76.14345705,1.21720840,1.47575454,2.17708180
29011,0,USMissouriBarton,Missouri,Barton,2020-07-18 09:31:40.528979,2020-04-21 00:00:00.000000,19.08197815,60.75897445,76.14027703,2242,7141,8949,2160,7058,8892,18.38302231,60.05136245,75.65138206,1.11830256,1.46627657,2.17705664
29011,0,USMissouriBarton,Missouri,Barton,2020-07-18 09:31:40.528979,2020-04-22 00:00:00.000000,18.35644674,60.04302297,75.64822259,2157,7057,8891,2078,6975,8834,17.68406646,59.34375044,75.16248708,1.02943951,1.44400758,2.15972081
29011,0,USMissouriBarton,Missouri,Barton,2020-07-18 09:31:40.528979,2020-04-23 00:00:00.000000,17.65850134,59.33550927,75.15934803,2075,6974,8834,1999,6893,8777,17.01168618,58.64447791,74.67675158,0.94115625,1.41620934,2.10463127
29011,0,USMissouriBarton,Missouri,Barton,2020-07-18 09:31:40.528979,2020-04-24 00:00:00.000000,16.98709310,58.63633388,74.67363282,1996,6892,8777,1923,6811,8720,16.36487102,57.95344655,74.19415513,0.89108648,1.35950404,1.98178300
29011,0,USMissouriBarton,Missouri,Barton,2020-07-18 09:31:40.528979,2020-04-25 00:00:00.000000,16.34121301,57.94539852,74.19105652,1920,6810,8720,1850,6731,8664,15.74264895,57.27055922,73.71467745,0.87350183,1.32852629,1.82753983
29011,0,USMissouriBarton,Missouri,Barton,2020-07-18 09:31:40.528979,2020-04-26 00:00:00.000000,15.71989046,57.26260605,73.71159887,1847,6730,8664,1780,6652,8608,15.14408488,56.59571993,73.23829838,0.86872943,1.34268364,1.73107273
29011,0,USMissouriBarton,Missouri,Barton,2020-07-18 09:31:40.528979,2020-04-27 00:00:00.000000,15.12219171,56.58786050,73.23523969,1777,6651,8608,1712,6573,8552,14.56827931,55.92883380,72.76499790,0.86775820,1.24209983,1.69507305
29011,0,USMissouriBarton,Missouri,Barton,2020-07-18 09:31:40.528979,2020-04-28 00:00:00.000000,14.54721856,55.92106701,72.76195898,1709,6572,8552,1647,6496,8497,14.01436691,55.26980710,72.29475611,0.86841075,1.18729119,1.68244556
29011,0,USMissouriBarton,Missouri,Barton,2020-07-18 09:31:40.528979,2020-04-29 00:00:00.000000,13.99410693,55.26213186,72.29173682,1644,6495,8497,1584,6419,8442,13.48151527,54.61854718,71.82755325,0.87057513,1.16702590,1.67092957
29011,0,USMissouriBarton,Missouri,Barton,2020-07-18 09:31:40.528979,2020-04-30 00:00:00.000000,13.46202560,54.61096241,71.82455347,1582,6418,8442,1524,6344,8388,12.96892361,53.97496249,71.36336967,0.87506559,1.15763114,1.64038683
29011,0,USMissouriBarton,Missouri,Barton,2020-07-18 09:31:40.528979,2020-05-01 00:00:00.000000,12.95017497,53.96746713,71.36038928,1522,6343,8387,1466,6269,8333,12.47582161,53.33896258,70.90218586,0.88320087,1.14935672,1.55595552
29011,0,USMissouriBarton,Missouri,Barton,2020-07-18 09:31:40.528979,2020-05-02 00:00:00.000000,12.45778584,53.33155556,70.89922473,1464,6268,8333,1410,6195,8279,12.00146825,52.71045802,70.44398244,0.89537171,1.13655134,1.41088122
29011,0,USMissouriBarton,Missouri,Barton,2020-07-18 09:31:40.528979,2020-05-03 00:00:00.000000,11.98411822,52.70313831,70.44104045,1408,6194,8279,1357,6122,8226,11.54515066,52.08936048,69.98874015,0.90774823,1.11633950,1.29608497
29011,0,USMissouriBarton,Missouri,Barton,2020-07-18 09:31:40.528979,2020-05-04 00:00:00.000000,11.52846032,52.08212705,69.98581718,1355,6121,8226,1305,6050,8173,11.10618309,51.47558265,69.53643986,0.91444648,1.11221910,1.24661250
29011,0,USMissouriBarton,Missouri,Barton,2020-07-18 09:31:40.528979,2020-05-05 00:00:00.000000,11.09012735,51.46843448,69.53353577,1303,6049,8172,1255,5979,8120,10.68390587,50.86903826,69.08706254,0.91044460,1.10595597,1.23443033
29011,0,USMissouriBarton,Missouri,Barton,2020-07-18 09:31:40.528979,2020-05-06 00:00:00.000000,10.66846059,50.86197434,69.08417722,1253,5978,8120,1208,5908,8068,10.27768439,50.26964203,68.64058931,0.89580568,1.09584585,1.22687706
29011,0,USMissouriBarton,Missouri,Barton,2020-07-18 09:31:40.528979,2020-05-07 00:00:00.000000,10.26282637,50.26266137,68.63772263,1206,5907,8067,1162,5839,8015,9.88690819,49.67730971,68.19700140,0.87512941,1.08029160,1.22679663
29011,0,USMissouriBarton,Missouri,Barton,2020-07-18 09:31:40.528979,2020-05-08 00:00:00.000000,9.87261510,49.67041134,68.19415325,1160,5838,8015,1117,5770,7964,9.51099001,49.09195805,67.75628016,0.85373417,1.10165559,1.22882425
29011,0,USMissouriBarton,Missouri,Barton,2020-07-18 09:31:40.528979,2020-05-09 00:00:00.000000,9.49724037,49.08514099,67.75345042,1116,5769,7963,1075,5702,7912,9.14936492,48.51350476,67.31840708,0.83550275,1.15065047,1.23305171
29011,0,USMissouriBarton,Missouri,Barton,2020-07-18 09:31:40.528979,2020-05-10 00:00:00.000000,9.13613807,48.50676805,67.31559562,1073,5701,7912,1034,5635,7861,8.80148948,47.94186853,66.88336374,0.82147329,1.12829405,1.23883019
29011,0,USMissouriBarton,Missouri,Barton,2020-07-18 09:31:40.528979,2020-05-11 00:00:00.000000,8.78876553,47.93521123,66.88057045,1033,5634,7861,995,5568,7810,8.46684088,47.37696901,66.45113185,0.81157450,1.10870422,1.24403993
29011,0,USMissouriBarton,Missouri,Barton,2020-07-18 09:31:40.528979,2020-05-12 00:00:00.000000,8.45460073,47.37039018,66.44835662,993,5567,7810,957,5503,7760,8.14491624,46.81872680,66.02169326,0.80517643,1.09483667,1.24685917
29011,0,USMissouriBarton,Missouri,Barton,2020-07-18 09:31:40.528979,2020-05-13 00:00:00.000000,8.13314147,46.81222550,66.01893595,955,5502,7759,920,5438,7710,7.83523175,46.26706342,65.59502989,0.80222464,1.08819273,1.24731592
29011,0,USMissouriBarton,Missouri,Barton,2020-07-18 09:31:40.528979,2020-05-14 00:00:00.000000,7.82390468,46.26063875,65.59229041,919,5437,7709,885,5374,7660,7.53732203,45.72190133,65.17112383,0.80550910,1.09702229,1.26914610
29011,0,USMissouriBarton,Missouri,Barton,2020-07-18 09:31:40.528979,2020-05-15 00:00:00.000000,7.52642564,45.71555239,65.16840205,884,5373,7659,852,5310,7610,7.25073938,45.18316390,64.74995725,0.82104072,1.12450205,1.32674415
29011,0,USMissouriBarton,Missouri,Barton,2020-07-18 09:31:40.528979,2020-05-16 00:00:00.000000,7.24025729,45.17688980,64.74725306,851,5310,7610,819,5248,7561,6.97505312,44.65077541,64.33151245,0.83463882,1.07831629,1.38835700
29011,0,USMissouriBarton,Missouri,Barton,2020-07-18 09:31:40.528979,2020-05-17 00:00:00.000000,6.96496957,44.64457526,64.32882574,818,5247,7561,788,5186,7512,6.70984895,44.12466103,63.91577184,0.83935703,1.07313149,1.42892014
29011,0,USMissouriBarton,Missouri,Barton,2020-07-18 09:31:40.528979,2020-05-18 00:00:00.000000,6.70014880,44.11853395,63.91310249,787,5185,7512,758,5125,7464,6.45472832,43.60474679,63.50271793,0.84053586,1.07197444,1.44791180
29011,0,USMissouriBarton,Missouri,Barton,2020-07-18 09:31:40.528979,2020-05-19 00:00:00.000000,6.44539699,43.59869194,63.50006583,757,5124,7463,729,5064,7415,6.20930785,43.09095963,63.09233338,0.84095714,1.07249138,1.45569897
29011,0,USMissouriBarton,Missouri,Barton,2020-07-18 09:31:40.528979,2020-05-20 00:00:00.000000,6.20033131,43.08497614,63.08969842,728,5064,7415,702,5005,7367,5.97321870,42.58322732,62.68460093,0.84082431,1.07197233,1.45924535
29011,0,USMissouriBarton,Missouri,Barton,2020-07-18 09:31:40.528979,2020-05-21 00:00:00.000000,5.96458347,42.57731436,62.68198300,701,5004,7367,675,4946,7320,5.74610609,42.08147850,62.27950344,0.83895020,1.07082455,1.46184306
29011,0,USMissouriBarton,Missouri,Barton,2020-07-18 09:31:40.528979,2020-05-22 00:00:00.000000,5.73779919,42.07563523,62.27690243,674,4945,7320,649,4887,7273,5.52762872,41.58564264,61.87702388,0.83231555,1.06847535,1.46534756
29011,0,USMissouriBarton,Missouri,Barton,2020-07-18 09:31:40.528979,2020-05-23 00:00:00.000000,5.51963766,41.57986824,61.87443968,648,4887,7272,625,4830,7226,5.31745825,41.09565005,61.47714533,0.81723768,1.06461916,1.47110627
29011,0,USMissouriBarton,Missouri,Barton,2020-07-18 09:31:40.528979,2020-05-24 00:00:00.000000,5.30977102,41.08994371,61.47457783,624,4829,7225,601,4773,7179,5.11527884,40.61143185,61.07985099,0.79652305,1.06294172,1.47982869
29011,0,USMissouriBarton,Missouri,Barton,2020-07-18 09:31:40.528979,2020-05-25 00:00:00.000000,5.10788390,40.60579277,61.07730008,600,4772,7179,578,4717,7132,4.92078667,40.13291999,60.68512415,0.78162516,1.08472843,1.49104991
29011,0,USMissouriBarton,Missouri,Barton,2020-07-18 09:31:40.528979,2020-05-26 00:00:00.000000,4.91367289,40.12734738,60.68258973,577,4716,7132,556,4661,7086,4.73368943,39.66004721,60.29294823,0.77599493,1.13041704,1.50148002
29011,0,USMissouriBarton,Missouri,Barton,2020-07-18 09:31:40.528979,2020-05-27 00:00:00.000000,4.72684613,39.65454028,60.29043018,555,4660,7086,535,4606,7041,4.55370598,39.19274704,59.90330673,0.77575240,1.09961003,1.50256682
29011,0,USMissouriBarton,Missouri,Barton,2020-07-18 09:31:40.528979,2020-05-28 00:00:00.000000,4.54712287,39.18730502,59.90080495,534,4606,7040,514,4552,6995,4.38056582,38.73095380,59.51618328,0.77797597,1.09006497,1.47532821
29011,0,USMissouriBarton,Missouri,Barton,2020-07-18 09:31:40.528979,2020-05-29 00:00:00.000000,4.37423301,38.72557592,59.51369767,514,4551,6995,495,4498,6950,4.21400876,38.27460259,59.13156160,0.76063288,1.08795677,1.40652280
29011,0,USMissouriBarton,Missouri,Barton,2020-07-18 09:31:40.528979,2020-05-30 00:00:00.000000,4.20791674,38.26928809,59.12909205,494,4498,6950,476,4445,6905,4.05378450,37.82362925,58.74942553,0.74162842,1.10114486,1.34458025
29011,0,USMissouriBarton,Missouri,Barton,2020-07-18 09:31:40.528979,2020-05-31 00:00:00.000000,4.04792412,37.81837740,58.74697194,475,4445,6905,458,4393,6860,3.89965226,37.37797041,58.36975900,0.72543103,1.10750199,1.31886172
29011,0,USMissouriBarton,Missouri,Barton,2020-07-18 09:31:40.528979,2020-06-01 00:00:00.000000,3.89401470,37.37278046,58.36732128,457,4392,6860,440,4341,6816,3.75138041,36.93756343,57.99254606,0.71808438,1.10547465,1.30991781
29011,0,USMissouriBarton,Missouri,Barton,2020-07-18 09:31:40.528979,2020-06-02 00:00:00.000000,3.74595720,36.93243464,57.99012409,440,4341,6816,424,4290,6772,3.60874613,36.50234640,57.61777085,0.72605290,1.08617220,1.30366377
29011,0,USMissouriBarton,Missouri,Barton,2020-07-18 09:31:40.528979,2020-06-03 00:00:00.000000,3.60352911,36.49727806,57.61536453,423,4289,6772,408,4239,6728,3.47153505,36.07225815,57.24541761,0.75338477,1.05340133,1.29410214
29011,0,USMissouriBarton,Missouri,Barton,2020-07-18 09:31:40.528979,2020-06-04 00:00:00.000000,3.46651640,36.06724956,57.24302684,407,4239,6728,392,4189,6685,3.33954100,35.64723825,56.87547070,0.76632043,1.02438919,1.27737354
29011,0,USMissouriBarton,Missouri,Barton,2020-07-18 09:31:40.528979,2020-06-05 00:00:00.000000,3.33471316,35.64228868,56.87309538,391,4189,6684,377,4140,6641,3.21256559,35.22722694,56.50791456,0.75413428,0.99128432,1.25064840
29011,0,USMissouriBarton,Missouri,Barton,2020-07-18 09:31:40.528979,2020-06-06 00:00:00.000000,3.20792132,35.22233571,56.50555459,377,4140,6641,363,4091,6599,3.09041802,34.81216519,56.14273374,0.74254397,0.93900141,1.21472365
29011,0,USMissouriBarton,Missouri,Barton,2020-07-18 09:31:40.528979,2020-06-07 00:00:00.000000,3.08595033,34.80733161,56.14038902,362,4091,6598,349,4043,6556,2.97291472,34.40199467,55.77991289,0.73487053,0.89621071,1.17626594
29011,0,USMissouriBarton,Missouri,Barton,2020-07-18 09:31:40.528979,2020-06-08 00:00:00.000000,2.96861690,34.39721806,55.77758332,348,4043,6556,336,3995,6514,2.85987911,33.99665773,55.41943676,0.73394492,0.87439416,1.14417487
29011,0,USMissouriBarton,Missouri,Barton,2020-07-18 09:31:40.528979,2020-06-09 00:00:00.000000,2.85574471,33.99193742,55.41712225,335,3995,6513,323,3948,6471,2.75114132,33.59609740,55.06129020,0.74374803,0.86616433,1.12214170
29011,0,USMissouriBarton,Missouri,Barton,2020-07-18 09:31:40.528979,2020-06-10 00:00:00.000000,2.74716411,33.59143273,55.05899064,322,3948,6471,311,3902,6430,2.64653794,33.20025738,54.70545815,0.77263997,0.86437454,1.10863382
29011,0,USMissouriBarton,Missouri,Barton,2020-07-18 09:31:40.528979,2020-06-11 00:00:00.000000,2.64271195,33.19564769,54.70317346,310,3901,6429,299,3856,6388,2.54591177,32.80908204,54.35192566,0.83039544,0.87043046,1.09759171
29011,0,USMissouriBarton,Missouri,Barton,2020-07-18 09:31:40.528979,2020-06-12 00:00:00.000000,2.54223125,32.80452667,54.34965573,298,3855,6388,287,3810,6347,2.44911159,32.42251640,54.00067786,0.78398641,0.87827941,1.08182771
29011,0,USMissouriBarton,Missouri,Barton,2020-07-18 09:31:40.528979,2020-06-13 00:00:00.000000,2.44557101,32.41801472,53.99842260,287,3810,6346,276,3766,6306,2.35599192,32.04050612,53.65169999,0.70659346,0.89533428,1.04791098
29011,0,USMissouriBarton,Missouri,Barton,2020-07-18 09:31:40.528979,2020-06-14 00:00:00.000000,2.35258596,32.03605750,53.64945930,276,3765,6305,266,3721,6265,2.26641284,31.66299752,53.30497738,0.69833979,0.91087597,1.05529472
29011,0,USMissouriBarton,Missouri,Barton,2020-07-18 09:31:40.528979,2020-06-15 00:00:00.000000,2.26313638,31.65860133,53.30275117,266,3721,6265,256,3677,6224,2.18023971,31.28993754,52.96049545,0.69575808,0.92313929,1.08121159
29011,0,USMissouriBarton,Missouri,Barton,2020-07-18 09:31:40.528979,2020-06-16 00:00:00.000000,2.17708783,31.28559316,52.95828363,255,3677,6224,246,3634,6184,2.09734304,30.92127374,52.61823973,0.69110690,0.93160187,1.09160035
29011,0,USMissouriBarton,Missouri,Barton,2020-07-18 09:31:40.528979,2020-06-17 00:00:00.000000,2.09431100,30.91698057,52.61604221,246,3633,6184,237,3591,6144,2.01759826,30.55695433,52.27819583,0.68254499,0.93606236,1.09344950
29011,0,USMissouriBarton,Missouri,Barton,2020-07-18 09:31:40.528979,2020-06-18 00:00:00.000000,2.01468150,30.55271175,52.27601251,236,3591,6144,228,3549,6105,1.94088551,30.19692808,51.94034946,0.66967929,0.93880387,1.08700690
29011,0,USMissouriBarton,Missouri,Barton,2020-07-18 09:31:40.528979,2020-06-19 00:00:00.000000,1.93807965,30.19273551,51.93818024,227,3548,6104,219,3507,6065,1.86708952,29.84114440,51.60468640,0.65406837,0.94056730,1.12287317
29011,0,USMissouriBarton,Missouri,Barton,2020-07-18 09:31:40.528979,2020-06-20 00:00:00.000000,1.86439035,29.83700125,51.60253121,219,3507,6065,211,3466,6026,1.79609939,29.48955330,51.27119256,0.63892986,0.94192732,1.13878914
29011,0,USMissouriBarton,Missouri,Barton,2020-07-18 09:31:40.528979,2020-06-21 00:00:00.000000,1.79350285,29.48545897,51.26905130,210,3465,6026,203,3425,5987,1.72780844,29.14210535,50.93985392,0.62737090,0.94212308,1.14061774
29011,0,USMissouriBarton,Missouri,Barton,2020-07-18 09:31:40.528979,2020-06-22 00:00:00.000000,1.72531062,29.13805928,50.93772649,202,3424,5987,195,3385,5948,1.66211403,28.79875172,50.61065654,0.62177136,0.94075589,1.14080127
29011,0,USMissouriBarton,Missouri,Barton,2020-07-18 09:31:40.528979,2020-06-23 00:00:00.000000,1.65971118,28.79475334,50.60854286,195,3384,5948,187,3345,5910,1.59891744,28.45944416,50.28358659,0.62344288,0.93746072,1.14079722
29011,0,USMissouriBarton,Missouri,Barton,2020-07-18 09:31:40.528979,2020-06-24 00:00:00.000000,1.59660595,28.45549290,50.28148657,187,3344,5910,180,3305,5872,1.53812370,28.12413499,49.95863033,0.63555346,0.93467205,1.20329795
29011,0,USMissouriBarton,Missouri,Barton,2020-07-18 09:31:40.528979,2020-06-25 00:00:00.000000,1.53590010,28.12023030,49.95654388,180,3305,5871,173,3266,5834,1.47964144,27.79277707,49.63577408,0.66309453,0.93342250,1.28943986
29011,0,USMissouriBarton,Missouri,Barton,2020-07-18 09:31:40.528979,2020-06-26 00:00:00.000000,1.47750239,27.78891840,49.63370111,173,3266,5833,167,3228,5796,1.42338279,27.46532385,49.31500428,0.70715358,0.93539069,1.35751551
29011,0,USMissouriBarton,Missouri,Barton,2020-07-18 09:31:40.528979,2020-06-27 00:00:00.000000,1.42132507,27.46151065,49.31294471,167,3227,5796,160,3190,5759,1.36926320,27.14172929,48.99630745,0.75117367,0.94822000,1.39586528
29011,0,USMissouriBarton,Missouri,Barton,2020-07-18 09:31:40.528979,2020-06-28 00:00:00.000000,1.36728371,27.13796104,48.99426119,160,3189,5758,154,3152,5721,1.31720133,26.82194792,48.67967019,0.78349744,0.97593649,1.41334394
29011,0,USMissouriBarton,Missouri,Barton,2020-07-18 09:31:40.528979,2020-06-29 00:00:00.000000,1.31529711,26.81822408,48.67763716,154,3152,5721,148,3115,5684,1.26711895,26.50593481,48.36507919,0.80355386,0.97358915,1.42088884
29011,0,USMissouriBarton,Missouri,Barton,2020-07-18 09:31:40.528979,2020-06-30 00:00:00.000000,1.26528712,26.50225486,48.36305930,148,3115,5684,143,3078,5648,1.21894078,26.19364553,48.05252123,0.75074708,0.98541470,1.41889796
29011,0,USMissouriBarton,Missouri,Barton,2020-07-18 09:31:40.528979,2020-07-01 00:00:00.000000,1.21717861,26.19000895,48.05051438,143,3078,5647,137,3042,5611,1.17259445,25.88503620,47.74198316,0.73817378,0.99542001,1.40449690
29011,0,USMissouriBarton,Missouri,Barton,2020-07-18 09:31:40.528979,2020-07-02 00:00:00.000000,1.17089927,25.88144248,47.73998929,137,3042,5611,132,3006,5575,1.12801028,25.58006346,47.43345194,0.73632276,1.01127606,1.36023525
29011,0,USMissouriBarton,Missouri,Barton,2020-07-18 09:31:40.528979,2020-07-03 00:00:00.000000,1.12637956,25.57651209,47.43147095,132,3006,5575,127,2971,5539,1.08512128,25.27868443,47.12691459,0.72948522,1.03196186,1.26062500
29011,0,USMissouriBarton,Missouri,Barton,2020-07-18 09:31:40.528979,2020-07-04 00:00:00.000000,1.08355257,25.27517492,47.12494640,127,2970,5539,122,2936,5503,1.04386300,24.98085677,46.82235823,0.68298344,1.05003342,1.18022009
29011,0,USMissouriBarton,Missouri,Barton,2020-07-18 09:31:40.528979,2020-07-05 00:00:00.000000,1.04235393,24.97738862,46.82040276,122,2935,5503,118,2901,5467,1.00417344,24.68653862,46.51977006,0.66475005,0.98774429,1.23571915
29011,0,USMissouriBarton,Missouri,Barton,2020-07-18 09:31:40.528979,2020-07-06 00:00:00.000000,1.00272175,24.68311134,46.51782723,117,2901,5467,113,2867,5432,0.96599294,24.39568862,46.21913735,0.65911433,0.92971267,1.29184089
29011,0,USMissouriBarton,Missouri,Barton,2020-07-18 09:31:40.528979,2020-07-07 00:00:00.000000,0.96459645,24.39230173,46.21720708,113,2867,5432,109,2833,5397,0.92926414,24.10826589,45.92044748,0.65748824,0.90966827,1.34329046
29011,0,USMissouriBarton,Missouri,Barton,2020-07-18 09:31:40.528979,2020-07-08 00:00:00.000000,0.92792074,24.10491892,45.91852968,109,2833,5397,105,2800,5362,0.89393183,23.82423004,45.62368788,0.65702952,0.91597747,1.38636339
29011,0,USMissouriBarton,Missouri,Barton,2020-07-18 09:31:40.528979,2020-07-09 00:00:00.000000,0.89263951,23.82092252,45.62178248,104,2799,5362,101,2767,5327,0.85994292,23.54354116,45.32884609,0.65690094,0.92366280,1.41976562
29011,0,USMissouriBarton,Missouri,Barton,2020-07-18 09:31:40.528979,2020-07-10 00:00:00.000000,0.85869974,23.54027263,45.32695299,100,2766,5327,97,2734,5293,0.82724633,23.26615981,45.03590970,0.65686497,0.92759700,1.44416570
29011,0,USMissouriBarton,Missouri,Barton,2020-07-18 09:31:40.528979,2020-07-11 00:00:00.000000,0.82605042,23.26292979,45.03402884,97,2734,5293,93,2702,5259,0.79579293,22.99204699,44.74486640,0.65685491,0.93187177,1.46122994
29011,0,USMissouriBarton,Missouri,Barton,2020-07-18 09:31:40.528979,2020-07-12 00:00:00.000000,0.79464248,22.98885503,44.74299770,93,2702,5259,89,2670,5225,0.76553544,22.72116418,44.45570396,0.65685210,0.93644481,1.47278752
29011,0,USMissouriBarton,Missouri,Barton,2020-07-18 09:31:40.528979,2020-07-13 00:00:00.000000,0.76442873,22.71800985,44.45384733,89,2670,5225,86,2639,5191,0.73642839,22.45347333,44.16841023,0.65685131,0.94006397,1.48044266
29011,0,USMissouriBarton,Missouri,Barton,2020-07-18 09:31:40.528979,2020-07-14 00:00:00.000000,0.73536377,22.45035617,44.16656560,86,2638,5191,83,2608,5158,0.70842805,22.18893681,43.88297313,0.65685109,0.94289108,1.48544773
29011,0,USMissouriBarton,Missouri,Barton,2020-07-18 09:31:40.528979,2020-07-15 00:00:00.000000,0.70740390,22.18585639,43.88114042,83,2607,5157,80,2577,5124,0.68149233,21.92751745,43.59938065,0.65685103,0.94507706,1.48869269
29011,0,USMissouriBarton,Missouri,Barton,2020-07-18 09:31:40.528979,2020-07-16 00:00:00.000000,0.68050712,21.92447333,43.59755979,79,2577,5124,77,2546,5091,0.65558075,21.66917851,43.31762088,0.65685101,0.94675401,1.49078409
29011,0,USMissouriBarton,Missouri,Barton,2020-07-18 09:31:40.528979,2020-07-17 00:00:00.000000,0.65463301,21.66617027,43.31581179,76,2546,5091,74,2516,5058,0.63065439,21.41388368,43.03768198,0.65685101,0.94803267,1.49212688
29011,0,USMissouriBarton,Missouri,Barton,2020-07-18 09:31:40.528979,2020-07-18 00:00:00.000000,0.62974267,21.41091090,43.03588458,74,2516,5058,71,2487,5025,0.60667576,21.16159710,42.75955218,0.65685100,0.94900314,1.49297069
29011,0,USMissouriBarton,Missouri,Barton,2020-07-18 09:31:40.528979,2020-07-19 00:00:00.000000,0.60579872,21.15865935,42.75776639,71,2486,5025,68,2458,4993,0.58360885,20.91228330,42.48321978,0.65685100,0.94973712,1.49349274
29011,0,USMissouriBarton,Missouri,Barton,2020-07-18 09:31:40.528979,2020-07-20 00:00:00.000000,0.58276515,20.90938017,42.48144553,68,2457,4993,65,2429,4961,0.56141898,20.66590725,42.20867318,0.65685100,0.95029077,1.49382498
29011,0,USMissouriBarton,Missouri,Barton,2020-07-18 09:31:40.528979,2020-07-21 00:00:00.000000,0.56060736,20.66303834,42.20691039,65,2428,4961,63,2400,4929,0.54007281,20.42243434,41.93590082,0.65685100,0.95070755,1.49403629
29011,0,USMissouriBarton,Missouri,Barton,2020-07-18 09:31:40.528979,2020-07-22 00:00:00.000000,0.53929205,20.41959923,41.93414943,63,2400,4928,61,2372,4897,0.51953827,20.18183034,41.66489125,0.65685100,0.95102083,1.49417064
29011,0,USMissouriBarton,Missouri,Barton,2020-07-18 09:31:40.528979,2020-07-23 00:00:00.000000,0.51878719,20.17902865,41.66315117,60,2371,4897,58,2344,4865,0.49978448,19.94406144,41.39563307,0.65685100,0.95125604,1.49425603
29011,0,USMissouriBarton,Missouri,Barton,2020-07-18 09:31:40.528979,2020-07-24 00:00:00.000000,0.49906196,19.94129277,41.39390424,58,2343,4865,56,2316,4834,0.48078177,19.70909424,41.12811496,0.65685100,0.95143248,1.49431030
29011,0,USMissouriBarton,Missouri,Barton,2020-07-18 09:31:40.528979,2020-07-25 00:00:00.000000,0.48008672,19.70635820,41.12639730,56,2316,4833,54,2289,4802,0.46250157,19.47689571,40.86232568,0.65685100,0.95156476,1.49434478
29011,0,USMissouriBarton,Missouri,Barton,2020-07-18 09:31:40.528979,2020-07-26 00:00:00.000000,0.46183295,19.47419191,40.86061912,54,2288,4802,52,2262,4771,0.44491642,19.24743323,40.59825406,0.65685100,0.95166388,1.49436670
29011,0,USMissouriBarton,Missouri,Barton,2020-07-18 09:31:40.528979,2020-07-27 00:00:00.000000,0.44427323,19.24476129,40.59655853,52,2262,4771,50,2235,4741,0.42799989,19.02067454,40.33588899,0.65685100,0.95173813,1.49438062
29011,0,USMissouriBarton,Missouri,Barton,2020-07-18 09:31:40.528979,2020-07-28 00:00:00.000000,0.42738115,19.01803410,40.33420442,50,2235,4740,48,2209,4710,0.41172656,18.79658780,40.07521945,0.65685100,0.95179373,1.49438946
29011,0,USMissouriBarton,Missouri,Barton,2020-07-18 09:31:40.528979,2020-07-29 00:00:00.000000,0.41113135,18.79397847,40.07354577,48,2209,4710,46,2183,4680,0.39607197,18.57514149,39.81623448,0.65685100,0.95183536,1.49439508
29011,0,USMissouriBarton,Missouri,Barton,2020-07-18 09:31:40.528979,2020-07-30 00:00:00.000000,0.39549939,18.57256292,39.81457161,46,2183,4679,44,2157,4649,0.38101260,18.35630452,39.55892320,0.65685100,0.95186652,1.49439865
