48 Divergences 
Computed from 120 by 121 log-likelihood matrix

         Estimate       SE
elpd_loo -14647.55  3415.66
p_loo    37681.76        -

There has been a warning during the calculation. Please check the results.
------

Pareto k diagnostic values:
                         Count   Pct.
(-Inf, 0.5]   (good)      103   85.1%
 (0.5, 0.7]   (ok)          0    0.0%
   (0.7, 1]   (bad)         0    0.0%
   (1, Inf)   (very bad)   18   14.9%


The scale is now log by default. Use 'scale' argument or 'stats.ic_scale' rcParam if
you rely on a specific value.
A higher log-score (or a lower deviance) indicates a model with better predictive
accuracy.