FIPS,HR_UID,nameid,province,region,analysisTime,dates,pointprevalence_025,pointprevalence_50,pointprevalence_975,pointinfections_025,pointinfections_50,pointinfections_975,pointinfectious_025,pointinfectious_50,pointinfectious_975,pointinfectiousprevalence_05,pointinfectiousprevalence_50,pointinfectiousprevalence_95,infectrate_025,infectrate_50,infectrate_975
47147,0,USTennesseeRobertson,Tennessee,Robertson,2020-07-15 03:30:28.915155,2020-03-09 00:00:00.000000,0.01401608,0.05414985,0.19959993,10,38,143,0,7,28,0.00117689,0.01101797,0.04001988,0.61506824,0.88992211,1.22013423
47147,0,USTennesseeRobertson,Tennessee,Robertson,2020-07-15 03:30:28.915155,2020-03-10 00:00:00.000000,0.01964219,0.07089385,1.79958078,14,50,1292,3,10,44,0.00539612,0.01475095,0.06181481,0.61506873,0.88992557,1.22013427
47147,0,USTennesseeRobertson,Tennessee,Robertson,2020-07-15 03:30:28.915155,2020-03-11 00:00:00.000000,0.02174119,0.05528178,0.34512705,15,39,247,1,9,37,0.00160903,0.01290674,0.05155174,0.61507040,0.88993690,1.22013442
47147,0,USTennesseeRobertson,Tennessee,Robertson,2020-07-15 03:30:28.915155,2020-03-12 00:00:00.000000,0.02458001,0.07511273,2.05324863,17,53,1474,4,12,45,0.00612485,0.01709048,0.06376867,0.61507604,0.88997402,1.22013486
47147,0,USTennesseeRobertson,Tennessee,Robertson,2020-07-15 03:30:28.915155,2020-03-13 00:00:00.000000,0.02294706,0.06296388,0.41489178,16,45,297,1,10,40,0.00252586,0.01453325,0.05641211,0.61509520,0.89009550,1.22013614
47147,0,USTennesseeRobertson,Tennessee,Robertson,2020-07-15 03:30:28.915155,2020-03-14 00:00:00.000000,0.03051197,0.07786801,2.18165750,21,55,1566,5,13,48,0.00707428,0.01910765,0.06700653,0.61516032,0.89049172,1.22013972
47147,0,USTennesseeRobertson,Tennessee,Robertson,2020-07-15 03:30:28.915155,2020-03-15 00:00:00.000000,0.02839725,0.07086131,0.46513248,20,50,334,2,12,45,0.00367173,0.01703164,0.06322423,0.61538166,0.89176983,1.22014950
47147,0,USTennesseeRobertson,Tennessee,Robertson,2020-07-15 03:30:28.915155,2020-03-16 00:00:00.000000,0.03476192,0.08944789,2.27382474,24,64,1632,5,15,51,0.00817172,0.02110510,0.07102503,0.61613240,0.89399606,1.22017590
47147,0,USTennesseeRobertson,Tennessee,Robertson,2020-07-15 03:30:28.915155,2020-03-17 00:00:00.000000,0.03343292,0.07967963,0.50381683,24,57,361,3,14,46,0.00525981,0.01974110,0.06512092,0.61865146,0.89492115,1.22024649
47147,0,USTennesseeRobertson,Tennessee,Robertson,2020-07-15 03:30:28.915155,2020-03-18 00:00:00.000000,0.03945319,0.09756865,2.35200051,28,70,1689,6,16,54,0.00939651,0.02341254,0.07651724,0.62678369,0.89982764,1.22745352
47147,0,USTennesseeRobertson,Tennessee,Robertson,2020-07-15 03:30:28.915155,2020-03-19 00:00:00.000000,0.03817594,0.09013576,0.53607605,27,64,384,4,15,47,0.00684162,0.02207121,0.06671983,0.65008177,0.90187075,1.27144948
47147,0,USTennesseeRobertson,Tennessee,Robertson,2020-07-15 03:30:28.915155,2020-03-20 00:00:00.000000,0.04529291,0.10535471,2.42176362,32,75,1739,7,19,58,0.01074594,0.02755574,0.08083518,0.66740991,0.90965051,1.31986079
47147,0,USTennesseeRobertson,Tennessee,Robertson,2020-07-15 03:30:28.915155,2020-03-21 00:00:00.000000,0.04267606,0.10236416,0.56373603,30,73,404,5,17,52,0.00808588,0.02436764,0.07317286,0.65290266,0.91119819,1.36393780
47147,0,USTennesseeRobertson,Tennessee,Robertson,2020-07-15 03:30:28.915155,2020-03-22 00:00:00.000000,0.04792294,0.11664288,2.48197301,34,83,1782,8,21,62,0.01199503,0.03057155,0.08639999,0.62147957,0.88995361,1.40169055
47147,0,USTennesseeRobertson,Tennessee,Robertson,2020-07-15 03:30:28.915155,2020-03-23 00:00:00.000000,0.04674648,0.11216426,0.58793451,33,80,422,6,19,58,0.00938251,0.02651536,0.08141117,0.60070747,0.87211240,1.43385020
47147,0,USTennesseeRobertson,Tennessee,Robertson,2020-07-15 03:30:28.915155,2020-03-24 00:00:00.000000,0.05123459,0.13112992,2.52938441,36,94,1816,9,24,66,0.01328919,0.03413429,0.09273267,0.58382639,0.86216840,1.45735099
47147,0,USTennesseeRobertson,Tennessee,Robertson,2020-07-15 03:30:28.915155,2020-03-25 00:00:00.000000,0.05169176,0.12382303,0.61090858,37,88,438,7,20,62,0.01074287,0.02912935,0.08637213,0.57765396,0.85305535,1.47618131
47147,0,USTennesseeRobertson,Tennessee,Robertson,2020-07-15 03:30:28.915155,2020-03-26 00:00:00.000000,0.05698080,0.14478412,2.56778777,40,103,1844,10,28,70,0.01458196,0.03957280,0.09811169,0.56984280,0.84363402,1.48903489
47147,0,USTennesseeRobertson,Tennessee,Robertson,2020-07-15 03:30:28.915155,2020-03-27 00:00:00.000000,0.06017986,0.13651328,0.63995808,43,98,459,8,23,66,0.01212251,0.03314394,0.09312479,0.56536998,0.82557984,1.49930317
47147,0,USTennesseeRobertson,Tennessee,Robertson,2020-07-15 03:30:28.915155,2020-03-28 00:00:00.000000,0.06227258,0.16307912,2.60769883,44,117,1872,11,30,73,0.01632919,0.04184584,0.10237516,0.53572803,0.79404595,1.51070960
47147,0,USTennesseeRobertson,Tennessee,Robertson,2020-07-15 03:30:28.915155,2020-03-29 00:00:00.000000,0.06972394,0.14739321,0.67526362,50,105,484,9,25,72,0.01326016,0.03577534,0.10049208,0.50742838,0.79555938,1.52331475
47147,0,USTennesseeRobertson,Tennessee,Robertson,2020-07-15 03:30:28.915155,2020-03-30 00:00:00.000000,0.07269138,0.18260847,2.65281085,52,131,1905,12,33,76,0.01730525,0.04652437,0.10703120,0.50187407,0.80114039,1.55527143
47147,0,USTennesseeRobertson,Tennessee,Robertson,2020-07-15 03:30:28.915155,2020-03-31 00:00:00.000000,0.08049560,0.16158743,0.71110688,57,116,510,10,28,77,0.01395094,0.03902617,0.10774986,0.50130114,0.80130650,1.56618902
47147,0,USTennesseeRobertson,Tennessee,Robertson,2020-07-15 03:30:28.915155,2020-04-01 00:00:00.000000,0.07852827,0.19985232,2.69788686,56,143,1937,13,36,80,0.01864656,0.05143768,0.11153615,0.49316398,0.80241410,1.55561607
47147,0,USTennesseeRobertson,Tennessee,Robertson,2020-07-15 03:30:28.915155,2020-04-02 00:00:00.000000,0.08285722,0.18010944,0.74777678,59,129,537,10,30,82,0.01469184,0.04245637,0.11538764,0.48534431,0.80245046,1.52934692
47147,0,USTennesseeRobertson,Tennessee,Robertson,2020-07-15 03:30:28.915155,2020-04-03 00:00:00.000000,0.08015412,0.21653682,2.74126312,57,155,1968,14,39,87,0.02009368,0.05500556,0.12204061,0.47956531,0.78976334,1.48614259
47147,0,USTennesseeRobertson,Tennessee,Robertson,2020-07-15 03:30:28.915155,2020-04-04 00:00:00.000000,0.08277367,0.19002952,0.76842855,59,136,551,11,32,94,0.01541810,0.04588991,0.13109698,0.46898513,0.78130855,1.44297454
47147,0,USTennesseeRobertson,Tennessee,Robertson,2020-07-15 03:30:28.915155,2020-04-05 00:00:00.000000,0.08266384,0.23569094,2.74864231,59,169,1973,15,41,102,0.02155655,0.05841867,0.14286844,0.46491163,0.76195895,1.37619335
47147,0,USTennesseeRobertson,Tennessee,Robertson,2020-07-15 03:30:28.915155,2020-04-06 00:00:00.000000,0.08289256,0.20092211,0.77878289,59,144,559,11,35,111,0.01569256,0.04995833,0.15475677,0.46341966,0.76177048,1.38571393
47147,0,USTennesseeRobertson,Tennessee,Robertson,2020-07-15 03:30:28.915155,2020-04-07 00:00:00.000000,0.08998319,0.25733026,2.68971495,64,184,1931,16,44,119,0.02293582,0.06127236,0.16638729,0.46393731,0.77380413,1.39113056
47147,0,USTennesseeRobertson,Tennessee,Robertson,2020-07-15 03:30:28.915155,2020-04-08 00:00:00.000000,0.08378753,0.21518611,0.78974113,60,154,567,10,38,127,0.01530939,0.05405578,0.17783550,0.46600001,0.78025086,1.39126922
47147,0,USTennesseeRobertson,Tennessee,Robertson,2020-07-15 03:30:28.915155,2020-04-09 00:00:00.000000,0.09745739,0.27892366,2.66963047,69,200,1917,17,46,135,0.02437342,0.06447287,0.18830813,0.46979859,0.78435224,1.39519095
47147,0,USTennesseeRobertson,Tennessee,Robertson,2020-07-15 03:30:28.915155,2020-04-10 00:00:00.000000,0.08537141,0.22821060,0.80161901,61,163,575,11,42,141,0.01540586,0.05858292,0.19720658,0.46955061,0.79053343,1.38787438
47147,0,USTennesseeRobertson,Tennessee,Robertson,2020-07-15 03:30:28.915155,2020-04-11 00:00:00.000000,0.10475851,0.30144459,2.66886093,75,216,1916,18,50,152,0.02618820,0.07029600,0.21214383,0.47901843,0.80853188,1.40231088
47147,0,USTennesseeRobertson,Tennessee,Robertson,2020-07-15 03:30:28.915155,2020-04-12 00:00:00.000000,0.08796725,0.24391606,0.81688079,63,175,586,11,45,161,0.01588264,0.06330216,0.22460603,0.47655055,0.84867157,1.42774233
47147,0,USTennesseeRobertson,Tennessee,Robertson,2020-07-15 03:30:28.915155,2020-04-13 00:00:00.000000,0.11299587,0.32900322,2.68056156,81,236,1924,20,53,168,0.02826762,0.07511348,0.23479652,0.47442338,0.82641302,1.46262108
47147,0,USTennesseeRobertson,Tennessee,Robertson,2020-07-15 03:30:28.915155,2020-04-14 00:00:00.000000,0.09124838,0.27549393,0.84692890,65,197,608,12,48,174,0.01672489,0.06801709,0.24349593,0.47020748,0.82365050,1.47538479
47147,0,USTennesseeRobertson,Tennessee,Robertson,2020-07-15 03:30:28.915155,2020-04-15 00:00:00.000000,0.12263763,0.34999972,2.70701538,88,251,1943,21,56,179,0.03061906,0.07907557,0.25021952,0.46768998,0.83204826,1.47119808
47147,0,USTennesseeRobertson,Tennessee,Robertson,2020-07-15 03:30:28.915155,2020-04-16 00:00:00.000000,0.09466751,0.29743703,0.88976080,67,213,638,12,53,186,0.01800627,0.07405606,0.25983077,0.45452130,0.84231747,1.43365687
47147,0,USTennesseeRobertson,Tennessee,Robertson,2020-07-15 03:30:28.915155,2020-04-17 00:00:00.000000,0.13649638,0.37178906,2.74553954,98,266,1971,23,59,194,0.03319713,0.08327395,0.27092103,0.45568204,0.83970798,1.35225441
47147,0,USTennesseeRobertson,Tennessee,Robertson,2020-07-15 03:30:28.915155,2020-04-18 00:00:00.000000,0.09958593,0.32828154,0.94883291,71,235,681,13,57,201,0.01943542,0.08058451,0.28100773,0.45658605,0.82472697,1.31279413
47147,0,USTennesseeRobertson,Tennessee,Robertson,2020-07-15 03:30:28.915155,2020-04-19 00:00:00.000000,0.15229437,0.39876938,2.79858939,109,286,2009,25,65,209,0.03597485,0.09079419,0.29154388,0.44835408,0.81592302,1.30240074
47147,0,USTennesseeRobertson,Tennessee,Robertson,2020-07-15 03:30:28.915155,2020-04-20 00:00:00.000000,0.11229209,0.35926455,1.03068940,80,257,740,15,62,217,0.02113638,0.08685503,0.30272410,0.43522798,0.82453636,1.29464248
47147,0,USTennesseeRobertson,Tennessee,Robertson,2020-07-15 03:30:28.915155,2020-04-21 00:00:00.000000,0.16694302,0.42500989,2.87225746,119,305,2062,27,67,225,0.03898661,0.09464478,0.31467425,0.43809407,0.83242158,1.31883317
47147,0,USTennesseeRobertson,Tennessee,Robertson,2020-07-15 03:30:28.915155,2020-04-22 00:00:00.000000,0.12254166,0.38803320,1.12058951,88,278,804,16,67,234,0.02321320,0.09335998,0.32721176,0.44229426,0.83652636,1.35721460
47147,0,USTennesseeRobertson,Tennessee,Robertson,2020-07-15 03:30:28.915155,2020-04-23 00:00:00.000000,0.18084679,0.45875495,3.02268679,129,329,2170,30,72,242,0.04233105,0.10041686,0.33831051,0.43976195,0.84548350,1.37557603
47147,0,USTennesseeRobertson,Tennessee,Robertson,2020-07-15 03:30:28.915155,2020-04-24 00:00:00.000000,0.13800482,0.42262171,1.21444768,99,303,872,18,72,246,0.02582360,0.10031545,0.34375306,0.42615489,0.85396017,1.39178569
47147,0,USTennesseeRobertson,Tennessee,Robertson,2020-07-15 03:30:28.915155,2020-04-25 00:00:00.000000,0.19541661,0.48995467,3.18350018,140,351,2286,33,77,250,0.04670351,0.10795507,0.34889064,0.41674560,0.85552202,1.40081448
47147,0,USTennesseeRobertson,Tennessee,Robertson,2020-07-15 03:30:28.915155,2020-04-26 00:00:00.000000,0.15812583,0.45319827,1.29524193,113,325,930,20,77,256,0.02892053,0.10779799,0.35774214,0.40668175,0.86167565,1.42914774
47147,0,USTennesseeRobertson,Tennessee,Robertson,2020-07-15 03:30:28.915155,2020-04-27 00:00:00.000000,0.21059306,0.52828239,3.32403514,151,379,2387,37,82,264,0.05282711,0.11478761,0.36794053,0.40419009,0.85927719,1.40980147
47147,0,USTennesseeRobertson,Tennessee,Robertson,2020-07-15 03:30:28.915155,2020-04-28 00:00:00.000000,0.18242221,0.48833756,1.36812599,131,350,982,23,83,271,0.03221187,0.11619120,0.37814954,0.40727689,0.85969558,1.44760469
47147,0,USTennesseeRobertson,Tennessee,Robertson,2020-07-15 03:30:28.915155,2020-04-29 00:00:00.000000,0.22537740,0.57193562,3.44177866,161,410,2471,41,88,276,0.05822381,0.12366300,0.38545985,0.39538977,0.87083997,1.45021625
47147,0,USTennesseeRobertson,Tennessee,Robertson,2020-07-15 03:30:28.915155,2020-04-30 00:00:00.000000,0.20635058,0.51160543,1.44177967,148,367,1035,24,90,280,0.03346645,0.12651637,0.39019980,0.40082347,0.89212261,1.44469592
47147,0,USTennesseeRobertson,Tennessee,Robertson,2020-07-15 03:30:28.915155,2020-05-01 00:00:00.000000,0.24285620,0.61356105,3.57639081,174,440,2568,45,95,284,0.06275234,0.13309768,0.39616429,0.40703381,0.90015376,1.42991194
47147,0,USTennesseeRobertson,Tennessee,Robertson,2020-07-15 03:30:28.915155,2020-05-02 00:00:00.000000,0.23178653,0.53779455,1.51317703,166,386,1086,25,99,289,0.03552126,0.13806201,0.40321055,0.41073697,0.87751209,1.40589037
47147,0,USTennesseeRobertson,Tennessee,Robertson,2020-07-15 03:30:28.915155,2020-05-03 00:00:00.000000,0.27297446,0.66738613,3.71390639,196,479,2667,48,105,295,0.06773955,0.14646497,0.41128033,0.40931097,0.87878056,1.33242894
47147,0,USTennesseeRobertson,Tennessee,Robertson,2020-07-15 03:30:28.915155,2020-05-04 00:00:00.000000,0.25702062,0.58758683,1.56981698,184,421,1127,27,106,301,0.03796806,0.14840672,0.42021259,0.40899952,0.90666632,1.35723346
47147,0,USTennesseeRobertson,Tennessee,Robertson,2020-07-15 03:30:28.915155,2020-05-05 00:00:00.000000,0.30260627,0.72064520,3.85092105,217,517,2765,52,114,308,0.07320628,0.15923238,0.42974342,0.40960509,0.90062724,1.39471019
47147,0,USTennesseeRobertson,Tennessee,Robertson,2020-07-15 03:30:28.915155,2020-05-06 00:00:00.000000,0.27141022,0.63205895,1.62333518,194,453,1165,29,112,315,0.04048254,0.15727267,0.43972304,0.41122258,0.87475163,1.38772143
47147,0,USTennesseeRobertson,Tennessee,Robertson,2020-07-15 03:30:28.915155,2020-05-07 00:00:00.000000,0.33054147,0.75677959,3.98889728,237,543,2864,56,120,326,0.07898791,0.16743752,0.45486713,0.40845413,0.87825477,1.38398560
47147,0,USTennesseeRobertson,Tennessee,Robertson,2020-07-15 03:30:28.915155,2020-05-08 00:00:00.000000,0.28549144,0.67014462,1.67963714,205,481,1206,30,119,338,0.04300094,0.16632775,0.47145719,0.40970935,0.82923633,1.38421925
47147,0,USTennesseeRobertson,Tennessee,Robertson,2020-07-15 03:30:28.915155,2020-05-09 00:00:00.000000,0.35779490,0.77692807,4.13574940,256,557,2970,60,126,350,0.08478012,0.17574271,0.48828525,0.42361668,0.82733172,1.38430387
47147,0,USTennesseeRobertson,Tennessee,Robertson,2020-07-15 03:30:28.915155,2020-05-10 00:00:00.000000,0.30305800,0.70666726,1.79276543,217,507,1287,33,127,366,0.04676519,0.17782421,0.51016403,0.41882940,0.82396137,1.39970125
47147,0,USTennesseeRobertson,Tennessee,Robertson,2020-07-15 03:30:28.915155,2020-05-11 00:00:00.000000,0.36948515,0.80923392,4.27888746,265,581,3072,64,132,383,0.09026674,0.18471439,0.53406525,0.42024445,0.81992442,1.39695937
47147,0,USTennesseeRobertson,Tennessee,Robertson,2020-07-15 03:30:28.915155,2020-05-12 00:00:00.000000,0.33373738,0.74678597,1.89465651,239,536,1360,37,132,401,0.05176367,0.18501270,0.55855514,0.41418703,0.75336710,1.39800717
47147,0,USTennesseeRobertson,Tennessee,Robertson,2020-07-15 03:30:28.915155,2020-05-13 00:00:00.000000,0.39830991,0.86816440,4.39839681,286,623,3158,68,137,418,0.09532609,0.19175931,0.58216915,0.39728923,0.75262182,1.39857973
47147,0,USTennesseeRobertson,Tennessee,Robertson,2020-07-15 03:30:28.915155,2020-05-14 00:00:00.000000,0.36786560,0.78292077,1.95833682,264,562,1406,40,140,432,0.05580233,0.19526899,0.60181095,0.37226320,0.75209859,1.39856915
47147,0,USTennesseeRobertson,Tennessee,Robertson,2020-07-15 03:30:28.915155,2020-05-15 00:00:00.000000,0.42805292,0.92441519,4.50450916,307,663,3234,71,144,443,0.10021995,0.20076547,0.61740031,0.34388307,0.75147008,1.39828045
47147,0,USTennesseeRobertson,Tennessee,Robertson,2020-07-15 03:30:28.915155,2020-05-16 00:00:00.000000,0.39245097,0.81959977,2.01736842,281,588,1448,42,145,455,0.05934679,0.20229552,0.63476529,0.31617212,0.75059415,1.39694438
47147,0,USTennesseeRobertson,Tennessee,Robertson,2020-07-15 03:30:28.915155,2020-05-17 00:00:00.000000,0.44795320,0.93912700,4.60286718,321,674,3305,75,152,465,0.10509639,0.21182282,0.64796869,0.30389841,0.74244687,1.39026418
47147,0,USTennesseeRobertson,Tennessee,Robertson,2020-07-15 03:30:28.915155,2020-05-18 00:00:00.000000,0.39760991,0.84053048,2.05841430,285,603,1478,45,148,469,0.06307776,0.20730715,0.65392441,0.30189788,0.74728668,1.34851547
47147,0,USTennesseeRobertson,Tennessee,Robertson,2020-07-15 03:30:28.915155,2020-05-19 00:00:00.000000,0.46026833,0.94927928,4.68936668,330,681,3367,78,160,471,0.10873686,0.22336551,0.65589564,0.29989205,0.70617155,1.31200929
47147,0,USTennesseeRobertson,Tennessee,Robertson,2020-07-15 03:30:28.915155,2020-05-20 00:00:00.000000,0.40272666,0.86621772,2.06751377,289,622,1484,48,153,473,0.06700446,0.21313338,0.65983764,0.29677589,0.68577256,1.29584182
47147,0,USTennesseeRobertson,Tennessee,Robertson,2020-07-15 03:30:28.915155,2020-05-21 00:00:00.000000,0.46682212,0.96265237,4.76683683,335,691,3423,79,159,471,0.11076759,0.22279941,0.65605893,0.29513117,0.67378605,1.27512271
47147,0,USTennesseeRobertson,Tennessee,Robertson,2020-07-15 03:30:28.915155,2020-05-22 00:00:00.000000,0.40749359,0.87938585,2.03747570,292,631,1463,50,157,470,0.06962752,0.21894941,0.65544191,0.28057218,0.64942869,1.21797961
47147,0,USTennesseeRobertson,Tennessee,Robertson,2020-07-15 03:30:28.915155,2020-05-23 00:00:00.000000,0.46633005,0.98941928,4.82573381,334,710,3465,80,160,487,0.11231533,0.22350877,0.67952603,0.27464030,0.63246242,1.12175990
47147,0,USTennesseeRobertson,Tennessee,Robertson,2020-07-15 03:30:28.915155,2020-05-24 00:00:00.000000,0.41221604,0.88496274,2.05660471,296,635,1476,51,157,494,0.07147588,0.21908026,0.68847022,0.26512105,0.59717324,1.05899550
47147,0,USTennesseeRobertson,Tennessee,Robertson,2020-07-15 03:30:28.915155,2020-05-25 00:00:00.000000,0.43257731,0.98801153,4.81980435,310,709,3461,81,158,492,0.11355885,0.22115355,0.68623005,0.25244131,0.57546423,1.04924209
47147,0,USTennesseeRobertson,Tennessee,Robertson,2020-07-15 03:30:28.915155,2020-05-26 00:00:00.000000,0.40718162,0.87873851,2.10017309,292,631,1508,49,155,489,0.06924518,0.21642658,0.68134818,0.24400280,0.56707655,1.03676632
47147,0,USTennesseeRobertson,Tennessee,Robertson,2020-07-15 03:30:28.915155,2020-05-27 00:00:00.000000,0.43373562,0.97362178,4.73240607,311,699,3398,82,159,484,0.11554915,0.22186845,0.67522570,0.24226659,0.55709355,1.02581073
47147,0,USTennesseeRobertson,Tennessee,Robertson,2020-07-15 03:30:28.915155,2020-05-28 00:00:00.000000,0.40128894,0.85032570,2.14049561,288,610,1537,47,155,485,0.06676357,0.21588166,0.67622789,0.24163657,0.55683968,1.01178951
47147,0,USTennesseeRobertson,Tennessee,Robertson,2020-07-15 03:30:28.915155,2020-05-29 00:00:00.000000,0.44184185,0.94845058,4.64951234,317,681,3338,84,161,486,0.11808463,0.22454521,0.67698757,0.24125522,0.55378923,1.00238521
47147,0,USTennesseeRobertson,Tennessee,Robertson,2020-07-15 03:30:28.915155,2020-05-30 00:00:00.000000,0.39421338,0.82456409,2.17342160,283,592,1560,47,153,482,0.06560272,0.21352874,0.67168431,0.24090672,0.54535009,0.98743037
47147,0,USTennesseeRobertson,Tennessee,Robertson,2020-07-15 03:30:28.915155,2020-05-31 00:00:00.000000,0.44064099,0.92144142,4.62403282,316,661,3320,82,159,478,0.11509151,0.22240814,0.66611135,0.23839535,0.53913507,0.98094808
47147,0,USTennesseeRobertson,Tennessee,Robertson,2020-07-15 03:30:28.915155,2020-06-01 00:00:00.000000,0.37372305,0.79970484,2.17249841,268,574,1560,48,151,474,0.06744956,0.21030784,0.66010652,0.23535995,0.53599731,0.99758723
47147,0,USTennesseeRobertson,Tennessee,Robertson,2020-07-15 03:30:28.915155,2020-06-02 00:00:00.000000,0.41030128,0.90175051,4.64562642,294,647,3336,80,154,469,0.11169030,0.21455053,0.65384852,0.23336255,0.53471111,0.99707564
47147,0,USTennesseeRobertson,Tennessee,Robertson,2020-07-15 03:30:28.915155,2020-06-03 00:00:00.000000,0.35980187,0.77877344,2.18176156,258,559,1566,46,148,464,0.06530585,0.20632658,0.64710798,0.23259279,0.53388980,1.00251257
47147,0,USTennesseeRobertson,Tennessee,Robertson,2020-07-15 03:30:28.915155,2020-06-04 00:00:00.000000,0.39389997,0.88170703,4.59940492,282,633,3302,76,151,459,0.10707025,0.21156562,0.63938313,0.23232664,0.52170499,1.02157626
47147,0,USTennesseeRobertson,Tennessee,Robertson,2020-07-15 03:30:28.915155,2020-06-05 00:00:00.000000,0.35383380,0.76776612,2.18046147,254,551,1565,44,144,453,0.06177965,0.20141983,0.63187793,0.23243275,0.52622808,1.03958873
47147,0,USTennesseeRobertson,Tennessee,Robertson,2020-07-15 03:30:28.915155,2020-06-06 00:00:00.000000,0.38486795,0.85883930,4.39428508,276,616,3155,72,148,448,0.10062936,0.20706335,0.62397622,0.23734405,0.53398210,1.04558358
47147,0,USTennesseeRobertson,Tennessee,Robertson,2020-07-15 03:30:28.915155,2020-06-07 00:00:00.000000,0.35161180,0.74804861,2.13889326,252,537,1536,43,141,440,0.06091011,0.19750664,0.61285249,0.23394535,0.53310835,1.04762637
47147,0,USTennesseeRobertson,Tennessee,Robertson,2020-07-15 03:30:28.915155,2020-06-08 00:00:00.000000,0.36814000,0.83626157,4.21362130,264,600,3025,67,148,438,0.09428475,0.20612457,0.61070710,0.23314356,0.53604902,1.04914857
47147,0,USTennesseeRobertson,Tennessee,Robertson,2020-07-15 03:30:28.915155,2020-06-09 00:00:00.000000,0.34843315,0.72989781,2.10551953,250,524,1512,43,140,437,0.06114739,0.19618335,0.60958786,0.23764036,0.54627298,1.06974797
47147,0,USTennesseeRobertson,Tennessee,Robertson,2020-07-15 03:30:28.915155,2020-06-10 00:00:00.000000,0.36791257,0.82509091,4.10314567,264,592,2946,62,146,435,0.08761709,0.20410728,0.60622613,0.24645320,0.55875980,1.06681763
47147,0,USTennesseeRobertson,Tennessee,Robertson,2020-07-15 03:30:28.915155,2020-06-11 00:00:00.000000,0.33989773,0.70033375,2.10824681,244,502,1513,43,139,432,0.06021021,0.19482397,0.60186014,0.25942449,0.57537280,1.06129613
47147,0,USTennesseeRobertson,Tennessee,Robertson,2020-07-15 03:30:28.915155,2020-06-12 00:00:00.000000,0.36344705,0.82062822,4.04425585,261,589,2904,58,144,429,0.08136346,0.20088632,0.59744178,0.27315464,0.58120208,1.05640268
47147,0,USTennesseeRobertson,Tennessee,Robertson,2020-07-15 03:30:28.915155,2020-06-13 00:00:00.000000,0.33689791,0.69806178,2.15969173,241,501,1550,42,138,425,0.05927949,0.19235069,0.59294442,0.27597506,0.58282836,1.05749872
47147,0,USTennesseeRobertson,Tennessee,Robertson,2020-07-15 03:30:28.915155,2020-06-14 00:00:00.000000,0.34866325,0.81813967,4.03611836,250,587,2898,54,142,426,0.07590145,0.19900394,0.59362812,0.28642467,0.57782284,1.06740050
47147,0,USTennesseeRobertson,Tennessee,Robertson,2020-07-15 03:30:28.915155,2020-06-15 00:00:00.000000,0.33298003,0.68368287,2.22346215,239,490,1596,41,134,427,0.05787501,0.18661531,0.59465791,0.29549690,0.58456498,1.06071561
47147,0,USTennesseeRobertson,Tennessee,Robertson,2020-07-15 03:30:28.915155,2020-06-16 00:00:00.000000,0.32676464,0.85373833,4.08193032,234,613,2931,52,141,426,0.07305060,0.19760114,0.59452496,0.30795929,0.59839268,1.05997375
47147,0,USTennesseeRobertson,Tennessee,Robertson,2020-07-15 03:30:28.915155,2020-06-17 00:00:00.000000,0.30521363,0.67594258,2.29019033,219,485,1644,40,132,427,0.05680982,0.18432467,0.59487891,0.32894306,0.58607426,1.05651026
47147,0,USTennesseeRobertson,Tennessee,Robertson,2020-07-15 03:30:28.915155,2020-06-18 00:00:00.000000,0.31445723,0.87352670,4.14144238,225,627,2974,51,141,428,0.07132733,0.19676347,0.59602723,0.34897307,0.61290636,1.05526714
47147,0,USTennesseeRobertson,Tennessee,Robertson,2020-07-15 03:30:28.915155,2020-06-19 00:00:00.000000,0.29451369,0.69065541,2.36278469,211,495,1696,40,134,429,0.05587939,0.18694197,0.59810719,0.36028876,0.64139160,1.05807669
47147,0,USTennesseeRobertson,Tennessee,Robertson,2020-07-15 03:30:28.915155,2020-06-20 00:00:00.000000,0.30580991,0.88928133,4.16512827,219,638,2991,49,142,431,0.06949099,0.19856048,0.60095884,0.36386114,0.66442168,1.07802860
47147,0,USTennesseeRobertson,Tennessee,Robertson,2020-07-15 03:30:28.915155,2020-06-21 00:00:00.000000,0.28930492,0.70292469,2.44556914,207,504,1756,39,133,433,0.05475273,0.18577883,0.60430785,0.36434693,0.67954787,1.09445609
47147,0,USTennesseeRobertson,Tennessee,Robertson,2020-07-15 03:30:28.915155,2020-06-22 00:00:00.000000,0.30997826,0.91996454,4.18104632,222,660,3002,49,149,436,0.06900534,0.20796227,0.60798957,0.36444244,0.69639928,1.16249773
47147,0,USTennesseeRobertson,Tennessee,Robertson,2020-07-15 03:30:28.915155,2020-06-23 00:00:00.000000,0.29530840,0.74756100,2.54137988,212,536,1825,38,141,439,0.05363350,0.19643957,0.61211584,0.36446665,0.71123165,1.27037455
47147,0,USTennesseeRobertson,Tennessee,Robertson,2020-07-15 03:30:28.915155,2020-06-24 00:00:00.000000,0.33825412,0.92955971,4.19951444,242,667,3015,51,155,445,0.07176111,0.21702298,0.62041362,0.36451453,0.73192975,1.32223415
47147,0,USTennesseeRobertson,Tennessee,Robertson,2020-07-15 03:30:28.915155,2020-06-25 00:00:00.000000,0.29311000,0.77549423,2.64843948,210,556,1901,37,148,455,0.05259715,0.20610281,0.63436089,0.36532193,0.75181716,1.37952246
47147,0,USTennesseeRobertson,Tennessee,Robertson,2020-07-15 03:30:28.915155,2020-06-26 00:00:00.000000,0.41237409,0.97448416,4.28219118,296,699,3075,54,159,466,0.07650231,0.22160666,0.64993878,0.39450560,0.77558200,1.44053411
47147,0,USTennesseeRobertson,Tennessee,Robertson,2020-07-15 03:30:28.915155,2020-06-27 00:00:00.000000,0.31736033,0.82253766,2.74176897,227,590,1968,37,155,475,0.05204527,0.21639981,0.66266418,0.40304306,0.82060341,1.45991774
47147,0,USTennesseeRobertson,Tennessee,Robertson,2020-07-15 03:30:28.915155,2020-06-28 00:00:00.000000,0.47466338,1.02564004,4.47223521,340,736,3211,58,166,481,0.08148707,0.23146173,0.67093302,0.42537665,0.83458306,1.48978131
47147,0,USTennesseeRobertson,Tennessee,Robertson,2020-07-15 03:30:28.915155,2020-06-29 00:00:00.000000,0.34779383,0.89351070,2.83965572,249,641,2039,38,162,489,0.05294191,0.22570273,0.68101487,0.44051891,0.85256781,1.48538963
47147,0,USTennesseeRobertson,Tennessee,Robertson,2020-07-15 03:30:28.915155,2020-06-30 00:00:00.000000,0.53580343,1.09631209,4.63506981,384,787,3328,62,173,503,0.08704464,0.24119865,0.70166978,0.44555677,0.85528402,1.47414981
47147,0,USTennesseeRobertson,Tennessee,Robertson,2020-07-15 03:30:28.915155,2020-07-01 00:00:00.000000,0.38532383,0.96394898,2.96015906,276,692,2125,42,168,521,0.05923197,0.23519316,0.72636877,0.45199469,0.86318234,1.46776805
47147,0,USTennesseeRobertson,Tennessee,Robertson,2020-07-15 03:30:28.915155,2020-07-02 00:00:00.000000,0.57120912,1.18665649,4.90466981,410,852,3522,67,179,533,0.09373261,0.25009890,0.74271937,0.45807947,0.86580292,1.49108431
47147,0,USTennesseeRobertson,Tennessee,Robertson,2020-07-15 03:30:28.915155,2020-07-03 00:00:00.000000,0.42863455,1.03913954,3.09097833,307,746,2219,48,183,544,0.06730443,0.25496213,0.75879279,0.46872243,0.88223480,1.61881311
47147,0,USTennesseeRobertson,Tennessee,Robertson,2020-07-15 03:30:28.915155,2020-07-04 00:00:00.000000,0.59132127,1.26301313,5.36176339,424,907,3850,74,192,556,0.10363824,0.26868515,0.77435956,0.47783253,0.92317597,1.76291504
47147,0,USTennesseeRobertson,Tennessee,Robertson,2020-07-15 03:30:28.915155,2020-07-05 00:00:00.000000,0.49030325,1.12380421,3.23917921,352,807,2326,55,196,568,0.07680817,0.27360399,0.79231419,0.48582591,0.92663254,1.84301660
47147,0,USTennesseeRobertson,Tennessee,Robertson,2020-07-15 03:30:28.915155,2020-07-06 00:00:00.000000,0.62547712,1.36723226,5.83353471,449,981,4189,85,210,593,0.11948214,0.29274741,0.82614244,0.48236625,0.95001042,1.87581925
47147,0,USTennesseeRobertson,Tennessee,Robertson,2020-07-15 03:30:28.915155,2020-07-07 00:00:00.000000,0.51538594,1.20903971,3.40709292,370,868,2446,60,207,613,0.08412871,0.28836263,0.85428618,0.46629957,0.94587929,1.88590338
47147,0,USTennesseeRobertson,Tennessee,Robertson,2020-07-15 03:30:28.915155,2020-07-08 00:00:00.000000,0.65789310,1.54523380,6.30166917,472,1109,4525,100,224,644,0.14002791,0.31192439,0.89741427,0.46172667,0.95736981,1.88903098
47147,0,USTennesseeRobertson,Tennessee,Robertson,2020-07-15 03:30:28.915155,2020-07-09 00:00:00.000000,0.58364838,1.34712909,3.57879520,419,967,2570,65,231,675,0.09138794,0.32299654,0.93998344,0.45367680,0.95737047,1.88998636
47147,0,USTennesseeRobertson,Tennessee,Robertson,2020-07-15 03:30:28.915155,2020-07-10 00:00:00.000000,0.68183556,1.64017866,6.79125840,489,1177,4877,118,244,706,0.16453392,0.34092301,0.98378533,0.45188961,0.95737073,1.89027721
47147,0,USTennesseeRobertson,Tennessee,Robertson,2020-07-15 03:30:28.915155,2020-07-11 00:00:00.000000,0.66095815,1.47127657,3.85349212,474,1056,2767,73,252,735,0.10210164,0.35164498,1.02409079,0.45169187,0.95737085,1.89036580
47147,0,USTennesseeRobertson,Tennessee,Robertson,2020-07-15 03:30:28.915155,2020-07-12 00:00:00.000000,0.71544470,1.73662000,7.01548679,513,1247,5038,124,263,760,0.17377560,0.36758717,1.05845897,0.45163489,0.95737091,1.89039283
47147,0,USTennesseeRobertson,Tennessee,Robertson,2020-07-15 03:30:28.915155,2020-07-13 00:00:00.000000,0.70660735,1.56758453,4.15738810,507,1125,2985,76,266,786,0.10600038,0.37158298,1.09529946,0.45087759,0.95737094,1.89040111
47147,0,USTennesseeRobertson,Tennessee,Robertson,2020-07-15 03:30:28.915155,2020-07-14 00:00:00.000000,0.74668968,1.92630840,7.18952893,536,1383,5163,130,274,812,0.18177220,0.38277164,1.13118256,0.45002856,0.95737095,1.89040365
47147,0,USTennesseeRobertson,Tennessee,Robertson,2020-07-15 03:30:28.915155,2020-07-15 00:00:00.000000,0.75167765,1.71747264,4.47290684,539,1233,3212,83,288,857,0.11599779,0.40199726,1.19419667,0.44954384,0.95737096,1.89040444
47147,0,USTennesseeRobertson,Tennessee,Robertson,2020-07-15 03:30:28.915155,2020-07-16 00:00:00.000000,0.76944966,2.12566119,7.94310174,552,1526,5704,136,301,908,0.19069822,0.41933014,1.26509923,0.44926934,0.95737096,1.89040468
47147,0,USTennesseeRobertson,Tennessee,Robertson,2020-07-15 03:30:28.915155,2020-07-17 00:00:00.000000,0.76665037,1.87113018,4.80038185,550,1343,3447,89,312,947,0.12478091,0.43489610,1.32009158,0.44911459,0.95737096,1.89040476
47147,0,USTennesseeRobertson,Tennessee,Robertson,2020-07-15 03:30:28.915155,2020-07-18 00:00:00.000000,0.78566411,2.35308875,8.73018743,564,1689,6269,152,313,988,0.21185024,0.43703624,1.37666580,0.44902759,0.95737097,1.89040479
47147,0,USTennesseeRobertson,Tennessee,Robertson,2020-07-15 03:30:28.915155,2020-07-19 00:00:00.000000,0.78679979,1.96176633,5.49056669,565,1408,3942,97,326,1030,0.13640701,0.45430280,1.43480702,0.44897874,0.95737097,1.89040480
47147,0,USTennesseeRobertson,Tennessee,Robertson,2020-07-15 03:30:28.915155,2020-07-20 00:00:00.000000,0.80506073,2.53653800,9.29084683,578,1821,6672,153,328,1073,0.21371657,0.45685632,1.49449358,0.44895133,0.95737097,1.89040480
47147,0,USTennesseeRobertson,Tennessee,Robertson,2020-07-15 03:30:28.915155,2020-07-21 00:00:00.000000,0.80622622,2.10335780,6.51438254,578,1510,4678,103,355,1117,0.14373822,0.49548857,1.55569590,0.44893597,0.95737097,1.89040480
47147,0,USTennesseeRobertson,Tennessee,Robertson,2020-07-15 03:30:28.915155,2020-07-22 00:00:00.000000,0.80731687,2.74686842,10.22176600,579,1972,7340,164,353,1162,0.22870105,0.49175914,1.61837562,0.44892736,0.95737097,1.89040480
47147,0,USTennesseeRobertson,Tennessee,Robertson,2020-07-15 03:30:28.915155,2020-07-23 00:00:00.000000,0.80832916,2.30136947,7.06633022,580,1652,5074,106,385,1208,0.14888238,0.53747634,1.68248504,0.44892253,0.95737097,1.89040480
47147,0,USTennesseeRobertson,Tennessee,Robertson,2020-07-15 03:30:28.915155,2020-07-24 00:00:00.000000,0.80926049,3.03271202,11.25388065,581,2177,8081,171,389,1255,0.23942790,0.54260329,1.74796664,0.44891982,0.95737097,1.89040480
47147,0,USTennesseeRobertson,Tennessee,Robertson,2020-07-15 03:30:28.915155,2020-07-25 00:00:00.000000,0.81010891,2.51882465,7.63488948,581,1808,5482,110,415,1300,0.15348440,0.57850590,1.81069896,0.44891831,0.95737097,1.89040480
47147,0,USTennesseeRobertson,Tennessee,Robertson,2020-07-15 03:30:28.915155,2020-07-26 00:00:00.000000,0.81087296,3.19144747,12.34789375,582,2291,8867,173,428,1343,0.24184768,0.59693719,1.87093194,0.44891746,0.95737097,1.89040480
47147,0,USTennesseeRobertson,Tennessee,Robertson,2020-07-15 03:30:28.915155,2020-07-27 00:00:00.000000,0.81155151,2.67365692,8.16384178,582,1920,5862,110,463,1385,0.15345132,0.64513975,1.92988445,0.44891698,0.95737097,1.89040480
