FIPS,HR_UID,nameid,province,region,analysisTime,dates,pointprevalence_025,pointprevalence_50,pointprevalence_975,pointinfections_025,pointinfections_50,pointinfections_975,pointinfectious_025,pointinfectious_50,pointinfectious_975,pointinfectiousprevalence_05,pointinfectiousprevalence_50,pointinfectiousprevalence_95,infectrate_025,infectrate_50,infectrate_975
55121,0,USWisconsinTrempealeau,Wisconsin,Trempealeau,2020-07-17 06:32:40.748777,2020-03-09 00:00:00.000000,0.00861626,0.06517723,0.32943885,2,19,97,0,3,19,0.00000000,0.01275777,0.06501076,0.48866147,0.70891812,1.07747357
55121,0,USWisconsinTrempealeau,Wisconsin,Trempealeau,2020-07-17 06:32:40.748777,2020-03-10 00:00:00.000000,0.01480722,0.07200894,0.38992128,4,21,115,1,4,18,0.00395350,0.01520964,0.06106977,0.48867236,0.70892192,1.07747158
55121,0,USWisconsinTrempealeau,Wisconsin,Trempealeau,2020-07-17 06:32:40.748777,2020-03-11 00:00:00.000000,0.01283003,0.07582257,0.34045723,3,22,100,0,4,15,0.00134153,0.01459404,0.05307189,0.48869200,0.70892922,1.07746704
55121,0,USWisconsinTrempealeau,Wisconsin,Trempealeau,2020-07-17 06:32:40.748777,2020-03-12 00:00:00.000000,0.01707431,0.08528442,0.41944479,5,25,124,1,5,17,0.00521463,0.01796305,0.05866752,0.48872780,0.70894325,1.07745653
55121,0,USWisconsinTrempealeau,Wisconsin,Trempealeau,2020-07-17 06:32:40.748777,2020-03-13 00:00:00.000000,0.01749725,0.08803434,0.35462396,5,26,105,0,5,18,0.00277050,0.01761597,0.06277975,0.48879395,0.70897020,1.07743191
55121,0,USWisconsinTrempealeau,Wisconsin,Trempealeau,2020-07-17 06:32:40.748777,2020-03-14 00:00:00.000000,0.01978137,0.10220964,0.45311252,5,30,134,1,5,20,0.00587591,0.02010554,0.06933602,0.48891825,0.70902187,1.07737374
55121,0,USWisconsinTrempealeau,Wisconsin,Trempealeau,2020-07-17 06:32:40.748777,2020-03-15 00:00:00.000000,0.02134049,0.10099134,0.40312981,6,29,119,1,6,19,0.00361699,0.02031106,0.06608029,0.48915674,0.70850957,1.07723555
55121,0,USWisconsinTrempealeau,Wisconsin,Trempealeau,2020-07-17 06:32:40.748777,2020-03-16 00:00:00.000000,0.02333594,0.11246174,0.49148917,6,33,145,1,7,22,0.00658789,0.02369436,0.07713421,0.48971153,0.70599696,1.07690649
55121,0,USWisconsinTrempealeau,Wisconsin,Trempealeau,2020-07-17 06:32:40.748777,2020-03-17 00:00:00.000000,0.02614545,0.11733489,0.46401023,7,34,137,1,6,23,0.00463189,0.02354946,0.07883032,0.49132035,0.70508794,1.09269089
55121,0,USWisconsinTrempealeau,Wisconsin,Trempealeau,2020-07-17 06:32:40.748777,2020-03-18 00:00:00.000000,0.02931858,0.12772110,0.53415889,8,37,158,2,8,27,0.00756752,0.02776440,0.09209837,0.49504849,0.71033322,1.10719996
55121,0,USWisconsinTrempealeau,Wisconsin,Trempealeau,2020-07-17 06:32:40.748777,2020-03-19 00:00:00.000000,0.03288654,0.13612966,0.53645821,9,40,159,1,8,28,0.00551428,0.02749253,0.09463739,0.49301615,0.71154690,1.13732844
55121,0,USWisconsinTrempealeau,Wisconsin,Trempealeau,2020-07-17 06:32:40.748777,2020-03-20 00:00:00.000000,0.03704837,0.14788541,0.60022028,10,43,177,2,9,33,0.00882917,0.03304900,0.11274748,0.47525897,0.71365685,1.18054025
55121,0,USWisconsinTrempealeau,Wisconsin,Trempealeau,2020-07-17 06:32:40.748777,2020-03-21 00:00:00.000000,0.04136989,0.15731366,0.60913976,12,46,180,1,9,35,0.00662204,0.03253341,0.11848611,0.46498861,0.70351176,1.17843783
55121,0,USWisconsinTrempealeau,Wisconsin,Trempealeau,2020-07-17 06:32:40.748777,2020-03-22 00:00:00.000000,0.04700396,0.17150418,0.69265112,13,50,205,3,11,40,0.01019847,0.03851855,0.13503363,0.45829952,0.70314249,1.18946338
55121,0,USWisconsinTrempealeau,Wisconsin,Trempealeau,2020-07-17 06:32:40.748777,2020-03-23 00:00:00.000000,0.05122370,0.18423103,0.72388711,15,54,214,2,11,41,0.00745537,0.03776817,0.14093382,0.44730511,0.70395261,1.21580348
55121,0,USWisconsinTrempealeau,Wisconsin,Trempealeau,2020-07-17 06:32:40.748777,2020-03-24 00:00:00.000000,0.05599701,0.19968346,0.81573494,16,59,241,3,13,46,0.01185091,0.04540243,0.15715691,0.44150443,0.69546903,1.23486903
55121,0,USWisconsinTrempealeau,Wisconsin,Trempealeau,2020-07-17 06:32:40.748777,2020-03-25 00:00:00.000000,0.05914364,0.21449000,0.80192389,17,63,237,2,13,48,0.00854135,0.04474986,0.16419519,0.44692275,0.70040466,1.25777147
55121,0,USWisconsinTrempealeau,Wisconsin,Trempealeau,2020-07-17 06:32:40.748777,2020-03-26 00:00:00.000000,0.06365091,0.23218484,0.95332302,18,68,282,4,15,53,0.01382558,0.05143005,0.18104265,0.44595769,0.69445924,1.30308030
55121,0,USWisconsinTrempealeau,Wisconsin,Trempealeau,2020-07-17 06:32:40.748777,2020-03-27 00:00:00.000000,0.06804516,0.24874264,0.88275419,20,73,261,2,15,56,0.00998857,0.05266342,0.19087069,0.41995082,0.68429626,1.31740279
55121,0,USWisconsinTrempealeau,Wisconsin,Trempealeau,2020-07-17 06:32:40.748777,2020-03-28 00:00:00.000000,0.07267854,0.26836906,1.04870442,21,79,310,4,17,62,0.01624085,0.05809981,0.21100428,0.40687582,0.66336276,1.33509597
55121,0,USWisconsinTrempealeau,Wisconsin,Trempealeau,2020-07-17 06:32:40.748777,2020-03-29 00:00:00.000000,0.07904978,0.28525186,0.97131408,23,84,287,3,17,65,0.01220699,0.06028372,0.22203383,0.40634401,0.66614765,1.36980069
55121,0,USWisconsinTrempealeau,Wisconsin,Trempealeau,2020-07-17 06:32:40.748777,2020-03-30 00:00:00.000000,0.07785227,0.31508900,1.15409961,23,93,342,5,19,73,0.01814893,0.06627817,0.24847032,0.40038504,0.65136997,1.38237025
55121,0,USWisconsinTrempealeau,Wisconsin,Trempealeau,2020-07-17 06:32:40.748777,2020-03-31 00:00:00.000000,0.08800593,0.33057188,1.07007196,26,98,317,4,20,77,0.01435597,0.06955409,0.26300060,0.39459237,0.65314373,1.41475685
55121,0,USWisconsinTrempealeau,Wisconsin,Trempealeau,2020-07-17 06:32:40.748777,2020-04-01 00:00:00.000000,0.09082348,0.36402143,1.27369705,26,107,377,5,22,89,0.02015808,0.07548975,0.30042668,0.39190085,0.65898615,1.44060323
55121,0,USWisconsinTrempealeau,Wisconsin,Trempealeau,2020-07-17 06:32:40.748777,2020-04-02 00:00:00.000000,0.09984267,0.38299467,1.20214526,29,113,356,5,23,90,0.01692322,0.07925389,0.30487514,0.38770463,0.66324610,1.43759682
55121,0,USWisconsinTrempealeau,Wisconsin,Trempealeau,2020-07-17 06:32:40.748777,2020-04-03 00:00:00.000000,0.10750090,0.41864359,1.41043479,31,124,418,6,25,98,0.02276749,0.08748306,0.33056488,0.37954237,0.64800102,1.43133394
55121,0,USWisconsinTrempealeau,Wisconsin,Trempealeau,2020-07-17 06:32:40.748777,2020-04-04 00:00:00.000000,0.12234182,0.44152547,1.38715104,36,130,411,6,28,102,0.02045841,0.09454148,0.34580702,0.37583635,0.64709890,1.43384023
55121,0,USWisconsinTrempealeau,Wisconsin,Trempealeau,2020-07-17 06:32:40.748777,2020-04-05 00:00:00.000000,0.13264260,0.48695608,1.68398895,39,144,499,7,30,109,0.02601508,0.10342662,0.37057414,0.36128469,0.65534831,1.43972413
55121,0,USWisconsinTrempealeau,Wisconsin,Trempealeau,2020-07-17 06:32:40.748777,2020-04-06 00:00:00.000000,0.14818308,0.51206977,1.62769163,43,151,482,7,32,119,0.02478353,0.11030651,0.40221662,0.35132780,0.64929069,1.46252663
55121,0,USWisconsinTrempealeau,Wisconsin,Trempealeau,2020-07-17 06:32:40.748777,2020-04-07 00:00:00.000000,0.15856958,0.57086840,2.01405042,47,169,597,8,35,129,0.03019004,0.11903888,0.43609722,0.34979728,0.65000212,1.46768447
55121,0,USWisconsinTrempealeau,Wisconsin,Trempealeau,2020-07-17 06:32:40.748777,2020-04-08 00:00:00.000000,0.17449816,0.59692306,1.89632251,51,176,562,8,38,139,0.02878060,0.12843472,0.47044373,0.35016619,0.63889910,1.53314718
55121,0,USWisconsinTrempealeau,Wisconsin,Trempealeau,2020-07-17 06:32:40.748777,2020-04-09 00:00:00.000000,0.18434948,0.66572859,2.37735511,54,197,704,10,41,150,0.03613990,0.13896581,0.50616380,0.34813522,0.63623621,1.55174558
55121,0,USWisconsinTrempealeau,Wisconsin,Trempealeau,2020-07-17 06:32:40.748777,2020-04-10 00:00:00.000000,0.19482241,0.70235323,2.18549698,57,208,647,9,44,159,0.03359829,0.15153522,0.53929065,0.34869037,0.62907427,1.60112015
55121,0,USWisconsinTrempealeau,Wisconsin,Trempealeau,2020-07-17 06:32:40.748777,2020-04-11 00:00:00.000000,0.20460757,0.77404213,2.67641195,60,229,793,13,48,167,0.04464098,0.16363019,0.56584930,0.35638410,0.63406838,1.66539565
55121,0,USWisconsinTrempealeau,Wisconsin,Trempealeau,2020-07-17 06:32:40.748777,2020-04-12 00:00:00.000000,0.21472032,0.81740519,2.51432287,63,242,745,11,51,179,0.03973523,0.17379292,0.60499245,0.36161471,0.63787968,1.72682030
55121,0,USWisconsinTrempealeau,Wisconsin,Trempealeau,2020-07-17 06:32:40.748777,2020-04-13 00:00:00.000000,0.22399069,0.90389674,2.94520188,66,267,873,14,55,193,0.04975111,0.18870931,0.65180112,0.36515291,0.64981971,1.76744709
55121,0,USWisconsinTrempealeau,Wisconsin,Trempealeau,2020-07-17 06:32:40.748777,2020-04-14 00:00:00.000000,0.23915274,0.93572756,2.90841965,70,277,862,14,60,208,0.04836670,0.20272662,0.70243984,0.37454225,0.65434148,1.79144039
55121,0,USWisconsinTrempealeau,Wisconsin,Trempealeau,2020-07-17 06:32:40.748777,2020-04-15 00:00:00.000000,0.24610676,1.05219127,3.24870832,72,311,963,16,65,223,0.05479963,0.22254423,0.75386160,0.37904669,0.65434542,1.80225900
55121,0,USWisconsinTrempealeau,Wisconsin,Trempealeau,2020-07-17 06:32:40.748777,2020-04-16 00:00:00.000000,0.26580462,1.11667331,3.37368748,78,331,1000,16,69,239,0.05617196,0.23483163,0.80659337,0.37793551,0.65433890,1.85111362
55121,0,USWisconsinTrempealeau,Wisconsin,Trempealeau,2020-07-17 06:32:40.748777,2020-04-17 00:00:00.000000,0.27721575,1.22701366,3.73975755,82,363,1108,19,76,255,0.06524162,0.25854187,0.86271148,0.38370851,0.65158590,1.88254371
55121,0,USWisconsinTrempealeau,Wisconsin,Trempealeau,2020-07-17 06:32:40.748777,2020-04-18 00:00:00.000000,0.30528065,1.30012638,3.97123227,90,385,1177,19,80,273,0.06670653,0.27261888,0.92251958,0.39259916,0.65424628,1.93759973
55121,0,USWisconsinTrempealeau,Wisconsin,Trempealeau,2020-07-17 06:32:40.748777,2020-04-19 00:00:00.000000,0.32572203,1.42656157,4.36902873,96,422,1295,23,88,292,0.08009372,0.29925303,0.98632800,0.39929996,0.65650091,2.02709410
55121,0,USWisconsinTrempealeau,Wisconsin,Trempealeau,2020-07-17 06:32:40.748777,2020-04-20 00:00:00.000000,0.35111096,1.50906422,4.66617816,104,447,1383,23,92,312,0.07903154,0.31338013,1.05444737,0.40184191,0.65342131,2.05096891
55121,0,USWisconsinTrempealeau,Wisconsin,Trempealeau,2020-07-17 06:32:40.748777,2020-04-21 00:00:00.000000,0.36221716,1.64591581,5.06122983,107,487,1500,27,103,333,0.09287561,0.34941709,1.12588983,0.40494248,0.65865868,2.03311933
55121,0,USWisconsinTrempealeau,Wisconsin,Trempealeau,2020-07-17 06:32:40.748777,2020-04-22 00:00:00.000000,0.39993906,1.73142358,5.42282345,118,513,1607,27,108,355,0.09343679,0.36439787,1.19846803,0.39834481,0.65917137,1.98358750
55121,0,USWisconsinTrempealeau,Wisconsin,Trempealeau,2020-07-17 06:32:40.748777,2020-04-23 00:00:00.000000,0.41174766,1.89645119,5.88128597,122,562,1743,31,120,383,0.10653573,0.40673052,1.29208358,0.40325221,0.66147044,1.94121485
55121,0,USWisconsinTrempealeau,Wisconsin,Trempealeau,2020-07-17 06:32:40.748777,2020-04-24 00:00:00.000000,0.45500452,2.00185086,6.15364184,134,593,1824,32,128,416,0.10814735,0.43202554,1.40351355,0.40438103,0.67609646,1.94998082
55121,0,USWisconsinTrempealeau,Wisconsin,Trempealeau,2020-07-17 06:32:40.748777,2020-04-25 00:00:00.000000,0.48070090,2.22014174,6.72194935,142,658,1992,35,139,451,0.11929763,0.47167424,1.52419398,0.40726190,0.67691349,1.94151358
55121,0,USWisconsinTrempealeau,Wisconsin,Trempealeau,2020-07-17 06:32:40.748777,2020-04-26 00:00:00.000000,0.51675499,2.33622441,6.98562444,153,692,2071,36,146,490,0.12353793,0.49407109,1.65483526,0.40945401,0.67802703,2.00927507
55121,0,USWisconsinTrempealeau,Wisconsin,Trempealeau,2020-07-17 06:32:40.748777,2020-04-27 00:00:00.000000,0.52956755,2.60490963,7.66135911,157,772,2271,39,154,530,0.13245489,0.52270863,1.79052592,0.40521236,0.67831379,2.06894969
55121,0,USWisconsinTrempealeau,Wisconsin,Trempealeau,2020-07-17 06:32:40.748777,2020-04-28 00:00:00.000000,0.58668423,2.77038480,8.08654832,173,821,2397,40,162,569,0.13811260,0.54972165,1.91943535,0.40282212,0.69115120,2.10298173
55121,0,USWisconsinTrempealeau,Wisconsin,Trempealeau,2020-07-17 06:32:40.748777,2020-04-29 00:00:00.000000,0.59210132,3.06410123,8.93748459,175,908,2649,43,176,609,0.14667585,0.59470836,2.05695871,0.40049620,0.69085964,2.15567643
55121,0,USWisconsinTrempealeau,Wisconsin,Trempealeau,2020-07-17 06:32:40.748777,2020-04-30 00:00:00.000000,0.74306112,3.21224135,9.56780851,220,952,2836,45,193,653,0.15462843,0.65165107,2.20358071,0.39894777,0.70577922,2.18469026
55121,0,USWisconsinTrempealeau,Wisconsin,Trempealeau,2020-07-17 06:32:40.748777,2020-05-01 00:00:00.000000,0.67292118,3.57025702,10.54394497,199,1058,3126,48,212,699,0.16292461,0.71838224,2.36023439,0.38527287,0.70245757,2.24267087
55121,0,USWisconsinTrempealeau,Wisconsin,Trempealeau,2020-07-17 06:32:40.748777,2020-05-02 00:00:00.000000,0.97936452,3.75251653,11.08570073,290,1112,3286,50,232,767,0.17072817,0.78373624,2.58952307,0.36089712,0.69726455,2.29840871
55121,0,USWisconsinTrempealeau,Wisconsin,Trempealeau,2020-07-17 06:32:40.748777,2020-05-03 00:00:00.000000,0.87038812,4.22740341,12.50159308,258,1253,3706,53,253,841,0.17913054,0.85342664,2.83974241,0.35877352,0.70614328,2.24323294
55121,0,USWisconsinTrempealeau,Wisconsin,Trempealeau,2020-07-17 06:32:40.748777,2020-05-04 00:00:00.000000,1.20777010,4.33769625,12.86823914,358,1286,3815,55,271,922,0.18834378,0.91515244,3.11161225,0.35933841,0.70556974,2.32830423
55121,0,USWisconsinTrempealeau,Wisconsin,Trempealeau,2020-07-17 06:32:40.748777,2020-05-05 00:00:00.000000,1.11647660,5.00391128,14.75857414,331,1483,4375,58,302,1007,0.19843989,1.02089783,3.39763255,0.36126342,0.69809709,2.37991562
55121,0,USWisconsinTrempealeau,Wisconsin,Trempealeau,2020-07-17 06:32:40.748777,2020-05-06 00:00:00.000000,1.42399042,5.23639636,14.98507985,422,1552,4442,62,315,1099,0.20940354,1.06561483,3.70776054,0.36085412,0.70018801,2.43787318
55121,0,USWisconsinTrempealeau,Wisconsin,Trempealeau,2020-07-17 06:32:40.748777,2020-05-07 00:00:00.000000,1.38458717,5.85841597,17.26686338,410,1736,5119,65,345,1199,0.22122283,1.16404541,4.04421893,0.36155562,0.69828431,2.45694266
55121,0,USWisconsinTrempealeau,Wisconsin,Trempealeau,2020-07-17 06:32:40.748777,2020-05-08 00:00:00.000000,1.67134414,6.09259006,17.50819418,495,1806,5191,69,363,1303,0.23393670,1.22667578,4.39751170,0.35950575,0.70939700,2.47528742
55121,0,USWisconsinTrempealeau,Wisconsin,Trempealeau,2020-07-17 06:32:40.748777,2020-05-09 00:00:00.000000,1.58736904,6.80219011,20.00669984,470,2016,5931,73,395,1409,0.24759488,1.33367402,4.75445668,0.36351381,0.73099579,2.52527388
55121,0,USWisconsinTrempealeau,Wisconsin,Trempealeau,2020-07-17 06:32:40.748777,2020-05-10 00:00:00.000000,1.90203776,7.24588712,20.40534590,563,2148,6049,78,421,1524,0.26388124,1.42268440,5.14152089,0.36938940,0.71709590,2.65787047
55121,0,USWisconsinTrempealeau,Wisconsin,Trempealeau,2020-07-17 06:32:40.748777,2020-05-11 00:00:00.000000,1.90967695,7.99901474,23.04508899,566,2371,6832,84,458,1653,0.28402410,1.54568721,5.57770491,0.37219644,0.73598275,2.82914327
55121,0,USWisconsinTrempealeau,Wisconsin,Trempealeau,2020-07-17 06:32:40.748777,2020-05-12 00:00:00.000000,2.13886496,8.56009854,23.60967832,634,2537,7000,90,488,1817,0.30684884,1.64636452,6.13068605,0.36558733,0.73784622,2.86895714
55121,0,USWisconsinTrempealeau,Wisconsin,Trempealeau,2020-07-17 06:32:40.748777,2020-05-13 00:00:00.000000,2.08803817,9.33286687,26.35862818,619,2767,7815,98,529,1973,0.33234258,1.78521345,6.65759027,0.36148392,0.74403913,2.89729742
55121,0,USWisconsinTrempealeau,Wisconsin,Trempealeau,2020-07-17 06:32:40.748777,2020-05-14 00:00:00.000000,2.39086784,9.81531928,27.10175418,708,2910,8035,106,563,2111,0.36009644,1.90187783,7.12139513,0.36020372,0.76092214,2.93278666
55121,0,USWisconsinTrempealeau,Wisconsin,Trempealeau,2020-07-17 06:32:40.748777,2020-05-15 00:00:00.000000,2.27088460,10.96662960,30.16184915,673,3251,8942,114,625,2253,0.38494304,2.10962750,7.60029796,0.35984489,0.76447719,2.95481532
55121,0,USWisconsinTrempealeau,Wisconsin,Trempealeau,2020-07-17 06:32:40.748777,2020-05-16 00:00:00.000000,2.66423369,11.29024146,30.96238526,789,3347,9180,121,651,2412,0.41031434,2.19637895,8.13534020,0.36000328,0.76774447,2.97246953
55121,0,USWisconsinTrempealeau,Wisconsin,Trempealeau,2020-07-17 06:32:40.748777,2020-05-17 00:00:00.000000,2.46065222,12.92329392,34.38136935,729,3831,10193,129,748,2599,0.43748569,2.52576523,8.76751621,0.36431901,0.78421538,2.99868273
55121,0,USWisconsinTrempealeau,Wisconsin,Trempealeau,2020-07-17 06:32:40.748777,2020-05-18 00:00:00.000000,2.93285429,13.17686649,36.63383385,869,3906,10861,138,796,2798,0.46657659,2.68764461,9.43734802,0.37714132,0.79188822,3.04703439
55121,0,USWisconsinTrempealeau,Wisconsin,Trempealeau,2020-07-17 06:32:40.748777,2020-05-19 00:00:00.000000,2.68703659,14.91708324,40.36178651,796,4422,11966,147,891,3006,0.49768652,3.00567745,10.13986700,0.35916264,0.79822984,3.09700075
55121,0,USWisconsinTrempealeau,Wisconsin,Trempealeau,2020-07-17 06:32:40.748777,2020-05-20 00:00:00.000000,3.24410577,15.83917511,41.71662313,961,4696,12368,157,903,3223,0.53088553,3.04703979,10.87192376,0.34933267,0.80019694,3.14687000
55121,0,USWisconsinTrempealeau,Wisconsin,Trempealeau,2020-07-17 06:32:40.748777,2020-05-21 00:00:00.000000,2.96436992,17.84501566,46.48837900,878,5290,13783,167,1013,3449,0.56620098,3.41911787,11.63326557,0.35957229,0.79949263,3.20227369
55121,0,USWisconsinTrempealeau,Wisconsin,Trempealeau,2020-07-17 06:32:40.748777,2020-05-22 00:00:00.000000,3.58256367,18.55257267,47.69239796,1062,5500,14140,178,1067,3683,0.60359985,3.60010418,12.42476187,0.35943151,0.79612617,3.24885114
55121,0,USWisconsinTrempealeau,Wisconsin,Trempealeau,2020-07-17 06:32:40.748777,2020-05-23 00:00:00.000000,3.27073200,20.10112640,52.60043348,969,5959,15595,190,1203,3927,0.64298024,4.05821312,13.24751061,0.35938783,0.81195296,3.28954202
55121,0,USWisconsinTrempealeau,Wisconsin,Trempealeau,2020-07-17 06:32:40.748777,2020-05-24 00:00:00.000000,3.95552462,21.65289787,53.31193701,1172,6419,15806,202,1234,4181,0.68419327,4.16272263,14.10298235,0.35938637,0.81634214,3.33767247
55121,0,USWisconsinTrempealeau,Wisconsin,Trempealeau,2020-07-17 06:32:40.748777,2020-05-25 00:00:00.000000,3.63720017,23.10396530,59.28558255,1078,6850,17577,215,1364,4445,0.72709309,4.60385915,14.99336611,0.35933785,0.81407420,3.36161018
55121,0,USWisconsinTrempealeau,Wisconsin,Trempealeau,2020-07-17 06:32:40.748777,2020-05-26 00:00:00.000000,4.41470272,24.24370222,58.81660628,1308,7188,17438,228,1440,4729,0.77157485,4.85694975,15.95227916,0.35869153,0.81220297,3.38223313
55121,0,USWisconsinTrempealeau,Wisconsin,Trempealeau,2020-07-17 06:32:40.748777,2020-05-27 00:00:00.000000,4.08232575,26.48220225,66.05170828,1210,7851,19583,242,1602,5035,0.81757390,5.40398635,16.98355648,0.35403098,0.82119766,3.40824942
55121,0,USWisconsinTrempealeau,Wisconsin,Trempealeau,2020-07-17 06:32:40.748777,2020-05-28 00:00:00.000000,4.93982793,28.09239214,63.88182489,1464,8329,18940,256,1652,5353,0.86504696,5.57255065,18.05533408,0.34936070,0.82142344,3.44678656
55121,0,USWisconsinTrempealeau,Wisconsin,Trempealeau,2020-07-17 06:32:40.748777,2020-05-29 00:00:00.000000,4.70195256,30.56034114,72.34164399,1394,9060,21448,270,1797,5682,0.91396774,6.06317396,19.16637801,0.34766988,0.82147506,3.49357008
55121,0,USWisconsinTrempealeau,Wisconsin,Trempealeau,2020-07-17 06:32:40.748777,2020-05-30 00:00:00.000000,5.52150832,30.27696789,69.45948042,1637,8976,20594,285,1874,6023,0.96434229,6.32140374,20.31453505,0.33202908,0.82457769,3.54204932
55121,0,USWisconsinTrempealeau,Wisconsin,Trempealeau,2020-07-17 06:32:40.748777,2020-05-31 00:00:00.000000,5.31155599,33.17105440,77.88756287,1574,9834,23092,301,2093,6374,1.01756056,7.06175038,21.49906849,0.32405434,0.83563938,3.60716851
55121,0,USWisconsinTrempealeau,Wisconsin,Trempealeau,2020-07-17 06:32:40.748777,2020-06-01 00:00:00.000000,5.99496922,33.30916340,74.90998139,1777,9875,22210,317,2092,6735,1.06969639,7.05828396,22.71881824,0.31406891,0.82798284,3.70506465
55121,0,USWisconsinTrempealeau,Wisconsin,Trempealeau,2020-07-17 06:32:40.748777,2020-06-02 00:00:00.000000,5.50874281,35.84096303,81.91685227,1633,10626,24287,334,2287,7107,1.12807867,7.71631190,23.97174610,0.30855131,0.81224094,3.81914275
55121,0,USWisconsinTrempealeau,Wisconsin,Trempealeau,2020-07-17 06:32:40.748777,2020-06-03 00:00:00.000000,6.34789768,36.65805218,81.83516949,1882,10868,24263,350,2378,7522,1.18191721,8.02145467,25.37064112,0.29501108,0.80318985,3.90868524
55121,0,USWisconsinTrempealeau,Wisconsin,Trempealeau,2020-07-17 06:32:40.748777,2020-06-04 00:00:00.000000,5.95126487,39.28681234,84.71745410,1764,11648,25117,369,2523,8038,1.24545583,8.51143759,27.11131651,0.29279486,0.80163854,3.94372603
55121,0,USWisconsinTrempealeau,Wisconsin,Trempealeau,2020-07-17 06:32:40.748777,2020-06-05 00:00:00.000000,6.77027020,39.36496318,84.28186054,2007,11671,24988,386,2612,8571,1.30210318,8.81085638,28.90910840,0.29110616,0.78949438,3.85853759
55121,0,USWisconsinTrempealeau,Wisconsin,Trempealeau,2020-07-17 06:32:40.748777,2020-06-06 00:00:00.000000,6.48081542,41.80019054,87.33075711,1921,12393,25892,405,2813,9118,1.36871203,9.48891616,30.75434823,0.28757899,0.78472528,3.71607125
55121,0,USWisconsinTrempealeau,Wisconsin,Trempealeau,2020-07-17 06:32:40.748777,2020-06-07 00:00:00.000000,7.20050195,39.97593666,86.01630667,2134,11852,25502,424,2914,9676,1.43139261,9.83004356,32.63582613,0.28215423,0.78471862,3.58654869
55121,0,USWisconsinTrempealeau,Wisconsin,Trempealeau,2020-07-17 06:32:40.748777,2020-06-08 00:00:00.000000,7.10050202,43.10890977,88.80596819,2105,12781,26330,444,3090,10285,1.49978538,10.42427984,34.69145345,0.27456900,0.77554331,3.49459631
55121,0,USWisconsinTrempealeau,Wisconsin,Trempealeau,2020-07-17 06:32:40.748777,2020-06-09 00:00:00.000000,7.61345451,41.93087304,87.84577623,2257,12432,26045,465,3151,10903,1.57085846,10.63055152,36.77535819,0.26508305,0.77356935,3.47304185
55121,0,USWisconsinTrempealeau,Wisconsin,Trempealeau,2020-07-17 06:32:40.748777,2020-06-10 00:00:00.000000,7.88291404,43.96403330,90.90957899,2337,13034,26953,487,3346,11524,1.64480831,11.28564198,38.87036889,0.25694155,0.77609825,3.47300639
55121,0,USWisconsinTrempealeau,Wisconsin,Trempealeau,2020-07-17 06:32:40.748777,2020-06-11 00:00:00.000000,8.24625682,43.67124291,90.06511559,2444,12948,26703,510,3327,12144,1.72210883,11.22278090,40.96052191,0.25398008,0.77943091,3.49858238
55121,0,USWisconsinTrempealeau,Wisconsin,Trempealeau,2020-07-17 06:32:40.748777,2020-06-12 00:00:00.000000,8.55216541,44.85005767,92.67774033,2535,13297,27478,534,3526,12684,1.80343313,11.89261445,42.78287095,0.25433993,0.77200742,3.60699949
55121,0,USWisconsinTrempealeau,Wisconsin,Trempealeau,2020-07-17 06:32:40.748777,2020-06-13 00:00:00.000000,8.60694397,44.93214738,92.21026514,2551,13321,27339,560,3575,13170,1.88906570,12.05827105,44.42207950,0.25326967,0.76119943,3.64790667
55121,0,USWisconsinTrempealeau,Wisconsin,Trempealeau,2020-07-17 06:32:40.748777,2020-06-14 00:00:00.000000,8.89521000,45.39675792,93.45420509,2637,13459,27708,586,3723,13734,1.97908956,12.55722800,46.32428820,0.25260713,0.74079211,3.66947407
55121,0,USWisconsinTrempealeau,Wisconsin,Trempealeau,2020-07-17 06:32:40.748777,2020-06-15 00:00:00.000000,8.59868894,43.95010832,92.51164891,2549,13030,27428,614,3775,14311,2.07345500,12.73434109,48.27092507,0.25361482,0.74423923,3.68095173
55121,0,USWisconsinTrempealeau,Wisconsin,Trempealeau,2020-07-17 06:32:40.748777,2020-06-16 00:00:00.000000,9.36995255,44.56964830,93.70375113,2778,13214,27782,643,3839,14871,2.17205157,12.94846978,50.15762070,0.25370637,0.74052894,3.71880307
55121,0,USWisconsinTrempealeau,Wisconsin,Trempealeau,2020-07-17 06:32:40.748777,2020-06-17 00:00:00.000000,8.86370519,43.12543843,92.73961765,2627,12786,27496,674,3892,15411,2.27480865,13.12956420,51.97996358,0.25416594,0.74117360,3.74123336
55121,0,USWisconsinTrempealeau,Wisconsin,Trempealeau,2020-07-17 06:32:40.748777,2020-06-18 00:00:00.000000,9.90160421,44.15252783,92.97923960,2935,13090,27567,706,3985,15931,2.38153750,13.44134306,53.73491485,0.25986471,0.73138239,3.78653776
55121,0,USWisconsinTrempealeau,Wisconsin,Trempealeau,2020-07-17 06:32:40.748777,2020-06-19 00:00:00.000000,9.38859227,42.63150699,93.11611381,2783,12639,27607,738,3970,16390,2.49184435,13.39014365,55.28124997,0.27493455,0.74010585,3.79943094
55121,0,USWisconsinTrempealeau,Wisconsin,Trempealeau,2020-07-17 06:32:40.748777,2020-06-20 00:00:00.000000,10.51453328,43.03730483,93.41920364,3117,12760,27697,772,4020,16792,2.60531971,13.56164890,56.63606667,0.28197546,0.73180990,3.79811558
55121,0,USWisconsinTrempealeau,Wisconsin,Trempealeau,2020-07-17 06:32:40.748777,2020-06-21 00:00:00.000000,10.01720632,41.52896831,93.74876870,2970,12312,27795,806,4065,17171,2.72169777,13.71052697,57.91656555,0.27207014,0.72709650,3.79641190
55121,0,USWisconsinTrempealeau,Wisconsin,Trempealeau,2020-07-17 06:32:40.748777,2020-06-22 00:00:00.000000,9.97303949,41.41006438,93.99928775,2956,12277,27869,842,4126,17447,2.84056636,13.91788878,58.84733748,0.26113165,0.72396573,3.79550565
55121,0,USWisconsinTrempealeau,Wisconsin,Trempealeau,2020-07-17 06:32:40.748777,2020-06-23 00:00:00.000000,9.75209037,40.18847855,94.17462073,2891,11915,27921,878,4188,17631,2.96181352,14.12625440,59.46729650,0.25138188,0.71925414,3.79484988
55121,0,USWisconsinTrempealeau,Wisconsin,Trempealeau,2020-07-17 06:32:40.748777,2020-06-24 00:00:00.000000,9.41679504,40.09976931,94.28106896,2791,11889,27953,917,4233,17728,3.09372007,14.27964763,59.79567158,0.23994090,0.71031065,3.79320290
55121,0,USWisconsinTrempealeau,Wisconsin,Trempealeau,2020-07-17 06:32:40.748777,2020-06-25 00:00:00.000000,9.36548767,39.18044842,94.32519910,2776,11616,27966,952,4275,17803,3.21229084,14.42056950,60.04827593,0.22741911,0.72020733,3.78562632
55121,0,USWisconsinTrempealeau,Wisconsin,Trempealeau,2020-07-17 06:32:40.748777,2020-06-26 00:00:00.000000,9.12028306,38.63236487,94.31449579,2704,11454,27963,996,4306,17857,3.36024762,14.52473656,60.22959352,0.22590129,0.72165474,3.74928058
55121,0,USWisconsinTrempealeau,Wisconsin,Trempealeau,2020-07-17 06:32:40.748777,2020-06-27 00:00:00.000000,9.37492462,37.82972076,94.25656273,2779,11216,27946,1030,4349,17894,3.47477580,14.66987777,60.35352328,0.22178676,0.74045265,3.72936442
55121,0,USWisconsinTrempealeau,Wisconsin,Trempealeau,2020-07-17 06:32:40.748777,2020-06-28 00:00:00.000000,9.14468887,37.92326116,94.15854072,2711,11243,27917,1079,4380,18058,3.64220881,14.77529791,60.90678977,0.21570345,0.75273845,3.79093333
55121,0,USWisconsinTrempealeau,Wisconsin,Trempealeau,2020-07-17 06:32:40.748777,2020-06-29 00:00:00.000000,8.78227939,37.38465925,94.02692234,2603,11084,27878,1112,4414,18190,3.75269035,14.89055222,61.35203241,0.21524891,0.75166684,3.82940959
55121,0,USWisconsinTrempealeau,Wisconsin,Trempealeau,2020-07-17 06:32:40.748777,2020-06-30 00:00:00.000000,8.78693314,37.28295616,93.86741969,2605,11054,27830,1169,4456,18448,3.94470565,15.02987090,62.22215806,0.21597081,0.76262243,3.76698248
55121,0,USWisconsinTrempealeau,Wisconsin,Trempealeau,2020-07-17 06:32:40.748777,2020-07-01 00:00:00.000000,8.79901324,36.35959156,93.68491703,2608,10780,27776,1201,4493,18671,4.05082112,15.15571492,62.97384525,0.21770825,0.75089917,3.74925658
55121,0,USWisconsinTrempealeau,Wisconsin,Trempealeau,2020-07-17 06:32:40.748777,2020-07-02 00:00:00.000000,9.16409318,36.08160906,93.48353161,2717,10697,27716,1265,4491,18879,4.26974717,15.14781987,63.67730180,0.22063952,0.74999559,3.74791055
55121,0,USWisconsinTrempealeau,Wisconsin,Trempealeau,2020-07-17 06:32:40.748777,2020-07-03 00:00:00.000000,8.84682567,34.62431322,93.26677454,2622,10265,27652,1254,4489,19074,4.23102136,15.14283696,64.33327515,0.22384629,0.75005817,3.80699461
55121,0,USWisconsinTrempealeau,Wisconsin,Trempealeau,2020-07-17 06:32:40.748777,2020-07-04 00:00:00.000000,9.69509279,34.23418968,93.03771831,2874,10150,27584,1356,4514,19254,4.57520547,15.22676341,64.94211291,0.22604888,0.75125738,3.86318855
55121,0,USWisconsinTrempealeau,Wisconsin,Trempealeau,2020-07-17 06:32:40.748777,2020-07-05 00:00:00.000000,8.98044913,33.15087659,92.79858265,2662,9828,27513,1300,4533,19421,4.38749760,15.29001662,65.50434024,0.22712916,0.74480853,3.92935775
55121,0,USWisconsinTrempealeau,Wisconsin,Trempealeau,2020-07-17 06:32:40.748777,2020-07-06 00:00:00.000000,9.60418702,32.55134413,92.63707601,2847,9651,27465,1410,4554,19589,4.75865399,15.36231358,66.07198195,0.22757726,0.74416042,4.00084932
55121,0,USWisconsinTrempealeau,Wisconsin,Trempealeau,2020-07-17 06:32:40.748777,2020-07-07 00:00:00.000000,9.01239452,31.40715609,93.03365776,2672,9311,27583,1344,4582,19823,4.53503103,15.45583010,66.86076166,0.22775188,0.75201071,4.04229048
55121,0,USWisconsinTrempealeau,Wisconsin,Trempealeau,2020-07-17 06:32:40.748777,2020-07-08 00:00:00.000000,9.65945669,31.33899813,93.39053647,2863,9291,27689,1469,4624,20047,4.95709625,15.59594842,67.61448759,0.22781870,0.75718307,4.06594040
55121,0,USWisconsinTrempealeau,Wisconsin,Trempealeau,2020-07-17 06:32:40.748777,2020-07-09 00:00:00.000000,8.96876302,30.29177439,93.70973802,2659,8981,27784,1386,4659,20260,4.67651166,15.71507253,68.33376741,0.22784410,0.75989496,4.07891232
55121,0,USWisconsinTrempealeau,Wisconsin,Trempealeau,2020-07-17 06:32:40.748777,2020-07-10 00:00:00.000000,9.72718431,30.05845384,93.50863365,2884,8912,27724,1481,4666,20463,4.99633604,15.73904082,69.01926160,0.22785364,0.75085588,4.08579844
55121,0,USWisconsinTrempealeau,Wisconsin,Trempealeau,2020-07-17 06:32:40.748777,2020-07-11 00:00:00.000000,9.09402348,29.26732826,93.28031645,2696,8677,27656,1425,4633,20656,4.80845632,15.62925909,69.67167512,0.22785710,0.75085578,4.08940721
55121,0,USWisconsinTrempealeau,Wisconsin,Trempealeau,2020-07-17 06:32:40.748777,2020-07-12 00:00:00.000000,9.75178336,28.90229656,93.04931060,2891,8569,27588,1471,4675,20813,4.96176872,15.76966391,70.20110892,0.22785826,0.75085579,4.09130589
55121,0,USWisconsinTrempealeau,Wisconsin,Trempealeau,2020-07-17 06:32:40.748777,2020-07-13 00:00:00.000000,9.25735539,28.33725131,92.81576688,2744,8401,27518,1410,4676,20949,4.75768299,15.77184019,70.65892119,0.22785855,0.75085582,4.09232034
55121,0,USWisconsinTrempealeau,Wisconsin,Trempealeau,2020-07-17 06:32:40.748777,2020-07-14 00:00:00.000000,9.67927601,27.90753398,92.57982004,2869,8274,27448,1466,4690,21076,4.94516525,15.82045357,71.08799444,0.22785856,0.75085585,4.09287490
55121,0,USWisconsinTrempealeau,Wisconsin,Trempealeau,2020-07-17 06:32:40.748777,2020-07-15 00:00:00.000000,9.33345453,27.25854608,92.34159213,2767,8081,27378,1400,4675,21195,4.72412682,15.76823871,71.48941499,0.22785848,0.75085587,4.09318649
55121,0,USWisconsinTrempealeau,Wisconsin,Trempealeau,2020-07-17 06:32:40.748777,2020-07-16 00:00:00.000000,9.59005573,27.11693306,92.10119513,2843,8039,27307,1465,4680,21296,4.94120195,15.78769391,71.82741076,0.22785840,0.75085589,4.09336683
55121,0,USWisconsinTrempealeau,Wisconsin,Trempealeau,2020-07-17 06:32:40.748777,2020-07-17 00:00:00.000000,9.30008672,26.42925122,91.85873278,2757,7836,27235,1394,4671,21372,4.70328562,15.75549533,72.08493401,0.22785832,0.75085590,4.09347435
55121,0,USWisconsinTrempealeau,Wisconsin,Trempealeau,2020-07-17 06:32:40.748777,2020-07-18 00:00:00.000000,9.49088890,26.41411125,91.61430212,2813,7831,27162,1466,4629,21441,4.94569666,15.61550119,72.31945045,0.22785827,0.75085591,4.09354026
55121,0,USWisconsinTrempealeau,Wisconsin,Trempealeau,2020-07-17 06:32:40.748777,2020-07-19 00:00:00.000000,9.27439116,25.59564192,91.36799460,2749,7588,27089,1391,4588,21504,4.69184970,15.47450296,72.53192286,0.22785823,0.75085592,4.09358167
55121,0,USWisconsinTrempealeau,Wisconsin,Trempealeau,2020-07-17 06:32:40.748777,2020-07-20 00:00:00.000000,9.41026634,25.31541339,91.11989694,2790,7505,27016,1469,4549,21561,4.95536809,15.34295999,72.72327564,0.22785821,0.75085593,4.09360823
55121,0,USWisconsinTrempealeau,Wisconsin,Trempealeau,2020-07-17 06:32:40.748777,2020-07-21 00:00:00.000000,9.25441584,24.60948186,90.87009189,2743,7296,26942,1389,4548,21612,4.68738795,15.34011250,72.89439611,0.22785819,0.75085593,4.09362555
55121,0,USWisconsinTrempealeau,Wisconsin,Trempealeau,2020-07-17 06:32:40.748777,2020-07-22 00:00:00.000000,9.39918976,24.16092291,90.61865865,2786,7163,26867,1472,4529,21657,4.96764355,15.27705567,73.04613576,0.22785818,0.75085593,4.09363699
55121,0,USWisconsinTrempealeau,Wisconsin,Trempealeau,2020-07-17 06:32:40.748777,2020-07-23 00:00:00.000000,9.06404263,23.71886508,90.36567337,2687,7032,26792,1389,4504,21696,4.68810824,15.19306425,73.17931166,0.22785817,0.75085594,4.09364463
55121,0,USWisconsinTrempealeau,Wisconsin,Trempealeau,2020-07-17 06:32:40.748777,2020-07-24 00:00:00.000000,9.37738209,23.40755009,90.11120941,2780,6940,26717,1494,4491,21755,5.03921207,15.14961496,73.37729892,0.22785817,0.75085594,4.09364977
55121,0,USWisconsinTrempealeau,Wisconsin,Trempealeau,2020-07-17 06:32:40.748777,2020-07-25 00:00:00.000000,8.84273149,22.89486031,89.85533761,2621,6788,26641,1391,4489,21834,4.69267668,15.14058688,73.64269287,0.22785817,0.75085594,4.09365324
55121,0,USWisconsinTrempealeau,Wisconsin,Trempealeau,2020-07-17 06:32:40.748777,2020-07-26 00:00:00.000000,9.31605177,22.74034338,89.59812647,2762,6742,26564,1533,4503,21906,5.17291289,15.18971535,73.88532980,0.22785816,0.75085594,4.09365560
55121,0,USWisconsinTrempealeau,Wisconsin,Trempealeau,2020-07-17 06:32:40.748777,2020-07-27 00:00:00.000000,8.77371342,22.15254412,89.33964233,2601,6568,26488,1393,4502,21971,4.70008417,15.18472513,74.10582047,0.22785816,0.75085594,4.09365720
55121,0,USWisconsinTrempealeau,Wisconsin,Trempealeau,2020-07-17 06:32:40.748777,2020-07-28 00:00:00.000000,8.99501299,22.05127237,89.07994948,2666,6537,26411,1569,4470,22030,5.29375313,15.07642545,74.30478893,0.22785816,0.75085594,4.09365829
55121,0,USWisconsinTrempealeau,Wisconsin,Trempealeau,2020-07-17 06:32:40.748777,2020-07-29 00:00:00.000000,8.72341542,21.70102992,88.81911025,2586,6434,26333,1396,4425,22083,4.70954998,14.92637233,74.48286944,0.22785816,0.75085595,4.09365904
