FIPS,HR_UID,nameid,province,region,analysisTime,dates,pointprevalence_025,pointprevalence_50,pointprevalence_975,pointinfections_025,pointinfections_50,pointinfections_975,pointinfectious_025,pointinfectious_50,pointinfectious_975,pointinfectiousprevalence_05,pointinfectiousprevalence_50,pointinfectiousprevalence_95,infectrate_025,infectrate_50,infectrate_975
18169,0,USIndianaWabash,Indiana,Wabash,2020-07-18 15:39:42.620202,2020-03-09 00:00:00.000000,0.01363787,0.07085107,0.25609883,4,21,79,0,4,25,0.00000000,0.01403564,0.08338562,0.57724046,0.74499391,0.95529367
18169,0,USIndianaWabash,Indiana,Wabash,2020-07-18 15:39:42.620202,2020-03-10 00:00:00.000000,0.03160470,0.08680809,0.71918847,9,26,222,1,5,23,0.00599928,0.01743775,0.07577046,0.57722840,0.74499389,0.95529363
18169,0,USIndianaWabash,Indiana,Wabash,2020-07-18 15:39:42.620202,2020-03-11 00:00:00.000000,0.01808198,0.07889900,0.28250393,5,24,87,0,4,16,0.00033987,0.01381697,0.05273831,0.57721151,0.74499383,0.95529351
18169,0,USIndianaWabash,Indiana,Wabash,2020-07-18 15:39:42.620202,2020-03-12 00:00:00.000000,0.03058550,0.09512156,0.69987743,9,29,216,1,5,17,0.00557096,0.01774072,0.05522068,0.57707976,0.74499363,0.95529307
18169,0,USIndianaWabash,Indiana,Wabash,2020-07-18 15:39:42.620202,2020-03-13 00:00:00.000000,0.02187827,0.08553361,0.32652557,6,26,101,0,4,12,0.00057924,0.01429021,0.04080466,0.57562285,0.74499305,0.95529148
18169,0,USIndianaWabash,Indiana,Wabash,2020-07-18 15:39:42.620202,2020-03-14 00:00:00.000000,0.03183080,0.10473267,0.69073194,9,32,214,1,5,15,0.00569085,0.01899862,0.04970241,0.57310455,0.74499131,0.95528567
18169,0,USIndianaWabash,Indiana,Wabash,2020-07-18 15:39:42.620202,2020-03-15 00:00:00.000000,0.02558218,0.09105121,0.35887533,7,28,111,0,4,12,0.00091740,0.01524468,0.04043038,0.56883418,0.74498604,0.95526424
18169,0,USIndianaWabash,Indiana,Wabash,2020-07-18 15:39:42.620202,2020-03-16 00:00:00.000000,0.03438884,0.11692336,0.68609140,10,36,212,2,6,15,0.00659140,0.02026451,0.05134136,0.56332676,0.74497007,0.95513073
18169,0,USIndianaWabash,Indiana,Wabash,2020-07-18 15:39:42.620202,2020-03-17 00:00:00.000000,0.02870552,0.09835106,0.38655538,8,30,119,0,5,13,0.00118240,0.01677042,0.04397724,0.55080544,0.74550804,0.95385200
18169,0,USIndianaWabash,Indiana,Wabash,2020-07-18 15:39:42.620202,2020-03-18 00:00:00.000000,0.03778319,0.12291815,0.68518744,11,38,212,2,6,16,0.00678788,0.02144223,0.05430230,0.53838451,0.74297581,0.95337129
18169,0,USIndianaWabash,Indiana,Wabash,2020-07-18 15:39:42.620202,2020-03-19 00:00:00.000000,0.03186912,0.10732164,0.41341237,9,33,128,0,5,14,0.00145191,0.01821458,0.04820434,0.51478205,0.73505838,0.94952796
18169,0,USIndianaWabash,Indiana,Wabash,2020-07-18 15:39:42.620202,2020-03-20 00:00:00.000000,0.04183487,0.13359780,0.68737120,12,41,213,2,7,18,0.00703609,0.02320336,0.06052698,0.48259629,0.72903643,0.94816677
18169,0,USIndianaWabash,Indiana,Wabash,2020-07-18 15:39:42.620202,2020-03-21 00:00:00.000000,0.03517364,0.11587380,0.43629880,10,35,135,0,5,16,0.00173187,0.01896076,0.05357448,0.47001132,0.70960053,0.95748530
18169,0,USIndianaWabash,Indiana,Wabash,2020-07-18 15:39:42.620202,2020-03-22 00:00:00.000000,0.04658751,0.14293629,0.69202149,14,44,214,2,7,20,0.00739821,0.02498165,0.06656601,0.45654033,0.69134634,0.95959299
18169,0,USIndianaWabash,Indiana,Wabash,2020-07-18 15:39:42.620202,2020-03-23 00:00:00.000000,0.03710771,0.12743264,0.46050101,11,39,142,0,6,18,0.00204154,0.02102039,0.05905801,0.44987695,0.68797500,0.96224675
18169,0,USIndianaWabash,Indiana,Wabash,2020-07-18 15:39:42.620202,2020-03-24 00:00:00.000000,0.05208601,0.14835435,0.69899336,16,45,216,2,8,23,0.00777061,0.02729548,0.07420975,0.44015348,0.67883680,0.96492950
18169,0,USIndianaWabash,Indiana,Wabash,2020-07-18 15:39:42.620202,2020-03-25 00:00:00.000000,0.04086911,0.13676198,0.48644875,12,42,150,0,7,20,0.00242422,0.02275738,0.06597200,0.42879353,0.66812375,0.96763866
18169,0,USIndianaWabash,Indiana,Wabash,2020-07-18 15:39:42.620202,2020-03-26 00:00:00.000000,0.05783462,0.15944737,0.70807210,17,49,219,2,8,25,0.00818595,0.02891837,0.08356401,0.42286929,0.63984818,0.96421669
18169,0,USIndianaWabash,Indiana,Wabash,2020-07-18 15:39:42.620202,2020-03-27 00:00:00.000000,0.04472994,0.14670567,0.51415116,13,45,159,0,7,22,0.00288417,0.02406965,0.07345487,0.41340776,0.64080548,1.01120677
18169,0,USIndianaWabash,Indiana,Wabash,2020-07-18 15:39:42.620202,2020-03-28 00:00:00.000000,0.06154698,0.17333038,0.71828444,19,53,222,2,9,29,0.00864069,0.03095216,0.09378497,0.39550541,0.63608823,1.09575877
18169,0,USIndianaWabash,Indiana,Wabash,2020-07-18 15:39:42.620202,2020-03-29 00:00:00.000000,0.04740827,0.15809174,0.54347060,14,49,168,1,7,25,0.00339847,0.02502941,0.08110402,0.38171196,0.61350408,1.05534727
18169,0,USIndianaWabash,Indiana,Wabash,2020-07-18 15:39:42.620202,2020-03-30 00:00:00.000000,0.06469373,0.18596741,0.72737649,20,57,225,2,10,31,0.00913303,0.03292125,0.10137468,0.36389652,0.60147925,1.02753124
18169,0,USIndianaWabash,Indiana,Wabash,2020-07-18 15:39:42.620202,2020-03-31 00:00:00.000000,0.05124446,0.16869938,0.57896036,15,52,179,1,8,27,0.00392258,0.02700797,0.08873342,0.36093840,0.59925136,1.00576525
18169,0,USIndianaWabash,Indiana,Wabash,2020-07-18 15:39:42.620202,2020-04-01 00:00:00.000000,0.06868489,0.19638051,0.73555973,21,60,227,3,10,33,0.00985581,0.03506097,0.10793834,0.35946122,0.59980546,0.99127582
18169,0,USIndianaWabash,Indiana,Wabash,2020-07-18 15:39:42.620202,2020-04-02 00:00:00.000000,0.05778833,0.17962092,0.61277344,17,55,189,1,9,29,0.00446020,0.02942096,0.09634194,0.35805326,0.59696426,0.99180611
18169,0,USIndianaWabash,Indiana,Wabash,2020-07-18 15:39:42.620202,2020-04-03 00:00:00.000000,0.07313526,0.20865512,0.74435133,22,64,230,3,11,35,0.01060565,0.03708084,0.11452660,0.35439657,0.59585571,0.99054511
18169,0,USIndianaWabash,Indiana,Wabash,2020-07-18 15:39:42.620202,2020-04-04 00:00:00.000000,0.06402807,0.18739266,0.64023046,19,58,198,1,9,32,0.00504193,0.03167878,0.10401502,0.34167140,0.59153095,1.01928895
18169,0,USIndianaWabash,Indiana,Wabash,2020-07-18 15:39:42.620202,2020-04-05 00:00:00.000000,0.07519249,0.22324971,0.75402444,23,69,233,3,12,36,0.01129109,0.03872634,0.11800621,0.33328080,0.59181905,1.06409180
18169,0,USIndianaWabash,Indiana,Wabash,2020-07-18 15:39:42.620202,2020-04-06 00:00:00.000000,0.06681066,0.19607409,0.67504335,20,60,209,1,10,34,0.00570104,0.03370991,0.11185112,0.29706708,0.58102642,1.09369860
18169,0,USIndianaWabash,Indiana,Wabash,2020-07-18 15:39:42.620202,2020-04-07 00:00:00.000000,0.07666504,0.22703964,0.76391938,23,70,236,3,12,37,0.01210215,0.03971566,0.12033708,0.28729727,0.56760910,1.07225528
18169,0,USIndianaWabash,Indiana,Wabash,2020-07-18 15:39:42.620202,2020-04-08 00:00:00.000000,0.07276533,0.20266727,0.70843703,22,62,219,1,11,37,0.00644974,0.03583703,0.11992818,0.27786855,0.54728323,1.05205213
18169,0,USIndianaWabash,Indiana,Wabash,2020-07-18 15:39:42.620202,2020-04-09 00:00:00.000000,0.07884602,0.23473937,0.77891255,24,72,241,4,12,40,0.01302918,0.04068758,0.13019541,0.27315937,0.53102179,1.04723893
18169,0,USIndianaWabash,Indiana,Wabash,2020-07-18 15:39:42.620202,2020-04-10 00:00:00.000000,0.07851711,0.20682185,0.73910382,24,64,229,2,11,39,0.00728467,0.03743295,0.12827984,0.26609140,0.53222319,1.02459849
18169,0,USIndianaWabash,Indiana,Wabash,2020-07-18 15:39:42.620202,2020-04-11 00:00:00.000000,0.08396207,0.24195215,0.80749738,26,74,250,4,13,43,0.01399874,0.04247475,0.14066442,0.25683059,0.54247796,0.99698364
18169,0,USIndianaWabash,Indiana,Wabash,2020-07-18 15:39:42.620202,2020-04-12 00:00:00.000000,0.08187736,0.21223439,0.77156963,25,65,239,2,12,42,0.00818212,0.03908461,0.13692090,0.24942363,0.54504169,1.00266399
18169,0,USIndianaWabash,Indiana,Wabash,2020-07-18 15:39:42.620202,2020-04-13 00:00:00.000000,0.09071540,0.25292629,0.83847986,28,78,259,4,13,46,0.01498083,0.04499638,0.15030422,0.24442081,0.54177337,0.99645879
18169,0,USIndianaWabash,Indiana,Wabash,2020-07-18 15:39:42.620202,2020-04-14 00:00:00.000000,0.08318622,0.22160905,0.79232164,25,68,245,2,12,45,0.00907509,0.04075569,0.14583499,0.24030880,0.52450238,0.97964502
18169,0,USIndianaWabash,Indiana,Wabash,2020-07-18 15:39:42.620202,2020-04-15 00:00:00.000000,0.09702155,0.26632100,0.87282554,30,82,270,4,14,48,0.01599656,0.04803073,0.15747722,0.23708098,0.50376729,0.94754819
18169,0,USIndianaWabash,Indiana,Wabash,2020-07-18 15:39:42.620202,2020-04-16 00:00:00.000000,0.08499131,0.23445048,0.80881959,26,72,250,2,13,48,0.00955060,0.04229519,0.15763543,0.23503766,0.50643144,0.90600602
18169,0,USIndianaWabash,Indiana,Wabash,2020-07-18 15:39:42.620202,2020-04-17 00:00:00.000000,0.10284936,0.28103884,0.91567772,31,87,283,5,15,51,0.01704757,0.05071924,0.16514148,0.23353889,0.52167212,0.90370195
18169,0,USIndianaWabash,Indiana,Wabash,2020-07-18 15:39:42.620202,2020-04-18 00:00:00.000000,0.08762408,0.24778323,0.83039936,27,76,257,3,13,53,0.00992483,0.04398603,0.17273474,0.23066514,0.53077295,0.87811774
18169,0,USIndianaWabash,Indiana,Wabash,2020-07-18 15:39:42.620202,2020-04-19 00:00:00.000000,0.10404417,0.29417270,0.95750124,32,91,296,5,16,56,0.01812213,0.05195059,0.18071964,0.21715414,0.51432813,0.86744519
18169,0,USIndianaWabash,Indiana,Wabash,2020-07-18 15:39:42.620202,2020-04-20 00:00:00.000000,0.09295623,0.25823603,0.85689702,28,80,265,3,14,57,0.01032055,0.04560229,0.18580317,0.21720616,0.51890549,0.86459124
18169,0,USIndianaWabash,Indiana,Wabash,2020-07-18 15:39:42.620202,2020-04-21 00:00:00.000000,0.10551589,0.30489253,1.00172249,32,94,310,5,16,59,0.01850576,0.05276114,0.19130519,0.21728898,0.50493623,0.86232679
18169,0,USIndianaWabash,Indiana,Wabash,2020-07-18 15:39:42.620202,2020-04-22 00:00:00.000000,0.09749791,0.26983990,0.88714874,30,83,274,3,15,61,0.01074314,0.04846340,0.19696349,0.21726395,0.49334676,0.86302335
18169,0,USIndianaWabash,Indiana,Wabash,2020-07-18 15:39:42.620202,2020-04-23 00:00:00.000000,0.10744492,0.31726360,1.04850041,33,98,324,5,16,62,0.01855613,0.05445210,0.20278710,0.20679835,0.49236226,0.86229559
18169,0,USIndianaWabash,Indiana,Wabash,2020-07-18 15:39:42.620202,2020-04-24 00:00:00.000000,0.09884138,0.28214185,0.91955803,30,87,285,3,15,64,0.01119528,0.05085891,0.20878395,0.19540949,0.48556479,0.82438299
18169,0,USIndianaWabash,Indiana,Wabash,2020-07-18 15:39:42.620202,2020-04-25 00:00:00.000000,0.10971492,0.33748547,1.09745169,34,104,340,6,17,66,0.01965601,0.05567019,0.21496094,0.18518177,0.47630475,0.81771882
18169,0,USIndianaWabash,Indiana,Wabash,2020-07-18 15:39:42.620202,2020-04-26 00:00:00.000000,0.10412975,0.29533421,0.95367004,32,91,295,3,16,68,0.01167949,0.05229187,0.22132368,0.18310226,0.46804447,0.80351356
18169,0,USIndianaWabash,Indiana,Wabash,2020-07-18 15:39:42.620202,2020-04-27 00:00:00.000000,0.11421786,0.34625425,1.14582673,35,107,355,6,17,70,0.02076200,0.05794209,0.22787676,0.17783879,0.45920500,0.79992182
18169,0,USIndianaWabash,Indiana,Wabash,2020-07-18 15:39:42.620202,2020-04-28 00:00:00.000000,0.10994024,0.30888987,0.99624053,34,95,308,3,16,72,0.01220436,0.05443755,0.23462348,0.17237550,0.46310139,0.79573206
18169,0,USIndianaWabash,Indiana,Wabash,2020-07-18 15:39:42.620202,2020-04-29 00:00:00.000000,0.12079020,0.35068217,1.19095179,37,108,369,6,18,74,0.02187432,0.05929392,0.24155528,0.16979596,0.45755977,0.78653519
18169,0,USIndianaWabash,Indiana,Wabash,2020-07-18 15:39:42.620202,2020-04-30 00:00:00.000000,0.11580541,0.32498508,1.04813885,35,100,324,3,17,77,0.01278309,0.05662824,0.24862692,0.16620559,0.44623868,0.78671277
18169,0,USIndianaWabash,Indiana,Wabash,2020-07-18 15:39:42.620202,2020-05-01 00:00:00.000000,0.12752467,0.34937504,1.23282776,39,108,382,7,18,79,0.02287897,0.06108875,0.25581533,0.16607441,0.43677891,0.78724678
18169,0,USIndianaWabash,Indiana,Wabash,2020-07-18 15:39:42.620202,2020-05-02 00:00:00.000000,0.11900749,0.34024692,1.09855580,36,105,340,4,18,81,0.01342190,0.05862899,0.26297521,0.15921727,0.43394464,0.78621413
18169,0,USIndianaWabash,Indiana,Wabash,2020-07-18 15:39:42.620202,2020-05-03 00:00:00.000000,0.12735244,0.35318885,1.27406781,39,109,394,7,19,83,0.02372923,0.06224908,0.26932827,0.15856560,0.43654993,0.78356382
18169,0,USIndianaWabash,Indiana,Wabash,2020-07-18 15:39:42.620202,2020-05-04 00:00:00.000000,0.12059305,0.35232113,1.14254270,37,109,354,4,18,85,0.01385173,0.06066357,0.27486814,0.15891045,0.42855717,0.78898057
18169,0,USIndianaWabash,Indiana,Wabash,2020-07-18 15:39:42.620202,2020-05-05 00:00:00.000000,0.12613701,0.36361171,1.31648927,39,112,408,7,19,86,0.02448467,0.06291901,0.27986176,0.15932477,0.42856270,0.80274070
18169,0,USIndianaWabash,Indiana,Wabash,2020-07-18 15:39:42.620202,2020-05-06 00:00:00.000000,0.11724306,0.36177188,1.18298643,36,112,366,4,19,88,0.01397346,0.06246207,0.28451163,0.16032550,0.42978477,0.83088950
18169,0,USIndianaWabash,Indiana,Wabash,2020-07-18 15:39:42.620202,2020-05-07 00:00:00.000000,0.12623438,0.38144579,1.36034677,39,118,421,7,20,90,0.02488304,0.06482740,0.29233763,0.16234251,0.43111131,0.83378972
18169,0,USIndianaWabash,Indiana,Wabash,2020-07-18 15:39:42.620202,2020-05-08 00:00:00.000000,0.11391013,0.37818886,1.22043185,35,117,378,4,19,93,0.01409780,0.06376077,0.30321162,0.15971497,0.42979578,0.83389277
18169,0,USIndianaWabash,Indiana,Wabash,2020-07-18 15:39:42.620202,2020-05-09 00:00:00.000000,0.12890883,0.39702669,1.40558136,39,123,435,7,20,97,0.02517345,0.06695968,0.31343255,0.15610374,0.42750535,0.83254540
18169,0,USIndianaWabash,Indiana,Wabash,2020-07-18 15:39:42.620202,2020-05-10 00:00:00.000000,0.11360913,0.38987799,1.25301545,35,120,388,4,20,100,0.01423265,0.06553068,0.32289526,0.15723634,0.42175998,0.82069795
18169,0,USIndianaWabash,Indiana,Wabash,2020-07-18 15:39:42.620202,2020-05-11 00:00:00.000000,0.13198191,0.41443865,1.45243460,40,128,450,7,21,102,0.02559504,0.06952847,0.33147281,0.15530755,0.41565616,0.81161802
18169,0,USIndianaWabash,Indiana,Wabash,2020-07-18 15:39:42.620202,2020-05-12 00:00:00.000000,0.11336723,0.39618963,1.28664815,35,122,398,4,20,104,0.01440125,0.06704361,0.33836793,0.15662758,0.40532834,0.80366607
18169,0,USIndianaWabash,Indiana,Wabash,2020-07-18 15:39:42.620202,2020-05-13 00:00:00.000000,0.13708400,0.42936133,1.50143820,42,133,465,8,22,105,0.02613352,0.07158045,0.34193817,0.15531572,0.39344305,0.80080525
18169,0,USIndianaWabash,Indiana,Wabash,2020-07-18 15:39:42.620202,2020-05-14 00:00:00.000000,0.11309936,0.39781607,1.32156524,35,123,409,4,21,106,0.01462128,0.06887195,0.34307717,0.15291658,0.39012687,0.78589966
18169,0,USIndianaWabash,Indiana,Wabash,2020-07-18 15:39:42.620202,2020-05-15 00:00:00.000000,0.13932299,0.43363793,1.54876350,43,134,480,8,22,106,0.02614525,0.07414842,0.34404166,0.13975207,0.38760247,0.76342910
18169,0,USIndianaWabash,Indiana,Wabash,2020-07-18 15:39:42.620202,2020-05-16 00:00:00.000000,0.11280747,0.39898486,1.35808337,34,123,420,4,21,107,0.01488857,0.07082863,0.34582431,0.13586772,0.38256555,0.72913667
18169,0,USIndianaWabash,Indiana,Wabash,2020-07-18 15:39:42.620202,2020-05-17 00:00:00.000000,0.13694877,0.44314080,1.58708002,42,137,491,8,23,108,0.02619563,0.07661382,0.34859305,0.13816989,0.37455009,0.76119092
18169,0,USIndianaWabash,Indiana,Wabash,2020-07-18 15:39:42.620202,2020-05-18 00:00:00.000000,0.11199771,0.40130448,1.39748117,34,124,433,4,22,109,0.01519463,0.07202616,0.35225972,0.13976761,0.36916518,0.76133203
18169,0,USIndianaWabash,Indiana,Wabash,2020-07-18 15:39:42.620202,2020-05-19 00:00:00.000000,0.13953199,0.45861435,1.61962760,43,142,502,8,24,110,0.02639977,0.07797794,0.35669296,0.13264626,0.37324580,0.79803644
18169,0,USIndianaWabash,Indiana,Wabash,2020-07-18 15:39:42.620202,2020-05-20 00:00:00.000000,0.10987282,0.40858083,1.44152226,34,126,446,4,22,112,0.01553814,0.07405566,0.36179712,0.13258322,0.37218036,0.81321000
18169,0,USIndianaWabash,Indiana,Wabash,2020-07-18 15:39:42.620202,2020-05-21 00:00:00.000000,0.14387298,0.47471412,1.65126774,44,147,511,8,24,113,0.02683220,0.07876333,0.36766581,0.13758863,0.37189526,0.81051294
18169,0,USIndianaWabash,Indiana,Wabash,2020-07-18 15:39:42.620202,2020-05-22 00:00:00.000000,0.10769541,0.42118121,1.48304233,33,130,459,4,23,116,0.01563468,0.07543144,0.37504471,0.13803575,0.38157101,0.81398660
18169,0,USIndianaWabash,Indiana,Wabash,2020-07-18 15:39:42.620202,2020-05-23 00:00:00.000000,0.13854821,0.48765431,1.68342726,42,151,521,8,25,119,0.02656687,0.08099066,0.38444355,0.13860976,0.37271036,0.82440046
18169,0,USIndianaWabash,Indiana,Wabash,2020-07-18 15:39:42.620202,2020-05-24 00:00:00.000000,0.10831331,0.44268856,1.52761134,33,137,473,4,23,122,0.01551651,0.07742718,0.39477908,0.13900444,0.38114265,0.84523411
18169,0,USIndianaWabash,Indiana,Wabash,2020-07-18 15:39:42.620202,2020-05-25 00:00:00.000000,0.13232894,0.49384109,1.71625411,41,153,531,8,26,125,0.02637748,0.08389021,0.40534397,0.14040296,0.38715713,0.88766843
18169,0,USIndianaWabash,Indiana,Wabash,2020-07-18 15:39:42.620202,2020-05-26 00:00:00.000000,0.10677368,0.46231006,1.56198774,33,143,484,4,24,128,0.01541659,0.07888457,0.41595898,0.13673266,0.38792141,0.90802125
18169,0,USIndianaWabash,Indiana,Wabash,2020-07-18 15:39:42.620202,2020-05-27 00:00:00.000000,0.13125937,0.49883134,1.74918668,40,154,542,8,26,132,0.02590725,0.08595680,0.42658243,0.13179333,0.38389266,0.91709619
18169,0,USIndianaWabash,Indiana,Wabash,2020-07-18 15:39:42.620202,2020-05-28 00:00:00.000000,0.10635257,0.47506936,1.59717654,32,147,495,4,25,135,0.01533316,0.08167479,0.43708402,0.12659207,0.37130188,0.92090497
18169,0,USIndianaWabash,Indiana,Wabash,2020-07-18 15:39:42.620202,2020-05-29 00:00:00.000000,0.13392182,0.51797645,1.78014473,41,160,551,7,26,138,0.02565810,0.08558724,0.44703359,0.12435863,0.36151309,0.92292722
18169,0,USIndianaWabash,Indiana,Wabash,2020-07-18 15:39:42.620202,2020-05-30 00:00:00.000000,0.11105604,0.47620337,1.63236449,34,147,505,4,26,141,0.01527767,0.08393975,0.45604792,0.12363761,0.36020709,0.92384144
18169,0,USIndianaWabash,Indiana,Wabash,2020-07-18 15:39:42.620202,2020-05-31 00:00:00.000000,0.13722632,0.52293543,1.80570379,42,162,559,7,27,143,0.02575229,0.08722002,0.46455561,0.12306264,0.35869163,0.92149624
18169,0,USIndianaWabash,Indiana,Wabash,2020-07-18 15:39:42.620202,2020-06-01 00:00:00.000000,0.11343174,0.48355069,1.65805175,35,149,513,4,26,146,0.01528078,0.08486668,0.47309102,0.12196397,0.36327591,0.91517763
18169,0,USIndianaWabash,Indiana,Wabash,2020-07-18 15:39:42.620202,2020-06-02 00:00:00.000000,0.14036057,0.52857735,1.82516760,43,163,565,7,27,149,0.02539624,0.08889036,0.48185872,0.11966727,0.36493715,0.90330086
18169,0,USIndianaWabash,Indiana,Wabash,2020-07-18 15:39:42.620202,2020-06-03 00:00:00.000000,0.11484824,0.49018369,1.65815126,35,151,513,4,26,152,0.01539926,0.08582758,0.49088657,0.11566934,0.36578999,0.88298136
18169,0,USIndianaWabash,Indiana,Wabash,2020-07-18 15:39:42.620202,2020-06-04 00:00:00.000000,0.14346578,0.53285983,1.84028375,44,165,570,8,28,155,0.02586368,0.09098829,0.50025056,0.11070839,0.36822116,0.88322703
18169,0,USIndianaWabash,Indiana,Wabash,2020-07-18 15:39:42.620202,2020-06-05 00:00:00.000000,0.11772035,0.49431048,1.69154302,36,153,524,4,26,158,0.01560536,0.08674336,0.51085268,0.10640611,0.36571464,0.88573404
18169,0,USIndianaWabash,Indiana,Wabash,2020-07-18 15:39:42.620202,2020-06-06 00:00:00.000000,0.14832641,0.54248457,1.88445533,45,168,584,8,28,163,0.02660826,0.09212357,0.52616224,0.10317516,0.36587890,0.88672605
18169,0,USIndianaWabash,Indiana,Wabash,2020-07-18 15:39:42.620202,2020-06-07 00:00:00.000000,0.11985449,0.50244150,1.70483444,37,155,528,4,27,169,0.01581795,0.08950277,0.54579738,0.09059384,0.36246674,0.88776047
18169,0,USIndianaWabash,Indiana,Wabash,2020-07-18 15:39:42.620202,2020-06-08 00:00:00.000000,0.15204194,0.55335649,1.94125401,47,171,601,8,29,175,0.02735576,0.09406514,0.56572350,0.08780772,0.35659778,0.88840229
18169,0,USIndianaWabash,Indiana,Wabash,2020-07-18 15:39:42.620202,2020-06-09 00:00:00.000000,0.12090051,0.50387864,1.71407823,37,156,531,5,28,181,0.01614207,0.09288649,0.58463789,0.08608891,0.35567655,0.88869339
18169,0,USIndianaWabash,Indiana,Wabash,2020-07-18 15:39:42.620202,2020-06-10 00:00:00.000000,0.15335614,0.56148442,2.00016120,47,174,619,8,29,186,0.02822701,0.09609060,0.60222283,0.08510125,0.35383643,0.88865767
18169,0,USIndianaWabash,Indiana,Wabash,2020-07-18 15:39:42.620202,2020-06-11 00:00:00.000000,0.12185101,0.50192192,1.72274604,37,155,533,5,29,191,0.01652497,0.09459259,0.61841747,0.08371734,0.34969494,0.88795117
18169,0,USIndianaWabash,Indiana,Wabash,2020-07-18 15:39:42.620202,2020-06-12 00:00:00.000000,0.15325127,0.56621973,2.06113687,47,175,638,9,30,196,0.02916520,0.09790097,0.63322052,0.08039318,0.34700501,0.88503794
18169,0,USIndianaWabash,Indiana,Wabash,2020-07-18 15:39:42.620202,2020-06-13 00:00:00.000000,0.12278583,0.50601263,1.74219717,38,156,540,5,29,200,0.01688942,0.09582796,0.64668144,0.07618805,0.33757750,0.87429444
18169,0,USIndianaWabash,Indiana,Wabash,2020-07-18 15:39:42.620202,2020-06-14 00:00:00.000000,0.15159594,0.57097977,2.12564947,46,176,658,9,30,202,0.03016985,0.09938370,0.65268089,0.07404091,0.33008939,0.86904193
18169,0,USIndianaWabash,Indiana,Wabash,2020-07-18 15:39:42.620202,2020-06-15 00:00:00.000000,0.12435007,0.51463272,1.80420628,38,159,559,5,30,202,0.01732629,0.09745026,0.65422046,0.07324094,0.32581886,0.88921853
18169,0,USIndianaWabash,Indiana,Wabash,2020-07-18 15:39:42.620202,2020-06-16 00:00:00.000000,0.15072894,0.58037491,2.19761127,46,179,681,9,31,203,0.03128375,0.10036493,0.65518629,0.07267807,0.32596025,0.90689918
18169,0,USIndianaWabash,Indiana,Wabash,2020-07-18 15:39:42.620202,2020-06-17 00:00:00.000000,0.12842913,0.53015500,1.81768403,39,164,563,5,30,203,0.01799228,0.09908442,0.65563157,0.07193622,0.32755527,0.89370239
18169,0,USIndianaWabash,Indiana,Wabash,2020-07-18 15:39:42.620202,2020-06-18 00:00:00.000000,0.14939457,0.59664868,2.23388891,46,184,692,10,32,203,0.03248844,0.10325105,0.65561886,0.07085529,0.32684095,0.85024038
18169,0,USIndianaWabash,Indiana,Wabash,2020-07-18 15:39:42.620202,2020-06-19 00:00:00.000000,0.13435113,0.53950397,1.89736175,41,167,588,5,31,203,0.01874270,0.10095432,0.65518234,0.06945906,0.32598753,0.84734610
18169,0,USIndianaWabash,Indiana,Wabash,2020-07-18 15:39:42.620202,2020-06-20 00:00:00.000000,0.14625778,0.61460385,2.28748374,45,190,709,10,32,202,0.03366521,0.10513078,0.65436195,0.06816400,0.33039359,0.84812603
18169,0,USIndianaWabash,Indiana,Wabash,2020-07-18 15:39:42.620202,2020-06-21 00:00:00.000000,0.14069016,0.54977462,1.99157935,43,170,617,6,31,202,0.01952608,0.10274871,0.65319617,0.06662543,0.31799345,0.86385626
18169,0,USIndianaWabash,Indiana,Wabash,2020-07-18 15:39:42.620202,2020-06-22 00:00:00.000000,0.14733436,0.63332612,2.40076973,45,196,744,10,32,202,0.03458798,0.10515775,0.65172033,0.06663879,0.31774771,0.87891380
18169,0,USIndianaWabash,Indiana,Wabash,2020-07-18 15:39:42.620202,2020-06-23 00:00:00.000000,0.13660031,0.55885257,2.09437177,42,173,649,6,32,201,0.02029139,0.10386999,0.64996648,0.06914803,0.31749119,0.88703587
18169,0,USIndianaWabash,Indiana,Wabash,2020-07-18 15:39:42.620202,2020-06-24 00:00:00.000000,0.14480682,0.65078124,2.51812293,44,201,780,10,33,200,0.03493230,0.10872618,0.64796350,0.07097103,0.32021806,0.89116542
18169,0,USIndianaWabash,Indiana,Wabash,2020-07-18 15:39:42.620202,2020-06-25 00:00:00.000000,0.13315427,0.55806516,2.20270649,41,172,682,6,32,200,0.02102322,0.10536002,0.64573722,0.07214197,0.32052159,0.89319993
18169,0,USIndianaWabash,Indiana,Wabash,2020-07-18 15:39:42.620202,2020-06-26 00:00:00.000000,0.14467239,0.65709492,2.63781553,44,203,817,10,34,199,0.03472073,0.11141778,0.64331044,0.07281594,0.32041865,0.89424436
18169,0,USIndianaWabash,Indiana,Wabash,2020-07-18 15:39:42.620202,2020-06-27 00:00:00.000000,0.13216332,0.54659370,2.31613876,40,169,717,6,33,200,0.02173867,0.10763758,0.64630031,0.07318351,0.32319803,0.89599680
18169,0,USIndianaWabash,Indiana,Wabash,2020-07-18 15:39:42.620202,2020-06-28 00:00:00.000000,0.14118655,0.66819568,2.76036779,43,207,855,10,35,202,0.03474624,0.11296619,0.65407736,0.07329457,0.32070315,0.91161554
18169,0,USIndianaWabash,Indiana,Wabash,2020-07-18 15:39:42.620202,2020-06-29 00:00:00.000000,0.12686581,0.55328337,2.44873344,39,171,759,6,33,205,0.02252183,0.10956426,0.66216943,0.07244145,0.32847459,1.01270099
18169,0,USIndianaWabash,Indiana,Wabash,2020-07-18 15:39:42.620202,2020-06-30 00:00:00.000000,0.13943125,0.66933331,2.88739065,43,207,894,11,35,208,0.03563360,0.11453984,0.67167085,0.06410566,0.32634664,1.07700242
18169,0,USIndianaWabash,Indiana,Wabash,2020-07-18 15:39:42.620202,2020-07-01 00:00:00.000000,0.12202317,0.56516349,2.60961135,37,175,808,7,34,211,0.02298199,0.11132803,0.68096558,0.06128504,0.33358957,1.07575309
18169,0,USIndianaWabash,Indiana,Wabash,2020-07-18 15:39:42.620202,2020-07-02 00:00:00.000000,0.13780098,0.67235591,3.01794812,42,208,935,10,35,213,0.03484024,0.11410529,0.68948996,0.05873290,0.33948999,1.06808666
18169,0,USIndianaWabash,Indiana,Wabash,2020-07-18 15:39:42.620202,2020-07-03 00:00:00.000000,0.11752608,0.58349745,2.77590224,36,180,860,7,34,215,0.02294196,0.11257247,0.69669112,0.05509100,0.34168941,1.05426861
18169,0,USIndianaWabash,Indiana,Wabash,2020-07-18 15:39:42.620202,2020-07-04 00:00:00.000000,0.13458580,0.67270671,3.14683975,41,208,975,10,36,217,0.03492464,0.11783391,0.70226661,0.05164281,0.34527541,1.03691583
18169,0,USIndianaWabash,Indiana,Wabash,2020-07-18 15:39:42.620202,2020-07-05 00:00:00.000000,0.12289950,0.58470692,2.94386650,38,181,912,7,35,219,0.02271268,0.11363907,0.70947351,0.04953847,0.34077899,1.02062434
18169,0,USIndianaWabash,Indiana,Wabash,2020-07-18 15:39:42.620202,2020-07-06 00:00:00.000000,0.13237520,0.67619545,3.27643013,41,209,1015,10,37,222,0.03527062,0.12007522,0.71738025,0.05130689,0.33755043,1.00780925
18169,0,USIndianaWabash,Indiana,Wabash,2020-07-18 15:39:42.620202,2020-07-07 00:00:00.000000,0.13221427,0.58480197,3.11477438,40,181,965,6,36,222,0.02233125,0.11639801,0.71889520,0.05473307,0.33921772,1.00807462
18169,0,USIndianaWabash,Indiana,Wabash,2020-07-18 15:39:42.620202,2020-07-08 00:00:00.000000,0.13999012,0.68547877,3.40292939,43,212,1054,11,37,222,0.03611178,0.12200993,0.71894666,0.05852362,0.33832420,1.00666552
18169,0,USIndianaWabash,Indiana,Wabash,2020-07-18 15:39:42.620202,2020-07-09 00:00:00.000000,0.13876812,0.59777630,3.29156392,43,185,1020,6,36,222,0.02185422,0.11814907,0.71920837,0.05952018,0.33992391,1.00524753
18169,0,USIndianaWabash,Indiana,Wabash,2020-07-18 15:39:42.620202,2020-07-10 00:00:00.000000,0.14174239,0.69909153,3.52596187,43,216,1092,11,38,224,0.03638907,0.12466570,0.72321794,0.05952464,0.33984944,1.00438021
18169,0,USIndianaWabash,Indiana,Wabash,2020-07-18 15:39:42.620202,2020-07-11 00:00:00.000000,0.13583725,0.60334802,3.47627408,42,187,1077,6,36,225,0.02132021,0.11877223,0.72768093,0.05952589,0.33983300,1.00396009
18169,0,USIndianaWabash,Indiana,Wabash,2020-07-18 15:39:42.620202,2020-07-12 00:00:00.000000,0.14196719,0.71166707,3.64893084,44,220,1131,11,39,227,0.03665396,0.12624117,0.73254290,0.05952610,0.33982872,1.00376547
18169,0,USIndianaWabash,Indiana,Wabash,2020-07-18 15:39:42.620202,2020-07-13 00:00:00.000000,0.13188270,0.61594433,3.67072100,40,190,1137,6,37,228,0.02075518,0.11939375,0.73773791,0.05952604,0.33982746,1.00367624
18169,0,USIndianaWabash,Indiana,Wabash,2020-07-18 15:39:42.620202,2020-07-14 00:00:00.000000,0.13463301,0.72198100,3.77891177,41,223,1171,11,39,230,0.03702734,0.12820049,0.74320317,0.05952596,0.33982706,1.00363545
18169,0,USIndianaWabash,Indiana,Wabash,2020-07-18 15:39:42.620202,2020-07-15 00:00:00.000000,0.13113944,0.64898777,3.86404551,40,201,1197,6,38,232,0.02017650,0.12340933,0.74888480,0.05952589,0.33982693,1.00361683
18169,0,USIndianaWabash,Indiana,Wabash,2020-07-18 15:39:42.620202,2020-07-16 00:00:00.000000,0.13289570,0.74021260,3.99183760,41,229,1237,11,40,233,0.03740024,0.13176728,0.75473901,0.05952585,0.33982688,1.00360833
18169,0,USIndianaWabash,Indiana,Wabash,2020-07-18 15:39:42.620202,2020-07-17 00:00:00.000000,0.12928334,0.66411661,4.08002234,40,205,1264,6,38,235,0.01959570,0.12454501,0.76073138,0.05952582,0.33982687,1.00360445
18169,0,USIndianaWabash,Indiana,Wabash,2020-07-18 15:39:42.620202,2020-07-18 00:00:00.000000,0.13407719,0.73689419,4.21604555,41,228,1306,11,42,237,0.03769384,0.13780285,0.76673353,0.05952581,0.33982686,1.00360268
18169,0,USIndianaWabash,Indiana,Wabash,2020-07-18 15:39:42.620202,2020-07-19 00:00:00.000000,0.13232404,0.67954192,4.30733507,41,210,1335,6,37,239,0.01976708,0.12099480,0.77271672,0.05952580,0.33982686,1.00360187
18169,0,USIndianaWabash,Indiana,Wabash,2020-07-18 15:39:42.620202,2020-07-20 00:00:00.000000,0.13503860,0.73705268,4.45203680,41,228,1379,11,43,241,0.03665162,0.14126618,0.77877309,0.05952579,0.33982686,1.00360150
18169,0,USIndianaWabash,Indiana,Wabash,2020-07-18 15:39:42.620202,2020-07-21 00:00:00.000000,0.13295075,0.69654755,4.54647618,41,215,1409,6,36,243,0.02093899,0.11819606,0.78489139,0.05952579,0.33982686,1.00360134
18169,0,USIndianaWabash,Indiana,Wabash,2020-07-18 15:39:42.620202,2020-07-22 00:00:00.000000,0.13016072,0.74080507,4.70032545,40,229,1456,11,44,245,0.03670692,0.14409872,0.79106324,0.05952579,0.33982686,1.00360126
18169,0,USIndianaWabash,Indiana,Wabash,2020-07-18 15:39:42.620202,2020-07-23 00:00:00.000000,0.12745145,0.71299357,4.79795167,39,220,1487,6,36,247,0.02215796,0.11809925,0.79728240,0.05952579,0.33982686,1.00360122
18169,0,USIndianaWabash,Indiana,Wabash,2020-07-18 15:39:42.620202,2020-07-24 00:00:00.000000,0.12481769,0.75848824,4.96143831,38,235,1537,11,45,249,0.03703756,0.14541786,0.80354426,0.05952579,0.33982686,1.00360121
18169,0,USIndianaWabash,Indiana,Wabash,2020-07-18 15:39:42.620202,2020-07-25 00:00:00.000000,0.12225482,0.72669001,5.06227987,37,225,1569,7,38,249,0.02342457,0.12507606,0.80488319,0.05952579,0.33982686,1.00360120
18169,0,USIndianaWabash,Indiana,Wabash,2020-07-18 15:39:42.620202,2020-07-26 00:00:00.000000,0.11975874,0.78166510,5.23591351,37,242,1622,11,45,249,0.03737641,0.14577667,0.80394727,0.05952579,0.33982686,1.00360120
18169,0,USIndianaWabash,Indiana,Wabash,2020-07-18 15:39:42.620202,2020-07-27 00:00:00.000000,0.11732580,0.73909145,5.33998969,36,229,1655,6,42,248,0.02241882,0.13562341,0.80293528,0.05952579,0.33982686,1.00360120
18169,0,USIndianaWabash,Indiana,Wabash,2020-07-18 15:39:42.620202,2020-07-28 00:00:00.000000,0.11495277,0.81531989,5.52429872,35,252,1712,11,45,248,0.03772238,0.14752151,0.80185158,0.05952579,0.33982686,1.00360120
18169,0,USIndianaWabash,Indiana,Wabash,2020-07-18 15:39:42.620202,2020-07-29 00:00:00.000000,0.11263676,0.74825599,5.63161870,34,231,1745,6,43,248,0.02115354,0.13927847,0.80070034,0.05952579,0.33982686,1.00360119
18169,0,USIndianaWabash,Indiana,Wabash,2020-07-18 15:39:42.620202,2020-07-30 00:00:00.000000,0.11037516,0.87561398,5.82714926,34,271,1806,11,49,247,0.03807464,0.15926148,0.79948548,0.05952579,0.33982686,1.00360119
