FIPS,HR_UID,nameid,province,region,analysisTime,dates,pointprevalence_025,pointprevalence_50,pointprevalence_975,pointinfections_025,pointinfections_50,pointinfections_975,pointinfectious_025,pointinfectious_50,pointinfectious_975,pointinfectiousprevalence_05,pointinfectiousprevalence_50,pointinfectiousprevalence_95,infectrate_025,infectrate_50,infectrate_975
55001,0,USWisconsinAdams,Wisconsin,Adams,2020-07-17 14:14:09.329442,2020-03-09 00:00:00.000000,0.00039192,0.01189650,0.06936308,0,2,14,0,0,2,0.00008335,0.00294985,0.01347859,0.48430367,0.71838543,0.99087259
55001,0,USWisconsinAdams,Wisconsin,Adams,2020-07-17 14:14:09.329442,2020-03-10 00:00:00.000000,0.00042951,0.01046209,0.06757933,0,2,13,0,0,2,0.00008962,0.00370287,0.01382874,0.48430370,0.71838543,0.99087220
55001,0,USWisconsinAdams,Wisconsin,Adams,2020-07-17 14:14:09.329442,2020-03-11 00:00:00.000000,0.00047210,0.00996749,0.07045906,0,2,14,0,0,2,0.00009883,0.00228768,0.01232715,0.48430379,0.71838543,0.99087144
55001,0,USWisconsinAdams,Wisconsin,Adams,2020-07-17 14:14:09.329442,2020-03-12 00:00:00.000000,0.00052017,0.00990291,0.07499810,0,2,15,0,0,2,0.00011005,0.00273253,0.01461391,0.48430412,0.71838544,0.99086986
55001,0,USWisconsinAdams,Wisconsin,Adams,2020-07-17 14:14:09.329442,2020-03-13 00:00:00.000000,0.00057424,0.00979986,0.07498379,0,1,15,0,0,2,0.00012292,0.00213615,0.01354937,0.48430519,0.71838547,0.99086643
55001,0,USWisconsinAdams,Wisconsin,Adams,2020-07-17 14:14:09.329442,2020-03-14 00:00:00.000000,0.00063490,0.00978345,0.08290252,0,1,16,0,0,3,0.00013736,0.00233163,0.01568260,0.48430870,0.71777532,0.99085839
55001,0,USWisconsinAdams,Wisconsin,Adams,2020-07-17 14:14:09.329442,2020-03-15 00:00:00.000000,0.00070281,0.00977006,0.07634442,0,1,15,0,0,3,0.00015341,0.00210781,0.01492038,0.48432009,0.71517102,0.99083720
55001,0,USWisconsinAdams,Wisconsin,Adams,2020-07-17 14:14:09.329442,2020-03-16 00:00:00.000000,0.00077871,0.00979177,0.09163773,0,1,18,0,0,3,0.00017120,0.00229379,0.01703778,0.47894847,0.70885185,0.99077400
55001,0,USWisconsinAdams,Wisconsin,Adams,2020-07-17 14:14:09.329442,2020-03-17 00:00:00.000000,0.00086343,0.00984891,0.07860911,0,1,15,0,0,3,0.00019091,0.00206728,0.01642381,0.47057769,0.70615629,0.99056341
55001,0,USWisconsinAdams,Wisconsin,Adams,2020-07-17 14:14:09.329442,2020-03-18 00:00:00.000000,0.00095784,0.00995537,0.10337906,0,2,20,0,0,3,0.00021275,0.00217465,0.01868823,0.46995901,0.70615361,0.98980584
55001,0,USWisconsinAdams,Wisconsin,Adams,2020-07-17 14:14:09.329442,2020-03-19 00:00:00.000000,0.00106276,0.01009505,0.08955134,0,2,18,0,0,3,0.00023697,0.00204066,0.01804143,0.46998878,0.70100450,0.98696858
55001,0,USWisconsinAdams,Wisconsin,Adams,2020-07-17 14:14:09.329442,2020-03-20 00:00:00.000000,0.00117830,0.01032006,0.11412891,0,2,23,0,0,4,0.00026381,0.00228085,0.02059930,0.44351466,0.70759783,0.97637437
55001,0,USWisconsinAdams,Wisconsin,Adams,2020-07-17 14:14:09.329442,2020-03-21 00:00:00.000000,0.00130196,0.01046833,0.10229859,0,2,20,0,0,3,0.00029354,0.00215138,0.01970917,0.42122571,0.71805546,0.94038107
55001,0,USWisconsinAdams,Wisconsin,Adams,2020-07-17 14:14:09.329442,2020-03-22 00:00:00.000000,0.00142600,0.01072002,0.12414056,0,2,25,0,0,4,0.00032628,0.00200228,0.02144202,0.40959763,0.74864787,0.88737727
55001,0,USWisconsinAdams,Wisconsin,Adams,2020-07-17 14:14:09.329442,2020-03-23 00:00:00.000000,0.00154509,0.01097438,0.11618971,0,2,23,0,0,4,0.00036187,0.00187208,0.02105293,0.38262165,0.74053924,0.89397879
55001,0,USWisconsinAdams,Wisconsin,Adams,2020-07-17 14:14:09.329442,2020-03-24 00:00:00.000000,0.00166520,0.01118243,0.13721337,0,2,27,0,0,4,0.00039996,0.00180922,0.02334389,0.37904930,0.69842291,0.92005174
55001,0,USWisconsinAdams,Wisconsin,Adams,2020-07-17 14:14:09.329442,2020-03-25 00:00:00.000000,0.00179277,0.01133458,0.12878566,0,2,26,0,0,4,0.00044052,0.00196599,0.02218229,0.38973503,0.67924843,0.95021000
55001,0,USWisconsinAdams,Wisconsin,Adams,2020-07-17 14:14:09.329442,2020-03-26 00:00:00.000000,0.00193027,0.01128723,0.15234494,0,2,30,0,0,5,0.00048376,0.00212344,0.02531455,0.41289409,0.66527100,0.98451738
55001,0,USWisconsinAdams,Wisconsin,Adams,2020-07-17 14:14:09.329442,2020-03-27 00:00:00.000000,0.00207811,0.01108630,0.14145535,0,2,28,0,0,5,0.00052744,0.00219263,0.02537018,0.39225653,0.64857914,0.97384182
55001,0,USWisconsinAdams,Wisconsin,Adams,2020-07-17 14:14:09.329442,2020-03-28 00:00:00.000000,0.00223608,0.01071212,0.16669324,0,2,33,0,0,5,0.00056961,0.00223293,0.02736091,0.37696995,0.62790203,0.97333141
55001,0,USWisconsinAdams,Wisconsin,Adams,2020-07-17 14:14:09.329442,2020-03-29 00:00:00.000000,0.00240439,0.01027241,0.15753784,0,2,31,0,0,5,0.00049042,0.00247082,0.02793924,0.36789832,0.60656074,0.99018880
55001,0,USWisconsinAdams,Wisconsin,Adams,2020-07-17 14:14:09.329442,2020-03-30 00:00:00.000000,0.00258409,0.00991318,0.17948559,0,2,36,0,0,5,0.00064968,0.00273208,0.02959711,0.36430239,0.58915853,1.00402657
55001,0,USWisconsinAdams,Wisconsin,Adams,2020-07-17 14:14:09.329442,2020-03-31 00:00:00.000000,0.00277690,0.00950368,0.17542642,0,1,35,0,0,6,0.00042389,0.00301805,0.03073738,0.36294391,0.57959855,1.02005268
55001,0,USWisconsinAdams,Wisconsin,Adams,2020-07-17 14:14:09.329442,2020-04-01 00:00:00.000000,0.00296445,0.00938143,0.19328340,0,1,39,0,0,6,0.00055242,0.00332940,0.03224677,0.36241536,0.59414955,1.05061486
55001,0,USWisconsinAdams,Wisconsin,Adams,2020-07-17 14:14:09.329442,2020-04-02 00:00:00.000000,0.00317302,0.00902817,0.19493251,0,1,39,0,0,6,0.00036378,0.00362920,0.03383294,0.36199717,0.63415514,1.12163253
55001,0,USWisconsinAdams,Wisconsin,Adams,2020-07-17 14:14:09.329442,2020-04-03 00:00:00.000000,0.00340758,0.00848102,0.21079673,0,1,42,0,0,7,0.00046792,0.00391462,0.03549961,0.36092562,0.63767149,1.21034068
55001,0,USWisconsinAdams,Wisconsin,Adams,2020-07-17 14:14:09.329442,2020-04-04 00:00:00.000000,0.00320026,0.00824939,0.21597896,0,1,43,0,0,7,0.00030976,0.00422113,0.03725093,0.35719600,0.63736543,1.22180620
55001,0,USWisconsinAdams,Wisconsin,Adams,2020-07-17 14:14:09.329442,2020-04-05 00:00:00.000000,0.00292969,0.00785566,0.22767413,0,1,46,0,0,7,0.00039233,0.00418735,0.03909147,0.34917790,0.63675002,1.22247091
55001,0,USWisconsinAdams,Wisconsin,Adams,2020-07-17 14:14:09.329442,2020-04-06 00:00:00.000000,0.00266316,0.00746233,0.23118438,0,1,46,0,0,8,0.00026261,0.00400606,0.04144292,0.33979638,0.63613696,1.22282171
55001,0,USWisconsinAdams,Wisconsin,Adams,2020-07-17 14:14:09.329442,2020-04-07 00:00:00.000000,0.00239676,0.00708490,0.25245175,0,1,51,0,0,8,0.00032677,0.00392372,0.04413057,0.33308997,0.61392969,1.22084822
55001,0,USWisconsinAdams,Wisconsin,Adams,2020-07-17 14:14:09.329442,2020-04-08 00:00:00.000000,0.00213848,0.00673461,0.24525324,0,1,49,0,0,9,0.00022179,0.00371163,0.04692145,0.32946362,0.60480262,1.19629238
55001,0,USWisconsinAdams,Wisconsin,Adams,2020-07-17 14:14:09.329442,2020-04-09 00:00:00.000000,0.00189609,0.00654982,0.28059276,0,1,56,0,0,10,0.00027136,0.00356901,0.04953338,0.32741990,0.60597380,1.16163673
55001,0,USWisconsinAdams,Wisconsin,Adams,2020-07-17 14:14:09.329442,2020-04-10 00:00:00.000000,0.00167315,0.00708711,0.28028201,0,1,56,0,0,10,0.00018517,0.00341253,0.05183805,0.32585431,0.58220614,1.13189990
55001,0,USWisconsinAdams,Wisconsin,Adams,2020-07-17 14:14:09.329442,2020-04-11 00:00:00.000000,0.00147094,0.00766409,0.31190018,0,1,63,0,0,10,0.00022338,0.00327909,0.05421347,0.32326752,0.54857206,1.11603963
55001,0,USWisconsinAdams,Wisconsin,Adams,2020-07-17 14:14:09.329442,2020-04-12 00:00:00.000000,0.00128958,0.00828427,0.32295763,0,1,65,0,0,11,0.00015098,0.00318171,0.05805979,0.31826326,0.52802289,1.11136378
55001,0,USWisconsinAdams,Wisconsin,Adams,2020-07-17 14:14:09.329442,2020-04-13 00:00:00.000000,0.00112839,0.00895245,0.34718455,0,1,70,0,0,12,0.00018066,0.00310573,0.06219998,0.30917977,0.53703792,1.11281555
55001,0,USWisconsinAdams,Wisconsin,Adams,2020-07-17 14:14:09.329442,2020-04-14 00:00:00.000000,0.00098611,0.00967384,0.36299717,0,1,73,0,0,13,0.00012133,0.00303917,0.06653932,0.29540467,0.54850091,1.11693216
55001,0,USWisconsinAdams,Wisconsin,Adams,2020-07-17 14:14:09.329442,2020-04-15 00:00:00.000000,0.00086109,0.01045340,0.39119770,0,2,79,0,0,14,0.00014477,0.00297132,0.07038872,0.27994161,0.54832936,1.12196920
55001,0,USWisconsinAdams,Wisconsin,Adams,2020-07-17 14:14:09.329442,2020-04-16 00:00:00.000000,0.00075157,0.01129404,0.40024728,0,2,80,0,0,15,0.00009693,0.00302377,0.07442391,0.27135629,0.54708264,1.12656773
55001,0,USWisconsinAdams,Wisconsin,Adams,2020-07-17 14:14:09.329442,2020-04-17 00:00:00.000000,0.00065582,0.01218420,0.42768863,0,2,86,0,0,15,0.00011540,0.00295094,0.07866126,0.27593823,0.52699223,1.13146223
55001,0,USWisconsinAdams,Wisconsin,Adams,2020-07-17 14:14:09.329442,2020-04-18 00:00:00.000000,0.00057223,0.01277062,0.44076979,0,2,89,0,0,16,0.00007701,0.00316613,0.08338807,0.28752696,0.51101047,1.13672095
55001,0,USWisconsinAdams,Wisconsin,Adams,2020-07-17 14:14:09.329442,2020-04-19 00:00:00.000000,0.00049936,0.01227959,0.46206500,0,2,93,0,0,17,0.00008799,0.00342512,0.08895283,0.29956774,0.49357590,1.14211768
55001,0,USWisconsinAdams,Wisconsin,Adams,2020-07-17 14:14:09.329442,2020-04-20 00:00:00.000000,0.00043595,0.01285537,0.48359173,0,2,97,0,0,19,0.00006039,0.00369922,0.09490863,0.28853254,0.48320687,1.14743511
55001,0,USWisconsinAdams,Wisconsin,Adams,2020-07-17 14:14:09.329442,2020-04-21 00:00:00.000000,0.00038085,0.01370741,0.50513585,0,2,102,0,0,20,0.00006704,0.00398909,0.10127073,0.28331953,0.48019215,1.15247850
55001,0,USWisconsinAdams,Wisconsin,Adams,2020-07-17 14:14:09.329442,2020-04-22 00:00:00.000000,0.00033294,0.01462411,0.52702419,0,2,106,0,0,21,0.00004708,0.00429637,0.10805663,0.28106867,0.47667062,1.15705382
55001,0,USWisconsinAdams,Wisconsin,Adams,2020-07-17 14:14:09.329442,2020-04-23 00:00:00.000000,0.00029119,0.01560796,0.54977539,0,3,111,0,0,23,0.00005121,0.00462276,0.11517279,0.27821985,0.46870439,1.16057500
55001,0,USWisconsinAdams,Wisconsin,Adams,2020-07-17 14:14:09.329442,2020-04-24 00:00:00.000000,0.00025472,0.01665987,0.57376547,0,3,116,0,1,24,0.00003660,0.00496986,0.12269613,0.26526421,0.46478564,1.15777841
55001,0,USWisconsinAdams,Wisconsin,Adams,2020-07-17 14:14:09.329442,2020-04-25 00:00:00.000000,0.00022282,0.01778366,0.59923622,0,3,121,0,1,26,0.00003919,0.00533917,0.13073262,0.25304995,0.45298743,1.11481083
55001,0,USWisconsinAdams,Wisconsin,Adams,2020-07-17 14:14:09.329442,2020-04-26 00:00:00.000000,0.00019485,0.01898694,0.62628517,0,3,126,0,1,28,0.00002848,0.00573226,0.13933809,0.23689779,0.45161933,1.08202514
55001,0,USWisconsinAdams,Wisconsin,Adams,2020-07-17 14:14:09.329442,2020-04-27 00:00:00.000000,0.00017023,0.02027738,0.65489178,0,4,132,0,1,30,0.00002998,0.00615091,0.14857803,0.23580418,0.46374676,1.10834754
55001,0,USWisconsinAdams,Wisconsin,Adams,2020-07-17 14:14:09.329442,2020-04-28 00:00:00.000000,0.00014839,0.02166173,0.68504910,0,4,138,0,1,32,0.00002229,0.00659709,0.15852466,0.23638398,0.45504557,1.10769851
55001,0,USWisconsinAdams,Wisconsin,Adams,2020-07-17 14:14:09.329442,2020-04-29 00:00:00.000000,0.00012890,0.02314644,0.71677326,0,4,144,0,1,34,0.00002282,0.00707293,0.16925477,0.23949306,0.45615365,1.11984761
55001,0,USWisconsinAdams,Wisconsin,Adams,2020-07-17 14:14:09.329442,2020-04-30 00:00:00.000000,0.00011154,0.02473788,0.75906835,0,5,153,0,1,36,0.00001745,0.00707781,0.17985260,0.24204784,0.45686807,1.15132305
55001,0,USWisconsinAdams,Wisconsin,Adams,2020-07-17 14:14:09.329442,2020-05-01 00:00:00.000000,0.00009626,0.02644211,0.80780994,0,5,163,0,1,38,0.00001714,0.00710449,0.18908058,0.24251906,0.45445340,1.18664674
55001,0,USWisconsinAdams,Wisconsin,Adams,2020-07-17 14:14:09.329442,2020-05-02 00:00:00.000000,0.00008290,0.02826382,0.86075582,0,5,174,0,1,40,0.00001359,0.00756676,0.19878466,0.24257223,0.44809319,1.20641384
55001,0,USWisconsinAdams,Wisconsin,Adams,2020-07-17 14:14:09.329442,2020-05-03 00:00:00.000000,0.00007122,0.03020369,0.91597295,0,6,185,0,1,42,0.00001273,0.00805676,0.20987024,0.24234906,0.43834274,1.21499137
55001,0,USWisconsinAdams,Wisconsin,Adams,2020-07-17 14:14:09.329442,2020-05-04 00:00:00.000000,0.00006111,0.03225381,0.98523527,0,6,199,0,1,44,0.00001054,0.00857607,0.21970186,0.24212722,0.43492980,1.24059114
55001,0,USWisconsinAdams,Wisconsin,Adams,2020-07-17 14:14:09.329442,2020-05-05 00:00:00.000000,0.00005244,0.03439546,1.05520874,0,6,213,0,1,48,0.00000938,0.00912605,0.24213381,0.24226427,0.43551679,1.25263388
55001,0,USWisconsinAdams,Wisconsin,Adams,2020-07-17 14:14:09.329442,2020-05-06 00:00:00.000000,0.00004506,0.03660847,1.12837468,0,7,228,0,1,51,0.00000805,0.00970767,0.25362065,0.24257770,0.43541150,1.25660673
55001,0,USWisconsinAdams,Wisconsin,Adams,2020-07-17 14:14:09.329442,2020-05-07 00:00:00.000000,0.00003882,0.03886939,1.21951127,0,7,246,0,2,56,0.00000691,0.01032156,0.28084948,0.24257515,0.41723718,1.25781747
55001,0,USWisconsinAdams,Wisconsin,Adams,2020-07-17 14:14:09.329442,2020-05-08 00:00:00.000000,0.00003353,0.04110394,1.28671995,0,8,260,0,2,59,0.00000596,0.01096831,0.29397551,0.24828923,0.39200713,1.25803551
55001,0,USWisconsinAdams,Wisconsin,Adams,2020-07-17 14:14:09.329442,2020-05-09 00:00:00.000000,0.00002899,0.04329426,1.39157160,0,8,281,0,2,65,0.00000515,0.01164773,0.32420894,0.25572161,0.36373701,1.25766224
55001,0,USWisconsinAdams,Wisconsin,Adams,2020-07-17 14:14:09.329442,2020-05-10 00:00:00.000000,0.00002510,0.04555160,1.50145761,0,9,303,0,2,68,0.00000445,0.01243116,0.33807279,0.24211069,0.36540155,1.28324857
55001,0,USWisconsinAdams,Wisconsin,Adams,2020-07-17 14:14:09.329442,2020-05-11 00:00:00.000000,0.00002175,0.04794123,1.61661945,0,9,326,0,2,74,0.00000386,0.01332806,0.36944869,0.24021313,0.37259369,1.32522486
55001,0,USWisconsinAdams,Wisconsin,Adams,2020-07-17 14:14:09.329442,2020-05-12 00:00:00.000000,0.00001887,0.05049238,1.73355185,0,10,350,0,2,78,0.00000334,0.01427223,0.38778686,0.24807035,0.37318801,1.37558008
55001,0,USWisconsinAdams,Wisconsin,Adams,2020-07-17 14:14:09.329442,2020-05-13 00:00:00.000000,0.00001638,0.05323884,1.85775344,0,10,375,0,3,84,0.00000290,0.01526074,0.41549563,0.25023510,0.37399167,1.42390121
55001,0,USWisconsinAdams,Wisconsin,Adams,2020-07-17 14:14:09.329442,2020-05-14 00:00:00.000000,0.00001424,0.05624318,2.00126235,0,11,404,0,3,88,0.00000252,0.01630472,0.43660366,0.24689690,0.38001684,1.43851354
55001,0,USWisconsinAdams,Wisconsin,Adams,2020-07-17 14:14:09.329442,2020-05-15 00:00:00.000000,0.00001238,0.05958145,2.15868910,0,12,436,0,3,95,0.00000219,0.01741589,0.47462475,0.24410237,0.38379832,1.44098691
55001,0,USWisconsinAdams,Wisconsin,Adams,2020-07-17 14:14:09.329442,2020-05-16 00:00:00.000000,0.00001077,0.06326822,2.32859325,0,12,470,0,3,98,0.00000190,0.01860427,0.48521149,0.24121158,0.38756774,1.44134711
55001,0,USWisconsinAdams,Wisconsin,Adams,2020-07-17 14:14:09.329442,2020-05-17 00:00:00.000000,0.00000937,0.06726377,2.51157517,0,13,507,0,4,108,0.00000166,0.01988532,0.53741192,0.23688154,0.39497171,1.44137535
55001,0,USWisconsinAdams,Wisconsin,Adams,2020-07-17 14:14:09.329442,2020-05-18 00:00:00.000000,0.00000815,0.07154237,2.70859913,0,14,547,0,4,109,0.00000144,0.02129351,0.54147441,0.23147982,0.39810458,1.44132801
55001,0,USWisconsinAdams,Wisconsin,Adams,2020-07-17 14:14:09.329442,2020-05-19 00:00:00.000000,0.00000708,0.07610386,2.92067542,0,15,590,0,4,122,0.00000125,0.02289410,0.60679631,0.23377276,0.39961515,1.44121740
55001,0,USWisconsinAdams,Wisconsin,Adams,2020-07-17 14:14:09.329442,2020-05-20 00:00:00.000000,0.00000614,0.08096255,3.12699943,0,16,632,0,5,123,0.00000109,0.02474257,0.60843602,0.24455794,0.40076908,1.44099596
55001,0,USWisconsinAdams,Wisconsin,Adams,2020-07-17 14:14:09.329442,2020-05-21 00:00:00.000000,0.00000532,0.08614025,3.33808223,0,17,674,0,5,137,0.00000094,0.02683290,0.68109378,0.26920616,0.40274035,1.44058129
55001,0,USWisconsinAdams,Wisconsin,Adams,2020-07-17 14:14:09.329442,2020-05-22 00:00:00.000000,0.00000459,0.09166345,3.56202614,0,18,720,0,5,138,0.00000082,0.02914547,0.68708186,0.26004300,0.40574944,1.44004667
55001,0,USWisconsinAdams,Wisconsin,Adams,2020-07-17 14:14:09.329442,2020-05-23 00:00:00.000000,0.00000397,0.09756186,3.79940003,0,19,768,0,6,153,0.00000071,0.03168285,0.75955716,0.26193364,0.40947351,1.44191305
55001,0,USWisconsinAdams,Wisconsin,Adams,2020-07-17 14:14:09.329442,2020-05-24 00:00:00.000000,0.00000342,0.10386706,4.05245265,0,21,819,0,6,157,0.00000061,0.03446454,0.77748483,0.25115226,0.41380955,1.47073155
55001,0,USWisconsinAdams,Wisconsin,Adams,2020-07-17 14:14:09.329442,2020-05-25 00:00:00.000000,0.00000295,0.11061116,4.32958742,0,22,875,0,7,169,0.00000053,0.03677280,0.84074264,0.25034987,0.41850180,1.63561776
55001,0,USWisconsinAdams,Wisconsin,Adams,2020-07-17 14:14:09.329442,2020-05-26 00:00:00.000000,0.00000255,0.11782810,4.65825556,0,23,941,0,7,178,0.00000045,0.03909290,0.88084833,0.25284344,0.42322556,1.69205866
55001,0,USWisconsinAdams,Wisconsin,Adams,2020-07-17 14:14:09.329442,2020-05-27 00:00:00.000000,0.00000220,0.12556679,5.08096935,0,25,1027,0,8,190,0.00000039,0.04156756,0.93987292,0.25662269,0.42783791,1.69161402
55001,0,USWisconsinAdams,Wisconsin,Adams,2020-07-17 14:14:09.329442,2020-05-28 00:00:00.000000,0.00000190,0.13393715,5.59195658,0,27,1130,0,8,203,0.00000034,0.04420855,1.00781870,0.26083430,0.43297918,1.69240682
55001,0,USWisconsinAdams,Wisconsin,Adams,2020-07-17 14:14:09.329442,2020-05-29 00:00:00.000000,0.00000164,0.14309662,6.09170553,0,28,1231,0,9,219,0.00000029,0.04703130,1.08677896,0.26829271,0.43978200,1.69577135
55001,0,USWisconsinAdams,Wisconsin,Adams,2020-07-17 14:14:09.329442,2020-05-30 00:00:00.000000,0.00000142,0.15303180,6.52042820,0,30,1318,0,10,237,0.00000025,0.05005638,1.17653197,0.27045635,0.44554706,1.68051438
55001,0,USWisconsinAdams,Wisconsin,Adams,2020-07-17 14:14:09.329442,2020-05-31 00:00:00.000000,0.00000123,0.16367658,6.96107476,0,33,1407,0,10,258,0.00000022,0.05330207,1.27607663,0.27142278,0.44833992,1.66353814
55001,0,USWisconsinAdams,Wisconsin,Adams,2020-07-17 14:14:09.329442,2020-06-01 00:00:00.000000,0.00000107,0.17503752,7.40995365,0,35,1498,0,11,279,0.00000019,0.05678289,1.38381856,0.27190972,0.44951624,1.65300081
55001,0,USWisconsinAdams,Wisconsin,Adams,2020-07-17 14:14:09.329442,2020-06-02 00:00:00.000000,0.00000092,0.18716168,7.87495893,0,37,1592,0,12,302,0.00000016,0.06051319,1.49675249,0.27227823,0.44933829,1.68107387
55001,0,USWisconsinAdams,Wisconsin,Adams,2020-07-17 14:14:09.329442,2020-06-03 00:00:00.000000,0.00000080,0.20013392,8.36200322,0,40,1690,0,13,325,0.00000014,0.06450876,1.61173704,0.27336195,0.44903437,1.75329052
55001,0,USWisconsinAdams,Wisconsin,Adams,2020-07-17 14:14:09.329442,2020-06-04 00:00:00.000000,0.00000070,0.21407979,8.87584668,0,43,1794,0,13,349,0.00000012,0.06878805,1.72821294,0.27816910,0.45270081,1.76008837
55001,0,USWisconsinAdams,Wisconsin,Adams,2020-07-17 14:14:09.329442,2020-06-05 00:00:00.000000,0.00000060,0.22906860,9.42729968,0,46,1906,0,14,373,0.00000011,0.07337347,1.84765222,0.28532089,0.45616575,1.78976079
55001,0,USWisconsinAdams,Wisconsin,Adams,2020-07-17 14:14:09.329442,2020-06-06 00:00:00.000000,0.00000052,0.24510707,10.02760518,0,49,2027,0,15,399,0.00000009,0.07828863,1.97337199,0.28467985,0.45763238,1.83597369
55001,0,USWisconsinAdams,Wisconsin,Adams,2020-07-17 14:14:09.329442,2020-06-07 00:00:00.000000,0.00000045,0.26223252,10.67775690,0,53,2159,0,16,427,0.00000008,0.08355590,2.11214177,0.26739907,0.45807505,1.86748624
55001,0,USWisconsinAdams,Wisconsin,Adams,2020-07-17 14:14:09.329442,2020-06-08 00:00:00.000000,0.00000039,0.28051287,11.38065274,0,56,2301,0,18,458,0.00000007,0.08919797,2.26878284,0.25398917,0.45827541,1.95594903
55001,0,USWisconsinAdams,Wisconsin,Adams,2020-07-17 14:14:09.329442,2020-06-09 00:00:00.000000,0.00000033,0.30003542,12.14641342,0,60,2456,0,19,493,0.00000006,0.09523917,2.44309645,0.24394840,0.45858967,2.07949843
55001,0,USWisconsinAdams,Wisconsin,Adams,2020-07-17 14:14:09.329442,2020-06-10 00:00:00.000000,0.00000029,0.32091753,12.97981703,0,64,2624,0,20,532,0.00000005,0.10170600,2.63381769,0.23975894,0.45949886,2.09477830
55001,0,USWisconsinAdams,Wisconsin,Adams,2020-07-17 14:14:09.329442,2020-06-11 00:00:00.000000,0.00000024,0.34328167,13.88375456,0,69,2807,0,21,574,0.00000004,0.10862818,2.84006455,0.23796583,0.46235885,2.11184811
55001,0,USWisconsinAdams,Wisconsin,Adams,2020-07-17 14:14:09.329442,2020-06-12 00:00:00.000000,0.00000021,0.36637984,14.86022848,0,74,3004,0,23,619,0.00000004,0.11604161,3.06142086,0.23698089,0.47115784,2.13936170
55001,0,USWisconsinAdams,Wisconsin,Adams,2020-07-17 14:14:09.329442,2020-06-13 00:00:00.000000,0.00000018,0.39328137,15.91970018,0,79,3218,0,25,666,0.00000003,0.12380308,3.29778143,0.23627607,0.49562194,2.17807851
55001,0,USWisconsinAdams,Wisconsin,Adams,2020-07-17 14:14:09.329442,2020-06-14 00:00:00.000000,0.00000015,0.42672454,17.13561473,0,86,3464,0,26,717,0.00000003,0.13196216,3.54917727,0.23710903,0.55344286,2.18051220
55001,0,USWisconsinAdams,Wisconsin,Adams,2020-07-17 14:14:09.329442,2020-06-15 00:00:00.000000,0.00000013,0.46747315,19.17566794,0,94,3877,0,28,771,0.00000002,0.14094885,3.81564956,0.24041500,0.63134520,2.18157498
55001,0,USWisconsinAdams,Wisconsin,Adams,2020-07-17 14:14:09.329442,2020-06-16 00:00:00.000000,0.00000011,0.51355360,20.82054910,0,103,4209,0,30,828,0.00000002,0.15098538,4.09715905,0.24361089,0.67422036,2.18115442
55001,0,USWisconsinAdams,Wisconsin,Adams,2020-07-17 14:14:09.329442,2020-06-17 00:00:00.000000,0.00000010,0.56430838,22.37562865,0,114,4524,0,32,888,0.00000002,0.16220398,4.39322305,0.24747862,0.68892964,2.17796237
55001,0,USWisconsinAdams,Wisconsin,Adams,2020-07-17 14:14:09.329442,2020-06-18 00:00:00.000000,0.00000008,0.61915141,24.34494150,0,125,4922,0,35,950,0.00000002,0.17468292,4.70216643,0.25261260,0.69283235,2.23261184
55001,0,USWisconsinAdams,Wisconsin,Adams,2020-07-17 14:14:09.329442,2020-06-19 00:00:00.000000,0.00000007,0.67809796,26.35400914,0,137,5328,0,38,1015,0.00000001,0.18849301,5.02332334,0.25920102,0.69351844,2.29921405
55001,0,USWisconsinAdams,Wisconsin,Adams,2020-07-17 14:14:09.329442,2020-06-20 00:00:00.000000,0.00000006,0.74143326,28.43037456,0,149,5748,0,41,1082,0.00000001,0.20371344,5.35578859,0.26539762,0.69127313,2.34739878
55001,0,USWisconsinAdams,Wisconsin,Adams,2020-07-17 14:14:09.329442,2020-06-21 00:00:00.000000,0.00000005,0.80842994,30.50864820,0,163,6168,0,44,1152,0.00000001,0.22042855,5.69770389,0.26758057,0.67805953,2.35386962
55001,0,USWisconsinAdams,Wisconsin,Adams,2020-07-17 14:14:09.329442,2020-06-22 00:00:00.000000,0.00000005,0.87284159,31.88079962,0,176,6446,0,48,1222,0.00000001,0.23869067,6.04623790,0.26977915,0.62521456,2.35546253
55001,0,USWisconsinAdams,Wisconsin,Adams,2020-07-17 14:14:09.329442,2020-06-23 00:00:00.000000,0.00000004,0.93448610,33.16427122,0,188,6705,0,52,1293,0.00000001,0.25840685,6.39812185,0.27179096,0.55872705,2.35615498
55001,0,USWisconsinAdams,Wisconsin,Adams,2020-07-17 14:14:09.329442,2020-06-24 00:00:00.000000,0.00000003,0.99775910,34.35872959,0,201,6947,0,56,1364,0.00000001,0.27939444,6.75054557,0.27336450,0.53620014,2.35561993
55001,0,USWisconsinAdams,Wisconsin,Adams,2020-07-17 14:14:09.329442,2020-06-25 00:00:00.000000,0.00000003,1.06551806,35.46718027,0,215,7171,0,60,1435,0.00000001,0.30166807,7.10157891,0.27399271,0.53619056,2.34319692
55001,0,USWisconsinAdams,Wisconsin,Adams,2020-07-17 14:14:09.329442,2020-06-26 00:00:00.000000,0.00000003,1.13914862,36.50329904,0,230,7380,0,65,1557,0.00000000,0.32537183,7.70259649,0.27253568,0.54336026,2.48097164
55001,0,USWisconsinAdams,Wisconsin,Adams,2020-07-17 14:14:09.329442,2020-06-27 00:00:00.000000,0.00000002,1.21948243,37.50241551,0,246,7582,0,70,1694,0.00000000,0.35068990,8.37915915,0.26857125,0.55289362,2.67052955
55001,0,USWisconsinAdams,Wisconsin,Adams,2020-07-17 14:14:09.329442,2020-06-28 00:00:00.000000,0.00000002,1.30697981,39.39314501,0,264,7965,0,76,1833,0.00000000,0.37782075,9.06890210,0.26520389,0.56099712,2.73929102
55001,0,USWisconsinAdams,Wisconsin,Adams,2020-07-17 14:14:09.329442,2020-06-29 00:00:00.000000,0.00000002,1.40182841,41.34852839,0,283,8360,0,82,1974,0.00000000,0.40695858,9.76374406,0.26400161,0.56559622,2.78079957
55001,0,USWisconsinAdams,Wisconsin,Adams,2020-07-17 14:14:09.329442,2020-06-30 00:00:00.000000,0.00000001,1.50411721,43.34161866,0,304,8763,0,88,2113,0.00000000,0.43828346,10.45218100,0.26381758,0.56668149,2.80969565
55001,0,USWisconsinAdams,Wisconsin,Adams,2020-07-17 14:14:09.329442,2020-07-01 00:00:00.000000,0.00000001,1.61389285,45.36551547,0,326,9172,0,95,2248,0.00000000,0.47196349,11.12174953,0.26388548,0.56447817,2.83893849
55001,0,USWisconsinAdams,Wisconsin,Adams,2020-07-17 14:14:09.329442,2020-07-02 00:00:00.000000,0.00000001,1.73105507,47.41384543,0,350,9587,0,102,2378,0.00000000,0.50815665,11.76083924,0.26396113,0.55835959,2.87294455
55001,0,USWisconsinAdams,Wisconsin,Adams,2020-07-17 14:14:09.329442,2020-07-03 00:00:00.000000,0.00000001,1.85518988,49.47937398,0,375,10004,0,110,2499,0.00000000,0.54700387,12.35946976,0.26377199,0.54711886,2.89816438
55001,0,USWisconsinAdams,Wisconsin,Adams,2020-07-17 14:14:09.329442,2020-07-04 00:00:00.000000,0.00000001,1.98555713,51.55291973,0,401,10424,0,119,2610,0.00000000,0.58861431,12.90967837,0.26164240,0.53060728,2.87897798
55001,0,USWisconsinAdams,Wisconsin,Adams,2020-07-17 14:14:09.329442,2020-07-05 00:00:00.000000,0.00000001,2.12152472,53.62095039,0,428,10842,0,128,2710,0.00000000,0.63305585,13.40573998,0.25358823,0.51170931,2.86250897
55001,0,USWisconsinAdams,Wisconsin,Adams,2020-07-17 14:14:09.329442,2020-07-06 00:00:00.000000,0.00000001,2.26326220,55.66078364,0,457,11254,0,137,2799,0.00000000,0.68037365,13.84426182,0.24697710,0.49519889,2.85247988
55001,0,USWisconsinAdams,Wisconsin,Adams,2020-07-17 14:14:09.329442,2020-07-07 00:00:00.000000,0.00000001,2.41186982,57.82351064,0,487,11691,0,147,2876,0.00000000,0.73063607,14.22414894,0.24621300,0.48382474,2.84797171
55001,0,USWisconsinAdams,Wisconsin,Adams,2020-07-17 14:14:09.329442,2020-07-08 00:00:00.000000,0.00000000,2.56882960,60.63894307,0,519,12261,0,158,2941,0.00000000,0.78396860,14.54642922,0.24610575,0.47720707,2.84611477
55001,0,USWisconsinAdams,Wisconsin,Adams,2020-07-17 14:14:09.329442,2020-07-09 00:00:00.000000,0.00000000,2.73551532,61.46826938,0,553,12428,0,169,2995,0.00000000,0.84055460,14.81395677,0.24609893,0.47372851,2.84537675
55001,0,USWisconsinAdams,Wisconsin,Adams,2020-07-17 14:14:09.329442,2020-07-10 00:00:00.000000,0.00000000,2.91306178,63.32780847,0,589,12804,0,182,3039,0.00000000,0.90061927,15.03103217,0.24610258,0.47199713,2.84508734
55001,0,USWisconsinAdams,Wisconsin,Adams,2020-07-17 14:14:09.329442,2020-07-11 00:00:00.000000,0.00000000,3.10242138,65.01800752,0,627,13146,0,195,3074,0.00000000,0.96441496,15.20293999,0.24610576,0.47115876,2.84497436
55001,0,USWisconsinAdams,Wisconsin,Adams,2020-07-17 14:14:09.329442,2020-07-12 00:00:00.000000,0.00000000,3.30444850,64.94716959,0,668,13132,0,208,3122,0.00000000,1.03221278,15.44064756,0.24610776,0.47075821,2.84493031
55001,0,USWisconsinAdams,Wisconsin,Adams,2020-07-17 14:14:09.329442,2020-07-13 00:00:00.000000,0.00000000,3.51996131,66.37084940,0,711,13420,0,223,3265,0.00000000,1.10429913,16.14953220,0.24610896,0.47056807,2.84491314
55001,0,USWisconsinAdams,Wisconsin,Adams,2020-07-17 14:14:09.329442,2020-07-14 00:00:00.000000,0.00000000,3.74977909,68.42253705,0,758,13835,0,238,3408,0.00000000,1.18097485,16.85718921,0.24610967,0.47047809,2.84490644
55001,0,USWisconsinAdams,Wisconsin,Adams,2020-07-17 14:14:09.329442,2020-07-15 00:00:00.000000,0.00000000,3.99474330,70.38587273,0,807,14232,0,255,3550,0.00000000,1.26253184,17.56011626,0.24611009,0.47043556,2.84490383
55001,0,USWisconsinAdams,Wisconsin,Adams,2020-07-17 14:14:09.329442,2020-07-16 00:00:00.000000,0.00000000,4.25572898,72.25005482,0,860,14608,0,272,3691,0.00000000,1.34857421,18.25477549,0.24611034,0.47041548,2.84490281
55001,0,USWisconsinAdams,Wisconsin,Adams,2020-07-17 14:14:09.329442,2020-07-17 00:00:00.000000,0.00000000,4.53365104,73.43717797,0,916,14848,0,286,3829,0.00000000,1.41641409,18.93764962,0.24611048,0.47040600,2.84490241
55001,0,USWisconsinAdams,Wisconsin,Adams,2020-07-17 14:14:09.329442,2020-07-18 00:00:00.000000,0.00000000,4.82946764,73.01448335,0,976,14763,0,299,3964,0.00000000,1.48122497,19.60529988,0.24611057,0.47040152,2.84490225
55001,0,USWisconsinAdams,Wisconsin,Adams,2020-07-17 14:14:09.329442,2020-07-19 00:00:00.000000,0.00000000,5.14418200,72.34510748,0,1040,14628,0,313,4095,0.00000000,1.54854579,20.25442369,0.24611062,0.47039941,2.84490219
55001,0,USWisconsinAdams,Wisconsin,Adams,2020-07-17 14:14:09.329442,2020-07-20 00:00:00.000000,0.00000000,5.47884314,71.47253170,0,1107,14451,0,327,4222,0.00000000,1.61843599,20.88190991,0.24611065,0.47039841,2.84490217
55001,0,USWisconsinAdams,Wisconsin,Adams,2020-07-17 14:14:09.329442,2020-07-21 00:00:00.000000,0.00000000,5.83454611,70.43709482,0,1179,14242,0,341,4344,0.00000000,1.69095207,21.48488955,0.24611067,0.47039794,2.84490216
55001,0,USWisconsinAdams,Wisconsin,Adams,2020-07-17 14:14:09.329442,2020-07-22 00:00:00.000000,0.00000000,6.21243157,71.60447887,0,1256,14478,0,357,4460,0.00000000,1.76614712,22.06078035,0.24611068,0.47039772,2.84490216
55001,0,USWisconsinAdams,Wisconsin,Adams,2020-07-17 14:14:09.329442,2020-07-23 00:00:00.000000,0.00000000,6.61368491,72.86882832,0,1337,14734,0,372,4571,0.00000000,1.84407039,22.60732359,0.24611069,0.47039762,2.84490216
55001,0,USWisconsinAdams,Wisconsin,Adams,2020-07-17 14:14:09.329442,2020-07-24 00:00:00.000000,0.00000000,7.03953484,74.07462092,0,1423,14977,0,389,4675,0.00000000,1.92476678,23.12261215,0.24611069,0.47039757,2.84490216
55001,0,USWisconsinAdams,Wisconsin,Adams,2020-07-17 14:14:09.329442,2020-07-25 00:00:00.000000,0.00000000,7.49125149,75.21906028,0,1514,15209,0,406,4772,0.00000000,2.00827626,23.60510917,0.24611069,0.47039754,2.84490216
55001,0,USWisconsinAdams,Wisconsin,Adams,2020-07-17 14:14:09.329442,2020-07-26 00:00:00.000000,0.00000000,7.97014379,76.29980375,0,1611,15427,0,423,4863,0.00000000,2.09463339,24.05365713,0.24611070,0.47039753,2.84490216
55001,0,USWisconsinAdams,Wisconsin,Adams,2020-07-17 14:14:09.329442,2020-07-27 00:00:00.000000,0.00000000,8.47755626,77.31496870,0,1714,15633,0,441,4953,0.00000000,2.18386668,24.49848164,0.24611070,0.47039753,2.84490216
55001,0,USWisconsinAdams,Wisconsin,Adams,2020-07-17 14:14:09.329442,2020-07-28 00:00:00.000000,0.00000000,9.01486492,78.26313239,0,1822,15824,0,460,5095,0.00000000,2.27599799,25.20134229,0.24611070,0.47039753,2.84490216
55001,0,USWisconsinAdams,Wisconsin,Adams,2020-07-17 14:14:09.329442,2020-07-29 00:00:00.000000,0.00000000,9.58347242,79.14332587,0,1937,16002,0,489,5237,0.00000000,2.42037595,25.90091851,0.24611070,0.47039752,2.84490216
