FIPS,HR_UID,nameid,province,region,analysisTime,dates,pointprevalence_025,pointprevalence_50,pointprevalence_975,pointinfections_025,pointinfections_50,pointinfections_975,pointinfectious_025,pointinfectious_50,pointinfectious_975,pointinfectiousprevalence_05,pointinfectiousprevalence_50,pointinfectiousprevalence_95,infectrate_025,infectrate_50,infectrate_975
51135,0,USVirginiaNottoway,Virginia,Nottoway,2020-07-17 19:54:06.035794,2020-03-09 00:00:00.000000,0.01845338,0.09815642,0.50962534,2,14,77,0,3,19,0.00101680,0.02455186,0.12483709,0.51281945,0.76290522,1.02323353
51135,0,USVirginiaNottoway,Virginia,Nottoway,2020-07-17 19:54:06.035794,2020-03-10 00:00:00.000000,0.01739710,0.10653506,0.61079526,2,16,93,1,4,17,0.00727062,0.02720402,0.11772116,0.51282237,0.76290807,1.02323173
51135,0,USVirginiaNottoway,Virginia,Nottoway,2020-07-17 19:54:06.035794,2020-03-11 00:00:00.000000,0.02322228,0.10773424,0.53712754,3,16,81,0,3,18,0.00565311,0.02518414,0.12111130,0.51282878,0.76242834,1.02322737
51135,0,USVirginiaNottoway,Virginia,Nottoway,2020-07-17 19:54:06.035794,2020-03-12 00:00:00.000000,0.02479942,0.11868759,0.58603438,3,18,89,0,4,18,0.00640093,0.02977210,0.12444281,0.51284601,0.76177656,1.02321687
51135,0,USVirginiaNottoway,Virginia,Nottoway,2020-07-17 19:54:06.035794,2020-03-13 00:00:00.000000,0.02721905,0.12555102,0.57029603,4,19,86,0,4,18,0.00632111,0.03027425,0.12080796,0.51289869,0.76107942,1.02319153
51135,0,USVirginiaNottoway,Virginia,Nottoway,2020-07-17 19:54:06.035794,2020-03-14 00:00:00.000000,0.02770603,0.14141880,0.61251364,4,21,93,0,5,20,0.00625804,0.03515908,0.13299094,0.51306951,0.76108516,1.02313052
51135,0,USVirginiaNottoway,Virginia,Nottoway,2020-07-17 19:54:06.035794,2020-03-15 00:00:00.000000,0.02794272,0.14876130,0.63619664,4,22,96,0,5,21,0.00640655,0.03686335,0.14224290,0.51363077,0.76110796,1.02298404
51135,0,USVirginiaNottoway,Virginia,Nottoway,2020-07-17 19:54:06.035794,2020-03-16 00:00:00.000000,0.02741804,0.16266585,0.67184579,4,24,102,0,6,24,0.00614238,0.04076414,0.16074515,0.51474395,0.76120152,1.02263537
51135,0,USVirginiaNottoway,Virginia,Nottoway,2020-07-17 19:54:06.035794,2020-03-17 00:00:00.000000,0.02758140,0.17350399,0.72968263,4,26,111,0,6,25,0.00633626,0.04019446,0.16752863,0.52007097,0.76159998,1.01737321
51135,0,USVirginiaNottoway,Virginia,Nottoway,2020-07-17 19:54:06.035794,2020-03-18 00:00:00.000000,0.02712058,0.19228945,0.75146579,4,29,114,0,7,27,0.00604987,0.04645301,0.18348606,0.52426115,0.75942259,1.01982086
51135,0,USVirginiaNottoway,Virginia,Nottoway,2020-07-17 19:54:06.035794,2020-03-19 00:00:00.000000,0.02720611,0.20247631,0.83300261,4,30,126,0,7,28,0.00623593,0.04754138,0.18750673,0.51697708,0.75916350,1.03542757
51135,0,USVirginiaNottoway,Virginia,Nottoway,2020-07-17 19:54:06.035794,2020-03-20 00:00:00.000000,0.02671255,0.22116689,0.86701210,4,33,132,0,8,32,0.00600417,0.05419323,0.21166279,0.50713058,0.76666975,1.04521082
51135,0,USVirginiaNottoway,Virginia,Nottoway,2020-07-17 19:54:06.035794,2020-03-21 00:00:00.000000,0.02664518,0.23158884,0.95673677,4,35,145,0,8,34,0.00611784,0.05646183,0.22967806,0.50718577,0.76049309,1.03515250
51135,0,USVirginiaNottoway,Virginia,Nottoway,2020-07-17 19:54:06.035794,2020-03-22 00:00:00.000000,0.02606680,0.25987637,1.04617036,3,39,159,0,9,39,0.00596773,0.06243999,0.25906226,0.49776400,0.76597997,1.03487158
51135,0,USVirginiaNottoway,Virginia,Nottoway,2020-07-17 19:54:06.035794,2020-03-23 00:00:00.000000,0.02589078,0.26774264,1.13018641,3,40,172,0,9,44,0.00610908,0.06396966,0.29277142,0.49035870,0.76239341,1.04354943
51135,0,USVirginiaNottoway,Virginia,Nottoway,2020-07-17 19:54:06.035794,2020-03-24 00:00:00.000000,0.02532032,0.30813766,1.26862659,3,46,193,0,11,50,0.00585824,0.07232118,0.33005075,0.48501662,0.76026498,1.04912998
51135,0,USVirginiaNottoway,Virginia,Nottoway,2020-07-17 19:54:06.035794,2020-03-25 00:00:00.000000,0.02510549,0.30779271,1.34697901,3,46,205,0,11,56,0.00601832,0.07517536,0.37069648,0.48334253,0.76165491,1.05124713
51135,0,USVirginiaNottoway,Virginia,Nottoway,2020-07-17 19:54:06.035794,2020-03-26 00:00:00.000000,0.02457846,0.34311528,1.52956517,3,52,232,0,13,63,0.00570289,0.08576076,0.41550952,0.48388472,0.76211639,1.05199483
51135,0,USVirginiaNottoway,Virginia,Nottoway,2020-07-17 19:54:06.035794,2020-03-27 00:00:00.000000,0.02453542,0.35725317,1.59884018,3,54,243,0,13,71,0.00584275,0.08681171,0.46709318,0.47597943,0.75828418,1.09163209
51135,0,USVirginiaNottoway,Virginia,Nottoway,2020-07-17 19:54:06.035794,2020-03-28 00:00:00.000000,0.02400757,0.39661688,1.74979746,3,60,266,0,15,78,0.00561888,0.10052446,0.51608828,0.46503446,0.74378557,1.18352182
51135,0,USVirginiaNottoway,Virginia,Nottoway,2020-07-17 19:54:06.035794,2020-03-29 00:00:00.000000,0.02430815,0.41322781,1.93600337,3,62,294,0,15,86,0.00567914,0.10094014,0.56592696,0.47530372,0.73400050,1.19940435
51135,0,USVirginiaNottoway,Virginia,Nottoway,2020-07-17 19:54:06.035794,2020-03-30 00:00:00.000000,0.02370532,0.46356598,2.14195022,3,70,326,0,18,94,0.00554619,0.12027019,0.61996801,0.47965342,0.72052926,1.20215724
51135,0,USVirginiaNottoway,Virginia,Nottoway,2020-07-17 19:54:06.035794,2020-03-31 00:00:00.000000,0.02489022,0.50531784,2.32178650,3,76,353,0,18,103,0.00559528,0.12017707,0.67847920,0.47461293,0.70750673,1.19842053
51135,0,USVirginiaNottoway,Virginia,Nottoway,2020-07-17 19:54:06.035794,2020-04-01 00:00:00.000000,0.02504473,0.54114192,2.52652014,3,82,384,0,21,112,0.00553691,0.14399894,0.74172635,0.46868666,0.70917687,1.21899572
51135,0,USVirginiaNottoway,Virginia,Nottoway,2020-07-17 19:54:06.035794,2020-04-02 00:00:00.000000,0.02670754,0.57018083,2.74620839,4,86,418,0,22,124,0.00585290,0.14585808,0.81767687,0.46492551,0.70920871,1.28352823
51135,0,USVirginiaNottoway,Virginia,Nottoway,2020-07-17 19:54:06.035794,2020-04-03 00:00:00.000000,0.02771754,0.62132073,2.98023780,4,94,453,0,26,134,0.00578454,0.17205647,0.88567817,0.45702516,0.71196638,1.31367991
51135,0,USVirginiaNottoway,Virginia,Nottoway,2020-07-17 19:54:06.035794,2020-04-04 00:00:00.000000,0.02924536,0.66767931,3.24038182,4,101,493,0,27,145,0.00644782,0.17765567,0.95470460,0.44504657,0.70747430,1.32354398
51135,0,USVirginiaNottoway,Virginia,Nottoway,2020-07-17 19:54:06.035794,2020-04-05 00:00:00.000000,0.03043196,0.73332698,3.54641709,4,111,540,0,31,156,0.00639420,0.20682441,1.02984429,0.44407875,0.70501781,1.34964724
51135,0,USVirginiaNottoway,Virginia,Nottoway,2020-07-17 19:54:06.035794,2020-04-06 00:00:00.000000,0.03152074,0.79965159,3.85171482,4,121,586,1,32,170,0.00689271,0.21312028,1.12060700,0.44362273,0.70315672,1.35423066
51135,0,USVirginiaNottoway,Virginia,Nottoway,2020-07-17 19:54:06.035794,2020-04-07 00:00:00.000000,0.03172799,0.87800901,4.15250490,4,133,632,1,37,186,0.00694358,0.24729767,1.22681509,0.43251758,0.71022353,1.35759404
51135,0,USVirginiaNottoway,Virginia,Nottoway,2020-07-17 19:54:06.035794,2020-04-08 00:00:00.000000,0.03293273,0.92185815,4.46054730,5,140,679,1,39,203,0.00721263,0.26183415,1.33598121,0.41633725,0.70894395,1.36001048
51135,0,USVirginiaNottoway,Virginia,Nottoway,2020-07-17 19:54:06.035794,2020-04-09 00:00:00.000000,0.03344274,1.05383635,4.80035771,5,160,731,1,44,220,0.00735914,0.28963905,1.44732496,0.40236698,0.70669799,1.36178456
51135,0,USVirginiaNottoway,Virginia,Nottoway,2020-07-17 19:54:06.035794,2020-04-10 00:00:00.000000,0.03508434,1.08590085,5.21760490,5,165,794,1,47,237,0.00765178,0.31120366,1.55732557,0.39700294,0.71211960,1.36336973
51135,0,USVirginiaNottoway,Virginia,Nottoway,2020-07-17 19:54:06.035794,2020-04-11 00:00:00.000000,0.03550706,1.26799022,5.56210986,5,193,847,1,51,254,0.00778833,0.33487338,1.67024674,0.37639410,0.71236849,1.37279456
51135,0,USVirginiaNottoway,Virginia,Nottoway,2020-07-17 19:54:06.035794,2020-04-12 00:00:00.000000,0.03773019,1.28912273,5.90948854,5,196,900,1,54,274,0.00811842,0.35465034,1.80418759,0.37080006,0.71472746,1.37619924
51135,0,USVirginiaNottoway,Virginia,Nottoway,2020-07-17 19:54:06.035794,2020-04-13 00:00:00.000000,0.03775194,1.52142825,6.38873599,5,231,973,1,58,295,0.00827675,0.38722770,1.93901429,0.35936760,0.71541837,1.40622293
51135,0,USVirginiaNottoway,Virginia,Nottoway,2020-07-17 19:54:06.035794,2020-04-14 00:00:00.000000,0.04011457,1.52873435,7.01936264,6,232,1069,1,62,316,0.00863045,0.40975202,2.07907425,0.35860894,0.71350070,1.49144793
51135,0,USVirginiaNottoway,Virginia,Nottoway,2020-07-17 19:54:06.035794,2020-04-15 00:00:00.000000,0.04013729,1.82525259,7.70511374,6,278,1173,1,69,340,0.00880030,0.45624039,2.23766440,0.35853365,0.72857995,1.60545927
51135,0,USVirginiaNottoway,Virginia,Nottoway,2020-07-17 19:54:06.035794,2020-04-16 00:00:00.000000,0.04264076,1.83716875,8.44433991,6,279,1286,1,75,368,0.00917584,0.49526013,2.41887903,0.35627962,0.73630849,1.67303656
51135,0,USVirginiaNottoway,Virginia,Nottoway,2020-07-17 19:54:06.035794,2020-04-17 00:00:00.000000,0.04264913,2.09919859,9.23231159,6,319,1406,1,81,401,0.00935476,0.53742074,2.63870445,0.35651856,0.74299180,1.71458094
51135,0,USVirginiaNottoway,Virginia,Nottoway,2020-07-17 19:54:06.035794,2020-04-18 00:00:00.000000,0.04528754,2.23817237,10.06941137,6,340,1533,1,88,430,0.00975167,0.58374757,2.82453632,0.37339434,0.74298772,1.71472563
51135,0,USVirginiaNottoway,Virginia,Nottoway,2020-07-17 19:54:06.035794,2020-04-19 00:00:00.000000,0.04524209,2.44890591,10.96343254,6,373,1669,1,94,471,0.00993479,0.62172120,3.09307433,0.37639969,0.73752487,1.66956956
51135,0,USVirginiaNottoway,Virginia,Nottoway,2020-07-17 19:54:06.035794,2020-04-20 00:00:00.000000,0.04799301,2.65309966,11.92543628,7,404,1816,1,102,515,0.01034986,0.67199125,3.38476915,0.37086053,0.74260157,1.64067189
51135,0,USVirginiaNottoway,Virginia,Nottoway,2020-07-17 19:54:06.035794,2020-04-21 00:00:00.000000,0.04796874,2.87438228,12.96949683,7,437,1975,1,109,563,0.01052607,0.71920980,3.70087386,0.36967368,0.74865619,1.61939123
51135,0,USVirginiaNottoway,Virginia,Nottoway,2020-07-17 19:54:06.035794,2020-04-22 00:00:00.000000,0.05137734,3.12078303,14.11133715,7,475,2149,1,117,615,0.01095635,0.77350648,4.04275324,0.36859344,0.75778617,1.67851658
51135,0,USVirginiaNottoway,Virginia,Nottoway,2020-07-17 19:54:06.035794,2020-04-23 00:00:00.000000,0.05109733,3.35204563,15.35619180,7,510,2339,1,127,675,0.01112456,0.83411638,4.43287902,0.37324228,0.77966019,1.69765147
51135,0,USVirginiaNottoway,Virginia,Nottoway,2020-07-17 19:54:06.035794,2020-04-24 00:00:00.000000,0.05519253,3.64379759,16.53007788,8,555,2517,1,142,741,0.01159339,0.93406908,4.87002413,0.38359081,0.79593886,1.72431721
51135,0,USVirginiaNottoway,Virginia,Nottoway,2020-07-17 19:54:06.035794,2020-04-25 00:00:00.000000,0.05487936,3.97649187,17.75850123,8,605,2704,1,153,814,0.01180629,1.00531517,5.34914764,0.40453015,0.82986620,1.74372625
51135,0,USVirginiaNottoway,Virginia,Nottoway,2020-07-17 19:54:06.035794,2020-04-26 00:00:00.000000,0.05964363,4.37154063,19.04801490,9,665,2901,1,167,894,0.01238789,1.09847669,5.87097282,0.40356596,0.85059580,1.76667368
51135,0,USVirginiaNottoway,Virginia,Nottoway,2020-07-17 19:54:06.035794,2020-04-27 00:00:00.000000,0.06006855,4.88779786,20.37389374,9,744,3103,1,178,971,0.01276653,1.17270845,6.37813699,0.41252941,0.86140990,1.77553185
51135,0,USVirginiaNottoway,Virginia,Nottoway,2020-07-17 19:54:06.035794,2020-04-28 00:00:00.000000,0.06517565,5.16401667,21.76246265,9,786,3314,2,194,1043,0.01354502,1.27969330,6.85050655,0.40529680,0.86419535,1.78066030
51135,0,USVirginiaNottoway,Virginia,Nottoway,2020-07-17 19:54:06.035794,2020-04-29 00:00:00.000000,0.06760005,5.86496735,23.62763556,10,893,3598,2,209,1119,0.01422131,1.37626760,7.35184581,0.40407499,0.86742256,1.78446552
51135,0,USVirginiaNottoway,Virginia,Nottoway,2020-07-17 19:54:06.035794,2020-04-30 00:00:00.000000,0.07269961,6.05551262,25.63146681,11,922,3904,2,223,1201,0.01526349,1.47055151,7.88477815,0.40186141,0.87201843,1.81376122
51135,0,USVirginiaNottoway,Virginia,Nottoway,2020-07-17 19:54:06.035794,2020-05-01 00:00:00.000000,0.07508291,6.71645525,27.94460046,11,1023,4256,2,244,1287,0.01632635,1.60241303,8.45341949,0.41001314,0.87117608,1.83587399
51135,0,USVirginiaNottoway,Virginia,Nottoway,2020-07-17 19:54:06.035794,2020-05-02 00:00:00.000000,0.08446165,7.11032654,30.66901582,12,1083,4671,2,260,1380,0.01758997,1.70725307,9.06268355,0.41697823,0.87174479,1.88058338
51135,0,USVirginiaNottoway,Virginia,Nottoway,2020-07-17 19:54:06.035794,2020-05-03 00:00:00.000000,0.08492702,8.22697417,33.55423916,12,1253,5110,2,288,1479,0.01887894,1.89199844,9.71576654,0.42122751,0.87362290,1.92726684
51135,0,USVirginiaNottoway,Virginia,Nottoway,2020-07-17 19:54:06.035794,2020-05-04 00:00:00.000000,0.09764091,8.54103483,36.58311889,14,1300,5572,3,315,1586,0.02041229,2.07323067,10.41297640,0.42585936,0.87380749,1.94454214
51135,0,USVirginiaNottoway,Virginia,Nottoway,2020-07-17 19:54:06.035794,2020-05-05 00:00:00.000000,0.09586795,9.85393505,39.11015904,14,1500,5957,3,340,1698,0.02135987,2.23695665,11.15307911,0.43045101,0.87997974,1.96225621
51135,0,USVirginiaNottoway,Virginia,Nottoway,2020-07-17 19:54:06.035794,2020-05-06 00:00:00.000000,0.11118507,10.17987671,41.88345898,16,1550,6379,3,368,1817,0.02293809,2.42110643,11.93490891,0.43468397,0.88655264,1.97934103
51135,0,USVirginiaNottoway,Virginia,Nottoway,2020-07-17 19:54:06.035794,2020-05-07 00:00:00.000000,0.10754095,12.04953759,44.76273212,16,1835,6818,3,405,1943,0.02308519,2.66088340,12.75859778,0.43755376,0.90263460,2.00558216
51135,0,USVirginiaNottoway,Virginia,Nottoway,2020-07-17 19:54:06.035794,2020-05-08 00:00:00.000000,0.12465039,12.37170570,47.74237403,18,1884,7272,3,435,2075,0.02539884,2.85915518,13.62668730,0.43985094,0.90420761,2.09993135
51135,0,USVirginiaNottoway,Virginia,Nottoway,2020-07-17 19:54:06.035794,2020-05-09 00:00:00.000000,0.12007237,14.68205088,50.80035800,18,2236,7737,3,484,2215,0.02499237,3.18307766,14.54431562,0.45357283,0.91341546,2.11297403
51135,0,USVirginiaNottoway,Virginia,Nottoway,2020-07-17 19:54:06.035794,2020-05-10 00:00:00.000000,0.13644777,14.93893586,53.90434261,20,2275,8210,4,521,2363,0.02794904,3.42484932,15.51646370,0.47047962,0.91353391,2.20629830
51135,0,USVirginiaNottoway,Virginia,Nottoway,2020-07-17 19:54:06.035794,2020-05-11 00:00:00.000000,0.13666584,17.20749329,57.45991928,20,2621,8752,4,578,2519,0.02719869,3.79584486,16.54297561,0.45774172,0.95720026,2.26634622
51135,0,USVirginiaNottoway,Virginia,Nottoway,2020-07-17 19:54:06.035794,2020-05-12 00:00:00.000000,0.14863097,17.47425990,61.03396879,22,2661,9296,4,613,2683,0.03051595,4.02467496,17.61755360,0.46150509,0.97351109,2.29256497
51135,0,USVirginiaNottoway,Virginia,Nottoway,2020-07-17 19:54:06.035794,2020-05-13 00:00:00.000000,0.15497726,20.19042078,64.51758100,23,3075,9827,4,699,2853,0.03014023,4.59027800,18.73057737,0.47004583,0.96998896,2.31694648
51135,0,USVirginiaNottoway,Virginia,Nottoway,2020-07-17 19:54:06.035794,2020-05-14 00:00:00.000000,0.16361731,19.44075747,67.84408510,24,2961,10334,5,744,3026,0.03320115,4.88959905,19.87104047,0.47092680,0.96386271,2.33929160
51135,0,USVirginiaNottoway,Virginia,Nottoway,2020-07-17 19:54:06.035794,2020-05-15 00:00:00.000000,0.16841853,23.12312170,70.94650500,25,3522,10806,5,821,3202,0.03409293,5.39637089,21.02662907,0.47174039,1.01056478,2.36790642
51135,0,USVirginiaNottoway,Virginia,Nottoway,2020-07-17 19:54:06.035794,2020-05-16 00:00:00.000000,0.17725250,21.88252195,72.30747463,26,3333,11013,5,850,3378,0.03638461,5.58426064,22.18277073,0.46974857,1.00713397,2.43051725
51135,0,USVirginiaNottoway,Virginia,Nottoway,2020-07-17 19:54:06.035794,2020-05-17 00:00:00.000000,0.18304502,26.36924355,72.44350965,27,4016,11034,5,941,3552,0.03759467,6.17967282,23.32390364,0.45689657,1.01243874,2.59096146
51135,0,USVirginiaNottoway,Virginia,Nottoway,2020-07-17 19:54:06.035794,2020-05-18 00:00:00.000000,0.19212329,24.27074956,72.56040691,29,3696,11052,6,971,3722,0.04028330,6.37528566,24.43725956,0.45672222,1.01940553,2.66138250
51135,0,USVirginiaNottoway,Virginia,Nottoway,2020-07-17 19:54:06.035794,2020-05-19 00:00:00.000000,0.19916103,29.87421564,74.87472987,30,4550,11404,6,1070,3886,0.04085609,7.02896828,25.51350540,0.43640151,1.02331740,2.52819081
51135,0,USVirginiaNottoway,Virginia,Nottoway,2020-07-17 19:54:06.035794,2020-05-20 00:00:00.000000,0.20877749,27.55080064,77.04811526,31,4196,11735,6,1102,4042,0.04372492,7.23762826,26.54166011,0.43756953,1.03599722,2.53298014
51135,0,USVirginiaNottoway,Virginia,Nottoway,2020-07-17 19:54:06.035794,2020-05-21 00:00:00.000000,0.21749471,32.89923291,79.06724977,33,5011,12043,6,1190,4173,0.04448745,7.81264622,27.40115944,0.43960974,1.05482349,2.56501985
51135,0,USVirginiaNottoway,Virginia,Nottoway,2020-07-17 19:54:06.035794,2020-05-22 00:00:00.000000,0.22849579,28.81491264,79.63846124,34,4389,12130,7,1234,4295,0.04766487,8.10758835,28.20142357,0.44327922,1.09877929,2.59230158
51135,0,USVirginiaNottoway,Virginia,Nottoway,2020-07-17 19:54:06.035794,2020-05-23 00:00:00.000000,0.24046681,35.57823933,79.57040834,36,5419,12120,7,1380,4407,0.04872758,9.06527091,28.93788641,0.44313649,1.13650050,2.74972210
51135,0,USVirginiaNottoway,Virginia,Nottoway,2020-07-17 19:54:06.035794,2020-05-24 00:00:00.000000,0.25512749,31.09459554,79.89636395,38,4736,12169,7,1400,4509,0.05251463,9.19196063,29.60719482,0.42912156,1.14117210,2.79463048
51135,0,USVirginiaNottoway,Virginia,Nottoway,2020-07-17 19:54:06.035794,2020-05-25 00:00:00.000000,0.26935627,36.72966406,80.09528282,41,5594,12200,8,1532,4601,0.05396603,10.05896819,30.20695548,0.40894906,1.15722358,2.82453512
51135,0,USVirginiaNottoway,Virginia,Nottoway,2020-07-17 19:54:06.035794,2020-05-26 00:00:00.000000,0.29160752,31.91793890,79.74232164,44,4861,12146,8,1539,4740,0.05907089,10.10410340,31.12410802,0.39289915,1.16735227,2.83486479
51135,0,USVirginiaNottoway,Virginia,Nottoway,2020-07-17 19:54:06.035794,2020-05-27 00:00:00.000000,0.30482846,36.31362251,79.52584501,46,5531,12113,9,1650,4904,0.06157168,10.83732803,32.20126311,0.38501093,1.18456393,2.88463757
51135,0,USVirginiaNottoway,Virginia,Nottoway,2020-07-17 19:54:06.035794,2020-05-28 00:00:00.000000,0.33199492,32.31260903,79.73251204,50,4921,12144,10,1647,5101,0.06852323,10.81682558,33.49111126,0.38089853,1.17368571,3.00007607
51135,0,USVirginiaNottoway,Virginia,Nottoway,2020-07-17 19:54:06.035794,2020-05-29 00:00:00.000000,0.32385665,35.09164633,80.57288498,49,5345,12272,10,1722,5228,0.06884035,11.31003717,34.32428329,0.37884376,1.07622119,3.18857277
51135,0,USVirginiaNottoway,Virginia,Nottoway,2020-07-17 19:54:06.035794,2020-05-30 00:00:00.000000,0.35162781,32.29030912,80.17612913,53,4918,12212,11,1741,5348,0.07705233,11.43576654,35.11290861,0.37570033,1.07707515,3.31662478
51135,0,USVirginiaNottoway,Virginia,Nottoway,2020-07-17 19:54:06.035794,2020-05-31 00:00:00.000000,0.33402698,33.28316254,79.21804532,50,5069,12066,11,1825,5518,0.07528671,11.98315564,36.22735574,0.36498580,1.09147875,3.46057206
51135,0,USVirginiaNottoway,Virginia,Nottoway,2020-07-17 19:54:06.035794,2020-06-01 00:00:00.000000,0.37022099,31.57168858,78.20562328,56,4808,11912,12,1866,5730,0.08146572,12.25116776,37.62006448,0.36187705,1.07192570,3.55034358
51135,0,USVirginiaNottoway,Virginia,Nottoway,2020-07-17 19:54:06.035794,2020-06-02 00:00:00.000000,0.34682495,32.19266774,77.28809734,52,4903,11772,12,1919,5946,0.08031957,12.60102195,39.03838705,0.36324421,1.08621722,3.60568944
51135,0,USVirginiaNottoway,Virginia,Nottoway,2020-07-17 19:54:06.035794,2020-06-03 00:00:00.000000,0.39025768,31.05037776,77.36341312,59,4729,11783,12,1979,6141,0.08464278,12.99554943,40.31768907,0.37945039,1.10350181,3.66290401
51135,0,USVirginiaNottoway,Virginia,Nottoway,2020-07-17 19:54:06.035794,2020-06-04 00:00:00.000000,0.36888391,31.46312469,77.42727167,56,4792,11793,12,2003,6313,0.08453316,13.15447024,41.44890771,0.37830799,1.10644227,3.61603401
51135,0,USVirginiaNottoway,Virginia,Nottoway,2020-07-17 19:54:06.035794,2020-06-05 00:00:00.000000,0.41168048,29.99499821,77.70093374,62,4568,11835,13,2065,6479,0.08907055,13.56026193,42.54062900,0.36435030,1.09217528,3.60606872
51135,0,USVirginiaNottoway,Virginia,Nottoway,2020-07-17 19:54:06.035794,2020-06-06 00:00:00.000000,0.38594224,29.41085401,77.99635720,58,4479,11880,13,2117,6626,0.08874722,13.90116858,43.50389227,0.33283445,1.06795107,3.66411409
51135,0,USVirginiaNottoway,Virginia,Nottoway,2020-07-17 19:54:06.035794,2020-06-07 00:00:00.000000,0.43133100,28.13186258,78.21708231,65,4285,11914,14,2099,6752,0.09408590,13.78456114,44.33241078,0.33697804,1.07046920,3.72387497
51135,0,USVirginiaNottoway,Virginia,Nottoway,2020-07-17 19:54:06.035794,2020-06-08 00:00:00.000000,0.39959151,27.64096033,78.37594787,60,4210,11938,14,2146,6855,0.09286857,14.09333797,45.00754214,0.34383199,1.06808509,3.76108857
51135,0,USVirginiaNottoway,Virginia,Nottoway,2020-07-17 19:54:06.035794,2020-06-09 00:00:00.000000,0.43884221,26.72682382,78.47764634,66,4071,11953,15,2120,6936,0.09921548,13.92259783,45.53698043,0.34935450,1.05158107,3.96569345
51135,0,USVirginiaNottoway,Virginia,Nottoway,2020-07-17 19:54:06.035794,2020-06-10 00:00:00.000000,0.41167334,25.77974403,78.52785187,62,3926,11961,14,2135,6996,0.09690750,14.02233509,45.93023782,0.34837067,1.02070693,4.03889254
51135,0,USVirginiaNottoway,Virginia,Nottoway,2020-07-17 19:54:06.035794,2020-06-11 00:00:00.000000,0.44525831,25.06570662,78.54412378,67,3818,11963,15,2091,7036,0.10249574,13.73367550,46.19788085,0.34823607,1.00018056,4.09698021
51135,0,USVirginiaNottoway,Virginia,Nottoway,2020-07-17 19:54:06.035794,2020-06-12 00:00:00.000000,0.42062654,24.40103578,78.17121343,64,3716,11907,15,2086,7060,0.09960399,13.69618806,46.35097106,0.37015041,1.00813163,4.06956576
51135,0,USVirginiaNottoway,Virginia,Nottoway,2020-07-17 19:54:06.035794,2020-06-13 00:00:00.000000,0.44931102,23.65476407,77.71568099,68,3603,11837,15,2137,7067,0.10372373,14.03364718,46.40045172,0.37276159,1.00400704,3.98035489
51135,0,USVirginiaNottoway,Virginia,Nottoway,2020-07-17 19:54:06.035794,2020-06-14 00:00:00.000000,0.42412242,23.15416527,77.23194511,64,3526,11763,15,2099,7011,0.10177517,13.78034512,46.03064837,0.36302791,0.98238636,3.95966055
51135,0,USVirginiaNottoway,Virginia,Nottoway,2020-07-17 19:54:06.035794,2020-06-15 00:00:00.000000,0.45003885,22.14923948,76.43699835,68,3373,11642,15,2116,6987,0.10455252,13.89344854,45.87556665,0.35834511,0.95630186,3.96328960
51135,0,USVirginiaNottoway,Virginia,Nottoway,2020-07-17 19:54:06.035794,2020-06-16 00:00:00.000000,0.42180883,21.18738202,75.58676470,64,3227,11513,15,2112,7003,0.10252815,13.87018529,45.97573503,0.35954277,0.93152373,3.96701788
51135,0,USVirginiaNottoway,Virginia,Nottoway,2020-07-17 19:54:06.035794,2020-06-17 00:00:00.000000,0.44702054,20.61455978,74.72069809,68,3140,11381,16,2120,7010,0.10519719,13.92188395,46.02531246,0.36024516,0.92047040,3.97219204
51135,0,USVirginiaNottoway,Virginia,Nottoway,2020-07-17 19:54:06.035794,2020-06-18 00:00:00.000000,0.41403202,20.12749529,73.84031393,63,3065,11247,15,2135,7011,0.10223327,14.01905182,46.02864905,0.35489439,0.90340326,3.98227724
51135,0,USVirginiaNottoway,Virginia,Nottoway,2020-07-17 19:54:06.035794,2020-06-19 00:00:00.000000,0.43718346,19.54791960,73.16489585,66,2977,11144,15,2090,7005,0.10365181,13.72663382,45.98967270,0.34754682,0.88403332,4.01662381
51135,0,USVirginiaNottoway,Virginia,Nottoway,2020-07-17 19:54:06.035794,2020-06-20 00:00:00.000000,0.39930229,19.28565006,72.48185314,60,2937,11040,15,2117,6993,0.10017162,13.90469803,45.91185284,0.33850634,0.85527691,4.10883781
51135,0,USVirginiaNottoway,Virginia,Nottoway,2020-07-17 19:54:06.035794,2020-06-21 00:00:00.000000,0.41960404,18.87538099,71.77856717,63,2875,10933,15,2080,7011,0.10030574,13.66174595,46.02929754,0.33602907,0.84884349,4.35017843
51135,0,USVirginiaNottoway,Virginia,Nottoway,2020-07-17 19:54:06.035794,2020-06-22 00:00:00.000000,0.38115928,18.55033058,71.05884657,58,2825,10823,14,2105,7057,0.09696381,13.82585898,46.33487918,0.33506065,0.84792761,4.62177475
51135,0,USVirginiaNottoway,Virginia,Nottoway,2020-07-17 19:54:06.035794,2020-06-23 00:00:00.000000,0.39802811,18.18273072,70.32515829,60,2769,10711,14,2091,7109,0.09600915,13.73173581,46.67292287,0.33456604,0.84469968,4.90423364
51135,0,USVirginiaNottoway,Virginia,Nottoway,2020-07-17 19:54:06.035794,2020-06-24 00:00:00.000000,0.36121248,18.03827352,69.57990591,55,2747,10598,14,2062,7156,0.09275675,13.53863378,46.98447860,0.33381856,0.82883298,4.99056131
51135,0,USVirginiaNottoway,Virginia,Nottoway,2020-07-17 19:54:06.035794,2020-06-25 00:00:00.000000,0.37108295,17.73725099,68.82623133,56,2701,10483,13,2039,7200,0.09139384,13.38937191,47.27034412,0.33994415,0.82112866,5.19168612
51135,0,USVirginiaNottoway,Virginia,Nottoway,2020-07-17 19:54:06.035794,2020-06-26 00:00:00.000000,0.33975951,17.51525787,68.06885179,51,2667,10368,13,2040,7239,0.08687349,13.39708877,47.53139105,0.35022891,0.82070263,5.37799291
51135,0,USVirginiaNottoway,Virginia,Nottoway,2020-07-17 19:54:06.035794,2020-06-27 00:00:00.000000,0.34799249,17.16994162,67.31167359,53,2615,10252,13,2041,7276,0.08653991,13.40335497,47.76862890,0.33928463,0.83597725,5.40892036
51135,0,USVirginiaNottoway,Virginia,Nottoway,2020-07-17 19:54:06.035794,2020-06-28 00:00:00.000000,0.32395908,16.97362343,66.71782132,49,2585,10162,12,2032,7308,0.07943013,13.34242528,47.98316351,0.32954589,0.84591915,5.42068433
51135,0,USVirginiaNottoway,Virginia,Nottoway,2020-07-17 19:54:06.035794,2020-06-29 00:00:00.000000,0.32974795,17.05264251,66.12996846,50,2597,10072,12,2028,7338,0.08182328,13.31674367,48.17592585,0.31979150,0.85349015,5.42453661
51135,0,USVirginiaNottoway,Virginia,Nottoway,2020-07-17 19:54:06.035794,2020-06-30 00:00:00.000000,0.31297139,16.73558810,65.51878806,47,2549,9979,11,2027,7364,0.07241439,13.30810127,48.34762393,0.31730260,0.86457545,5.42569719
51135,0,USVirginiaNottoway,Virginia,Nottoway,2020-07-17 19:54:06.035794,2020-07-01 00:00:00.000000,0.30893536,16.74995807,64.88965511,47,2551,9883,11,2020,7387,0.07717658,13.26259931,48.49889453,0.31589150,0.87382332,5.42565717
51135,0,USVirginiaNottoway,Virginia,Nottoway,2020-07-17 19:54:06.035794,2020-07-02 00:00:00.000000,0.30396948,16.40767210,64.24548467,46,2499,9785,10,2019,7407,0.06945402,13.25763128,48.63038067,0.31622751,0.88210194,5.44389840
51135,0,USVirginiaNottoway,Virginia,Nottoway,2020-07-17 19:54:06.035794,2020-07-03 00:00:00.000000,0.30501227,16.23258365,63.58836498,46,2472,9685,10,2004,7383,0.07160603,13.15889525,48.47447907,0.32346033,0.88768214,5.46338122
51135,0,USVirginiaNottoway,Virginia,Nottoway,2020-07-17 19:54:06.035794,2020-07-04 00:00:00.000000,0.29195726,15.99789937,62.91766654,44,2436,9583,10,1974,7343,0.06607245,12.96169167,48.21068014,0.32699714,0.89840583,5.45390339
51135,0,USVirginiaNottoway,Virginia,Nottoway,2020-07-17 19:54:06.035794,2020-07-05 00:00:00.000000,0.29635105,15.69926750,62.22880934,45,2391,9478,10,1972,7300,0.06579655,12.94783444,47.93011003,0.32585579,0.92088185,5.45416278
51135,0,USVirginiaNottoway,Virginia,Nottoway,2020-07-17 19:54:06.035794,2020-07-06 00:00:00.000000,0.27172891,15.31599930,61.53282165,41,2332,9372,9,1970,7255,0.06424618,12.93512634,47.63410044,0.32738876,0.93626306,5.47804394
51135,0,USVirginiaNottoway,Virginia,Nottoway,2020-07-17 19:54:06.035794,2020-07-07 00:00:00.000000,0.28110598,15.43142152,60.83356167,42,2350,9266,9,1968,7208,0.06369433,12.92184319,47.32393021,0.32856100,0.94036818,5.50265525
51135,0,USVirginiaNottoway,Virginia,Nottoway,2020-07-17 19:54:06.035794,2020-07-08 00:00:00.000000,0.24951587,15.08481682,60.13242919,38,2297,9159,9,1966,7159,0.06086530,12.90776892,47.00082411,0.32964177,0.94605649,5.52078747
51135,0,USVirginiaNottoway,Virginia,Nottoway,2020-07-17 19:54:06.035794,2020-07-09 00:00:00.000000,0.26619598,15.35469366,59.43054659,40,2338,9052,9,1963,7108,0.05920282,12.89305083,46.66595065,0.33046322,0.94980207,5.53276566
51135,0,USVirginiaNottoway,Virginia,Nottoway,2020-07-17 19:54:06.035794,2020-07-10 00:00:00.000000,0.25963492,15.18462452,58.72888942,39,2312,8945,8,1961,7055,0.05612365,12.87766961,46.32042052,0.33101937,0.95219551,5.54028945
51135,0,USVirginiaNottoway,Virginia,Nottoway,2020-07-17 19:54:06.035794,2020-07-11 00:00:00.000000,0.25355398,15.49359490,58.02831572,38,2359,8838,8,1959,7001,0.05485987,12.86182509,45.96528630,0.33136970,0.95369572,5.54488725
51135,0,USVirginiaNottoway,Virginia,Nottoway,2020-07-17 19:54:06.035794,2020-07-12 00:00:00.000000,0.24694327,14.96801373,57.32958714,37,2279,8732,7,1956,6946,0.05191028,12.84550283,45.60154332,0.33158086,0.95462473,5.54765272
51135,0,USVirginiaNottoway,Virginia,Nottoway,2020-07-17 19:54:06.035794,2020-07-13 00:00:00.000000,0.23777027,15.01875209,56.63338462,36,2287,8626,7,1954,6889,0.05082171,12.82886312,45.23013134,0.33170485,0.95519571,5.54930062
51135,0,USVirginiaNottoway,Virginia,Nottoway,2020-07-17 19:54:06.035794,2020-07-14 00:00:00.000000,0.22900039,14.73504107,55.94031971,34,2244,8520,7,1951,6831,0.04789494,12.81186958,44.85193651,0.33177653,0.95554501,5.55027719
51135,0,USVirginiaNottoway,Virginia,Nottoway,2020-07-17 19:54:06.035794,2020-07-15 00:00:00.000000,0.22060473,14.84092753,55.25094295,33,2260,8415,7,1947,6773,0.04737453,12.78318366,44.46779345,0.33181762,0.95575810,5.55085404
51135,0,USVirginiaNottoway,Virginia,Nottoway,2020-07-17 19:54:06.035794,2020-07-16 00:00:00.000000,0.21255859,14.52495902,54.56575031,32,2212,8311,6,1942,6714,0.04412528,12.75491481,44.07848731,0.33184104,0.95588787,5.55119412
51135,0,USVirginiaNottoway,Virginia,Nottoway,2020-07-17 19:54:06.035794,2020-07-17 00:00:00.000000,0.20484066,14.70591645,53.88518843,31,2240,8207,6,1938,6654,0.04424988,12.72792046,43.68475588,0.33185436,0.95596681,5.55139439
51135,0,USVirginiaNottoway,Virginia,Nottoway,2020-07-17 19:54:06.035794,2020-07-18 00:00:00.000000,0.19743234,14.35431544,53.20965908,30,2186,8104,6,1934,6593,0.04061914,12.70206696,43.28729161,0.33186192,0.95601480,5.55151225
51135,0,USVirginiaNottoway,Virginia,Nottoway,2020-07-17 19:54:06.035794,2020-07-19 00:00:00.000000,0.19031717,14.50359464,52.53952298,28,2209,8002,6,1930,6532,0.04138756,12.67723282,42.88674371,0.33186621,0.95604397,5.55158159
51135,0,USVirginiaNottoway,Virginia,Nottoway,2020-07-17 19:54:06.035794,2020-07-20 00:00:00.000000,0.18348039,14.24550667,51.87510333,27,2169,7901,5,1927,6471,0.03737052,12.65330812,42.48372009,0.33186864,0.95606169,5.55162237
51135,0,USVirginiaNottoway,Virginia,Nottoway,2020-07-17 19:54:06.035794,2020-07-21 00:00:00.000000,0.17690863,14.44538984,51.21668881,26,2200,7801,5,1923,6409,0.03874484,12.63019387,42.07878940,0.33187002,0.95607245,5.55164635
51135,0,USVirginiaNottoway,Virginia,Nottoway,2020-07-17 19:54:06.035794,2020-07-22 00:00:00.000000,0.17058964,14.18921635,50.56453649,25,2161,7701,5,1920,6347,0.03437041,12.60780126,41.67248289,0.33187080,0.95607899,5.55166044
51135,0,USVirginiaNottoway,Virginia,Nottoway,2020-07-17 19:54:06.035794,2020-07-23 00:00:00.000000,0.16451209,14.39252380,49.93707357,25,2192,7606,5,1917,6285,0.03629148,12.58605082,41.26529636,0.33187124,0.95608296,5.55166874
51135,0,USVirginiaNottoway,Virginia,Nottoway,2020-07-17 19:54:06.035794,2020-07-24 00:00:00.000000,0.15866544,14.14775512,49.32422688,24,2154,7513,4,1913,6223,0.03157857,12.56487162,40.85769195,0.33187149,0.95608538,5.55167361
51135,0,USVirginiaNottoway,Virginia,Nottoway,2020-07-17 19:54:06.035794,2020-07-25 00:00:00.000000,0.15303982,14.43446428,48.71846220,23,2198,7420,5,1910,6161,0.03390237,12.54420051,40.45009990,0.33187163,0.95608684,5.55167648
51135,0,USVirginiaNottoway,Virginia,Nottoway,2020-07-17 19:54:06.035794,2020-07-26 00:00:00.000000,0.14754029,14.16407232,48.11987176,22,2157,7329,4,1907,6099,0.02890584,12.52398133,40.04292027,0.33187171,0.95608773,5.55167816
51135,0,USVirginiaNottoway,Virginia,Nottoway,2020-07-17 19:54:06.035794,2020-07-27 00:00:00.000000,0.14138544,14.30733208,47.52853249,21,2179,7239,4,1904,6037,0.03163362,12.50416421,39.63652457,0.33187176,0.95608827,5.55167915
51135,0,USVirginiaNottoway,Virginia,Nottoway,2020-07-17 19:54:06.035794,2020-07-28 00:00:00.000000,0.13549400,14.06742479,46.94450727,20,2142,7150,4,1901,5975,0.02648401,12.48470496,39.23125731,0.33187178,0.95608860,5.55167973
51135,0,USVirginiaNottoway,Virginia,Nottoway,2020-07-17 19:54:06.035794,2020-07-29 00:00:00.000000,0.12985523,14.25296890,46.36784606,19,2171,7062,4,1898,5914,0.02951866,12.46556440,38.82743754,0.33187180,0.95608880,5.55168008
