FIPS,HR_UID,nameid,province,region,analysisTime,dates,pointprevalence_025,pointprevalence_50,pointprevalence_975,pointinfections_025,pointinfections_50,pointinfections_975,pointinfectious_025,pointinfectious_50,pointinfectious_975,pointinfectiousprevalence_05,pointinfectiousprevalence_50,pointinfectiousprevalence_95,infectrate_025,infectrate_50,infectrate_975
29081,0,USMissouriHarrison,Missouri,Harrison,2020-07-18 09:24:38.689848,2020-03-09 00:00:00.000000,100.38800246,101.13979124,108.18346885,8384,8447,9035,8292,8351,8554,99.28432100,99.99124515,102.42159069,1.84398909,1.86149615,1.94837745
29081,0,USMissouriHarrison,Missouri,Harrison,2020-07-18 09:24:38.689848,2020-03-10 00:00:00.000000,99.25122836,99.95802972,103.16777938,8289,8348,8616,7958,8204,8270,95.28710836,98.22833248,99.02449449,1.84403578,1.86149519,1.94837742
29081,0,USMissouriHarrison,Missouri,Harrison,2020-07-18 09:24:38.689848,2020-03-11 00:00:00.000000,95.06565701,98.20333709,99.00409801,7939,8201,8268,7586,8100,8191,90.83328282,96.98871395,98.07247523,1.84410643,1.86149352,1.94837735
29081,0,USMissouriHarrison,Missouri,Harrison,2020-07-18 09:24:38.689848,2020-03-12 00:00:00.000000,90.63282663,96.97518281,98.06322805,7569,8099,8190,7230,8008,8113,86.57629690,95.88488221,97.13998697,1.84421321,1.86149058,1.94837716
29081,0,USMissouriHarrison,Missouri,Harrison,2020-07-18 09:24:38.689848,2020-03-13 00:00:00.000000,86.38651382,95.87238430,97.13114457,7215,8007,8112,6892,7917,8035,82.52680241,94.79399831,96.21612465,1.84437415,1.86148546,1.94837659
29081,0,USMissouriHarrison,Missouri,Harrison,2020-07-18 09:24:38.689848,2020-03-14 00:00:00.000000,82.34605467,94.78172156,96.20741879,6877,7916,8035,6570,7827,7959,78.66402178,93.71554474,95.30111071,1.84461557,1.86147652,1.94837485
29081,0,USMissouriHarrison,Missouri,Harrison,2020-07-18 09:24:38.689848,2020-03-15 00:00:00.000000,78.49175172,93.70341437,95.29249122,6555,7826,7958,6262,7738,7883,74.98315068,92.64936161,94.39479866,1.84497450,1.86146089,1.94836941
29081,0,USMissouriHarrison,Missouri,Harrison,2020-07-18 09:24:38.689848,2020-03-16 00:00:00.000000,74.81894494,92.63736981,94.38626157,6248,7737,7883,5969,7650,7808,71.47408947,91.59530832,93.49710602,1.84549933,1.86143366,1.94835208
29081,0,USMissouriHarrison,Missouri,Harrison,2020-07-18 09:24:38.689848,2020-03-17 00:00:00.000000,71.31756841,91.58345299,93.48865016,5956,7649,7808,5690,7563,7734,68.12941320,90.55324678,92.60795043,1.84624186,1.86138645,1.94829631
29081,0,USMissouriHarrison,Missouri,Harrison,2020-07-18 09:24:38.689848,2020-03-18 00:00:00.000000,67.98021685,90.54152633,92.59957500,5677,7562,7733,5423,7476,7661,64.94118768,89.52304057,91.72725071,1.84722185,1.86130597,1.94811570
29081,0,USMissouriHarrison,Missouri,Harrison,2020-07-18 09:24:38.689848,2020-03-19 00:00:00.000000,64.79897318,89.51145346,91.71895492,5412,7475,7660,5170,7391,7588,61.90218599,88.50455480,90.85492642,1.84813715,1.86117671,1.94752995
29081,0,USMissouriHarrison,Missouri,Harrison,2020-07-18 09:24:38.689848,2020-03-20 00:00:00.000000,61.76662662,88.49309952,90.84670952,5158,7390,7587,4928,7307,7516,59.00538802,87.49765615,89.99089791,1.84634402,1.86101465,1.94564320
29081,0,USMissouriHarrison,Missouri,Harrison,2020-07-18 09:24:38.689848,2020-03-21 00:00:00.000000,58.87617233,87.48633119,89.98275916,4917,7306,7515,4697,7224,7444,56.24415364,86.50221279,89.13508630,1.84647212,1.86108717,1.93972830
29081,0,USMissouriHarrison,Missouri,Harrison,2020-07-18 09:24:38.689848,2020-03-22 00:00:00.000000,56.12098477,86.49101667,89.12702495,4687,7223,7443,4477,7142,7373,53.61213330,85.51809438,88.28741345,1.83220982,1.86308738,1.92482530
29081,0,USMissouriHarrison,Missouri,Harrison,2020-07-18 09:24:38.689848,2020-03-23 00:00:00.000000,53.49472828,85.50702564,88.27942876,4467,7141,7373,4268,7061,7303,51.10328247,84.54517209,87.44780194,1.75440530,1.87210557,1.89250200
29081,0,USMissouriHarrison,Missouri,Harrison,2020-07-18 09:24:38.689848,2020-03-24 00:00:00.000000,50.99137157,84.53422927,87.43989319,4258,7060,7302,4068,6980,7234,48.71183640,83.58331854,86.61617513,1.61500962,1.83350242,1.90104790
29081,0,USMissouriHarrison,Missouri,Harrison,2020-07-18 09:24:38.689848,2020-03-25 00:00:00.000000,48.60516252,83.57250022,86.60834159,4059,6979,7233,3878,6901,7165,46.43230132,82.63240781,85.79245707,1.47053182,1.79311954,1.91610483
29081,0,USMissouriHarrison,Missouri,Harrison,2020-07-18 09:24:38.689848,2020-03-26 00:00:00.000000,46.33061939,82.62171257,85.78469802,3869,6900,7164,3696,6822,7097,44.25944008,81.69231541,84.97657255,1.37853886,1.73517966,1.91432348
29081,0,USMissouriHarrison,Missouri,Harrison,2020-07-18 09:24:38.689848,2020-03-27 00:00:00.000000,44.16251650,81.68174184,84.96888729,3688,6822,7096,3523,6745,7029,42.18826079,80.76291824,84.16844708,1.33587377,1.62216451,1.90383979
29081,0,USMissouriHarrison,Missouri,Harrison,2020-07-18 09:24:38.689848,2020-03-28 00:00:00.000000,42.09587287,80.75246497,84.16083491,3515,6744,7029,3358,6668,6962,40.21400507,79.84409464,83.36800687,1.31936816,1.47411527,1.88601717
29081,0,USMissouriHarrison,Missouri,Harrison,2020-07-18 09:24:38.689848,2020-03-29 00:00:00.000000,40.12594057,79.83376030,83.36046709,3351,6667,6962,3201,6592,6896,38.33213728,78.93572432,82.57517883,1.31428804,1.38611643,1.87200458
29081,0,USMissouriHarrison,Missouri,Harrison,2020-07-18 09:24:38.689848,2020-03-30 00:00:00.000000,38.24819387,78.92550754,82.56771075,3194,6591,6896,3051,6517,6831,36.53833399,78.03768834,81.78989056,1.31476890,1.35315398,1.87787445
29081,0,USMissouriHarrison,Missouri,Harrison,2020-07-18 09:24:38.689848,2020-03-31 00:00:00.000000,36.45831882,78.02758780,81.78249351,3044,6516,6830,2908,6443,6766,34.82847410,77.14986914,81.01207038,1.32037359,1.33557430,1.87543874
29081,0,USMissouriHarrison,Missouri,Harrison,2020-07-18 09:24:38.689848,2020-04-01 00:00:00.000000,34.75220335,77.13988351,81.00474367,2902,6442,6765,2772,6370,6701,33.19862939,76.27215048,80.24164724,1.31248506,1.33732651,1.84915089
29081,0,USMissouriHarrison,Missouri,Harrison,2020-07-18 09:24:38.689848,2020-04-02 00:00:00.000000,33.12592783,76.26227845,80.23439021,2766,6369,6701,2642,6297,6638,31.64505542,75.40441745,79.47855082,1.28692287,1.36890011,1.77798189
29081,0,USMissouriHarrison,Missouri,Harrison,2020-07-18 09:24:38.689848,2020-04-03 00:00:00.000000,31.57575603,75.39465773,79.47136280,2637,6296,6637,2519,6226,6574,30.16418301,74.54655644,78.72271143,1.25556000,1.42745314,1.69859912
29081,0,USMissouriHarrison,Missouri,Harrison,2020-07-18 09:24:38.689848,2020-04-04 00:00:00.000000,30.09812657,74.53690776,78.71559177,2513,6225,6574,2401,6155,6512,28.75260999,73.69845515,77.97406006,1.22418915,1.50805751,1.66119535
29081,0,USMissouriHarrison,Missouri,Harrison,2020-07-18 09:24:38.689848,2020-04-05 00:00:00.000000,28.68964475,73.68891624,77.96700811,2396,6154,6511,2289,6085,6450,27.40709341,72.86000254,77.23252834,1.19994664,1.58715190,1.65069538
29081,0,USMissouriHarrison,Missouri,Harrison,2020-07-18 09:24:38.689848,2020-04-06 00:00:00.000000,27.34707471,72.85057215,77.22554346,2284,6084,6449,2181,6016,6389,26.12454206,72.03108883,76.49804858,1.18640275,1.59386390,1.64838854
29081,0,USMissouriHarrison,Missouri,Harrison,2020-07-18 09:24:38.689848,2020-04-07 00:00:00.000000,26.06733202,72.02176574,76.49113012,2177,6015,6388,2079,5947,6328,24.90200941,71.21160552,75.77055371,1.18483105,1.58540567,1.67988798
29081,0,USMissouriHarrison,Missouri,Harrison,2020-07-18 09:24:38.689848,2020-04-08 00:00:00.000000,24.84747659,71.20238848,75.76370104,2075,5946,6327,1982,5879,6268,23.73668679,70.40144530,75.04997730,1.19684819,1.57966339,1.70722866
29081,0,USMissouriHarrison,Missouri,Harrison,2020-07-18 09:24:38.689848,2020-04-09 00:00:00.000000,23.68470591,70.39233312,75.04318980,1978,5879,6267,1889,5813,6208,22.62589700,69.60050211,74.33625356,1.22571962,1.57098186,1.73902153
29081,0,USMissouriHarrison,Missouri,Harrison,2020-07-18 09:24:38.689848,2020-04-10 00:00:00.000000,22.57634863,69.59149360,74.32953061,1885,5812,6208,1801,5746,6149,21.56708809,68.80867109,73.62931732,1.27362779,1.55553439,1.77819780
29081,0,USMissouriHarrison,Missouri,Harrison,2020-07-18 09:24:38.689848,2020-04-11 00:00:00.000000,21.51985840,68.79976507,73.62265830,1797,5746,6148,1716,5681,6091,20.55782755,68.02584857,72.92910402,1.33407084,1.54109334,1.81573800
29081,0,USMissouriHarrison,Missouri,Harrison,2020-07-18 09:24:38.689848,2020-04-12 00:00:00.000000,20.51280804,68.01704388,72.92250833,1713,5680,6090,1636,5616,6033,19.59579670,67.25193207,72.23554974,1.39203067,1.53212705,1.84037345
29081,0,USMissouriHarrison,Missouri,Harrison,2020-07-18 09:24:38.689848,2020-04-13 00:00:00.000000,19.55288393,67.24322755,72.22901678,1633,5616,6032,1560,5552,5975,18.67878536,66.48682027,71.54859115,1.43502947,1.52305692,1.85318187
29081,0,USMissouriHarrison,Missouri,Harrison,2020-07-18 09:24:38.689848,2020-04-14 00:00:00.000000,18.63788075,66.47821477,71.54212032,1556,5552,5975,1487,5489,5918,17.80468678,65.73041299,70.86816552,1.46135875,1.51602115,1.85889124
29081,0,USMissouriHarrison,Missouri,Harrison,2020-07-18 09:24:38.689848,2020-04-15 00:00:00.000000,17.76569636,65.72190539,70.86175623,1483,5489,5918,1417,5427,5862,16.97149281,64.98261120,70.19421073,1.47513269,1.51304132,1.86078822
29081,0,USMissouriHarrison,Missouri,Harrison,2020-07-18 09:24:38.689848,2020-04-16 00:00:00.000000,16.93432700,64.97420040,70.18786238,1414,5426,5862,1351,5365,5806,16.17728926,64.24331700,69.52666523,1.48303122,1.50624295,1.85945322
29081,0,USMissouriHarrison,Missouri,Harrison,2020-07-18 09:24:38.689848,2020-04-17 00:00:00.000000,16.14186267,64.23500189,69.52037726,1348,5364,5806,1287,5304,5751,15.42025152,63.51243361,68.86546808,1.48895734,1.49644964,1.85132913
29081,0,USMissouriHarrison,Missouri,Harrison,2020-07-18 09:24:38.689848,2020-04-18 00:00:00.000000,15.38648276,63.50421309,68.85923991,1285,5303,5751,1227,5244,5696,14.69864036,62.78986533,68.21055890,1.45280811,1.49930173,1.82073803
29081,0,USMissouriHarrison,Missouri,Harrison,2020-07-18 09:24:38.689848,2020-04-19 00:00:00.000000,14.66645186,62.78173834,68.20438996,1224,5243,5696,1170,5184,5642,14.01079796,62.07551757,67.56187789,1.39084442,1.51259857,1.72814817
29081,0,USMissouriHarrison,Missouri,Harrison,2020-07-18 09:24:38.689848,2020-04-20 00:00:00.000000,13.98011576,62.06748304,67.55576762,1167,5183,5642,1115,5125,5589,13.35514405,61.36929680,66.91936583,1.32500723,1.53385048,1.56439164
29081,0,USMissouriHarrison,Missouri,Harrison,2020-07-18 09:24:38.689848,2020-04-21 00:00:00.000000,13.32589767,61.36135367,66.91331366,1112,5124,5588,1063,5067,5535,12.73017235,60.67111056,66.28296404,1.28096678,1.43466299,1.61532424
29081,0,USMissouriHarrison,Missouri,Harrison,2020-07-18 09:24:38.689848,2020-04-22 00:00:00.000000,12.70229459,60.66325780,66.27696943,1060,5066,5535,1013,5009,5483,12.13444702,59.98086744,65.65261443,1.25957648,1.38279931,1.67302300
29081,0,USMissouriHarrison,Missouri,Harrison,2020-07-18 09:24:38.689848,2020-04-23 00:00:00.000000,12.10787384,59.97310403,65.64667682,1011,5008,5482,966,4952,5431,11.56659945,59.29847709,65.02825942,1.24964635,1.36671959,1.66875806
29081,0,USMissouriHarrison,Missouri,Harrison,2020-07-18 09:24:38.689848,2020-04-24 00:00:00.000000,11.54126980,59.29080199,65.02237828,963,4951,5430,920,4896,5379,11.02532506,58.62385015,64.40984202,1.24016661,1.35857855,1.63156147
29081,0,USMissouriHarrison,Missouri,Harrison,2020-07-18 09:24:38.689848,2020-04-25 00:00:00.000000,11.00118074,58.61626237,64.40401681,918,4895,5379,877,4840,5328,10.50938033,57.95689831,63.79730576,1.21707899,1.34017113,1.57751113
29081,0,USMissouriHarrison,Missouri,Harrison,2020-07-18 09:24:38.689848,2020-04-26 00:00:00.000000,10.48636588,57.94939686,63.79153595,875,4839,5327,836,4785,5277,10.01757992,57.29753425,63.19059470,1.17072728,1.28280859,1.53497131
29081,0,USMissouriHarrison,Missouri,Harrison,2020-07-18 09:24:38.689848,2020-04-27 00:00:00.000000,9.99564245,57.29011814,63.18487976,834,4784,5277,797,4731,5227,9.54879396,56.64567164,62.58965346,1.13607054,1.18525916,1.51434596
29081,0,USMissouriHarrison,Missouri,Harrison,2020-07-18 09:24:38.689848,2020-04-28 00:00:00.000000,9.52788309,56.63833990,62.58399286,795,4730,5227,760,4677,5177,9.10194546,56.00122514,61.99442715,1.11555864,1.13490118,1.50668085
29081,0,USMissouriHarrison,Missouri,Harrison,2020-07-18 09:24:38.689848,2020-04-29 00:00:00.000000,9.08201314,55.99397681,61.98882039,758,4676,5177,724,4624,5128,8.67600783,55.36411038,61.40486143,1.10200797,1.13231179,1.50393117
29081,0,USMissouriHarrison,Missouri,Harrison,2020-07-18 09:24:38.689848,2020-04-30 00:00:00.000000,8.65700827,55.35694452,61.39930800,723,4623,5128,690,4570,5079,8.27000252,54.72770096,60.82090248,1.10849131,1.13109310,1.49943604
29081,0,USMissouriHarrison,Missouri,Harrison,2020-07-18 09:24:38.689848,2020-05-01 00:00:00.000000,8.25189207,54.72043948,60.81540185,689,4570,5079,658,4518,5031,7.88299676,54.09730119,60.24249696,1.11720215,1.12695045,1.44146091
29081,0,USMissouriHarrison,Missouri,Harrison,2020-07-18 09:24:38.689848,2020-05-02 00:00:00.000000,7.86573382,54.09012336,60.23704864,656,4517,5030,627,4466,4983,7.51410146,53.47416291,59.66959206,1.09958133,1.13860258,1.32029634
29081,0,USMissouriHarrison,Missouri,Harrison,2020-07-18 09:24:38.689848,2020-05-03 00:00:00.000000,7.49764635,53.46706776,59.66419556,626,4465,4983,598,4414,4936,7.16246910,52.85820245,59.10213548,1.01745393,1.14800107,1.30188961
29081,0,USMissouriHarrison,Missouri,Harrison,2020-07-18 09:24:38.689848,2020-05-04 00:00:00.000000,7.14678403,52.85118903,59.09679030,596,4414,4935,570,4363,4889,6.82729184,52.24933715,58.54007540,0.89806748,1.15241506,1.28263039
29081,0,USMissouriHarrison,Missouri,Harrison,2020-07-18 09:24:38.689848,2020-05-05 00:00:00.000000,6.81234078,52.24240451,58.53478106,568,4363,4888,543,4313,4842,6.50779965,51.64748527,57.98336051,0.84887981,1.15346594,1.26629311
29081,0,USMissouriHarrison,Missouri,Harrison,2020-07-18 09:24:38.689848,2020-05-06 00:00:00.000000,6.49354824,51.64063249,57.97811651,542,4313,4842,518,4263,4796,6.20325852,51.05256602,57.43193995,0.83985456,1.15252083,1.25484843
29081,0,USMissouriHarrison,Missouri,Harrison,2020-07-18 09:24:38.689848,2020-05-07 00:00:00.000000,6.18967403,51.04579218,57.42674583,516,4263,4796,493,4214,4751,5.91296880,50.46449956,56.88576340,0.84210758,1.15031361,1.24817865
29081,0,USMissouriHarrison,Missouri,Harrison,2020-07-18 09:24:38.689848,2020-05-08 00:00:00.000000,5.90002001,50.45780374,56.88061867,492,4214,4750,470,4166,4705,5.63626357,49.88320694,56.34478098,0.85764572,1.14719699,1.24544464
29081,0,USMissouriHarrison,Missouri,Harrison,2020-07-18 09:24:38.689848,2020-05-09 00:00:00.000000,5.62392073,49.87658825,56.33968517,469,4165,4705,448,4118,4661,5.37250713,49.30861014,55.80894329,0.90937378,1.14293384,1.25039819
29081,0,USMissouriHarrison,Missouri,Harrison,2020-07-18 09:24:38.689848,2020-05-10 00:00:00.000000,5.36074189,49.30206769,55.80389594,447,4117,4660,427,4070,4616,5.12109352,48.74063203,55.27820140,1.00573492,1.13905325,1.28952912
29081,0,USMissouriHarrison,Missouri,Harrison,2020-07-18 09:24:38.689848,2020-05-11 00:00:00.000000,5.10987885,48.73416494,55.27320206,426,4070,4616,407,4023,4572,4.88144514,48.17919637,54.75250686,1.08652770,1.13495776,1.39051028
29081,0,USMissouriHarrison,Missouri,Harrison,2020-07-18 09:24:38.689848,2020-05-12 00:00:00.000000,4.87075528,48.17280378,54.74755506,406,4023,4572,388,3977,4529,4.65301143,47.62422780,54.23181166,1.11822510,1.13144655,1.45618559
29081,0,USMissouriHarrison,Missouri,Harrison,2020-07-18 09:24:38.689848,2020-05-13 00:00:00.000000,4.64282182,47.61790884,54.22690695,387,3977,4529,370,3931,4486,4.43526758,47.07565183,53.71606827,1.12255722,1.14216605,1.46931823
29081,0,USMissouriHarrison,Missouri,Harrison,2020-07-18 09:24:38.689848,2020-05-14 00:00:00.000000,4.42555481,47.06940566,53.71121020,369,3931,4485,353,3886,4443,4.22771334,46.53339481,53.20522958,1.11931312,1.16501387,1.47087117
29081,0,USMissouriHarrison,Missouri,Harrison,2020-07-18 09:24:38.689848,2020-05-15 00:00:00.000000,4.21845509,46.52722059,53.20041772,352,3885,4443,336,3841,4401,4.02987188,45.99738397,52.69924896,1.11678181,1.18185059,1.46798308
29081,0,USMissouriHarrison,Missouri,Harrison,2020-07-18 09:24:38.689848,2020-05-16 00:00:00.000000,4.02104688,45.99128087,52.69448286,335,3841,4401,320,3797,4359,3.84128867,45.46754736,52.19808021,1.11619576,1.19763474,1.45088156
29081,0,USMissouriHarrison,Missouri,Harrison,2020-07-18 09:24:38.689848,2020-05-17 00:00:00.000000,3.83287665,45.46151455,52.19335943,320,3796,4359,305,3753,4318,3.66153047,44.94381384,51.70167756,1.12646783,1.19905877,1.39259332
29081,0,USMissouriHarrison,Missouri,Harrison,2020-07-18 09:24:38.689848,2020-05-18 00:00:00.000000,3.65351210,44.93794408,51.69700167,305,3753,4317,291,3711,4277,3.49018429,44.43262890,51.20999569,1.16169643,1.19930810,1.33343006
29081,0,USMissouriHarrison,Missouri,Harrison,2020-07-18 09:24:38.689848,2020-05-19 00:00:00.000000,3.48254114,44.42688214,51.20536427,290,3710,4276,277,3668,4236,3.32685648,43.92731371,50.72298970,1.18104932,1.19935167,1.31193056
29081,0,USMissouriHarrison,Missouri,Harrison,2020-07-18 09:24:38.689848,2020-05-20 00:00:00.000000,3.31957100,43.92163232,50.71840233,277,3668,4236,264,3627,4196,3.17117181,43.42774529,50.24061513,1.18343321,1.19936757,1.31024061
29081,0,USMissouriHarrison,Missouri,Harrison,2020-07-18 09:24:38.689848,2020-05-21 00:00:00.000000,3.16422727,43.42212850,50.23607139,264,3626,4195,252,3585,4156,3.02277261,42.93385826,49.76282794,1.18328574,1.19948978,1.31968590
29081,0,USMissouriHarrison,Missouri,Harrison,2020-07-18 09:24:38.689848,2020-05-22 00:00:00.000000,3.01615305,42.92830535,49.75832740,251,3585,4155,240,3545,4116,2.88131795,42.44558801,49.28958449,1.18292620,1.19662236,1.35283735
29081,0,USMissouriHarrison,Missouri,Harrison,2020-07-18 09:24:38.689848,2020-05-23 00:00:00.000000,2.87500816,42.44009826,49.28512675,240,3544,4116,229,3504,4077,2.74648285,41.96287068,48.82084157,1.11098440,1.20392927,1.43785628
29081,0,USMissouriHarrison,Missouri,Harrison,2020-07-18 09:24:38.689848,2020-05-24 00:00:00.000000,2.74046834,41.95744336,48.81642623,228,3504,4077,218,3464,4038,2.61795754,41.48564311,48.35655640,1.05182389,1.20929341,1.56644727
29081,0,USMissouriHarrison,Missouri,Harrison,2020-07-18 09:24:38.689848,2020-05-25 00:00:00.000000,2.61222448,41.48027751,48.35218304,218,3464,4038,208,3425,4000,2.49544674,41.01384286,47.89668656,1.02880161,1.20974088,1.66123979
29081,0,USMissouriHarrison,Missouri,Harrison,2020-07-18 09:24:38.689848,2020-05-26 00:00:00.000000,2.48998197,41.00853828,47.89235480,207,3425,3999,198,3386,3962,2.37866899,40.54740821,47.44119008,1.02034780,1.20974765,1.69856716
29081,0,USMissouriHarrison,Missouri,Harrison,2020-07-18 09:24:38.689848,2020-05-27 00:00:00.000000,2.37345995,40.54216396,47.43689951,198,3386,3961,189,3348,3924,2.26735602,40.08627815,46.99002536,1.01434244,1.20950718,1.70354019
29081,0,USMissouriHarrison,Missouri,Harrison,2020-07-18 09:24:38.689848,2020-05-28 00:00:00.000000,2.26239074,40.08109353,46.98577560,188,3347,3924,180,3309,3887,2.16125208,39.63039234,46.54315121,1.00621641,1.20669109,1.68683935
29081,0,USMissouriHarrison,Missouri,Harrison,2020-07-18 09:24:38.689848,2020-05-29 00:00:00.000000,2.15651916,39.62526669,46.53894186,180,3309,3886,172,3272,3850,2.06011342,39.17969114,46.10052682,0.99583936,1.17212483,1.64163965
29081,0,USMissouriHarrison,Missouri,Harrison,2020-07-18 09:24:38.689848,2020-05-30 00:00:00.000000,2.05560198,39.17462378,46.09635750,171,3271,3849,164,3235,3813,1.96370767,38.73411560,45.66211178,0.98255601,1.03431393,1.56342265
29081,0,USMissouriHarrison,Missouri,Harrison,2020-07-18 09:24:38.689848,2020-05-31 00:00:00.000000,1.95940736,38.72910587,45.65798212,163,3234,3813,156,3198,3777,1.87181336,38.29360741,45.22786606,0.96604684,0.97211050,1.47818573
29081,0,USMissouriHarrison,Missouri,Harrison,2020-07-18 09:24:38.689848,2020-06-01 00:00:00.000000,1.86771429,38.28865466,45.22377567,155,3197,3777,149,3161,3741,1.78421937,37.85810896,44.79775001,0.92423450,0.95386202,1.41903647
29081,0,USMissouriHarrison,Missouri,Harrison,2020-07-18 09:24:38.689848,2020-06-02 00:00:00.000000,1.78031212,37.85321253,44.79369852,148,3161,3741,142,3125,3705,1.70072446,37.42756326,44.37172435,0.90403923,0.91919989,1.38566124
29081,0,USMissouriHarrison,Missouri,Harrison,2020-07-18 09:24:38.689848,2020-06-03 00:00:00.000000,1.69700005,37.42272251,44.36771139,141,3125,3705,135,3090,3670,1.62113680,37.00191399,43.94975019,0.88166431,0.89999952,1.36177215
29081,0,USMissouriHarrison,Missouri,Harrison,2020-07-18 09:24:38.689848,2020-06-04 00:00:00.000000,1.61758667,36.99712829,43.94577539,135,3090,3670,129,3055,3635,1.54527355,36.58110546,43.53178900,0.86539036,0.89769727,1.33468743
29081,0,USMissouriHarrison,Missouri,Harrison,2020-07-18 09:24:38.689848,2020-06-05 00:00:00.000000,1.54188956,36.57637420,43.52785199,128,3054,3635,123,3020,3601,1.47296042,36.16508263,43.11780260,0.85990252,0.89715192,1.29872349
29081,0,USMissouriHarrison,Missouri,Harrison,2020-07-18 09:24:38.689848,2020-06-06 00:00:00.000000,1.46973479,36.16040517,43.11390304,122,3020,3600,117,2986,3566,1.40403128,35.75379107,42.70775321,0.85831117,0.89713804,1.25641883
29081,0,USMissouriHarrison,Missouri,Harrison,2020-07-18 09:24:38.689848,2020-06-07 00:00:00.000000,1.40095660,35.74916681,42.70389074,117,2985,3566,111,2952,3533,1.33832777,35.34717697,42.30160338,0.85787457,0.89525843,1.21660968
29081,0,USMissouriHarrison,Missouri,Harrison,2020-07-18 09:24:38.689848,2020-06-08 00:00:00.000000,1.33539697,35.34260529,42.29777764,111,2951,3532,106,2918,3499,1.27569894,34.94518713,41.89931603,0.85776969,0.87111906,1.18692373
29081,0,USMissouriHarrison,Missouri,Harrison,2020-07-18 09:24:38.689848,2020-06-09 00:00:00.000000,1.27290530,34.94066745,41.89552667,106,2918,3499,101,2885,3466,1.21600092,34.54776897,41.50085442,0.78987429,0.86574374,1.16823605
29081,0,USMissouriHarrison,Missouri,Harrison,2020-07-18 09:24:38.689848,2020-06-10 00:00:00.000000,1.21333800,34.54330069,41.49710110,101,2885,3465,96,2852,3433,1.15909654,34.15487050,41.10618218,0.76612525,0.86588143,1.15695397
29081,0,USMissouriHarrison,Missouri,Harrison,2020-07-18 09:24:38.689848,2020-06-11 00:00:00.000000,1.15655824,34.15045303,41.10246455,96,2852,3432,92,2820,3400,1.10485508,33.76644030,40.71526326,0.77186449,0.86634565,1.14647903
29081,0,USMissouriHarrison,Missouri,Harrison,2020-07-18 09:24:38.689848,2020-06-12 00:00:00.000000,1.10243556,33.76207307,40.71158098,92,2819,3400,87,2788,3368,1.05315192,33.38242757,40.32806197,0.78666081,0.86778767,1.12075031
29081,0,USMissouriHarrison,Missouri,Harrison,2020-07-18 09:24:38.689848,2020-06-13 00:00:00.000000,1.05084562,33.37811001,40.32441471,87,2787,3367,83,2756,3336,1.00386827,33.00278208,39.94454295,0.81125504,0.87154952,1.05783152
29081,0,USMissouriHarrison,Missouri,Harrison,2020-07-18 09:24:38.689848,2020-06-14 00:00:00.000000,1.00166991,32.99851362,39.94093038,83,2756,3335,79,2725,3304,0.95689092,32.62745414,39.56467120,0.84714380,0.87999706,0.99963458
29081,0,USMissouriHarrison,Missouri,Harrison,2020-07-18 09:24:38.689848,2020-06-15 00:00:00.000000,0.95479543,32.62323422,39.56109298,79,2724,3304,76,2694,3273,0.91211194,32.25639467,39.18841202,0.88103111,0.89380997,0.98227913
29081,0,USMissouriHarrison,Missouri,Harrison,2020-07-18 09:24:38.689848,2020-06-16 00:00:00.000000,0.91011451,32.25222274,39.18486783,76,2693,3272,72,2663,3241,0.86942845,31.88955511,38.81573105,0.87458067,0.93355269,0.99331892
29081,0,USMissouriHarrison,Missouri,Harrison,2020-07-18 09:24:38.689848,2020-06-17 00:00:00.000000,0.86752449,31.88543063,38.81222057,72,2663,3241,69,2632,3211,0.82874239,31.52535319,38.44659427,0.84388581,0.95189227,1.03211780
29081,0,USMissouriHarrison,Missouri,Harrison,2020-07-18 09:24:38.689848,2020-06-18 00:00:00.000000,0.82692753,31.52120279,38.44311717,69,2632,3210,65,2602,3180,0.78996029,31.16363102,38.08096798,0.80581501,0.94768788,1.06676249
29081,0,USMissouriHarrison,Missouri,Harrison,2020-07-18 09:24:38.689848,2020-06-19 00:00:00.000000,0.78823036,31.15952824,38.07752395,65,2602,3180,62,2572,3150,0.75299305,30.80605925,37.71881878,0.78424196,0.91877216,1.07771869
29081,0,USMissouriHarrison,Missouri,Harrison,2020-07-18 09:24:38.689848,2020-06-20 00:00:00.000000,0.75134407,30.80200354,37.71540751,62,2572,3149,59,2543,3120,0.71775574,30.45259026,37.36011362,0.77656428,0.88116681,1.07976714
29081,0,USMissouriHarrison,Missouri,Harrison,2020-07-18 09:24:38.689848,2020-06-21 00:00:00.000000,0.71618393,30.44858109,37.35673478,59,2543,3120,57,2514,3090,0.68416741,30.10317697,37.00481974,0.77429823,0.85141418,1.07924243
29081,0,USMissouriHarrison,Missouri,Harrison,2020-07-18 09:24:38.689848,2020-06-22 00:00:00.000000,0.68266915,30.09921380,37.00147303,57,2513,3090,54,2485,3061,0.65215088,29.75777286,36.65290469,0.77367984,0.83368636,1.07705252
29081,0,USMissouriHarrison,Missouri,Harrison,2020-07-18 09:24:38.689848,2020-06-23 00:00:00.000000,0.65072274,29.75385517,36.64958981,54,2485,3060,51,2456,3032,0.62163262,29.41633192,36.30433635,0.77360831,0.82400384,1.07205101
29081,0,USMissouriHarrison,Missouri,Harrison,2020-07-18 09:24:38.689848,2020-06-24 00:00:00.000000,0.62027131,29.41245918,36.30105299,51,2456,3031,49,2428,3003,0.59254249,29.07880867,35.95908288,0.77414412,0.81869337,1.06202551
29081,0,USMissouriHarrison,Missouri,Harrison,2020-07-18 09:24:38.689848,2020-06-25 00:00:00.000000,0.59124489,29.07498037,35.95583076,49,2428,3003,47,2400,2974,0.56481368,28.74515817,35.61711277,0.77709858,0.81508840,1.04488049
29081,0,USMissouriHarrison,Missouri,Harrison,2020-07-18 09:24:38.689848,2020-06-26 00:00:00.000000,0.56357680,28.74137379,35.61389157,47,2400,2974,44,2373,2946,0.53838247,28.41533598,35.27839479,0.79089084,0.81504541,1.02419812
29081,0,USMissouriHarrison,Missouri,Harrison,2020-07-18 09:24:38.689848,2020-06-27 00:00:00.000000,0.53720347,28.41159502,35.27520422,44,2372,2946,42,2346,2918,0.51318815,28.08929817,34.94289801,0.80657124,0.83902172,1.00634003
29081,0,USMissouriHarrison,Missouri,Harrison,2020-07-18 09:24:38.689848,2020-06-28 00:00:00.000000,0.51206432,28.08560013,34.93973779,42,2345,2918,40,2319,2890,0.48917283,27.76700132,34.61059180,0.80191799,0.94030471,0.99503554
29081,0,USMissouriHarrison,Missouri,Harrison,2020-07-18 09:24:38.689848,2020-06-29 00:00:00.000000,0.48810159,27.76334572,34.60746163,40,2318,2890,38,2292,2863,0.46628134,27.44840251,34.28144581,0.79781970,0.98599392,1.03332096
29081,0,USMissouriHarrison,Missouri,Harrison,2020-07-18 09:24:38.689848,2020-06-30 00:00:00.000000,0.46526023,27.44478885,34.27834541,38,2292,2862,37,2266,2835,0.44446108,27.13345930,33.95543000,0.79594718,0.98577917,1.04963547
29081,0,USMissouriHarrison,Missouri,Harrison,2020-07-18 09:24:38.689848,2020-07-01 00:00:00.000000,0.44348776,27.12988711,33.95235908,37,2265,2835,35,2240,2808,0.42366194,26.82212976,33.63251458,0.79711023,0.98688387,1.03454834
29081,0,USMissouriHarrison,Missouri,Harrison,2020-07-18 09:24:38.689848,2020-07-02 00:00:00.000000,0.42273416,26.81859855,33.62947287,35,2239,2808,33,2214,2782,0.40383611,26.51437241,33.31267009,0.80047741,0.98586952,0.99874450
29081,0,USMissouriHarrison,Missouri,Harrison,2020-07-18 09:24:38.689848,2020-07-03 00:00:00.000000,0.40295175,26.51088172,33.30965730,33,2214,2782,32,2189,2755,0.38493807,26.21014627,32.99586731,0.80516405,0.94563017,0.99845624
29081,0,USMissouriHarrison,Missouri,Harrison,2020-07-18 09:24:38.689848,2020-07-04 00:00:00.000000,0.38409509,26.20669563,32.99288317,32,2188,2755,30,2163,2729,0.36692438,25.90941083,32.68207732,0.80925832,0.88569290,1.01189828
29081,0,USMissouriHarrison,Missouri,Harrison,2020-07-18 09:24:38.689848,2020-07-05 00:00:00.000000,0.36612085,25.90599978,32.67912156,30,2163,2729,29,2139,2703,0.34975366,25.61212603,32.37127147,0.81205666,0.83500806,1.02182767
29081,0,USMissouriHarrison,Missouri,Harrison,2020-07-18 09:24:38.689848,2020-07-06 00:00:00.000000,0.34898774,25.60875412,32.36834382,29,2138,2703,27,2114,2677,0.33338648,25.31825227,32.06342137,0.78839185,0.81723062,1.02597705
29081,0,USMissouriHarrison,Missouri,Harrison,2020-07-18 09:24:38.689848,2020-07-07 00:00:00.000000,0.33265640,25.31491905,32.06052156,27,2114,2677,26,2090,2652,0.31778521,25.02775043,31.75849892,0.77162448,0.81806879,1.02729230
29081,0,USMissouriHarrison,Missouri,Harrison,2020-07-18 09:24:38.689848,2020-07-08 00:00:00.000000,0.31708930,25.02445545,31.75562669,26,2090,2652,25,2066,2627,0.30291403,24.74058180,31.45647628,0.76303455,0.81846305,1.02767074
29081,0,USMissouriHarrison,Missouri,Harrison,2020-07-18 09:24:38.689848,2020-07-09 00:00:00.000000,0.30225068,24.73732463,31.45363136,25,2066,2627,24,2042,2602,0.28873877,24.45670815,31.15732587,0.75888896,0.81863946,1.02777643
29081,0,USMissouriHarrison,Missouri,Harrison,2020-07-18 09:24:38.689848,2020-07-10 00:00:00.000000,0.28810646,24.45348836,31.15450801,24,2042,2602,22,2019,2577,0.27522685,24.17609167,30.86102037,0.75693220,0.81871472,1.02780566
29081,0,USMissouriHarrison,Missouri,Harrison,2020-07-18 09:24:38.689848,2020-07-11 00:00:00.000000,0.27462414,24.17290882,30.85822931,22,2018,2577,21,1996,2553,0.26234725,23.89869499,30.56753273,0.75601790,0.81874493,1.02781370
29081,0,USMissouriHarrison,Missouri,Harrison,2020-07-18 09:24:38.689848,2020-07-12 00:00:00.000000,0.26177273,23.89554866,30.56476821,21,1995,2552,20,1973,2528,0.25007036,23.62448116,30.27683615,0.75559272,0.81875590,1.02781590
29081,0,USMissouriHarrison,Missouri,Harrison,2020-07-18 09:24:38.689848,2020-07-13 00:00:00.000000,0.24952273,23.62137093,30.27409792,20,1972,2528,19,1950,2504,0.23836799,23.35341366,29.98890409,0.75539544,0.81875910,1.02781650
29081,0,USMissouriHarrison,Missouri,Harrison,2020-07-18 09:24:38.689848,2020-07-14 00:00:00.000000,0.23784598,23.35033911,29.98619190,19,1950,2504,18,1928,2480,0.22721324,23.08545639,29.70371026,0.75530399,0.81875942,1.02781667
29081,0,USMissouriHarrison,Missouri,Harrison,2020-07-18 09:24:38.689848,2020-07-15 00:00:00.000000,0.22671567,23.08241712,29.70102386,18,1927,2480,18,1905,2457,0.21658049,22.82057366,29.42122861,0.75526162,0.81875887,1.02781671
29081,0,USMissouriHarrison,Missouri,Harrison,2020-07-18 09:24:38.689848,2020-07-16 00:00:00.000000,0.21610620,22.81756927,29.41856777,18,1905,2457,17,1884,2433,0.20644532,22.55873020,29.14143336,0.75524199,0.81875820,1.02781672
29081,0,USMissouriHarrison,Missouri,Harrison,2020-07-18 09:24:38.689848,2020-07-17 00:00:00.000000,0.20599323,22.55576028,29.13879782,17,1883,2433,16,1862,2410,0.19678444,22.29989114,28.86429896,0.75523290,0.81875764,1.02781672
29081,0,USMissouriHarrison,Missouri,Harrison,2020-07-18 09:24:38.689848,2020-07-18 00:00:00.000000,0.19635350,22.29695529,28.86168848,16,1862,2410,15,1841,2387,0.18757565,22.04402200,28.58980010,0.75522869,0.81875723,1.02781672
29081,0,USMissouriHarrison,Missouri,Harrison,2020-07-18 09:24:38.689848,2020-07-19 00:00:00.000000,0.18716488,22.04111984,28.58721445,15,1840,2387,14,1819,2365,0.17879780,21.79108870,28.31791172,0.75522674,0.81875695,1.02781672
29081,0,USMissouriHarrison,Missouri,Harrison,2020-07-18 09:24:38.689848,2020-07-20 00:00:00.000000,0.17840625,21.78821984,28.31535066,14,1819,2364,14,1799,2342,0.17043072,21.54105756,28.04860899,0.75522584,0.81875677,1.02781672
29081,0,USMissouriHarrison,Missouri,Harrison,2020-07-18 09:24:38.689848,2020-07-21 00:00:00.000000,0.17005749,21.53822162,28.04607228,14,1798,2342,13,1778,2320,0.16245519,21.29389528,27.78186733,0.75522542,0.81875666,1.02781672
29081,0,USMissouriHarrison,Missouri,Harrison,2020-07-18 09:24:38.689848,2020-07-22 00:00:00.000000,0.16209943,21.29109188,27.77935474,13,1778,2320,12,1758,2298,0.15485288,21.04956894,27.51766237,0.75522523,0.81875659,1.02781672
29081,0,USMissouriHarrison,Missouri,Harrison,2020-07-18 09:24:38.689848,2020-07-23 00:00:00.000000,0.15451377,21.04679770,27.51517368,12,1757,2298,12,1737,2276,0.14760633,20.80804600,27.25597000,0.75522514,0.81875655,1.02781672
29081,0,USMissouriHarrison,Missouri,Harrison,2020-07-18 09:24:38.689848,2020-07-24 00:00:00.000000,0.14728309,20.80530657,27.25350497,12,1737,2276,11,1717,2254,0.14069890,20.56929431,26.99676631,0.75522510,0.81875652,1.02781672
29081,0,USMissouriHarrison,Missouri,Harrison,2020-07-18 09:24:38.689848,2020-07-25 00:00:00.000000,0.14039078,20.56658630,26.99432473,11,1717,2254,11,1698,2233,0.13411471,20.33328205,26.74002765,0.75522508,0.81875651,1.02781672
29081,0,USMissouriHarrison,Missouri,Harrison,2020-07-18 09:24:38.689848,2020-07-26 00:00:00.000000,0.13382101,20.33060511,26.73760929,11,1698,2233,10,1678,2212,0.12783863,20.09997779,26.48573057,0.75522507,0.81875650,1.02781672
29081,0,USMissouriHarrison,Missouri,Harrison,2020-07-18 09:24:38.689848,2020-07-27 00:00:00.000000,0.12755868,20.09733157,26.48333520,10,1678,2211,10,1659,2191,0.12185625,19.86935047,26.23385184,0.75522506,0.81875649,1.02781672
29081,0,USMissouriHarrison,Missouri,Harrison,2020-07-18 09:24:38.689848,2020-07-28 00:00:00.000000,0.12158940,19.86673462,26.23147926,10,1659,2190,9,1640,2170,0.11615383,19.64136938,25.98436848,0.75522506,0.81875649,1.02781672
29081,0,USMissouriHarrison,Missouri,Harrison,2020-07-18 09:24:38.689848,2020-07-29 00:00:00.000000,0.11589946,19.63878353,25.98201846,9,1640,2170,9,1621,2149,0.11071825,19.41600413,25.73725770,0.75522506,0.81875649,1.02781672
29081,0,USMissouriHarrison,Missouri,Harrison,2020-07-18 09:24:38.689848,2020-07-30 00:00:00.000000,0.11047579,19.41344796,25.73493003,9,1621,2149,8,1603,2129,0.10553705,19.19322474,25.49249694,0.75522506,0.81875648,1.02781672
