FIPS,HR_UID,nameid,province,region,analysisTime,dates,pointprevalence_025,pointprevalence_50,pointprevalence_975,pointinfections_025,pointinfections_50,pointinfections_975,pointinfectious_025,pointinfectious_50,pointinfectious_975,pointinfectiousprevalence_05,pointinfectiousprevalence_50,pointinfectiousprevalence_95,infectrate_025,infectrate_50,infectrate_975
18053,0,USIndianaGrant,Indiana,Grant,2020-07-18 17:09:44.025974,2020-03-09 00:00:00.000000,0.00542461,0.02071571,0.07324506,3,13,48,1,6,20,0.00284877,0.00927084,0.03127610,0.51325976,0.71263769,0.92400698
18053,0,USIndianaGrant,Indiana,Grant,2020-07-18 17:09:44.025974,2020-03-10 00:00:00.000000,0.00613362,0.02143959,0.07022032,4,14,46,2,6,17,0.00352390,0.01042529,0.02695116,0.51325972,0.71258764,0.92397826
18053,0,USIndianaGrant,Indiana,Grant,2020-07-18 17:09:44.025974,2020-03-11 00:00:00.000000,0.00702719,0.02292269,0.06636442,4,15,43,2,7,18,0.00400444,0.01070651,0.02823545,0.51325961,0.71249279,0.92390800
18053,0,USIndianaGrant,Indiana,Grant,2020-07-18 17:09:44.025974,2020-03-12 00:00:00.000000,0.00818386,0.02473861,0.07138164,5,16,46,2,7,19,0.00450715,0.01144267,0.02950956,0.51325930,0.71231328,0.92373641
18053,0,USIndianaGrant,Indiana,Grant,2020-07-18 17:09:44.025974,2020-03-13 00:00:00.000000,0.00945232,0.02605865,0.07081356,6,17,46,3,8,20,0.00517094,0.01216850,0.03070434,0.51325849,0.71197454,0.92339512
18053,0,USIndianaGrant,Indiana,Grant,2020-07-18 17:09:44.025974,2020-03-14 00:00:00.000000,0.01086811,0.02791907,0.07580201,7,18,49,3,9,21,0.00576211,0.01375739,0.03319487,0.51325708,0.71182643,0.92336143
18053,0,USIndianaGrant,Indiana,Grant,2020-07-18 17:09:44.025974,2020-03-15 00:00:00.000000,0.01266989,0.02987510,0.07602484,8,19,50,4,9,23,0.00643800,0.01452040,0.03512195,0.51325938,0.71271966,0.92329581
18053,0,USIndianaGrant,Indiana,Grant,2020-07-18 17:09:44.025974,2020-03-16 00:00:00.000000,0.01412597,0.03286947,0.08161540,9,21,53,4,10,23,0.00724835,0.01624919,0.03616749,0.51330716,0.70855661,0.92317031
18053,0,USIndianaGrant,Indiana,Grant,2020-07-18 17:09:44.025974,2020-03-17 00:00:00.000000,0.01578451,0.03549715,0.08350550,10,23,54,5,11,25,0.00763632,0.01733272,0.03923915,0.50122359,0.70763204,0.92293835
18053,0,USIndianaGrant,Indiana,Grant,2020-07-18 17:09:44.025974,2020-03-18 00:00:00.000000,0.01719635,0.03871695,0.09381761,11,25,61,5,12,28,0.00836229,0.01945790,0.04369141,0.49836541,0.70633647,0.92253534
18053,0,USIndianaGrant,Indiana,Grant,2020-07-18 17:09:44.025974,2020-03-19 00:00:00.000000,0.01854405,0.04234669,0.09573418,12,27,62,5,13,32,0.00905386,0.02065854,0.04894512,0.48917487,0.70863613,0.92190353
18053,0,USIndianaGrant,Indiana,Grant,2020-07-18 17:09:44.025974,2020-03-20 00:00:00.000000,0.02008034,0.04709367,0.10282603,13,30,67,6,14,35,0.00987214,0.02270427,0.05469697,0.49077591,0.70262750,0.92104679
18053,0,USIndianaGrant,Indiana,Grant,2020-07-18 17:09:44.025974,2020-03-21 00:00:00.000000,0.02161760,0.05097959,0.10700836,14,33,70,7,16,39,0.01080363,0.02442472,0.05955683,0.48714450,0.70048626,0.92179211
18053,0,USIndianaGrant,Indiana,Grant,2020-07-18 17:09:44.025974,2020-03-22 00:00:00.000000,0.02292457,0.05714438,0.11465844,15,37,75,7,17,42,0.01150323,0.02701939,0.06394121,0.48022590,0.69654082,0.92631830
18053,0,USIndianaGrant,Indiana,Grant,2020-07-18 17:09:44.025974,2020-03-23 00:00:00.000000,0.02546845,0.06269420,0.12080421,16,41,79,8,19,44,0.01246161,0.02906194,0.06767346,0.47185310,0.67927185,0.94648734
18053,0,USIndianaGrant,Indiana,Grant,2020-07-18 17:09:44.025974,2020-03-24 00:00:00.000000,0.02792159,0.06836937,0.12892373,18,44,84,8,21,46,0.01332092,0.03245675,0.07106187,0.46176909,0.67962168,0.93823207
18053,0,USIndianaGrant,Indiana,Grant,2020-07-18 17:09:44.025974,2020-03-25 00:00:00.000000,0.03029099,0.07279675,0.13952357,19,47,91,9,22,48,0.01433325,0.03489447,0.07440087,0.46908522,0.68344588,0.94511294
18053,0,USIndianaGrant,Indiana,Grant,2020-07-18 17:09:44.025974,2020-03-26 00:00:00.000000,0.03384784,0.07764511,0.15114458,22,51,99,10,25,53,0.01568144,0.03847246,0.08178143,0.47085882,0.68601581,0.94155756
18053,0,USIndianaGrant,Indiana,Grant,2020-07-18 17:09:44.025974,2020-03-27 00:00:00.000000,0.03659088,0.08134845,0.16388033,24,53,107,11,27,59,0.01679050,0.04152942,0.09015464,0.45778352,0.68688099,0.94771762
18053,0,USIndianaGrant,Indiana,Grant,2020-07-18 17:09:44.025974,2020-03-28 00:00:00.000000,0.04028233,0.08736981,0.17787577,26,57,116,11,30,65,0.01805235,0.04570318,0.09923436,0.44699045,0.69169046,0.97677454
18053,0,USIndianaGrant,Indiana,Grant,2020-07-18 17:09:44.025974,2020-03-29 00:00:00.000000,0.04459296,0.09180678,0.19323445,29,60,127,12,31,71,0.01963041,0.04817525,0.10897731,0.41097577,0.68594158,1.00470966
18053,0,USIndianaGrant,Indiana,Grant,2020-07-18 17:09:44.025974,2020-03-30 00:00:00.000000,0.04841055,0.10053072,0.21002107,31,66,138,14,35,77,0.02169048,0.05344830,0.11786093,0.38919310,0.70003739,0.96927333
18053,0,USIndianaGrant,Indiana,Grant,2020-07-18 17:09:44.025974,2020-03-31 00:00:00.000000,0.05117197,0.10706697,0.22829537,33,70,150,15,37,82,0.02369360,0.05630882,0.12507414,0.38495697,0.69883183,0.97676699
18053,0,USIndianaGrant,Indiana,Grant,2020-07-18 17:09:44.025974,2020-04-01 00:00:00.000000,0.05528097,0.11585245,0.24610628,36,76,161,17,39,87,0.02674954,0.05944377,0.13334098,0.38381722,0.68527443,0.98066108
18053,0,USIndianaGrant,Indiana,Grant,2020-07-18 17:09:44.025974,2020-04-02 00:00:00.000000,0.06014865,0.12321296,0.26941789,39,81,177,19,41,95,0.02926563,0.06241852,0.14531098,0.38479843,0.67616164,0.98252193
18053,0,USIndianaGrant,Indiana,Grant,2020-07-18 17:09:44.025974,2020-04-03 00:00:00.000000,0.06538151,0.13047624,0.29267788,43,85,192,22,44,103,0.03447341,0.06739362,0.15682246,0.38657846,0.66936645,0.98056031
18053,0,USIndianaGrant,Indiana,Grant,2020-07-18 17:09:44.025974,2020-04-04 00:00:00.000000,0.07098015,0.13643665,0.31606647,46,89,207,23,46,111,0.03571307,0.07088481,0.16968195,0.38536610,0.65701401,0.94295535
18053,0,USIndianaGrant,Indiana,Grant,2020-07-18 17:09:44.025974,2020-04-05 00:00:00.000000,0.07675945,0.14618895,0.33348216,50,96,219,26,49,118,0.04050506,0.07560419,0.18026444,0.37396105,0.64607129,0.96316749
18053,0,USIndianaGrant,Indiana,Grant,2020-07-18 17:09:44.025974,2020-04-06 00:00:00.000000,0.08201589,0.15572733,0.35906815,53,102,236,26,51,124,0.04037302,0.07875948,0.18858466,0.36616398,0.63980188,0.94596759
18053,0,USIndianaGrant,Indiana,Grant,2020-07-18 17:09:44.025974,2020-04-07 00:00:00.000000,0.08693944,0.16434589,0.38643459,57,108,254,29,54,128,0.04424202,0.08240626,0.19575009,0.35846934,0.62797391,0.93024477
18053,0,USIndianaGrant,Indiana,Grant,2020-07-18 17:09:44.025974,2020-04-08 00:00:00.000000,0.09234359,0.17264265,0.41404828,60,113,272,29,57,132,0.04556156,0.08703979,0.20151900,0.33740085,0.60908069,0.92312594
18053,0,USIndianaGrant,Indiana,Grant,2020-07-18 17:09:44.025974,2020-04-09 00:00:00.000000,0.09686395,0.18644089,0.44117025,63,122,290,33,59,135,0.05091696,0.09109556,0.20569562,0.32155086,0.57729098,0.89531502
18053,0,USIndianaGrant,Indiana,Grant,2020-07-18 17:09:44.025974,2020-04-10 00:00:00.000000,0.10183812,0.19710590,0.46712743,66,129,307,33,63,139,0.05061795,0.09616219,0.21172573,0.30595124,0.54872951,0.86303190
18053,0,USIndianaGrant,Indiana,Grant,2020-07-18 17:09:44.025974,2020-04-11 00:00:00.000000,0.10529481,0.20455634,0.49160306,69,134,323,38,66,144,0.05802149,0.10151206,0.21954092,0.29317873,0.53188229,0.85724400
18053,0,USIndianaGrant,Indiana,Grant,2020-07-18 17:09:44.025974,2020-04-12 00:00:00.000000,0.10853553,0.21251016,0.51464790,71,139,338,37,70,152,0.05675462,0.10745697,0.23172735,0.29128609,0.52316254,0.83262005
18053,0,USIndianaGrant,Indiana,Grant,2020-07-18 17:09:44.025974,2020-04-13 00:00:00.000000,0.11030683,0.22354460,0.53656073,72,147,352,40,74,159,0.06183599,0.11281447,0.24324937,0.28961489,0.52041825,0.79815811
18053,0,USIndianaGrant,Indiana,Grant,2020-07-18 17:09:44.025974,2020-04-14 00:00:00.000000,0.11148722,0.22382842,0.55773226,73,147,366,41,77,167,0.06280929,0.11772570,0.25418704,0.28022286,0.51335072,0.79166181
18053,0,USIndianaGrant,Indiana,Grant,2020-07-18 17:09:44.025974,2020-04-15 00:00:00.000000,0.11231365,0.23389789,0.57853255,73,153,380,42,80,174,0.06484308,0.12314265,0.26469398,0.27678206,0.50652662,0.78175464
18053,0,USIndianaGrant,Indiana,Grant,2020-07-18 17:09:44.025974,2020-04-16 00:00:00.000000,0.11295770,0.23529106,0.59925803,74,154,394,42,83,176,0.06446262,0.12769904,0.26863427,0.27180745,0.49440186,0.77977604
18053,0,USIndianaGrant,Indiana,Grant,2020-07-18 17:09:44.025974,2020-04-17 00:00:00.000000,0.11351824,0.24051630,0.62008412,74,158,407,43,86,181,0.06591165,0.13173873,0.27571439,0.27121451,0.48421927,0.75523230
18053,0,USIndianaGrant,Indiana,Grant,2020-07-18 17:09:44.025974,2020-04-18 00:00:00.000000,0.11515851,0.24176998,0.64055328,75,159,421,43,89,186,0.06542830,0.13539719,0.28409207,0.27096571,0.47061210,0.71531817
18053,0,USIndianaGrant,Indiana,Grant,2020-07-18 17:09:44.025974,2020-04-19 00:00:00.000000,0.11360556,0.24677485,0.65508042,74,162,430,43,89,192,0.06601788,0.13538283,0.29297511,0.26894405,0.45317068,0.70865175
18053,0,USIndianaGrant,Indiana,Grant,2020-07-18 17:09:44.025974,2020-04-20 00:00:00.000000,0.11498796,0.24675200,0.65673510,75,162,431,43,89,197,0.06628024,0.13651019,0.30065114,0.26547386,0.44504103,0.69675341
18053,0,USIndianaGrant,Indiana,Grant,2020-07-18 17:09:44.025974,2020-04-21 00:00:00.000000,0.11306313,0.24991454,0.65310026,74,164,429,44,89,199,0.06726262,0.13623706,0.30367328,0.26068508,0.44032766,0.66081799
18053,0,USIndianaGrant,Indiana,Grant,2020-07-18 17:09:44.025974,2020-04-22 00:00:00.000000,0.11531171,0.24798812,0.64430079,75,163,423,44,89,199,0.06742912,0.13584079,0.30349419,0.26263280,0.42688428,0.65960615
18053,0,USIndianaGrant,Indiana,Grant,2020-07-18 17:09:44.025974,2020-04-23 00:00:00.000000,0.11318343,0.24819813,0.62608115,74,163,411,43,89,197,0.06685350,0.13646776,0.30067400,0.26505000,0.40629875,0.65598085
18053,0,USIndianaGrant,Indiana,Grant,2020-07-18 17:09:44.025974,2020-04-24 00:00:00.000000,0.11260299,0.24246876,0.59866178,74,159,393,42,87,193,0.06532713,0.13280177,0.29405502,0.26218257,0.38756773,0.64001673
18053,0,USIndianaGrant,Indiana,Grant,2020-07-18 17:09:44.025974,2020-04-25 00:00:00.000000,0.10502400,0.23934750,0.56714408,69,157,373,42,86,187,0.06432708,0.13151339,0.28541697,0.25942612,0.37306684,0.61710859
18053,0,USIndianaGrant,Indiana,Grant,2020-07-18 17:09:44.025974,2020-04-26 00:00:00.000000,0.10665665,0.23036543,0.53491619,70,151,351,41,83,178,0.06320130,0.12708809,0.27190213,0.25446849,0.36859052,0.60847490
18053,0,USIndianaGrant,Indiana,Grant,2020-07-18 17:09:44.025974,2020-04-27 00:00:00.000000,0.10072705,0.22596884,0.50344866,66,148,331,40,82,174,0.06209328,0.12594800,0.26597226,0.25362264,0.36029809,0.59650329
18053,0,USIndianaGrant,Indiana,Grant,2020-07-18 17:09:44.025974,2020-04-28 00:00:00.000000,0.09937593,0.21817063,0.47624415,65,143,313,40,80,165,0.06100449,0.12184703,0.25169769,0.25354682,0.36106388,0.57477883
18053,0,USIndianaGrant,Indiana,Grant,2020-07-18 17:09:44.025974,2020-04-29 00:00:00.000000,0.09734532,0.21370793,0.45528145,64,140,299,39,78,164,0.06020648,0.11983715,0.25001719,0.25360034,0.36442186,0.56829125
18053,0,USIndianaGrant,Indiana,Grant,2020-07-18 17:09:44.025974,2020-04-30 00:00:00.000000,0.09737055,0.20480807,0.43240842,64,134,284,38,76,164,0.05850712,0.11582774,0.25020380,0.25163716,0.36763799,0.56743060
18053,0,USIndianaGrant,Indiana,Grant,2020-07-18 17:09:44.025974,2020-05-01 00:00:00.000000,0.08819108,0.19995070,0.40738131,58,131,267,37,74,163,0.05669366,0.11360931,0.24926619,0.24157795,0.36921714,0.56693211
18053,0,USIndianaGrant,Indiana,Grant,2020-07-18 17:09:44.025974,2020-05-02 00:00:00.000000,0.08862692,0.19308837,0.38576172,58,126,253,35,71,162,0.05368388,0.10908357,0.24664600,0.23705366,0.37457406,0.56586345
18053,0,USIndianaGrant,Indiana,Grant,2020-07-18 17:09:44.025974,2020-05-03 00:00:00.000000,0.08657638,0.18901335,0.37336031,56,124,245,33,71,159,0.05047332,0.10827412,0.24221316,0.23703127,0.37691022,0.57286883
18053,0,USIndianaGrant,Indiana,Grant,2020-07-18 17:09:44.025974,2020-05-04 00:00:00.000000,0.09017249,0.18370301,0.36921753,59,120,242,32,68,157,0.04899478,0.10381350,0.24018224,0.23640059,0.38186017,0.58127190
18053,0,USIndianaGrant,Indiana,Grant,2020-07-18 17:09:44.025974,2020-05-05 00:00:00.000000,0.08585832,0.18103661,0.35765535,56,119,235,30,68,156,0.04671843,0.10347558,0.23746945,0.23415398,0.38563170,0.60364177
18053,0,USIndianaGrant,Indiana,Grant,2020-07-18 17:09:44.025974,2020-05-06 00:00:00.000000,0.08976947,0.17725481,0.35485875,59,116,233,31,64,154,0.04758484,0.09873813,0.23489049,0.23543534,0.38942629,0.62103587
18053,0,USIndianaGrant,Indiana,Grant,2020-07-18 17:09:44.025974,2020-05-07 00:00:00.000000,0.08633459,0.17630553,0.35517138,56,115,233,30,64,153,0.04565862,0.09855896,0.23264577,0.24051294,0.40328849,0.63359782
18053,0,USIndianaGrant,Indiana,Grant,2020-07-18 17:09:44.025974,2020-05-08 00:00:00.000000,0.08713870,0.17182947,0.35049586,57,113,230,29,63,150,0.04538499,0.09604741,0.22922059,0.24493276,0.41724471,0.64440810
18053,0,USIndianaGrant,Indiana,Grant,2020-07-18 17:09:44.025974,2020-05-09 00:00:00.000000,0.08369325,0.17221928,0.34694135,55,113,228,28,63,150,0.04340874,0.09606709,0.22906791,0.24874020,0.42011296,0.64995433
18053,0,USIndianaGrant,Indiana,Grant,2020-07-18 17:09:44.025974,2020-05-10 00:00:00.000000,0.08314880,0.16798931,0.34779804,54,110,228,28,61,150,0.04285135,0.09331143,0.22819083,0.24912113,0.42597460,0.65270270
18053,0,USIndianaGrant,Indiana,Grant,2020-07-18 17:09:44.025974,2020-05-11 00:00:00.000000,0.07891240,0.16663245,0.35112364,51,109,230,27,61,147,0.04152456,0.09296574,0.22364851,0.25398017,0.44129070,0.66708781
18053,0,USIndianaGrant,Indiana,Grant,2020-07-18 17:09:44.025974,2020-05-12 00:00:00.000000,0.08015753,0.16494456,0.35683086,52,108,234,28,60,144,0.04269044,0.09167282,0.21935352,0.26402905,0.44820855,0.68610901
18053,0,USIndianaGrant,Indiana,Grant,2020-07-18 17:09:44.025974,2020-05-13 00:00:00.000000,0.08062150,0.16611675,0.36739539,53,109,241,27,60,141,0.04175880,0.09217792,0.21527361,0.27035453,0.44944804,0.71337491
18053,0,USIndianaGrant,Indiana,Grant,2020-07-18 17:09:44.025974,2020-05-14 00:00:00.000000,0.08255726,0.16661699,0.37726885,54,109,248,28,60,139,0.04367750,0.09185461,0.21137965,0.27594088,0.46628507,0.75825508
18053,0,USIndianaGrant,Indiana,Grant,2020-07-18 17:09:44.025974,2020-05-15 00:00:00.000000,0.08170403,0.17026574,0.38563062,53,111,253,28,61,139,0.04312920,0.09396835,0.21170239,0.28346343,0.49278737,0.77799328
18053,0,USIndianaGrant,Indiana,Grant,2020-07-18 17:09:44.025974,2020-05-16 00:00:00.000000,0.08854338,0.16969542,0.39232416,58,111,258,29,61,142,0.04557934,0.09308090,0.21606527,0.28530515,0.49789370,0.80091050
18053,0,USIndianaGrant,Indiana,Grant,2020-07-18 17:09:44.025974,2020-05-17 00:00:00.000000,0.08665869,0.17489542,0.39744514,56,115,261,30,62,144,0.04606147,0.09480212,0.22025668,0.28955338,0.49924342,0.81225584
18053,0,USIndianaGrant,Indiana,Grant,2020-07-18 17:09:44.025974,2020-05-18 00:00:00.000000,0.09220825,0.17630092,0.40094810,60,115,263,31,62,147,0.04800687,0.09463241,0.22418264,0.28997693,0.50189340,0.81416234
18053,0,USIndianaGrant,Indiana,Grant,2020-07-18 17:09:44.025974,2020-05-19 00:00:00.000000,0.09388836,0.18333881,0.40251092,61,120,264,31,63,149,0.04827834,0.09639240,0.22792051,0.28424481,0.50214246,0.80459462
18053,0,USIndianaGrant,Indiana,Grant,2020-07-18 17:09:44.025974,2020-05-20 00:00:00.000000,0.09945967,0.18456136,0.40237279,65,121,264,32,63,152,0.04894856,0.09645222,0.23130234,0.29701382,0.49835088,0.78683510
18053,0,USIndianaGrant,Indiana,Grant,2020-07-18 17:09:44.025974,2020-05-21 00:00:00.000000,0.10159477,0.19140763,0.40078710,66,125,263,33,65,154,0.05052769,0.09986284,0.23419522,0.29654309,0.49882933,0.77232658
18053,0,USIndianaGrant,Indiana,Grant,2020-07-18 17:09:44.025974,2020-05-22 00:00:00.000000,0.10721564,0.19518206,0.40742557,70,128,267,34,67,155,0.05245318,0.10276655,0.23644734,0.29044811,0.50750925,0.77610237
18053,0,USIndianaGrant,Indiana,Grant,2020-07-18 17:09:44.025974,2020-05-23 00:00:00.000000,0.10593103,0.20046686,0.40340006,69,131,265,35,69,159,0.05471075,0.10516532,0.24261601,0.28388222,0.50389349,0.76861786
18053,0,USIndianaGrant,Indiana,Grant,2020-07-18 17:09:44.025974,2020-05-24 00:00:00.000000,0.11779689,0.20235166,0.40338468,77,133,265,36,71,165,0.05591317,0.10807477,0.25205690,0.27603514,0.49672056,0.75383635
18053,0,USIndianaGrant,Indiana,Grant,2020-07-18 17:09:44.025974,2020-05-25 00:00:00.000000,0.11243711,0.20923974,0.40163640,73,137,264,37,72,169,0.05670346,0.10951575,0.25834080,0.27114737,0.48975524,0.75908312
18053,0,USIndianaGrant,Indiana,Grant,2020-07-18 17:09:44.025974,2020-05-26 00:00:00.000000,0.12010042,0.21066907,0.40138547,78,138,263,38,73,169,0.05820999,0.11238392,0.25751639,0.26718363,0.48294674,0.75530307
18053,0,USIndianaGrant,Indiana,Grant,2020-07-18 17:09:44.025974,2020-05-27 00:00:00.000000,0.12005196,0.21816633,0.40135092,78,143,263,40,76,167,0.06092093,0.11678529,0.25540890,0.25520059,0.48029719,0.75381674
18053,0,USIndianaGrant,Indiana,Grant,2020-07-18 17:09:44.025974,2020-05-28 00:00:00.000000,0.12614206,0.22280263,0.40112495,82,146,263,40,78,168,0.06195262,0.11916933,0.25694185,0.24818853,0.47609102,0.75335124
18053,0,USIndianaGrant,Indiana,Grant,2020-07-18 17:09:44.025974,2020-05-29 00:00:00.000000,0.12819020,0.22940642,0.40128340,84,150,263,41,80,168,0.06249625,0.12266248,0.25573033,0.24560138,0.47205510,0.75408210
18053,0,USIndianaGrant,Indiana,Grant,2020-07-18 17:09:44.025974,2020-05-30 00:00:00.000000,0.12462714,0.23202629,0.39940647,81,152,262,41,83,168,0.06343692,0.12624967,0.25686524,0.23710650,0.46516021,0.75794327
18053,0,USIndianaGrant,Indiana,Grant,2020-07-18 17:09:44.025974,2020-05-31 00:00:00.000000,0.12123806,0.23561723,0.40195724,79,154,264,41,84,170,0.06282141,0.12850829,0.25871757,0.22755862,0.45560541,0.75294056
18053,0,USIndianaGrant,Indiana,Grant,2020-07-18 17:09:44.025974,2020-06-01 00:00:00.000000,0.12382718,0.23461824,0.40581219,81,154,266,40,85,170,0.06190079,0.12967292,0.25908650,0.22439629,0.44662137,0.72438004
18053,0,USIndianaGrant,Indiana,Grant,2020-07-18 17:09:44.025974,2020-06-02 00:00:00.000000,0.12168937,0.23797710,0.40282528,80,156,264,40,85,169,0.06135147,0.12949355,0.25794001,0.22531212,0.44212866,0.67796294
18053,0,USIndianaGrant,Indiana,Grant,2020-07-18 17:09:44.025974,2020-06-03 00:00:00.000000,0.11845630,0.23145733,0.40530314,77,152,266,39,87,167,0.06077747,0.13279740,0.25527719,0.22566230,0.43196210,0.67814736
18053,0,USIndianaGrant,Indiana,Grant,2020-07-18 17:09:44.025974,2020-06-04 00:00:00.000000,0.11382788,0.23025805,0.40470482,74,151,266,40,87,168,0.06094285,0.13254723,0.25587858,0.22110062,0.42564981,0.66112219
18053,0,USIndianaGrant,Indiana,Grant,2020-07-18 17:09:44.025974,2020-06-05 00:00:00.000000,0.11449145,0.22521342,0.40169726,75,148,264,38,86,167,0.05782425,0.13111811,0.25474393,0.21586269,0.40243872,0.63086470
18053,0,USIndianaGrant,Indiana,Grant,2020-07-18 17:09:44.025974,2020-06-06 00:00:00.000000,0.11290015,0.22491514,0.39401180,74,147,259,37,83,165,0.05689002,0.12745160,0.25107261,0.21436034,0.39649367,0.60288170
18053,0,USIndianaGrant,Indiana,Grant,2020-07-18 17:09:44.025974,2020-06-07 00:00:00.000000,0.11324669,0.21609299,0.38554654,74,142,253,36,81,161,0.05496977,0.12436412,0.24624289,0.21366068,0.38098498,0.57337497
18053,0,USIndianaGrant,Indiana,Grant,2020-07-18 17:09:44.025974,2020-06-08 00:00:00.000000,0.11058163,0.21499903,0.37905198,72,141,249,36,78,161,0.05490557,0.11971418,0.24576563,0.22190405,0.37561289,0.55302360
18053,0,USIndianaGrant,Indiana,Grant,2020-07-18 17:09:44.025974,2020-06-09 00:00:00.000000,0.10949216,0.20106779,0.37183978,72,132,244,35,75,161,0.05346532,0.11526788,0.24521349,0.22489961,0.37236891,0.54340041
18053,0,USIndianaGrant,Indiana,Grant,2020-07-18 17:09:44.025974,2020-06-10 00:00:00.000000,0.10356796,0.19816100,0.36209306,68,130,238,34,73,159,0.05297464,0.11219838,0.24233234,0.22607013,0.36926714,0.53237607
18053,0,USIndianaGrant,Indiana,Grant,2020-07-18 17:09:44.025974,2020-06-11 00:00:00.000000,0.10209978,0.18662015,0.35392433,67,122,232,34,70,158,0.05178089,0.10752991,0.24113804,0.22671046,0.37061068,0.52836673
18053,0,USIndianaGrant,Indiana,Grant,2020-07-18 17:09:44.025974,2020-06-12 00:00:00.000000,0.09821512,0.18263274,0.34046110,64,120,223,33,68,156,0.05087590,0.10482432,0.23824502,0.22668151,0.37899640,0.52421041
18053,0,USIndianaGrant,Indiana,Grant,2020-07-18 17:09:44.025974,2020-06-13 00:00:00.000000,0.09408561,0.17587803,0.32745193,61,115,215,31,66,154,0.04840719,0.10166823,0.23541478,0.22481030,0.38000685,0.52409831
18053,0,USIndianaGrant,Indiana,Grant,2020-07-18 17:09:44.025974,2020-06-14 00:00:00.000000,0.08859761,0.17521209,0.31767640,58,115,208,30,64,152,0.04680878,0.09881738,0.23217599,0.22315136,0.37968762,0.52937711
18053,0,USIndianaGrant,Indiana,Grant,2020-07-18 17:09:44.025974,2020-06-15 00:00:00.000000,0.08597312,0.16759768,0.31774167,56,110,208,28,63,150,0.04342979,0.09663026,0.22893449,0.22216781,0.37763416,0.51736908
18053,0,USIndianaGrant,Indiana,Grant,2020-07-18 17:09:44.025974,2020-06-16 00:00:00.000000,0.08306543,0.16671812,0.31890080,54,109,209,27,62,147,0.04205087,0.09490794,0.22444458,0.22218721,0.37702366,0.52924341
18053,0,USIndianaGrant,Indiana,Grant,2020-07-18 17:09:44.025974,2020-06-17 00:00:00.000000,0.08075750,0.15772974,0.31998477,53,103,210,26,60,143,0.04004670,0.09174847,0.21770090,0.22288328,0.38433133,0.53562765
18053,0,USIndianaGrant,Indiana,Grant,2020-07-18 17:09:44.025974,2020-06-18 00:00:00.000000,0.07761808,0.15692986,0.31397146,51,103,206,25,59,138,0.03811276,0.08977612,0.20983538,0.22194392,0.38577087,0.54779333
18053,0,USIndianaGrant,Indiana,Grant,2020-07-18 17:09:44.025974,2020-06-19 00:00:00.000000,0.07356526,0.15334045,0.30667423,48,100,201,23,57,133,0.03627583,0.08682361,0.20222629,0.22194934,0.39481034,0.55635742
18053,0,USIndianaGrant,Indiana,Grant,2020-07-18 17:09:44.025974,2020-06-20 00:00:00.000000,0.07038569,0.15275664,0.30300930,46,100,199,22,56,131,0.03475772,0.08536235,0.19933186,0.22199409,0.40464503,0.57992290
18053,0,USIndianaGrant,Indiana,Grant,2020-07-18 17:09:44.025974,2020-06-21 00:00:00.000000,0.06806204,0.15066255,0.30791797,44,99,202,21,54,129,0.03340416,0.08339905,0.19731981,0.22632661,0.41203363,0.60812944
18053,0,USIndianaGrant,Indiana,Grant,2020-07-18 17:09:44.025974,2020-06-22 00:00:00.000000,0.06720115,0.14991142,0.31590004,44,98,207,21,54,128,0.03246183,0.08341138,0.19583751,0.22635992,0.41566732,0.64223341
18053,0,USIndianaGrant,Indiana,Grant,2020-07-18 17:09:44.025974,2020-06-23 00:00:00.000000,0.06759650,0.14875014,0.32786688,44,97,215,21,53,132,0.03283031,0.08168653,0.20076444,0.22637323,0.42191690,0.66185303
18053,0,USIndianaGrant,Indiana,Grant,2020-07-18 17:09:44.025974,2020-06-24 00:00:00.000000,0.06814776,0.14919673,0.33592356,44,98,220,21,54,137,0.03212409,0.08339728,0.20846761,0.23858672,0.43251851,0.68104986
18053,0,USIndianaGrant,Indiana,Grant,2020-07-18 17:09:44.025974,2020-06-25 00:00:00.000000,0.06767443,0.14649962,0.33746049,44,96,221,20,54,142,0.03158963,0.08236238,0.21666003,0.25226354,0.44082855,0.71445121
18053,0,USIndianaGrant,Indiana,Grant,2020-07-18 17:09:44.025974,2020-06-26 00:00:00.000000,0.06838610,0.14756565,0.33819556,44,97,222,20,54,142,0.03132004,0.08295367,0.21695829,0.26342776,0.46265886,0.75327923
18053,0,USIndianaGrant,Indiana,Grant,2020-07-18 17:09:44.025974,2020-06-27 00:00:00.000000,0.07155973,0.14925398,0.34698525,47,98,228,20,53,142,0.03181180,0.08079097,0.21681721,0.26837041,0.48758541,0.78545011
18053,0,USIndianaGrant,Indiana,Grant,2020-07-18 17:09:44.025974,2020-06-28 00:00:00.000000,0.07475026,0.15444186,0.36451675,49,101,239,21,53,142,0.03314269,0.08167493,0.21654016,0.27266332,0.53228130,0.84788185
18053,0,USIndianaGrant,Indiana,Grant,2020-07-18 17:09:44.025974,2020-06-29 00:00:00.000000,0.07760708,0.15555363,0.38584838,51,102,253,23,54,142,0.03575222,0.08240586,0.21637529,0.28859884,0.56595596,0.90146306
18053,0,USIndianaGrant,Indiana,Grant,2020-07-18 17:09:44.025974,2020-06-30 00:00:00.000000,0.08210866,0.16536649,0.41034903,54,108,269,25,56,147,0.03902442,0.08521214,0.22397118,0.30613154,0.59166162,0.93377772
18053,0,USIndianaGrant,Indiana,Grant,2020-07-18 17:09:44.025974,2020-07-01 00:00:00.000000,0.08684727,0.17715394,0.41715158,57,116,274,25,58,151,0.03949266,0.08819995,0.23033240,0.31763942,0.63947385,1.04352685
18053,0,USIndianaGrant,Indiana,Grant,2020-07-18 17:09:44.025974,2020-07-02 00:00:00.000000,0.09509729,0.19164359,0.44304866,62,126,291,29,62,160,0.04440326,0.09528603,0.24340474,0.38533514,0.68729215,1.12341456
18053,0,USIndianaGrant,Indiana,Grant,2020-07-18 17:09:44.025974,2020-07-03 00:00:00.000000,0.10455216,0.21011659,0.47138992,68,138,310,30,66,176,0.04704029,0.10148035,0.26770783,0.41406374,0.72358279,1.13807731
18053,0,USIndianaGrant,Indiana,Grant,2020-07-18 17:09:44.025974,2020-07-04 00:00:00.000000,0.11218762,0.23225721,0.51425818,73,152,338,35,74,195,0.05366571,0.11343068,0.29753454,0.45516025,0.77823453,1.28002511
18053,0,USIndianaGrant,Indiana,Grant,2020-07-18 17:09:44.025974,2020-07-05 00:00:00.000000,0.12982408,0.26184319,0.57276224,85,172,376,38,82,211,0.05841731,0.12578954,0.32204609,0.49807950,0.84227978,1.35295734
18053,0,USIndianaGrant,Indiana,Grant,2020-07-18 17:09:44.025974,2020-07-06 00:00:00.000000,0.14723223,0.30351412,0.64508119,96,199,424,44,96,229,0.06782876,0.14642811,0.34847416,0.52912488,0.88474933,1.40372992
18053,0,USIndianaGrant,Indiana,Grant,2020-07-18 17:09:44.025974,2020-07-07 00:00:00.000000,0.17002159,0.34271551,0.71758822,111,225,471,50,110,250,0.07606968,0.16796440,0.38074162,0.57158342,0.90965421,1.47233452
18053,0,USIndianaGrant,Indiana,Grant,2020-07-18 17:09:44.025974,2020-07-08 00:00:00.000000,0.19043689,0.38983429,0.79644312,125,256,523,59,125,279,0.08984190,0.19088211,0.42519051,0.58138032,0.92450571,1.51639715
18053,0,USIndianaGrant,Indiana,Grant,2020-07-18 17:09:44.025974,2020-07-09 00:00:00.000000,0.22517322,0.43634361,0.92569706,148,286,608,62,140,318,0.09520774,0.21406141,0.48466428,0.58150136,0.92600412,1.53092485
18053,0,USIndianaGrant,Indiana,Grant,2020-07-18 17:09:44.025974,2020-07-10 00:00:00.000000,0.25958224,0.49423191,1.07271004,170,325,705,80,163,366,0.12242493,0.24905231,0.55662623,0.58155254,0.92862308,1.56730247
18053,0,USIndianaGrant,Indiana,Grant,2020-07-18 17:09:44.025974,2020-07-11 00:00:00.000000,0.31058777,0.57795142,1.25793417,204,380,827,88,185,418,0.13386041,0.28211101,0.63584883,0.58157411,0.93224268,1.56994466
18053,0,USIndianaGrant,Indiana,Grant,2020-07-18 17:09:44.025974,2020-07-12 00:00:00.000000,0.36194501,0.67863354,1.47281628,238,446,968,106,208,477,0.16176952,0.31670128,0.72644781,0.58158319,0.93233047,1.57012845
18053,0,USIndianaGrant,Indiana,Grant,2020-07-18 17:09:44.025974,2020-07-13 00:00:00.000000,0.43820822,0.76674241,1.70209790,288,504,1119,122,238,544,0.18683217,0.36235801,0.82758615,0.58158702,0.93235807,1.57014521
18053,0,USIndianaGrant,Indiana,Grant,2020-07-18 17:09:44.025974,2020-07-14 00:00:00.000000,0.47524854,0.88764891,1.94646260,312,583,1280,149,274,617,0.22799219,0.41746520,0.93856958,0.58158863,0.93236718,1.57014870
18053,0,USIndianaGrant,Indiana,Grant,2020-07-18 17:09:44.025974,2020-07-15 00:00:00.000000,0.55054027,0.99500575,2.22321718,362,654,1462,151,308,719,0.23061226,0.46927225,1.09371273,0.58158930,0.93237036,1.57015018
18053,0,USIndianaGrant,Indiana,Grant,2020-07-18 17:09:44.025974,2020-07-16 00:00:00.000000,0.61981108,1.13254492,2.64879821,407,744,1742,194,346,852,0.29566379,0.52756850,1.29671263,0.58158959,0.93237155,1.57015093
18053,0,USIndianaGrant,Indiana,Grant,2020-07-18 17:09:44.025974,2020-07-17 00:00:00.000000,0.70703877,1.31421677,3.08962966,465,864,2032,178,415,1022,0.27102885,0.63196295,1.55434691,0.58158971,0.93237201,1.57015133
18053,0,USIndianaGrant,Indiana,Grant,2020-07-18 17:09:44.025974,2020-07-18 00:00:00.000000,0.77855227,1.57306075,3.56735741,512,1034,2346,252,492,1214,0.38391688,0.74907089,1.84612488,0.58158976,0.93237221,1.57015154
18053,0,USIndianaGrant,Indiana,Grant,2020-07-18 17:09:44.025974,2020-07-19 00:00:00.000000,0.85870685,1.76509378,4.21348882,564,1160,2771,223,575,1382,0.33966183,0.87459496,2.10156686,0.58158978,0.93237230,1.57015165
18053,0,USIndianaGrant,Indiana,Grant,2020-07-18 17:09:44.025974,2020-07-20 00:00:00.000000,0.94804527,2.06537039,4.98703805,623,1358,3279,308,646,1641,0.46882029,0.98359573,2.49580899,0.58158979,0.93237233,1.57015171
18053,0,USIndianaGrant,Indiana,Grant,2020-07-18 17:09:44.025974,2020-07-21 00:00:00.000000,1.04786806,2.29209026,5.91598527,689,1507,3890,288,750,1935,0.43910840,1.14036379,2.94285599,0.58158979,0.93237235,1.57015174
18053,0,USIndianaGrant,Indiana,Grant,2020-07-18 17:09:44.025974,2020-07-22 00:00:00.000000,1.14393441,2.70519004,6.98467436,752,1779,4593,360,874,2286,0.54755868,1.33024090,3.47650797,0.58158980,0.93237236,1.57015176
18053,0,USIndianaGrant,Indiana,Grant,2020-07-18 17:09:44.025974,2020-07-23 00:00:00.000000,1.27091155,3.08932320,8.20018521,835,2031,5393,368,994,2681,0.56037651,1.51136680,4.07712498,0.58158980,0.93237236,1.57015177
18053,0,USIndianaGrant,Indiana,Grant,2020-07-18 17:09:44.025974,2020-07-24 00:00:00.000000,1.40094210,3.60197609,9.56379613,921,2368,6290,422,1146,3138,0.64234718,1.74263158,4.77207205,0.58158980,0.93237236,1.57015177
18053,0,USIndianaGrant,Indiana,Grant,2020-07-18 17:09:44.025974,2020-07-25 00:00:00.000000,1.53315025,4.09283711,11.02482169,1008,2691,7250,452,1309,3655,0.68845463,1.99056448,5.55829779,0.58158980,0.93237237,1.57015178
18053,0,USIndianaGrant,Indiana,Grant,2020-07-18 17:09:44.025974,2020-07-26 00:00:00.000000,1.65795604,4.69832089,12.54410373,1090,3090,8250,523,1459,4209,0.79644016,2.21976283,6.40029233,0.58158980,0.93237237,1.57015178
18053,0,USIndianaGrant,Indiana,Grant,2020-07-18 17:09:44.025974,2020-07-27 00:00:00.000000,1.79208999,5.28843710,14.12928816,1178,3478,9292,528,1675,4783,0.80334205,2.54688985,7.27294549,0.58158980,0.93237237,1.57015178
18053,0,USIndianaGrant,Indiana,Grant,2020-07-18 17:09:44.025974,2020-07-28 00:00:00.000000,1.93896763,6.08889591,15.97077089,1275,4004,10503,615,1894,5371,0.93626272,2.88071056,8.16753747,0.58158980,0.93237237,1.57015178
18053,0,USIndianaGrant,Indiana,Grant,2020-07-18 17:09:44.025974,2020-07-29 00:00:00.000000,2.09702773,6.68020804,17.63384990,1379,4393,11597,627,2134,5931,0.95387711,3.24545129,9.01886877,0.58158980,0.93237237,1.57015178
18053,0,USIndianaGrant,Indiana,Grant,2020-07-18 17:09:44.025974,2020-07-30 00:00:00.000000,2.26370042,7.82533388,19.53178947,1488,5146,12845,723,2424,6539,1.10025591,3.68668801,9.94358074,0.58158980,0.93237237,1.57015178
