FIPS,HR_UID,nameid,province,region,analysisTime,dates,pointprevalence_025,pointprevalence_50,pointprevalence_975,pointinfections_025,pointinfections_50,pointinfections_975,pointinfectious_025,pointinfectious_50,pointinfectious_975,pointinfectiousprevalence_05,pointinfectiousprevalence_50,pointinfectiousprevalence_95,infectrate_025,infectrate_50,infectrate_975
21021,0,USKentuckyBoyle,Kentucky,Boyle,2020-07-18 16:20:31.909248,2020-03-09 00:00:00.000000,0.00286068,0.05667852,0.18838535,0,17,56,0,2,15,0.00000000,0.00759000,0.05049457,0.50118618,0.71872402,0.96602557
21021,0,USKentuckyBoyle,Kentucky,Boyle,2020-07-18 16:20:31.909248,2020-03-10 00:00:00.000000,0.00337861,0.06055808,0.24062280,1,18,72,0,3,17,0.00022981,0.01102121,0.05662188,0.50118559,0.71872403,0.96600902
21021,0,USKentuckyBoyle,Kentucky,Boyle,2020-07-18 16:20:31.909248,2020-03-11 00:00:00.000000,0.00431127,0.05744656,0.19317217,1,17,58,0,2,11,0.00000000,0.00863365,0.03960140,0.50118423,0.71872404,0.96597739
21021,0,USKentuckyBoyle,Kentucky,Boyle,2020-07-18 16:20:31.909248,2020-03-12 00:00:00.000000,0.00499081,0.06697161,0.24746970,1,20,74,0,3,14,0.00089055,0.01082873,0.04771016,0.50118110,0.71872403,0.96591700
21021,0,USKentuckyBoyle,Kentucky,Boyle,2020-07-18 16:20:31.909248,2020-03-13 00:00:00.000000,0.00595723,0.06271717,0.19084988,1,18,57,0,2,9,0.00000000,0.00909902,0.02998856,0.50117392,0.71872393,0.96580187
21021,0,USKentuckyBoyle,Kentucky,Boyle,2020-07-18 16:20:31.909248,2020-03-14 00:00:00.000000,0.00678902,0.07167358,0.26583095,2,21,79,0,2,11,0.00128201,0.00996651,0.03892511,0.50115741,0.71872335,0.96558304
21021,0,USKentuckyBoyle,Kentucky,Boyle,2020-07-18 16:20:31.909248,2020-03-15 00:00:00.000000,0.00785594,0.06562111,0.20977249,2,19,63,0,2,7,0.00000000,0.00891099,0.02634277,0.50111945,0.71872052,0.96516957
21021,0,USKentuckyBoyle,Kentucky,Boyle,2020-07-18 16:20:31.909248,2020-03-16 00:00:00.000000,0.00815225,0.07582387,0.29977932,2,22,90,0,2,11,0.00150776,0.00986846,0.03758352,0.50103219,0.71870646,0.96439706
21021,0,USKentuckyBoyle,Kentucky,Boyle,2020-07-18 16:20:31.909248,2020-03-17 00:00:00.000000,0.01011794,0.07085397,0.22477594,3,21,67,0,2,8,0.00000000,0.00851477,0.02859693,0.50070261,0.71581632,0.96257020
21021,0,USKentuckyBoyle,Kentucky,Boyle,2020-07-18 16:20:31.909248,2020-03-18 00:00:00.000000,0.00928639,0.07963549,0.33402700,2,23,100,0,3,13,0.00163180,0.01024924,0.04378636,0.49930902,0.70998710,0.95847983
21021,0,USKentuckyBoyle,Kentucky,Boyle,2020-07-18 16:20:31.909248,2020-03-19 00:00:00.000000,0.01294190,0.07786968,0.24720262,3,23,74,0,2,11,0.00000000,0.00910055,0.03842587,0.49680008,0.69338792,0.95175897
21021,0,USKentuckyBoyle,Kentucky,Boyle,2020-07-18 16:20:31.909248,2020-03-20 00:00:00.000000,0.01133574,0.08457191,0.36870716,3,25,110,0,3,17,0.00169373,0.01055081,0.05898048,0.48938209,0.68620454,0.96981452
21021,0,USKentuckyBoyle,Kentucky,Boyle,2020-07-18 16:20:31.909248,2020-03-21 00:00:00.000000,0.01750750,0.08347141,0.27502114,5,25,82,0,2,14,0.00000000,0.00972176,0.04711105,0.47302837,0.68102619,1.08024089
21021,0,USKentuckyBoyle,Kentucky,Boyle,2020-07-18 16:20:31.909248,2020-03-22 00:00:00.000000,0.01941916,0.08549714,0.40457680,5,25,121,0,3,19,0.00171828,0.01112922,0.06622508,0.45782714,0.66787528,1.10827689
21021,0,USKentuckyBoyle,Kentucky,Boyle,2020-07-18 16:20:31.909248,2020-03-23 00:00:00.000000,0.02389292,0.08864702,0.30213048,7,26,90,0,3,15,0.00000000,0.01095121,0.05260855,0.44265714,0.66321473,1.10893985
21021,0,USKentuckyBoyle,Kentucky,Boyle,2020-07-18 16:20:31.909248,2020-03-24 00:00:00.000000,0.02431173,0.09211543,0.44080372,7,27,132,0,3,20,0.00173226,0.01203521,0.06970844,0.43152442,0.65989449,1.10584215
21021,0,USKentuckyBoyle,Kentucky,Boyle,2020-07-18 16:20:31.909248,2020-03-25 00:00:00.000000,0.02906436,0.09378388,0.32746005,8,28,98,0,3,17,0.00000000,0.01078052,0.05897191,0.42332234,0.64625077,1.10945441
21021,0,USKentuckyBoyle,Kentucky,Boyle,2020-07-18 16:20:31.909248,2020-03-26 00:00:00.000000,0.02725972,0.09852235,0.47388953,8,29,142,0,3,22,0.00174988,0.01237397,0.07367904,0.41602218,0.62902519,1.12135917
21021,0,USKentuckyBoyle,Kentucky,Boyle,2020-07-18 16:20:31.909248,2020-03-27 00:00:00.000000,0.03122254,0.10256512,0.37218720,9,30,111,0,3,22,0.00000000,0.01110332,0.07567238,0.40777118,0.62021819,1.18430168
21021,0,USKentuckyBoyle,Kentucky,Boyle,2020-07-18 16:20:31.909248,2020-03-28 00:00:00.000000,0.03047475,0.10874830,0.51913779,9,32,156,0,3,28,0.00175543,0.01245529,0.09642297,0.39850637,0.60925450,1.28187657
21021,0,USKentuckyBoyle,Kentucky,Boyle,2020-07-18 16:20:31.909248,2020-03-29 00:00:00.000000,0.03266529,0.10980880,0.46392273,9,33,139,0,3,43,0.00000000,0.01227854,0.14525711,0.38081510,0.60745467,1.41283792
21021,0,USKentuckyBoyle,Kentucky,Boyle,2020-07-18 16:20:31.909248,2020-03-30 00:00:00.000000,0.03077848,0.11057443,0.69969915,9,33,210,0,3,69,0.00173868,0.01241099,0.23226228,0.35879940,0.59654263,1.53991835
21021,0,USKentuckyBoyle,Kentucky,Boyle,2020-07-18 16:20:31.909248,2020-03-31 00:00:00.000000,0.03275379,0.11142306,0.74599591,9,33,224,0,3,116,0.00000000,0.01284569,0.38749066,0.34353171,0.59100267,2.06058302
21021,0,USKentuckyBoyle,Kentucky,Boyle,2020-07-18 16:20:31.909248,2020-04-01 00:00:00.000000,0.03135992,0.11236224,1.56853257,9,33,471,0,3,198,0.00169090,0.01315490,0.65902145,0.33437158,0.60942270,2.38402250
21021,0,USKentuckyBoyle,Kentucky,Boyle,2020-07-18 16:20:31.909248,2020-04-02 00:00:00.000000,0.03323700,0.11351048,2.11149679,9,34,634,0,4,339,0.00000000,0.01382491,1.12835354,0.32932636,0.60131713,2.56320976
21021,0,USKentuckyBoyle,Kentucky,Boyle,2020-07-18 16:20:31.909248,2020-04-03 00:00:00.000000,0.03246216,0.11537393,3.65285650,9,34,1098,0,4,582,0.00161436,0.01377160,1.93889443,0.32664385,0.57269880,2.69410857
21021,0,USKentuckyBoyle,Kentucky,Boyle,2020-07-18 16:20:31.909248,2020-04-04 00:00:00.000000,0.03405066,0.11567771,6.45161275,10,34,1939,0,4,1008,0.00000000,0.01448638,3.35635056,0.32518083,0.57206044,2.82464044
21021,0,USKentuckyBoyle,Kentucky,Boyle,2020-07-18 16:20:31.909248,2020-04-05 00:00:00.000000,0.03370323,0.11965255,11.74210606,10,35,3529,0,4,1785,0.00151475,0.01443514,5.93825761,0.31917607,0.57454827,2.99543338
21021,0,USKentuckyBoyle,Kentucky,Boyle,2020-07-18 16:20:31.909248,2020-04-06 00:00:00.000000,0.03490106,0.12205840,20.64894170,10,36,6207,0,4,3213,0.00005861,0.01571077,10.68910769,0.31003784,0.57593357,3.13681490
21021,0,USKentuckyBoyle,Kentucky,Boyle,2020-07-18 16:20:31.909248,2020-04-07 00:00:00.000000,0.03494169,0.12745656,34.66086443,10,38,10419,0,4,5559,0.00139864,0.01515043,18.49342291,0.30627163,0.57413871,3.18160653
21021,0,USKentuckyBoyle,Kentucky,Boyle,2020-07-18 16:20:31.909248,2020-04-08 00:00:00.000000,0.03574375,0.13073609,54.65891438,10,39,16430,0,5,9322,0.00016096,0.01702761,31.01381051,0.30055763,0.57358832,3.18101318
21021,0,USKentuckyBoyle,Kentucky,Boyle,2020-07-18 16:20:31.909248,2020-04-09 00:00:00.000000,0.03476625,0.13557661,75.44057320,10,40,22677,0,4,14585,0.00127358,0.01631204,48.51994437,0.29481868,0.57575782,3.15401852
21021,0,USKentuckyBoyle,Kentucky,Boyle,2020-07-18 16:20:31.909248,2020-04-10 00:00:00.000000,0.03678323,0.13753048,88.63840911,11,41,26644,0,5,19908,0.00027422,0.01758044,66.22922990,0.29132863,0.57963217,3.10160865
21021,0,USKentuckyBoyle,Kentucky,Boyle,2020-07-18 16:20:31.909248,2020-04-11 00:00:00.000000,0.03481138,0.14300157,88.18036888,10,42,26507,0,5,23146,0.00115093,0.01742669,77.00116557,0.28923754,0.58645262,3.01919933
21021,0,USKentuckyBoyle,Kentucky,Boyle,2020-07-18 16:20:31.909248,2020-04-12 00:00:00.000000,0.03792698,0.14208470,83.17148969,11,42,25001,0,5,22945,0.00039098,0.01805594,76.33397961,0.28500761,0.60198435,2.90562784
21021,0,USKentuckyBoyle,Kentucky,Boyle,2020-07-18 16:20:31.909248,2020-04-13 00:00:00.000000,0.03572465,0.14905957,77.22727115,10,44,23214,0,5,21666,0.00105688,0.01820690,72.07899249,0.27836712,0.61033366,2.77006109
21021,0,USKentuckyBoyle,Kentucky,Boyle,2020-07-18 16:20:31.909248,2020-04-14 00:00:00.000000,0.03899055,0.15388457,71.88674308,11,46,21609,0,5,20222,0.00050416,0.01876848,67.27332427,0.27403397,0.60123559,2.63351964
21021,0,USKentuckyBoyle,Kentucky,Boyle,2020-07-18 16:20:31.909248,2020-04-15 00:00:00.000000,0.03694588,0.15771379,66.97381865,11,47,20132,0,5,18845,0.00102392,0.01980050,62.69241711,0.27222878,0.61310266,2.51792976
21021,0,USKentuckyBoyle,Kentucky,Boyle,2020-07-18 16:20:31.909248,2020-04-16 00:00:00.000000,0.03993540,0.16230365,62.40182341,12,48,18757,0,6,17559,0.00060386,0.02042663,58.41549770,0.27520178,0.61305650,2.42764144
21021,0,USKentuckyBoyle,Kentucky,Boyle,2020-07-18 16:20:31.909248,2020-04-17 00:00:00.000000,0.03792089,0.16626098,58.14354511,11,49,17477,0,6,16361,0.00101521,0.02108394,54.42945731,0.28153316,0.61807168,2.32257788
21021,0,USKentuckyBoyle,Kentucky,Boyle,2020-07-18 16:20:31.909248,2020-04-18 00:00:00.000000,0.04092842,0.16626205,54.17593678,12,49,16285,0,6,15244,0.00070459,0.02178484,50.71514138,0.28483604,0.62893739,2.01461940
21021,0,USKentuckyBoyle,Kentucky,Boyle,2020-07-18 16:20:31.909248,2020-04-19 00:00:00.000000,0.03884528,0.17291227,50.47891327,11,51,15173,0,6,14204,0.00092630,0.02282261,47.25484000,0.28469309,0.65124769,1.64081908
21021,0,USKentuckyBoyle,Kentucky,Boyle,2020-07-18 16:20:31.909248,2020-04-20 00:00:00.000000,0.04220301,0.17203801,47.03474028,12,51,14138,0,7,13235,0.00082859,0.02362062,44.03022514,0.27984201,0.67186684,1.38376926
21021,0,USKentuckyBoyle,Kentucky,Boyle,2020-07-18 16:20:31.909248,2020-04-21 00:00:00.000000,0.04009032,0.17830769,43.82515517,12,53,13173,0,7,12332,0.00086315,0.02471026,41.02625169,0.26816784,0.67959391,1.27381356
21021,0,USKentuckyBoyle,Kentucky,Boyle,2020-07-18 16:20:31.909248,2020-04-22 00:00:00.000000,0.04370346,0.17595190,40.83518544,13,52,12275,0,7,11490,0.00097175,0.02477086,38.22684897,0.26257493,0.68583954,1.23512552
21021,0,USKentuckyBoyle,Kentucky,Boyle,2020-07-18 16:20:31.909248,2020-04-23 00:00:00.000000,0.04145359,0.18426954,38.04882999,12,55,11437,0,8,10707,0.00082391,0.02675120,35.61895742,0.25772076,0.69061726,1.21553828
21021,0,USKentuckyBoyle,Kentucky,Boyle,2020-07-18 16:20:31.909248,2020-04-24 00:00:00.000000,0.04525172,0.18483756,35.45309447,13,55,10657,0,7,9976,0.00112755,0.02631226,33.18869970,0.25147626,0.69068838,1.18050720
21021,0,USKentuckyBoyle,Kentucky,Boyle,2020-07-18 16:20:31.909248,2020-04-25 00:00:00.000000,0.04273692,0.19393659,33.03416240,12,58,9930,0,8,9295,0.00080294,0.02895288,30.92463330,0.24503726,0.70957440,1.12853043
21021,0,USKentuckyBoyle,Kentucky,Boyle,2020-07-18 16:20:31.909248,2020-04-26 00:00:00.000000,0.04706239,0.19035038,30.78064799,14,57,9252,0,8,8661,0.00129040,0.02825324,28.81482799,0.23945903,0.68489074,1.10383719
21021,0,USKentuckyBoyle,Kentucky,Boyle,2020-07-18 16:20:31.909248,2020-04-27 00:00:00.000000,0.04243887,0.19770631,28.68067387,12,59,8621,0,9,8070,0.00079619,0.03096461,26.84923852,0.23045139,0.68945871,1.09827013
21021,0,USKentuckyBoyle,Kentucky,Boyle,2020-07-18 16:20:31.909248,2020-04-28 00:00:00.000000,0.04936972,0.19372771,26.72424405,14,58,8033,0,9,7520,0.00145804,0.03017732,25.01761211,0.23103238,0.68689710,1.09725112
21021,0,USKentuckyBoyle,Kentucky,Boyle,2020-07-18 16:20:31.909248,2020-04-29 00:00:00.000000,0.04217899,0.20322360,24.90115163,12,61,7485,0,9,7007,0.00078458,0.03291781,23.31113782,0.22961809,0.67377227,1.09702476
21021,0,USKentuckyBoyle,Kentucky,Boyle,2020-07-18 16:20:31.909248,2020-04-30 00:00:00.000000,0.05047980,0.20309806,23.20262844,15,61,6974,0,9,6529,0.00164304,0.03211077,21.72099442,0.22921562,0.66267532,1.09648122
21021,0,USKentuckyBoyle,Kentucky,Boyle,2020-07-18 16:20:31.909248,2020-05-01 00:00:00.000000,0.04340885,0.21588116,21.61989305,13,64,6498,0,10,6083,0.00076719,0.03500747,20.23946668,0.22610444,0.66243855,1.09071118
21021,0,USKentuckyBoyle,Kentucky,Boyle,2020-07-18 16:20:31.909248,2020-05-02 00:00:00.000000,0.05249788,0.21401637,20.14526735,15,64,6055,0,10,5669,0.00183040,0.03424086,18.85895337,0.22270827,0.66353046,1.06813305
21021,0,USKentuckyBoyle,Kentucky,Boyle,2020-07-18 16:20:31.909248,2020-05-03 00:00:00.000000,0.04423911,0.22797736,18.77118470,13,68,5642,0,11,5282,0.00077378,0.03720154,17.57271042,0.21952896,0.66469339,1.06959428
21021,0,USKentuckyBoyle,Kentucky,Boyle,2020-07-18 16:20:31.909248,2020-05-04 00:00:00.000000,0.05482505,0.22268447,17.49093322,16,66,5257,0,11,4922,0.00199871,0.03683758,16.37417819,0.21800949,0.66575944,1.07175753
21021,0,USKentuckyBoyle,Kentucky,Boyle,2020-07-18 16:20:31.909248,2020-05-05 00:00:00.000000,0.04337668,0.23813108,16.29798327,13,71,4899,0,11,4586,0.00084964,0.03926531,15.25747042,0.21774239,0.68178901,1.07382684
21021,0,USKentuckyBoyle,Kentucky,Boyle,2020-07-18 16:20:31.909248,2020-05-06 00:00:00.000000,0.05737888,0.23325522,15.18647657,17,70,4565,0,11,4273,0.00219966,0.03950194,14.21691907,0.21845995,0.68493957,1.07609792
21021,0,USKentuckyBoyle,Kentucky,Boyle,2020-07-18 16:20:31.909248,2020-05-07 00:00:00.000000,0.04271824,0.24917010,14.15077111,12,74,4253,0,12,3982,0.00094662,0.04199668,13.24739292,0.21962823,0.68243044,1.07874098
21021,0,USKentuckyBoyle,Kentucky,Boyle,2020-07-18 16:20:31.909248,2020-05-08 00:00:00.000000,0.06013294,0.24592613,13.18575994,18,73,3963,0,12,3710,0.00242725,0.04239311,12.34398921,0.22015640,0.68585671,1.08139564
21021,0,USKentuckyBoyle,Kentucky,Boyle,2020-07-18 16:20:31.909248,2020-05-09 00:00:00.000000,0.04214518,0.26143416,12.28656290,12,78,3693,0,13,3457,0.00105584,0.04479975,11.50223925,0.22058420,0.68881172,1.10042229
21021,0,USKentuckyBoyle,Kentucky,Boyle,2020-07-18 16:20:31.909248,2020-05-10 00:00:00.000000,0.06316807,0.26141006,11.44873237,18,78,3441,0,13,3221,0.00267726,0.04549345,10.71789870,0.22153615,0.68182741,1.12379248
21021,0,USKentuckyBoyle,Kentucky,Boyle,2020-07-18 16:20:31.909248,2020-05-11 00:00:00.000000,0.04162480,0.27439657,10.66804363,12,82,3206,0,14,3002,0.00116403,0.04765113,9.98707877,0.22269817,0.68892705,1.11530978
21021,0,USKentuckyBoyle,Kentucky,Boyle,2020-07-18 16:20:31.909248,2020-05-12 00:00:00.000000,0.06542358,0.27711894,9.94062617,19,83,2988,0,14,2797,0.00294763,0.04880023,9.30610275,0.21551751,0.69134324,1.13172350
21021,0,USKentuckyBoyle,Kentucky,Boyle,2020-07-18 16:20:31.909248,2020-05-13 00:00:00.000000,0.04131663,0.28640427,9.26282030,12,86,2784,0,15,2606,0.00125467,0.05064514,8.67158842,0.21439034,0.70240339,1.14079817
21021,0,USKentuckyBoyle,Kentucky,Boyle,2020-07-18 16:20:31.909248,2020-05-14 00:00:00.000000,0.06783384,0.29077354,8.63125968,20,87,2594,0,15,2428,0.00329802,0.05219760,8.08034915,0.21556986,0.71963657,1.14388646
21021,0,USKentuckyBoyle,Kentucky,Boyle,2020-07-18 16:20:31.909248,2020-05-15 00:00:00.000000,0.04220305,0.30430391,8.04277247,12,91,2417,0,16,2263,0.00132573,0.05379059,7.52944461,0.21616658,0.72252117,1.17234853
21021,0,USKentuckyBoyle,Kentucky,Boyle,2020-07-18 16:20:31.909248,2020-05-16 00:00:00.000000,0.07097403,0.30543201,7.49443212,21,91,2252,1,16,2109,0.00367978,0.05543075,7.01611187,0.21644936,0.72722088,1.21197218
21021,0,USKentuckyBoyle,Kentucky,Boyle,2020-07-18 16:20:31.909248,2020-05-17 00:00:00.000000,0.04364989,0.32430125,7.05229195,13,97,2119,0,17,1965,0.00138417,0.05713288,6.53779559,0.21050661,0.73276564,1.29973063
21021,0,USKentuckyBoyle,Kentucky,Boyle,2020-07-18 16:20:31.909248,2020-05-18 00:00:00.000000,0.07549248,0.32759707,7.02549946,22,98,2111,1,17,1831,0.00407784,0.05891651,6.09209946,0.19130327,0.71808017,1.39152737
21021,0,USKentuckyBoyle,Kentucky,Boyle,2020-07-18 16:20:31.909248,2020-05-19 00:00:00.000000,0.04489706,0.34471706,6.83492434,13,103,2054,0,18,1706,0.00142067,0.06079204,5.67680329,0.17491132,0.71896335,1.43130808
21021,0,USKentuckyBoyle,Kentucky,Boyle,2020-07-18 16:20:31.909248,2020-05-20 00:00:00.000000,0.07821769,0.34427679,6.66658967,23,103,2003,1,18,1590,0.00448252,0.06276644,5.28982826,0.16085177,0.72558274,1.44025506
21021,0,USKentuckyBoyle,Kentucky,Boyle,2020-07-18 16:20:31.909248,2020-05-21 00:00:00.000000,0.04596546,0.35967964,6.60517701,13,108,1985,0,19,1481,0.00143212,0.06484270,4.92924574,0.15204842,0.72540267,1.43041205
21021,0,USKentuckyBoyle,Kentucky,Boyle,2020-07-18 16:20:31.909248,2020-05-22 00:00:00.000000,0.08133347,0.36541982,6.51289224,24,109,1957,1,20,1380,0.00489667,0.06702035,4.59325200,0.14680128,0.75329281,1.41635084
21021,0,USKentuckyBoyle,Kentucky,Boyle,2020-07-18 16:20:31.909248,2020-05-23 00:00:00.000000,0.04702678,0.37978905,7.24953212,14,114,2179,0,20,1286,0.00143505,0.06929817,4.28017193,0.14374959,0.77530178,1.41130172
21021,0,USKentuckyBoyle,Kentucky,Boyle,2020-07-18 16:20:31.909248,2020-05-24 00:00:00.000000,0.08508178,0.39474669,7.13350888,25,118,2144,1,21,1198,0.00532650,0.07167522,3.98844027,0.14220969,0.80363043,1.44358138
21021,0,USKentuckyBoyle,Kentucky,Boyle,2020-07-18 16:20:31.909248,2020-05-25 00:00:00.000000,0.04860146,0.40826911,7.94424220,14,122,2388,0,22,1117,0.00146462,0.07412356,3.71660223,0.14162261,0.81346437,1.42293414
21021,0,USKentuckyBoyle,Kentucky,Boyle,2020-07-18 16:20:31.909248,2020-05-26 00:00:00.000000,0.08904270,0.41790403,7.54743051,26,125,2268,1,22,1041,0.00578872,0.07626332,3.46329938,0.14204432,0.84471461,1.32372506
21021,0,USKentuckyBoyle,Kentucky,Boyle,2020-07-18 16:20:31.909248,2020-05-27 00:00:00.000000,0.05075121,0.42798975,8.16884431,15,128,2455,0,23,970,0.00162231,0.07849819,3.22726837,0.14732178,0.83541472,1.32509001
21021,0,USKentuckyBoyle,Kentucky,Boyle,2020-07-18 16:20:31.909248,2020-05-28 00:00:00.000000,0.09301101,0.44022044,7.69326147,27,132,2312,1,24,904,0.00632452,0.08087884,3.00733014,0.17660820,0.82964835,1.31905128
21021,0,USKentuckyBoyle,Kentucky,Boyle,2020-07-18 16:20:31.909248,2020-05-29 00:00:00.000000,0.05250784,0.45563383,8.33630801,15,136,2505,0,25,842,0.00183772,0.08349745,2.80238767,0.20763376,0.84449058,1.30663030
21021,0,USKentuckyBoyle,Kentucky,Boyle,2020-07-18 16:20:31.909248,2020-05-30 00:00:00.000000,0.09591681,0.47538943,8.36666144,28,142,2515,2,25,794,0.00696277,0.08628063,2.64199772,0.20866787,0.83288584,1.28959016
21021,0,USKentuckyBoyle,Kentucky,Boyle,2020-07-18 16:20:31.909248,2020-05-31 00:00:00.000000,0.05408218,0.49167295,9.20210110,16,147,2766,0,26,796,0.00209967,0.08917241,2.65114970,0.21306209,0.82505099,1.26577985
21021,0,USKentuckyBoyle,Kentucky,Boyle,2020-07-18 16:20:31.909248,2020-06-01 00:00:00.000000,0.09690621,0.50813603,9.19498553,29,152,2764,2,27,783,0.00764567,0.09217564,2.60660028,0.23175945,0.82055862,1.26171395
21021,0,USKentuckyBoyle,Kentucky,Boyle,2020-07-18 16:20:31.909248,2020-06-02 00:00:00.000000,0.05568784,0.52480434,10.06191245,16,157,3024,0,28,768,0.00239156,0.09530858,2.55499679,0.23065876,0.82187342,1.27436829
21021,0,USKentuckyBoyle,Kentucky,Boyle,2020-07-18 16:20:31.909248,2020-06-03 00:00:00.000000,0.09789513,0.54174867,10.00008248,29,162,3006,2,29,755,0.00837054,0.09858410,2.51194900,0.22378633,0.83194858,1.27233790
21021,0,USKentuckyBoyle,Kentucky,Boyle,2020-07-18 16:20:31.909248,2020-06-04 00:00:00.000000,0.05766412,0.55904223,10.92199318,17,168,3283,0,30,744,0.00272238,0.10141625,2.47676460,0.21997285,0.84207638,1.26506479
21021,0,USKentuckyBoyle,Kentucky,Boyle,2020-07-18 16:20:31.909248,2020-06-05 00:00:00.000000,0.09949155,0.57675149,10.85810505,29,173,3263,2,31,759,0.00913925,0.10393209,2.52633166,0.22389753,0.88386090,1.25850924
21021,0,USKentuckyBoyle,Kentucky,Boyle,2020-07-18 16:20:31.909248,2020-06-06 00:00:00.000000,0.06052929,0.59494360,11.99932613,18,178,3606,0,32,794,0.00308621,0.10654264,2.64235460,0.22789211,0.90064943,1.25545621
21021,0,USKentuckyBoyle,Kentucky,Boyle,2020-07-18 16:20:31.909248,2020-06-07 00:00:00.000000,0.10198533,0.61366501,12.12404773,30,184,3644,2,32,831,0.00952817,0.10925592,2.76537884,0.22977657,0.91565735,1.25662227
21021,0,USKentuckyBoyle,Kentucky,Boyle,2020-07-18 16:20:31.909248,2020-06-08 00:00:00.000000,0.06407217,0.63287744,13.47383149,19,190,4050,1,33,870,0.00347345,0.11209600,2.89563512,0.23258028,0.93173043,1.25734302
21021,0,USKentuckyBoyle,Kentucky,Boyle,2020-07-18 16:20:31.909248,2020-06-09 00:00:00.000000,0.10529145,0.65247038,13.53489801,31,196,4068,2,34,911,0.00993704,0.11509838,3.03333379,0.24001793,0.94325227,1.26927841
21021,0,USKentuckyBoyle,Kentucky,Boyle,2020-07-18 16:20:31.909248,2020-06-10 00:00:00.000000,0.06791478,0.67238491,15.03238040,20,202,4518,1,35,918,0.00389045,0.11828449,3.05709944,0.25201227,0.96149530,1.30083645
21021,0,USKentuckyBoyle,Kentucky,Boyle,2020-07-18 16:20:31.909248,2020-06-11 00:00:00.000000,0.10848236,0.69269339,15.01032910,32,208,4512,3,36,922,0.01038059,0.12165809,3.06856049,0.25728003,0.95815807,1.33239246
21021,0,USKentuckyBoyle,Kentucky,Boyle,2020-07-18 16:20:31.909248,2020-06-12 00:00:00.000000,0.07222793,0.71363474,16.65358115,21,214,5006,1,37,934,0.00432267,0.12521781,3.10717426,0.26333772,0.94981966,1.45027948
21021,0,USKentuckyBoyle,Kentucky,Boyle,2020-07-18 16:20:31.909248,2020-06-13 00:00:00.000000,0.11129431,0.73573855,16.54984582,33,221,4974,3,38,937,0.01085579,0.12896239,3.11930498,0.26830730,0.90362096,1.53902938
21021,0,USKentuckyBoyle,Kentucky,Boyle,2020-07-18 16:20:31.909248,2020-06-14 00:00:00.000000,0.07737022,0.76004072,18.34393402,23,228,5514,1,39,961,0.00475179,0.13289135,3.19932780,0.27265664,0.85893507,1.61554537
21021,0,USKentuckyBoyle,Kentucky,Boyle,2020-07-18 16:20:31.909248,2020-06-15 00:00:00.000000,0.11392249,0.78788662,18.16779684,34,236,5461,3,41,937,0.01133456,0.13700433,3.11801194,0.27558001,0.83715672,1.68590743
21021,0,USKentuckyBoyle,Kentucky,Boyle,2020-07-18 16:20:31.909248,2020-06-16 00:00:00.000000,0.08323980,0.76795071,20.11987631,25,230,6048,1,42,1073,0.00516631,0.14130016,3.57201802,0.27936446,0.80243668,1.71287539
21021,0,USKentuckyBoyle,Kentucky,Boyle,2020-07-18 16:20:31.909248,2020-06-17 00:00:00.000000,0.11681059,0.74728245,19.87481891,35,224,5974,3,43,1011,0.01178855,0.14569690,3.36609702,0.27827749,0.77953639,1.69330067
21021,0,USKentuckyBoyle,Kentucky,Boyle,2020-07-18 16:20:31.909248,2020-06-18 00:00:00.000000,0.09004580,0.75251897,21.98963543,27,226,6610,1,44,1197,0.00554793,0.14952272,3.98427179,0.27625138,0.77551015,1.66104341
21021,0,USKentuckyBoyle,Kentucky,Boyle,2020-07-18 16:20:31.909248,2020-06-19 00:00:00.000000,0.12258340,0.77302072,21.67375826,36,232,6515,3,46,1118,0.01221507,0.15342129,3.72088143,0.28000389,0.79259150,1.62137838
21021,0,USKentuckyBoyle,Kentucky,Boyle,2020-07-18 16:20:31.909248,2020-06-20 00:00:00.000000,0.09908197,0.78787260,23.94475399,29,236,7197,1,47,1334,0.00588803,0.15743778,4.43851228,0.28384442,0.82624138,1.57695050
21021,0,USKentuckyBoyle,Kentucky,Boyle,2020-07-18 16:20:31.909248,2020-06-21 00:00:00.000000,0.12784851,0.81991399,23.51458150,38,246,7068,3,48,1249,0.01266304,0.16165532,4.15617537,0.28583813,0.84177145,1.56322518
21021,0,USKentuckyBoyle,Kentucky,Boyle,2020-07-18 16:20:31.909248,2020-06-22 00:00:00.000000,0.11064643,0.85167966,25.86940264,33,256,7776,1,49,1483,0.00628347,0.16611768,4.93365503,0.28839142,0.84663895,1.56804177
21021,0,USKentuckyBoyle,Kentucky,Boyle,2020-07-18 16:20:31.909248,2020-06-23 00:00:00.000000,0.13391814,0.89685279,25.30529612,40,269,7606,4,51,1391,0.01335796,0.17083112,4.62924664,0.29071668,0.84728078,1.58143617
21021,0,USKentuckyBoyle,Kentucky,Boyle,2020-07-18 16:20:31.909248,2020-06-24 00:00:00.000000,0.11960142,0.93789744,27.76121904,35,281,8345,2,52,1642,0.00672500,0.17579431,5.46460404,0.29347326,0.84782075,1.58192524
21021,0,USKentuckyBoyle,Kentucky,Boyle,2020-07-18 16:20:31.909248,2020-06-25 00:00:00.000000,0.14355308,0.97994960,27.13111090,43,294,8155,4,54,1544,0.01417964,0.18100562,5.13652074,0.29661544,0.84474382,1.58131171
21021,0,USKentuckyBoyle,Kentucky,Boyle,2020-07-18 16:20:31.909248,2020-06-26 00:00:00.000000,0.12382625,1.03369965,29.67811673,37,310,8921,2,56,1813,0.00717768,0.18646440,6.03357362,0.30054883,0.83761513,1.57939439
21021,0,USKentuckyBoyle,Kentucky,Boyle,2020-07-18 16:20:31.909248,2020-06-27 00:00:00.000000,0.15221942,1.09100761,28.96297624,45,327,8706,4,57,1706,0.01512215,0.19217173,5.67618659,0.30046762,0.85791701,1.60487398
21021,0,USKentuckyBoyle,Kentucky,Boyle,2020-07-18 16:20:31.909248,2020-06-28 00:00:00.000000,0.12816316,1.15325310,31.57231104,38,346,9490,2,59,1995,0.00767307,0.19868253,6.63746812,0.30031873,0.85890493,1.73190889
21021,0,USKentuckyBoyle,Kentucky,Boyle,2020-07-18 16:20:31.909248,2020-06-29 00:00:00.000000,0.15950569,1.22322635,30.78649899,47,367,9254,4,61,1877,0.01654443,0.20621849,6.24435723,0.29691384,0.85336769,1.87730267
21021,0,USKentuckyBoyle,Kentucky,Boyle,2020-07-18 16:20:31.909248,2020-06-30 00:00:00.000000,0.13247255,1.30397822,33.46015475,39,391,10058,2,63,2180,0.00829859,0.21124049,7.25412573,0.29436316,0.85843137,1.92563123
21021,0,USKentuckyBoyle,Kentucky,Boyle,2020-07-18 16:20:31.909248,2020-07-01 00:00:00.000000,0.17384162,1.38796824,32.62989620,52,417,9808,5,61,2054,0.01836694,0.20483725,6.83553561,0.29419317,0.87328027,1.94051468
21021,0,USKentuckyBoyle,Kentucky,Boyle,2020-07-18 16:20:31.909248,2020-07-02 00:00:00.000000,0.13640115,1.41079991,35.38130113,41,424,10635,2,59,2367,0.00904608,0.19918563,7.87626624,0.29356174,0.88590410,1.94453592
21021,0,USKentuckyBoyle,Kentucky,Boyle,2020-07-18 16:20:31.909248,2020-07-03 00:00:00.000000,0.19178370,1.46693281,34.53751543,57,440,10381,6,58,2238,0.02060736,0.19423620,7.44690284,0.29031934,0.89421478,2.03607463
21021,0,USKentuckyBoyle,Kentucky,Boyle,2020-07-18 16:20:31.909248,2020-07-04 00:00:00.000000,0.14071802,1.54898572,37.38338885,42,465,11237,3,57,2560,0.01002498,0.18993100,8.51962714,0.28765301,0.90262159,2.10148984
21021,0,USKentuckyBoyle,Kentucky,Boyle,2020-07-18 16:20:31.909248,2020-07-05 00:00:00.000000,0.20152855,1.61425881,36.50056887,60,485,10972,6,55,2428,0.02325333,0.18618134,8.07845937,0.28694659,0.90935435,2.11994575
21021,0,USKentuckyBoyle,Kentucky,Boyle,2020-07-18 16:20:31.909248,2020-07-06 00:00:00.000000,0.14625849,1.68322488,39.37672308,43,505,11836,3,54,2761,0.01125359,0.18283401,9.18502360,0.27389270,0.91301321,2.13336502
21021,0,USKentuckyBoyle,Kentucky,Boyle,2020-07-18 16:20:31.909248,2020-07-07 00:00:00.000000,0.20497823,1.75732093,38.35108113,61,528,11528,7,56,2624,0.02630427,0.18918233,8.73061574,0.25646059,0.91429397,2.20282014
21021,0,USKentuckyBoyle,Kentucky,Boyle,2020-07-18 16:20:31.909248,2020-07-08 00:00:00.000000,0.15194042,1.83707396,41.16836525,45,552,12375,3,58,2966,0.01205221,0.19536372,9.86699363,0.25144858,0.92196668,2.21157555
21021,0,USKentuckyBoyle,Kentucky,Boyle,2020-07-18 16:20:31.909248,2020-07-09 00:00:00.000000,0.17830046,1.92196389,39.98059327,53,577,12018,8,62,2826,0.02837966,0.20920826,9.40212454,0.24831835,0.92602810,2.23373001
21021,0,USKentuckyBoyle,Kentucky,Boyle,2020-07-18 16:20:31.909248,2020-07-10 00:00:00.000000,0.14533205,2.01150117,42.74051391,43,604,12847,3,66,3173,0.01295708,0.22056634,10.55816841,0.24729288,0.92705585,2.24566982
21021,0,USKentuckyBoyle,Kentucky,Boyle,2020-07-18 16:20:31.909248,2020-07-11 00:00:00.000000,0.16069208,2.11115045,41.44521473,48,634,12458,8,69,3032,0.02960487,0.23220047,10.08812152,0.24709306,0.92747785,2.25187609
21021,0,USKentuckyBoyle,Kentucky,Boyle,2020-07-18 16:20:31.909248,2020-07-12 00:00:00.000000,0.15384464,2.24739400,44.14970476,46,675,13271,4,73,3382,0.01422632,0.24457116,11.25119470,0.24703118,0.92767348,2.25504137
21021,0,USKentuckyBoyle,Kentucky,Boyle,2020-07-18 16:20:31.909248,2020-07-13 00:00:00.000000,0.14747120,2.37042991,42.78395374,44,712,12860,9,77,3241,0.03093050,0.25774962,10.78177985,0.24701159,0.92776584,2.25664032
21021,0,USKentuckyBoyle,Kentucky,Boyle,2020-07-18 16:20:31.909248,2020-07-14 00:00:00.000000,0.14292289,2.47230361,45.41774813,42,743,13652,4,81,3588,0.01612662,0.27180250,11.93934571,0.24700521,0.92780952,2.25744430
21021,0,USKentuckyBoyle,Kentucky,Boyle,2020-07-18 16:20:31.909248,2020-07-15 00:00:00.000000,0.13990370,2.57903347,44.00945310,42,775,13229,9,86,3484,0.03235471,0.28679548,11.59133413,0.24700306,0.92783016,2.25784769
21021,0,USKentuckyBoyle,Kentucky,Boyle,2020-07-18 16:20:31.909248,2020-07-16 00:00:00.000000,0.13711743,2.74354001,47.41511755,41,824,14252,5,92,3792,0.01829854,0.30651980,12.61662904,0.24700231,0.92783991,2.25804990
21021,0,USKentuckyBoyle,Kentucky,Boyle,2020-07-18 16:20:31.909248,2020-07-17 00:00:00.000000,0.13454878,2.88251085,44.73177913,40,866,13446,10,96,3737,0.03390585,0.32113194,12.43375211,0.24700204,0.92784451,2.25815123
21021,0,USKentuckyBoyle,Kentucky,Boyle,2020-07-18 16:20:31.909248,2020-07-18 00:00:00.000000,0.13218342,3.06333195,49.42434266,39,920,14856,6,105,3991,0.02015651,0.34946877,13.27781898,0.24700194,0.92784668,2.25820202
21021,0,USKentuckyBoyle,Kentucky,Boyle,2020-07-18 16:20:31.909248,2020-07-19 00:00:00.000000,0.13000802,3.16822297,47.56777531,39,952,14298,10,110,3993,0.03623683,0.36893742,13.28512114,0.24700190,0.92784771,2.25822747
21021,0,USKentuckyBoyle,Kentucky,Boyle,2020-07-18 16:20:31.909248,2020-07-20 00:00:00.000000,0.12801011,3.45345002,50.75701499,38,1038,15257,6,119,4183,0.02168369,0.39751932,13.91851327,0.24700189,0.92784819,2.25824022
21021,0,USKentuckyBoyle,Kentucky,Boyle,2020-07-18 16:20:31.909248,2020-07-21 00:00:00.000000,0.12617805,3.49277352,50.16629766,37,1049,15079,11,117,4249,0.03874945,0.39055138,14.13658960,0.24700188,0.92784842,2.25824662
21021,0,USKentuckyBoyle,Kentucky,Boyle,2020-07-18 16:20:31.909248,2020-07-22 00:00:00.000000,0.12450098,3.82582539,53.34424946,37,1150,16035,7,116,4376,0.02331866,0.38855521,14.55970160,0.24700188,0.92784853,2.25824982
21021,0,USKentuckyBoyle,Kentucky,Boyle,2020-07-18 16:20:31.909248,2020-07-23 00:00:00.000000,0.12296875,3.90671088,52.54798052,36,1174,15795,12,116,4502,0.04145707,0.38616584,14.97970791,0.24700188,0.92784858,2.25825143
21021,0,USKentuckyBoyle,Kentucky,Boyle,2020-07-18 16:20:31.909248,2020-07-24 00:00:00.000000,0.12157189,4.23697679,55.76157764,36,1273,16761,7,115,4627,0.02506667,0.38557230,15.39563764,0.24700188,0.92784860,2.25825224
21021,0,USKentuckyBoyle,Kentucky,Boyle,2020-07-18 16:20:31.909248,2020-07-25 00:00:00.000000,0.12030158,4.31527421,54.75755579,36,1297,16460,12,117,4751,0.04092132,0.39190883,15.80656383,0.24700188,0.92784861,2.25825264
21021,0,USKentuckyBoyle,Kentucky,Boyle,2020-07-18 16:20:31.909248,2020-07-26 00:00:00.000000,0.11914955,4.61461422,57.97449648,35,1387,17427,8,125,4873,0.02698895,0.41741091,16.21160924,0.24700188,0.92784862,2.25825285
21021,0,USKentuckyBoyle,Kentucky,Boyle,2020-07-18 16:20:31.909248,2020-07-27 00:00:00.000000,0.11810810,4.71857714,56.76683398,35,1418,17064,11,133,4992,0.03749645,0.44446655,16.60995117,0.24700188,0.92784862,2.25825295
21021,0,USKentuckyBoyle,Kentucky,Boyle,2020-07-18 16:20:31.909248,2020-07-28 00:00:00.000000,0.11717005,5.14178813,59.95596248,35,1545,18022,8,142,5110,0.02796798,0.47315378,17.00082621,0.24700188,0.92784862,2.25825300
21021,0,USKentuckyBoyle,Kentucky,Boyle,2020-07-18 16:20:31.909248,2020-07-29 00:00:00.000000,0.11632869,5.20373923,58.55538122,34,1564,17601,10,151,5225,0.03574041,0.50355198,17.38353411,0.24700188,0.92784862,2.25825302
21021,0,USKentuckyBoyle,Kentucky,Boyle,2020-07-18 16:20:31.909248,2020-07-30 00:00:00.000000,0.11557774,5.48761257,61.68826812,34,1649,18543,7,161,5337,0.02542991,0.53650847,17.75744103,0.24700188,0.92784862,2.25825304
