FIPS,HR_UID,nameid,province,region,analysisTime,dates,pointprevalence_025,pointprevalence_50,pointprevalence_975,pointinfections_025,pointinfections_50,pointinfections_975,pointinfectious_025,pointinfectious_50,pointinfectious_975,pointinfectiousprevalence_05,pointinfectiousprevalence_50,pointinfectiousprevalence_95,infectrate_025,infectrate_50,infectrate_975
45089,0,USSouthCarolinaWilliamsburg,South Carolina,Williamsburg,2020-07-18 05:28:39.281726,2020-03-09 00:00:00.000000,0.00792841,0.04130246,0.16606540,2,12,50,0,4,15,0.00185537,0.01344651,0.05014548,0.57819845,0.78932646,1.07725030
45089,0,USSouthCarolinaWilliamsburg,South Carolina,Williamsburg,2020-07-18 05:28:39.281726,2020-03-10 00:00:00.000000,0.00886383,0.04436989,0.17363069,2,13,52,0,4,14,0.00285257,0.01411088,0.04792666,0.57820111,0.78932639,1.07744865
45089,0,USSouthCarolinaWilliamsburg,South Carolina,Williamsburg,2020-07-18 05:28:39.281726,2020-03-11 00:00:00.000000,0.00954209,0.04441958,0.17948428,2,13,54,0,4,15,0.00234964,0.01375429,0.05195588,0.57820544,0.78932622,1.07781987
45089,0,USSouthCarolinaWilliamsburg,South Carolina,Williamsburg,2020-07-18 05:28:39.281726,2020-03-12 00:00:00.000000,0.01028420,0.04795091,0.18556262,3,14,56,1,4,16,0.00345981,0.01515421,0.05273008,0.57821230,0.78937873,1.07851259
45089,0,USSouthCarolinaWilliamsburg,South Carolina,Williamsburg,2020-07-18 05:28:39.281726,2020-03-13 00:00:00.000000,0.01109542,0.04885088,0.19420209,3,14,58,0,4,16,0.00314314,0.01481224,0.05327772,0.57822247,0.79027011,1.07979818
45089,0,USSouthCarolinaWilliamsburg,South Carolina,Williamsburg,2020-07-18 05:28:39.281726,2020-03-14 00:00:00.000000,0.01220702,0.05386501,0.20482511,3,16,62,1,4,16,0.00420209,0.01625823,0.05355772,0.57823556,0.79026800,1.08150165
45089,0,USSouthCarolinaWilliamsburg,South Carolina,Williamsburg,2020-07-18 05:28:39.281726,2020-03-15 00:00:00.000000,0.01362493,0.05442859,0.21798695,4,16,66,1,4,16,0.00420681,0.01635486,0.05352005,0.57824633,0.79142658,1.08242199
45089,0,USSouthCarolinaWilliamsburg,South Carolina,Williamsburg,2020-07-18 05:28:39.281726,2020-03-16 00:00:00.000000,0.01507180,0.05809123,0.23298450,4,17,70,1,5,17,0.00486172,0.01818549,0.05640923,0.57823421,0.79466877,1.09392645
45089,0,USSouthCarolinaWilliamsburg,South Carolina,Williamsburg,2020-07-18 05:28:39.281726,2020-03-17 00:00:00.000000,0.01628182,0.05885534,0.24746516,4,17,75,1,5,18,0.00551364,0.01825489,0.05987523,0.57813757,0.79648898,1.09678439
45089,0,USSouthCarolinaWilliamsburg,South Carolina,Williamsburg,2020-07-18 05:28:39.281726,2020-03-18 00:00:00.000000,0.01843048,0.06587083,0.26176304,5,20,79,1,6,19,0.00626875,0.02050640,0.06276017,0.57780716,0.80026043,1.10040570
45089,0,USSouthCarolinaWilliamsburg,South Carolina,Williamsburg,2020-07-18 05:28:39.281726,2020-03-19 00:00:00.000000,0.01996926,0.06659487,0.27703258,6,20,84,2,6,20,0.00684341,0.02063545,0.06735961,0.57699346,0.81348325,1.10461446
45089,0,USSouthCarolinaWilliamsburg,South Carolina,Williamsburg,2020-07-18 05:28:39.281726,2020-03-20 00:00:00.000000,0.02112199,0.07297501,0.29324696,6,22,89,2,6,21,0.00727583,0.02271937,0.07228517,0.56979767,0.83544392,1.14368380
45089,0,USSouthCarolinaWilliamsburg,South Carolina,Williamsburg,2020-07-18 05:28:39.281726,2020-03-21 00:00:00.000000,0.02266272,0.07531231,0.30807158,6,22,93,2,7,23,0.00788022,0.02360514,0.07756052,0.56770209,0.83340130,1.21466919
45089,0,USSouthCarolinaWilliamsburg,South Carolina,Williamsburg,2020-07-18 05:28:39.281726,2020-03-22 00:00:00.000000,0.02367340,0.08247400,0.32274576,7,25,98,2,7,25,0.00881470,0.02526626,0.08320855,0.57306113,0.84708472,1.24819268
45089,0,USSouthCarolinaWilliamsburg,South Carolina,Williamsburg,2020-07-18 05:28:39.281726,2020-03-23 00:00:00.000000,0.02581300,0.08613351,0.34114229,7,26,103,2,8,27,0.00897377,0.02642380,0.08917812,0.57279277,0.86013273,1.27047790
45089,0,USSouthCarolinaWilliamsburg,South Carolina,Williamsburg,2020-07-18 05:28:39.281726,2020-03-24 00:00:00.000000,0.02897812,0.09529441,0.37090645,8,28,112,2,8,28,0.00920344,0.02880062,0.09451644,0.56148233,0.86769412,1.27216200
45089,0,USSouthCarolinaWilliamsburg,South Carolina,Williamsburg,2020-07-18 05:28:39.281726,2020-03-25 00:00:00.000000,0.03055270,0.09986934,0.39543615,9,30,120,2,9,29,0.00970067,0.03051232,0.09859924,0.55390289,0.88270916,1.26486090
45089,0,USSouthCarolinaWilliamsburg,South Carolina,Williamsburg,2020-07-18 05:28:39.281726,2020-03-26 00:00:00.000000,0.03268657,0.11180647,0.42119352,9,33,127,3,10,31,0.01059580,0.03318133,0.10413256,0.54821436,0.88749416,1.26998784
45089,0,USSouthCarolinaWilliamsburg,South Carolina,Williamsburg,2020-07-18 05:28:39.281726,2020-03-27 00:00:00.000000,0.03504408,0.11435647,0.44848478,10,34,136,3,10,33,0.01101848,0.03491807,0.11101534,0.54893645,0.89565444,1.29082939
45089,0,USSouthCarolinaWilliamsburg,South Carolina,Williamsburg,2020-07-18 05:28:39.281726,2020-03-28 00:00:00.000000,0.03798893,0.13131684,0.47755406,11,39,145,3,11,36,0.01144263,0.03793165,0.12135934,0.55324210,0.91928480,1.30847930
45089,0,USSouthCarolinaWilliamsburg,South Carolina,Williamsburg,2020-07-18 05:28:39.281726,2020-03-29 00:00:00.000000,0.04111618,0.13516546,0.52196933,12,41,158,3,12,40,0.01195426,0.03989134,0.13240217,0.55103084,0.92457290,1.31248645
45089,0,USSouthCarolinaWilliamsburg,South Carolina,Williamsburg,2020-07-18 05:28:39.281726,2020-03-30 00:00:00.000000,0.04485917,0.15446314,0.56473873,13,46,171,3,13,43,0.01256068,0.04429049,0.14487143,0.56247521,0.94079733,1.32373281
45089,0,USSouthCarolinaWilliamsburg,South Carolina,Williamsburg,2020-07-18 05:28:39.281726,2020-03-31 00:00:00.000000,0.04926934,0.15814057,0.60608208,14,48,184,4,13,46,0.01415468,0.04551032,0.15364667,0.55817905,0.94531300,1.32607519
45089,0,USSouthCarolinaWilliamsburg,South Carolina,Williamsburg,2020-07-18 05:28:39.281726,2020-04-01 00:00:00.000000,0.05253063,0.18344929,0.64760067,15,55,196,4,15,49,0.01578625,0.05064488,0.16378064,0.55835523,0.94219460,1.33858256
45089,0,USSouthCarolinaWilliamsburg,South Carolina,Williamsburg,2020-07-18 05:28:39.281726,2020-04-02 00:00:00.000000,0.05533398,0.18867560,0.68688099,16,57,208,5,15,52,0.01720358,0.05250493,0.17366343,0.55696351,0.94279534,1.33342908
45089,0,USSouthCarolinaWilliamsburg,South Carolina,Williamsburg,2020-07-18 05:28:39.281726,2020-04-03 00:00:00.000000,0.05862890,0.20577063,0.72700724,17,62,220,5,17,55,0.01875958,0.05847493,0.18400866,0.55231519,0.93180422,1.39200138
45089,0,USSouthCarolinaWilliamsburg,South Carolina,Williamsburg,2020-07-18 05:28:39.281726,2020-04-04 00:00:00.000000,0.06473709,0.21820816,0.78022724,19,66,236,6,18,58,0.02047940,0.06093615,0.19314964,0.53271767,0.94256590,1.41730428
45089,0,USSouthCarolinaWilliamsburg,South Carolina,Williamsburg,2020-07-18 05:28:39.281726,2020-04-05 00:00:00.000000,0.07210062,0.24659306,0.87692147,21,74,266,6,20,62,0.02239441,0.06615955,0.20517627,0.51868400,0.94377346,1.42942819
45089,0,USSouthCarolinaWilliamsburg,South Carolina,Williamsburg,2020-07-18 05:28:39.281726,2020-04-06 00:00:00.000000,0.08064036,0.26465017,0.97929128,24,80,297,7,21,66,0.02453255,0.06984248,0.22047760,0.51681125,0.96214814,1.43040165
45089,0,USSouthCarolinaWilliamsburg,South Carolina,Williamsburg,2020-07-18 05:28:39.281726,2020-04-07 00:00:00.000000,0.08689937,0.28888228,1.06582220,26,87,323,8,23,73,0.02720964,0.07841014,0.24138882,0.51635398,0.96825430,1.43896364
45089,0,USSouthCarolinaWilliamsburg,South Carolina,Williamsburg,2020-07-18 05:28:39.281726,2020-04-08 00:00:00.000000,0.09836910,0.30780100,1.10643775,29,93,336,9,24,79,0.02999726,0.07939981,0.26034703,0.51619940,0.98386132,1.44572134
45089,0,USSouthCarolinaWilliamsburg,South Carolina,Williamsburg,2020-07-18 05:28:39.281726,2020-04-09 00:00:00.000000,0.10801382,0.33994694,1.14893783,32,103,348,10,28,85,0.03294747,0.09296723,0.28230525,0.51622092,0.99869674,1.44586211
45089,0,USSouthCarolinaWilliamsburg,South Carolina,Williamsburg,2020-07-18 05:28:39.281726,2020-04-10 00:00:00.000000,0.12222118,0.35938028,1.19290270,37,109,362,10,29,93,0.03621416,0.09741225,0.30786806,0.51581468,0.99183702,1.45466502
45089,0,USSouthCarolinaWilliamsburg,South Carolina,Williamsburg,2020-07-18 05:28:39.281726,2020-04-11 00:00:00.000000,0.13586015,0.39660416,1.23826767,41,120,376,12,34,103,0.03986756,0.11222398,0.33964748,0.49785829,0.98878572,1.46766497
45089,0,USSouthCarolinaWilliamsburg,South Carolina,Williamsburg,2020-07-18 05:28:39.281726,2020-04-12 00:00:00.000000,0.15132733,0.42173180,1.28517428,45,128,390,13,34,113,0.04396064,0.11489156,0.37217107,0.48714912,0.97785154,1.50835323
45089,0,USSouthCarolinaWilliamsburg,South Carolina,Williamsburg,2020-07-18 05:28:39.281726,2020-04-13 00:00:00.000000,0.16598465,0.46896971,1.34072321,50,142,407,14,39,123,0.04850419,0.13011741,0.40769347,0.48499210,0.97841551,1.48727978
45089,0,USSouthCarolinaWilliamsburg,South Carolina,Williamsburg,2020-07-18 05:28:39.281726,2020-04-14 00:00:00.000000,0.18471675,0.50032440,1.43337212,56,151,435,16,41,134,0.05350689,0.13568146,0.44241409,0.48572682,0.99558666,1.47370250
45089,0,USSouthCarolinaWilliamsburg,South Carolina,Williamsburg,2020-07-18 05:28:39.281726,2020-04-15 00:00:00.000000,0.20080965,0.55208893,1.52934376,60,167,464,17,45,146,0.05898464,0.15109394,0.48115861,0.48751821,0.99682602,1.46056758
45089,0,USSouthCarolinaWilliamsburg,South Carolina,Williamsburg,2020-07-18 05:28:39.281726,2020-04-16 00:00:00.000000,0.22003770,0.58102659,1.64188381,66,176,498,19,48,157,0.06405894,0.16044113,0.51975963,0.48913671,0.99456089,1.42475567
45089,0,USSouthCarolinaWilliamsburg,South Carolina,Williamsburg,2020-07-18 05:28:39.281726,2020-04-17 00:00:00.000000,0.23544417,0.64409861,1.73697029,71,195,527,21,53,170,0.07081174,0.17674929,0.56184373,0.50073395,0.96413928,1.39994802
45089,0,USSouthCarolinaWilliamsburg,South Carolina,Williamsburg,2020-07-18 05:28:39.281726,2020-04-18 00:00:00.000000,0.25211299,0.66783063,1.80591431,76,202,548,23,56,184,0.07829389,0.18702271,0.60703279,0.49589054,0.94064683,1.35842383
45089,0,USSouthCarolinaWilliamsburg,South Carolina,Williamsburg,2020-07-18 05:28:39.281726,2020-04-19 00:00:00.000000,0.27659361,0.73304152,1.85081763,83,222,562,25,63,199,0.08549008,0.20890901,0.65576011,0.46756044,0.92590449,1.35034643
45089,0,USSouthCarolinaWilliamsburg,South Carolina,Williamsburg,2020-07-18 05:28:39.281726,2020-04-20 00:00:00.000000,0.30356470,0.78266496,1.90465353,92,237,578,28,65,215,0.09311450,0.21529918,0.70836796,0.44877389,0.91649098,1.37747514
45089,0,USSouthCarolinaWilliamsburg,South Carolina,Williamsburg,2020-07-18 05:28:39.281726,2020-04-21 00:00:00.000000,0.33598227,0.86301749,2.08530514,102,262,633,30,72,232,0.10120036,0.24033832,0.76514130,0.44147182,0.90565691,1.36050371
45089,0,USSouthCarolinaWilliamsburg,South Carolina,Williamsburg,2020-07-18 05:28:39.281726,2020-04-22 00:00:00.000000,0.36708969,0.89964892,2.19477070,111,273,666,33,73,250,0.11005845,0.24333008,0.82585429,0.40802932,0.88654649,1.29827790
45089,0,USSouthCarolinaWilliamsburg,South Carolina,Williamsburg,2020-07-18 05:28:39.281726,2020-04-23 00:00:00.000000,0.40029875,0.98105126,2.28004098,121,297,692,36,81,269,0.11965238,0.26971447,0.88688724,0.38875545,0.85994329,1.31800245
45089,0,USSouthCarolinaWilliamsburg,South Carolina,Williamsburg,2020-07-18 05:28:39.281726,2020-04-24 00:00:00.000000,0.43654480,1.00886074,2.36741791,132,306,718,39,84,288,0.12992671,0.27716027,0.95112002,0.38519092,0.83367820,1.27139256
45089,0,USSouthCarolinaWilliamsburg,South Carolina,Williamsburg,2020-07-18 05:28:39.281726,2020-04-25 00:00:00.000000,0.46749822,1.09154978,2.43937416,141,331,740,42,91,306,0.14076884,0.30012863,1.00944651,0.37563010,0.79918569,1.24479954
45089,0,USSouthCarolinaWilliamsburg,South Carolina,Williamsburg,2020-07-18 05:28:39.281726,2020-04-26 00:00:00.000000,0.47436555,1.10915469,2.55650681,144,336,776,46,94,317,0.15217566,0.31272768,1.04647961,0.35272937,0.77035086,1.23488290
45089,0,USSouthCarolinaWilliamsburg,South Carolina,Williamsburg,2020-07-18 05:28:39.281726,2020-04-27 00:00:00.000000,0.50820615,1.17690883,2.68727668,154,357,816,48,101,327,0.15902874,0.33546876,1.07950197,0.30383521,0.73467227,1.21038918
45089,0,USSouthCarolinaWilliamsburg,South Carolina,Williamsburg,2020-07-18 05:28:39.281726,2020-04-28 00:00:00.000000,0.49572589,1.19711590,2.85845554,150,363,868,49,106,345,0.16269829,0.34976668,1.13767054,0.30263773,0.71348460,1.14776575
45089,0,USSouthCarolinaWilliamsburg,South Carolina,Williamsburg,2020-07-18 05:28:39.281726,2020-04-29 00:00:00.000000,0.52823394,1.26050815,2.95662083,160,382,897,50,113,363,0.16633328,0.37476830,1.19687265,0.29510060,0.69048149,1.12448133
45089,0,USSouthCarolinaWilliamsburg,South Carolina,Williamsburg,2020-07-18 05:28:39.281726,2020-04-30 00:00:00.000000,0.52127123,1.27514733,3.01935151,158,387,916,53,118,377,0.17599143,0.38938727,1.24289554,0.29475618,0.65953030,1.11106465
45089,0,USSouthCarolinaWilliamsburg,South Carolina,Williamsburg,2020-07-18 05:28:39.281726,2020-05-01 00:00:00.000000,0.55998940,1.35620319,3.02137160,170,411,917,56,125,387,0.18667249,0.41384448,1.27438924,0.27309660,0.63829403,1.10892793
45089,0,USSouthCarolinaWilliamsburg,South Carolina,Williamsburg,2020-07-18 05:28:39.281726,2020-05-02 00:00:00.000000,0.54986059,1.34817035,3.15679464,166,409,958,57,127,396,0.19059722,0.41898101,1.30551827,0.26911662,0.62710167,1.09854519
45089,0,USSouthCarolinaWilliamsburg,South Carolina,Williamsburg,2020-07-18 05:28:39.281726,2020-05-03 00:00:00.000000,0.62048561,1.41287894,3.31556160,188,429,1006,58,133,410,0.19389987,0.43867658,1.35133265,0.26419899,0.62042767,1.05440143
45089,0,USSouthCarolinaWilliamsburg,South Carolina,Williamsburg,2020-07-18 05:28:39.281726,2020-05-04 00:00:00.000000,0.61083450,1.36112163,3.48120815,185,413,1057,60,135,425,0.19775602,0.44623788,1.40260761,0.25946939,0.60668717,1.02200094
45089,0,USSouthCarolinaWilliamsburg,South Carolina,Williamsburg,2020-07-18 05:28:39.281726,2020-05-05 00:00:00.000000,0.64626034,1.40551103,3.62301750,196,426,1100,62,140,423,0.20677710,0.46224160,1.39303841,0.25787062,0.59675593,0.99465085
45089,0,USSouthCarolinaWilliamsburg,South Carolina,Williamsburg,2020-07-18 05:28:39.281726,2020-05-06 00:00:00.000000,0.62997589,1.39489570,3.72047715,191,423,1129,62,145,430,0.20700592,0.47818034,1.41842907,0.25733364,0.56981910,0.94342052
45089,0,USSouthCarolinaWilliamsburg,South Carolina,Williamsburg,2020-07-18 05:28:39.281726,2020-05-07 00:00:00.000000,0.63999577,1.47932109,3.76104868,194,449,1142,62,149,442,0.20729959,0.49265953,1.45608166,0.25683695,0.54817847,0.87128228
45089,0,USSouthCarolinaWilliamsburg,South Carolina,Williamsburg,2020-07-18 05:28:39.281726,2020-05-08 00:00:00.000000,0.63239325,1.43501097,3.74931540,192,435,1138,62,149,455,0.20641850,0.49321387,1.50112721,0.25582163,0.54151790,0.83167109
45089,0,USSouthCarolinaWilliamsburg,South Carolina,Williamsburg,2020-07-18 05:28:39.281726,2020-05-09 00:00:00.000000,0.64120240,1.47380871,3.71498743,194,447,1128,62,153,469,0.20543717,0.50488041,1.54689513,0.25331650,0.52423496,0.81121324
45089,0,USSouthCarolinaWilliamsburg,South Carolina,Williamsburg,2020-07-18 05:28:39.281726,2020-05-10 00:00:00.000000,0.61816134,1.44282292,3.66803351,187,438,1113,62,153,480,0.20516383,0.50703265,1.58077138,0.24036676,0.51018316,0.80189846
45089,0,USSouthCarolinaWilliamsburg,South Carolina,Williamsburg,2020-07-18 05:28:39.281726,2020-05-11 00:00:00.000000,0.63473083,1.46833990,3.69252756,192,445,1121,62,157,486,0.20708901,0.51896498,1.60043865,0.23383784,0.49525856,0.76190322
45089,0,USSouthCarolinaWilliamsburg,South Carolina,Williamsburg,2020-07-18 05:28:39.281726,2020-05-12 00:00:00.000000,0.58467454,1.44936924,3.73797021,177,440,1135,61,154,481,0.20415952,0.50930156,1.58420543,0.23248440,0.48991895,0.75433878
45089,0,USSouthCarolinaWilliamsburg,South Carolina,Williamsburg,2020-07-18 05:28:39.281726,2020-05-13 00:00:00.000000,0.64031596,1.44630769,3.77853458,194,439,1147,62,156,475,0.20463403,0.51381917,1.56528226,0.22239969,0.47700299,0.73947173
45089,0,USSouthCarolinaWilliamsburg,South Carolina,Williamsburg,2020-07-18 05:28:39.281726,2020-05-14 00:00:00.000000,0.55866904,1.43109769,3.80551720,169,434,1155,62,153,469,0.20601375,0.50582582,1.54465925,0.21138335,0.46890578,0.74479492
45089,0,USSouthCarolinaWilliamsburg,South Carolina,Williamsburg,2020-07-18 05:28:39.281726,2020-05-15 00:00:00.000000,0.63783026,1.41565437,3.80787515,193,429,1156,62,154,462,0.20729522,0.50824135,1.52323196,0.20784887,0.46486592,0.74154315
45089,0,USSouthCarolinaWilliamsburg,South Carolina,Williamsburg,2020-07-18 05:28:39.281726,2020-05-16 00:00:00.000000,0.53539653,1.41515961,3.83098889,162,429,1163,63,153,456,0.20786489,0.50565450,1.50186354,0.20691553,0.45693086,0.75858715
45089,0,USSouthCarolinaWilliamsburg,South Carolina,Williamsburg,2020-07-18 05:28:39.281726,2020-05-17 00:00:00.000000,0.63583472,1.38853004,3.83338165,193,421,1164,63,153,449,0.20748658,0.50501232,1.48132624,0.20587731,0.45600193,0.74339832
45089,0,USSouthCarolinaWilliamsburg,South Carolina,Williamsburg,2020-07-18 05:28:39.281726,2020-05-18 00:00:00.000000,0.51492202,1.37476062,3.80533556,156,417,1155,62,152,443,0.20633530,0.50146831,1.46192062,0.20653689,0.45521713,0.74701795
45089,0,USSouthCarolinaWilliamsburg,South Carolina,Williamsburg,2020-07-18 05:28:39.281726,2020-05-19 00:00:00.000000,0.61899956,1.35431649,3.78873515,187,411,1150,62,151,438,0.20467939,0.49836539,1.44334793,0.20581900,0.45577497,0.73179020
45089,0,USSouthCarolinaWilliamsburg,South Carolina,Williamsburg,2020-07-18 05:28:39.281726,2020-05-20 00:00:00.000000,0.49971515,1.32758829,3.77173841,151,403,1145,61,148,434,0.20272912,0.49023139,1.42916275,0.20499886,0.45414605,0.71485481
45089,0,USSouthCarolinaWilliamsburg,South Carolina,Williamsburg,2020-07-18 05:28:39.281726,2020-05-21 00:00:00.000000,0.60320848,1.31956190,3.75054753,183,400,1138,61,148,434,0.20218558,0.48768119,1.43061500,0.20475875,0.45550068,0.71687795
45089,0,USSouthCarolinaWilliamsburg,South Carolina,Williamsburg,2020-07-18 05:28:39.281726,2020-05-22 00:00:00.000000,0.51410345,1.31379389,3.75767919,156,398,1141,61,145,434,0.20208143,0.47873140,1.43097204,0.20422217,0.46163006,0.72473259
45089,0,USSouthCarolinaWilliamsburg,South Carolina,Williamsburg,2020-07-18 05:28:39.281726,2020-05-23 00:00:00.000000,0.59679237,1.31843436,3.80834875,181,400,1156,60,145,434,0.19975772,0.48022092,1.43038893,0.20295242,0.46352844,0.72863273
45089,0,USSouthCarolinaWilliamsburg,South Carolina,Williamsburg,2020-07-18 05:28:39.281726,2020-05-24 00:00:00.000000,0.51088220,1.30839072,3.86146059,155,397,1172,58,144,435,0.19365177,0.47537437,1.43342350,0.20078064,0.46824719,0.73937731
45089,0,USSouthCarolinaWilliamsburg,South Carolina,Williamsburg,2020-07-18 05:28:39.281726,2020-05-25 00:00:00.000000,0.59745290,1.30948684,3.91310499,181,397,1188,58,145,437,0.19164248,0.47780575,1.44076304,0.19855929,0.47861239,0.75072338
45089,0,USSouthCarolinaWilliamsburg,South Carolina,Williamsburg,2020-07-18 05:28:39.281726,2020-05-26 00:00:00.000000,0.49754496,1.30066297,3.93849290,151,394,1196,57,144,441,0.19095884,0.47696711,1.45380484,0.19755715,0.48493515,0.75691085
45089,0,USSouthCarolinaWilliamsburg,South Carolina,Williamsburg,2020-07-18 05:28:39.281726,2020-05-27 00:00:00.000000,0.58879697,1.30254491,3.88033456,178,395,1178,57,146,444,0.19061874,0.48095476,1.46431347,0.19771988,0.48623442,0.76543719
45089,0,USSouthCarolinaWilliamsburg,South Carolina,Williamsburg,2020-07-18 05:28:39.281726,2020-05-28 00:00:00.000000,0.50447467,1.27602709,3.80135406,153,387,1154,57,143,447,0.19050535,0.47135418,1.47438708,0.19787589,0.49434001,0.78559851
45089,0,USSouthCarolinaWilliamsburg,South Carolina,Williamsburg,2020-07-18 05:28:39.281726,2020-05-29 00:00:00.000000,0.56614994,1.29405654,3.82593210,171,392,1161,58,145,450,0.19117293,0.47887226,1.48388102,0.19809642,0.49966607,0.81234593
45089,0,USSouthCarolinaWilliamsburg,South Carolina,Williamsburg,2020-07-18 05:28:39.281726,2020-05-30 00:00:00.000000,0.50961908,1.27428523,3.86321891,154,386,1173,58,141,453,0.19235511,0.46747357,1.49285100,0.20077925,0.50189041,0.81326079
45089,0,USSouthCarolinaWilliamsburg,South Carolina,Williamsburg,2020-07-18 05:28:39.281726,2020-05-31 00:00:00.000000,0.55575567,1.29658574,3.90255225,168,393,1185,58,142,455,0.19426568,0.46967523,1.50143805,0.21673866,0.51276594,0.81324347
45089,0,USSouthCarolinaWilliamsburg,South Carolina,Williamsburg,2020-07-18 05:28:39.281726,2020-06-01 00:00:00.000000,0.50971671,1.30880960,3.94343542,154,397,1197,58,141,458,0.19383823,0.46665314,1.50972664,0.22519120,0.52103506,0.82212555
45089,0,USSouthCarolinaWilliamsburg,South Carolina,Williamsburg,2020-07-18 05:28:39.281726,2020-06-02 00:00:00.000000,0.54988468,1.34805223,3.98534101,166,409,1210,57,142,460,0.19025308,0.46773343,1.51781752,0.22915263,0.53977760,0.82998088
45089,0,USSouthCarolinaWilliamsburg,South Carolina,Williamsburg,2020-07-18 05:28:39.281726,2020-06-03 00:00:00.000000,0.50435434,1.31867372,4.02780024,153,400,1223,57,141,463,0.19058467,0.46740305,1.52586350,0.24258743,0.54478385,0.85431619
45089,0,USSouthCarolinaWilliamsburg,South Carolina,Williamsburg,2020-07-18 05:28:39.281726,2020-06-04 00:00:00.000000,0.55145888,1.35773058,4.07048162,167,412,1236,58,143,465,0.19202958,0.47384623,1.53405179,0.24897232,0.55296060,0.87199732
45089,0,USSouthCarolinaWilliamsburg,South Carolina,Williamsburg,2020-07-18 05:28:39.281726,2020-06-05 00:00:00.000000,0.52860993,1.33483778,4.11377666,160,405,1249,59,145,468,0.19503373,0.47787728,1.54256124,0.25210287,0.56259024,0.88963693
45089,0,USSouthCarolinaWilliamsburg,South Carolina,Williamsburg,2020-07-18 05:28:39.281726,2020-06-06 00:00:00.000000,0.53054985,1.40204217,4.16248053,161,425,1264,60,149,471,0.19886881,0.49239683,1.55151833,0.25524909,0.57409032,0.92562215
45089,0,USSouthCarolinaWilliamsburg,South Carolina,Williamsburg,2020-07-18 05:28:39.281726,2020-06-07 00:00:00.000000,0.52105109,1.38925273,4.22436709,158,421,1282,61,150,474,0.20175837,0.49452970,1.56097191,0.26574596,0.58459253,0.92681672
45089,0,USSouthCarolinaWilliamsburg,South Carolina,Williamsburg,2020-07-18 05:28:39.281726,2020-06-08 00:00:00.000000,0.54112165,1.44106498,4.29254258,164,437,1303,61,157,477,0.20358710,0.52001189,1.57090080,0.27234551,0.60760981,0.94997622
45089,0,USSouthCarolinaWilliamsburg,South Carolina,Williamsburg,2020-07-18 05:28:39.281726,2020-06-09 00:00:00.000000,0.55811951,1.42357437,4.36521419,169,432,1325,61,155,480,0.20398240,0.51365213,1.58124483,0.28097056,0.61682057,0.97658147
45089,0,USSouthCarolinaWilliamsburg,South Carolina,Williamsburg,2020-07-18 05:28:39.281726,2020-06-10 00:00:00.000000,0.56127308,1.49067643,4.44760738,170,452,1350,62,162,483,0.20456007,0.53594343,1.59193998,0.28573092,0.61868655,0.99574456
45089,0,USSouthCarolinaWilliamsburg,South Carolina,Williamsburg,2020-07-18 05:28:39.281726,2020-06-11 00:00:00.000000,0.56731654,1.49732042,4.54244568,172,454,1379,63,162,492,0.20781249,0.53502514,1.62134868,0.28704567,0.62877838,0.99883395
45089,0,USSouthCarolinaWilliamsburg,South Carolina,Williamsburg,2020-07-18 05:28:39.281726,2020-06-12 00:00:00.000000,0.57582433,1.58336959,4.63803466,174,480,1408,66,166,502,0.21983811,0.54807376,1.65313511,0.28832217,0.64646581,0.99441397
45089,0,USSouthCarolinaWilliamsburg,South Carolina,Williamsburg,2020-07-18 05:28:39.281726,2020-06-13 00:00:00.000000,0.58526610,1.57763088,4.74228223,177,479,1440,68,169,512,0.22608383,0.55733396,1.68628537,0.28947213,0.66473312,0.98329861
45089,0,USSouthCarolinaWilliamsburg,South Carolina,Williamsburg,2020-07-18 05:28:39.281726,2020-06-14 00:00:00.000000,0.60170571,1.66896108,4.83344274,182,506,1467,71,172,522,0.23703241,0.56894994,1.72122514,0.29354607,0.67563101,0.98996888
45089,0,USSouthCarolinaWilliamsburg,South Carolina,Williamsburg,2020-07-18 05:28:39.281726,2020-06-15 00:00:00.000000,0.62158776,1.67155135,4.92603769,188,507,1495,74,174,526,0.24514742,0.57382217,1.73502631,0.29690577,0.68139310,1.02179261
45089,0,USSouthCarolinaWilliamsburg,South Carolina,Williamsburg,2020-07-18 05:28:39.281726,2020-06-16 00:00:00.000000,0.65038563,1.74726405,5.00241702,197,530,1519,76,177,535,0.25121190,0.58311596,1.76426315,0.30055633,0.68351330,1.03374504
45089,0,USSouthCarolinaWilliamsburg,South Carolina,Williamsburg,2020-07-18 05:28:39.281726,2020-06-17 00:00:00.000000,0.68403568,1.73060312,5.07068366,207,525,1539,77,178,552,0.25497514,0.58906073,1.81977771,0.31130441,0.68352237,1.02805800
45089,0,USSouthCarolinaWilliamsburg,South Carolina,Williamsburg,2020-07-18 05:28:39.281726,2020-06-18 00:00:00.000000,0.72038901,1.79351778,5.14219536,218,544,1561,78,184,574,0.25929200,0.60693471,1.89080576,0.31819671,0.68480944,1.02838883
45089,0,USSouthCarolinaWilliamsburg,South Carolina,Williamsburg,2020-07-18 05:28:39.281726,2020-06-19 00:00:00.000000,0.74758492,1.80926773,5.21733666,227,549,1584,80,185,595,0.26490208,0.61050684,1.96218532,0.32839745,0.68311485,1.02176681
45089,0,USSouthCarolinaWilliamsburg,South Carolina,Williamsburg,2020-07-18 05:28:39.281726,2020-06-20 00:00:00.000000,0.76670221,1.89223260,5.30149019,232,574,1609,81,196,608,0.26939676,0.64709724,2.00243197,0.34357843,0.68367062,1.02549722
45089,0,USSouthCarolinaWilliamsburg,South Carolina,Williamsburg,2020-07-18 05:28:39.281726,2020-06-21 00:00:00.000000,0.79220489,1.91361822,5.40958518,240,581,1642,82,193,622,0.27165991,0.63603162,2.04994344,0.34733669,0.68932507,1.01197703
45089,0,USSouthCarolinaWilliamsburg,South Carolina,Williamsburg,2020-07-18 05:28:39.281726,2020-06-22 00:00:00.000000,0.80999098,1.98535893,5.55042899,245,602,1685,83,206,640,0.27359138,0.67970147,2.10886960,0.35262957,0.68827405,1.02832825
45089,0,USSouthCarolinaWilliamsburg,South Carolina,Williamsburg,2020-07-18 05:28:39.281726,2020-06-23 00:00:00.000000,0.83139569,1.98233671,5.70967108,252,601,1733,83,206,657,0.27544927,0.68040277,2.16506590,0.35212037,0.68973100,1.03412976
45089,0,USSouthCarolinaWilliamsburg,South Carolina,Williamsburg,2020-07-18 05:28:39.281726,2020-06-24 00:00:00.000000,0.86135615,2.06921869,5.88007342,261,628,1785,84,214,673,0.27761085,0.70569509,2.21876138,0.34699116,0.69329151,1.03484681
45089,0,USSouthCarolinaWilliamsburg,South Carolina,Williamsburg,2020-07-18 05:28:39.281726,2020-06-25 00:00:00.000000,0.91896682,2.10547775,6.08428440,279,639,1847,85,218,689,0.28069771,0.71788502,2.26985551,0.34444352,0.71480640,1.06134561
45089,0,USSouthCarolinaWilliamsburg,South Carolina,Williamsburg,2020-07-18 05:28:39.281726,2020-06-26 00:00:00.000000,0.95201478,2.21027822,6.27696908,289,671,1906,86,226,704,0.28562867,0.74459863,2.32048209,0.34058803,0.72186647,1.09178359
45089,0,USSouthCarolinaWilliamsburg,South Carolina,Williamsburg,2020-07-18 05:28:39.281726,2020-06-27 00:00:00.000000,0.98196976,2.25664356,6.41527551,298,685,1948,89,228,720,0.29322157,0.75250882,2.37221938,0.33294579,0.73668756,1.09366997
45089,0,USSouthCarolinaWilliamsburg,South Carolina,Williamsburg,2020-07-18 05:28:39.281726,2020-06-28 00:00:00.000000,1.01533911,2.37677279,6.60529471,308,721,2005,92,239,736,0.30351833,0.78719488,2.42437357,0.32609745,0.74197814,1.13418932
45089,0,USSouthCarolinaWilliamsburg,South Carolina,Williamsburg,2020-07-18 05:28:39.281726,2020-06-29 00:00:00.000000,1.06670931,2.42021715,6.81785675,323,734,2070,95,244,751,0.31589391,0.80533052,2.47594753,0.33320533,0.74918519,1.15185383
45089,0,USSouthCarolinaWilliamsburg,South Carolina,Williamsburg,2020-07-18 05:28:39.281726,2020-06-30 00:00:00.000000,1.12945441,2.58465304,7.03626296,342,784,2136,100,258,767,0.32969863,0.85146429,2.52837025,0.35235624,0.76857138,1.17860896
45089,0,USSouthCarolinaWilliamsburg,South Carolina,Williamsburg,2020-07-18 05:28:39.281726,2020-07-01 00:00:00.000000,1.20090807,2.64108320,7.29308366,364,802,2214,105,261,788,0.34736252,0.86170162,2.59770738,0.36037044,0.77399359,1.18393589
45089,0,USSouthCarolinaWilliamsburg,South Carolina,Williamsburg,2020-07-18 05:28:39.281726,2020-07-02 00:00:00.000000,1.26000394,2.79912307,7.58572640,382,850,2303,113,279,819,0.37535875,0.92185738,2.70006857,0.36833367,0.79660431,1.19584340
45089,0,USSouthCarolinaWilliamsburg,South Carolina,Williamsburg,2020-07-18 05:28:39.281726,2020-07-03 00:00:00.000000,1.30814572,2.82714128,7.90645285,397,858,2401,119,282,853,0.39249723,0.92966605,2.80912601,0.37656931,0.82504453,1.25617017
45089,0,USSouthCarolinaWilliamsburg,South Carolina,Williamsburg,2020-07-18 05:28:39.281726,2020-07-04 00:00:00.000000,1.42719450,3.05008507,8.24259277,433,926,2503,125,300,887,0.41175410,0.98900356,2.92363304,0.38609960,0.83522845,1.27680995
45089,0,USSouthCarolinaWilliamsburg,South Carolina,Williamsburg,2020-07-18 05:28:39.281726,2020-07-05 00:00:00.000000,1.46438317,3.10254094,8.57056782,444,942,2602,128,308,924,0.42431320,1.01458340,3.04270655,0.39502136,0.84785026,1.32167115
45089,0,USSouthCarolinaWilliamsburg,South Carolina,Williamsburg,2020-07-18 05:28:39.281726,2020-07-06 00:00:00.000000,1.60224686,3.36203515,8.87532604,486,1020,2695,134,324,961,0.44282719,1.06856094,3.16572512,0.40150909,0.87898894,1.37386146
45089,0,USSouthCarolinaWilliamsburg,South Carolina,Williamsburg,2020-07-18 05:28:39.281726,2020-07-07 00:00:00.000000,1.55383029,3.50899159,9.17593633,471,1065,2786,141,335,999,0.46698622,1.10608809,3.29221696,0.40168464,0.88350785,1.39850702
45089,0,USSouthCarolinaWilliamsburg,South Carolina,Williamsburg,2020-07-18 05:28:39.281726,2020-07-08 00:00:00.000000,1.75886987,3.78248045,9.32251094,534,1148,2831,150,353,1039,0.49433878,1.16518488,3.42144051,0.40496327,0.88386283,1.39853379
45089,0,USSouthCarolinaWilliamsburg,South Carolina,Williamsburg,2020-07-18 05:28:39.281726,2020-07-09 00:00:00.000000,1.71686991,3.92955859,9.62286702,521,1193,2922,158,369,1065,0.52318145,1.21749177,3.50779287,0.41633481,0.88398202,1.40211240
45089,0,USSouthCarolinaWilliamsburg,South Carolina,Williamsburg,2020-07-18 05:28:39.281726,2020-07-10 00:00:00.000000,1.90865326,4.05107243,9.98921545,579,1230,3033,168,388,1105,0.55334904,1.28068144,3.64085556,0.41638379,0.88586875,1.42260103
45089,0,USSouthCarolinaWilliamsburg,South Carolina,Williamsburg,2020-07-18 05:28:39.281726,2020-07-11 00:00:00.000000,1.89023910,4.22433721,10.36427086,574,1282,3147,177,400,1141,0.58482383,1.31811066,3.75842161,0.41640158,0.88776695,1.43533004
45089,0,USSouthCarolinaWilliamsburg,South Carolina,Williamsburg,2020-07-18 05:28:39.281726,2020-07-12 00:00:00.000000,2.03744103,4.44307086,10.74794664,618,1349,3263,188,423,1186,0.61974573,1.39321863,3.90660590,0.41640802,0.88874110,1.44181433
45089,0,USSouthCarolinaWilliamsburg,South Carolina,Williamsburg,2020-07-18 05:28:39.281726,2020-07-13 00:00:00.000000,1.79717001,4.71677278,11.14014371,545,1432,3383,200,444,1222,0.65974860,1.46448131,4.02527982,0.41641034,0.88920844,1.44595646
45089,0,USSouthCarolinaWilliamsburg,South Carolina,Williamsburg,2020-07-18 05:28:39.281726,2020-07-14 00:00:00.000000,2.17175085,4.86544520,11.54072847,659,1477,3504,209,463,1253,0.68912786,1.52731342,4.12905675,0.41641118,0.88942537,1.44796842
45089,0,USSouthCarolinaWilliamsburg,South Carolina,Williamsburg,2020-07-18 05:28:39.281726,2020-07-15 00:00:00.000000,1.76779262,5.10925061,11.94952351,536,1551,3628,219,487,1304,0.72177982,1.60467772,4.29728153,0.41641148,0.88952453,1.44889744
45089,0,USSouthCarolinaWilliamsburg,South Carolina,Williamsburg,2020-07-18 05:28:39.281726,2020-07-16 00:00:00.000000,2.18866611,5.36803283,12.36630406,664,1630,3755,229,509,1357,0.75414419,1.67629811,4.47159808,0.41641158,0.88956953,1.44932544
45089,0,USSouthCarolinaWilliamsburg,South Carolina,Williamsburg,2020-07-18 05:28:39.281726,2020-07-17 00:00:00.000000,1.78835883,5.57115097,12.79079670,543,1691,3884,231,540,1412,0.76325658,1.77863335,4.65072699,0.41641162,0.88958989,1.44952251
45089,0,USSouthCarolinaWilliamsburg,South Carolina,Williamsburg,2020-07-18 05:28:39.281726,2020-07-18 00:00:00.000000,2.22039634,5.81626819,13.23556287,674,1766,4019,235,551,1464,0.77591339,1.81761365,4.82361902,0.41641163,0.88959909,1.44961330
45089,0,USSouthCarolinaWilliamsburg,South Carolina,Williamsburg,2020-07-18 05:28:39.281726,2020-07-19 00:00:00.000000,1.82524862,6.05680972,13.77858452,554,1839,4184,236,569,1508,0.77922017,1.87553739,4.96684177,0.41641164,0.88960325,1.44965516
45089,0,USSouthCarolinaWilliamsburg,South Carolina,Williamsburg,2020-07-18 05:28:39.281726,2020-07-20 00:00:00.000000,2.28468656,6.30908645,14.32718661,693,1915,4350,232,585,1562,0.76403259,1.92757766,5.14397518,0.41641164,0.88960512,1.44967449
45089,0,USSouthCarolinaWilliamsburg,South Carolina,Williamsburg,2020-07-18 05:28:39.281726,2020-07-21 00:00:00.000000,1.87646551,6.55110032,14.76251633,569,1989,4483,227,605,1622,0.74971172,1.99253471,5.34342076,0.41641164,0.88960597,1.44968344
45089,0,USSouthCarolinaWilliamsburg,South Carolina,Williamsburg,2020-07-18 05:28:39.281726,2020-07-22 00:00:00.000000,2.34935198,6.70772341,15.19721098,713,2037,4615,226,622,1691,0.74437050,2.05090763,5.56978793,0.41641164,0.88960635,1.44968759
45089,0,USSouthCarolinaWilliamsburg,South Carolina,Williamsburg,2020-07-18 05:28:39.281726,2020-07-23 00:00:00.000000,1.95362337,6.95973394,15.63154659,593,2113,4746,224,648,1781,0.73882034,2.13592017,5.86598126,0.41641164,0.88960652,1.44968953
45089,0,USSouthCarolinaWilliamsburg,South Carolina,Williamsburg,2020-07-18 05:28:39.281726,2020-07-24 00:00:00.000000,2.41423564,7.21746738,16.00814383,733,2191,4861,222,673,1843,0.73407633,2.21691834,6.06999768,0.41641164,0.88960660,1.44969043
45089,0,USSouthCarolinaWilliamsburg,South Carolina,Williamsburg,2020-07-18 05:28:39.281726,2020-07-25 00:00:00.000000,2.02891210,7.48618527,16.32690188,616,2273,4958,222,693,1905,0.73106138,2.28441977,6.27411480,0.41641164,0.88960664,1.44969086
45089,0,USSouthCarolinaWilliamsburg,South Carolina,Williamsburg,2020-07-18 05:28:39.281726,2020-07-26 00:00:00.000000,2.47918290,7.67481416,16.92989442,752,2330,5141,221,719,1958,0.72776756,2.37052536,6.45029681,0.41641164,0.88960665,1.44969106
45089,0,USSouthCarolinaWilliamsburg,South Carolina,Williamsburg,2020-07-18 05:28:39.281726,2020-07-27 00:00:00.000000,2.10166223,7.84007163,17.64639868,638,2380,5358,219,743,2010,0.72420059,2.44834988,6.62043634,0.41641164,0.88960666,1.44969116
45089,0,USSouthCarolinaWilliamsburg,South Carolina,Williamsburg,2020-07-18 05:28:39.281726,2020-07-28 00:00:00.000000,2.49632592,8.13884748,18.39250667,758,2471,5585,218,769,2060,0.72036656,2.53369162,6.78556315,0.41641164,0.88960666,1.44969121
45089,0,USSouthCarolinaWilliamsburg,South Carolina,Williamsburg,2020-07-18 05:28:39.281726,2020-07-29 00:00:00.000000,2.15481153,8.43473439,19.72712148,654,2561,5990,217,774,2109,0.71668423,2.54996134,6.94488291,0.41641164,0.88960666,1.44969123
45089,0,USSouthCarolinaWilliamsburg,South Carolina,Williamsburg,2020-07-18 05:28:39.281726,2020-07-30 00:00:00.000000,2.46327617,8.66880477,20.55029471,748,2632,6240,218,803,2155,0.71901496,2.64702286,7.09760576,0.41641164,0.88960667,1.44969124
