22 Divergences 
Computed from 120 by 121 log-likelihood matrix

         Estimate       SE
elpd_loo  -335.20    24.51
p_loo       20.62        -

There has been a warning during the calculation. Please check the results.
------

Pareto k diagnostic values:
                         Count   Pct.
(-Inf, 0.5]   (good)      105   86.8%
 (0.5, 0.7]   (ok)          7    5.8%
   (0.7, 1]   (bad)         6    5.0%
   (1, Inf)   (very bad)    3    2.5%


The scale is now log by default. Use 'scale' argument or 'stats.ic_scale' rcParam if
you rely on a specific value.
A higher log-score (or a lower deviance) indicates a model with better predictive
accuracy.