FIPS,HR_UID,nameid,province,region,analysisTime,dates,pointprevalence_025,pointprevalence_50,pointprevalence_975,pointinfections_025,pointinfections_50,pointinfections_975,pointinfectious_025,pointinfectious_50,pointinfectious_975,pointinfectiousprevalence_05,pointinfectiousprevalence_50,pointinfectiousprevalence_95,infectrate_025,infectrate_50,infectrate_975
47145,0,USTennesseeRoane,Tennessee,Roane,2020-07-15 03:34:57.418424,2020-03-09 00:00:00.000000,0.00154059,0.01783700,0.04653164,0,9,24,0,2,5,0.00026025,0.00413502,0.01103903,0.47902605,0.64339709,0.97392059
47145,0,USTennesseeRoane,Tennessee,Roane,2020-07-15 03:34:57.418424,2020-03-10 00:00:00.000000,0.00182488,0.01930072,0.04870712,0,10,26,0,2,5,0.00033628,0.00400344,0.00954699,0.47935344,0.64308207,0.97389497
47145,0,USTennesseeRoane,Tennessee,Roane,2020-07-15 03:34:57.418424,2020-03-11 00:00:00.000000,0.00190362,0.01622181,0.04867526,1,8,25,0,1,4,0.00035916,0.00304462,0.00885771,0.47980227,0.64264847,0.97384782
47145,0,USTennesseeRoane,Tennessee,Roane,2020-07-15 03:34:57.418424,2020-03-12 00:00:00.000000,0.00202808,0.01812955,0.04862541,1,9,25,0,1,4,0.00040421,0.00356552,0.00902497,0.48041530,0.64205439,0.97376111
47145,0,USTennesseeRoane,Tennessee,Roane,2020-07-15 03:34:57.418424,2020-03-13 00:00:00.000000,0.00212010,0.01601327,0.04853699,1,8,25,0,1,4,0.00043583,0.00305377,0.00895378,0.48124839,0.64205325,0.97360183
47145,0,USTennesseeRoane,Tennessee,Roane,2020-07-15 03:34:57.418424,2020-03-14 00:00:00.000000,0.00222200,0.01654306,0.04842106,1,8,25,0,1,4,0.00047125,0.00345603,0.00877937,0.48237285,0.64207070,0.97330991
47145,0,USTennesseeRoane,Tennessee,Roane,2020-07-15 03:34:57.418424,2020-03-15 00:00:00.000000,0.00233025,0.01626018,0.04828572,1,8,25,0,1,4,0.00050693,0.00327400,0.00872134,0.48387665,0.64212670,0.97277699
47145,0,USTennesseeRoane,Tennessee,Roane,2020-07-15 03:34:57.418424,2020-03-16 00:00:00.000000,0.00244429,0.01677742,0.04813484,1,8,25,0,1,4,0.00054205,0.00347504,0.00873333,0.48586316,0.64230606,0.97181138
47145,0,USTennesseeRoane,Tennessee,Roane,2020-07-15 03:34:57.418424,2020-03-17 00:00:00.000000,0.00256438,0.01705721,0.04796954,1,9,25,0,1,4,0.00057670,0.00335006,0.00875334,0.48844506,0.64130574,0.97008963
47145,0,USTennesseeRoane,Tennessee,Roane,2020-07-15 03:34:57.418424,2020-03-18 00:00:00.000000,0.00269396,0.01734236,0.04778949,1,9,25,0,1,4,0.00061022,0.00364442,0.00877215,0.49173091,0.64113119,0.96783382
47145,0,USTennesseeRoane,Tennessee,Roane,2020-07-15 03:34:57.418424,2020-03-19 00:00:00.000000,0.00283679,0.01743028,0.04846224,1,9,25,0,1,4,0.00064230,0.00334166,0.00875944,0.48804593,0.64122745,0.96708894
47145,0,USTennesseeRoane,Tennessee,Roane,2020-07-15 03:34:57.418424,2020-03-20 00:00:00.000000,0.00294158,0.01757741,0.04940938,1,9,26,0,1,4,0.00067327,0.00367370,0.00871746,0.46807141,0.66238518,0.95209294
47145,0,USTennesseeRoane,Tennessee,Roane,2020-07-15 03:34:57.418424,2020-03-21 00:00:00.000000,0.00303994,0.01813141,0.05034701,1,9,26,0,1,4,0.00070111,0.00341488,0.00874933,0.45990477,0.67055474,0.93312725
47145,0,USTennesseeRoane,Tennessee,Roane,2020-07-15 03:34:57.418424,2020-03-22 00:00:00.000000,0.00313670,0.01873524,0.05130656,1,10,27,0,1,4,0.00072661,0.00369515,0.00884487,0.45261710,0.64891420,0.92377832
47145,0,USTennesseeRoane,Tennessee,Roane,2020-07-15 03:34:57.418424,2020-03-23 00:00:00.000000,0.00323520,0.01945992,0.05224702,1,10,27,0,1,4,0.00076892,0.00348447,0.00891639,0.44021332,0.60728541,0.92115291
47145,0,USTennesseeRoane,Tennessee,Roane,2020-07-15 03:34:57.418424,2020-03-24 00:00:00.000000,0.00333670,0.01970074,0.05317055,1,10,28,0,1,4,0.00081448,0.00362067,0.00895101,0.44108017,0.60182662,0.92106109
47145,0,USTennesseeRoane,Tennessee,Roane,2020-07-15 03:34:57.418424,2020-03-25 00:00:00.000000,0.00344219,0.01963730,0.05409933,1,10,28,0,1,4,0.00086121,0.00346817,0.00918652,0.44435121,0.59724701,0.92039163
47145,0,USTennesseeRoane,Tennessee,Roane,2020-07-15 03:34:57.418424,2020-03-26 00:00:00.000000,0.00355357,0.01973052,0.05577013,1,10,29,0,1,4,0.00090954,0.00358783,0.00933879,0.44889900,0.58891708,0.90212115
47145,0,USTennesseeRoane,Tennessee,Roane,2020-07-15 03:34:57.418424,2020-03-27 00:00:00.000000,0.00367313,0.01971211,0.05809034,1,10,31,0,1,5,0.00096006,0.00349833,0.00941402,0.45260110,0.57839814,0.92467080
47145,0,USTennesseeRoane,Tennessee,Roane,2020-07-15 03:34:57.418424,2020-03-28 00:00:00.000000,0.00383512,0.01946181,0.06052296,2,10,32,0,1,5,0.00101350,0.00362163,0.00988809,0.44626293,0.58124210,0.94478084
47145,0,USTennesseeRoane,Tennessee,Roane,2020-07-15 03:34:57.418424,2020-03-29 00:00:00.000000,0.00404578,0.01896600,0.06421613,2,10,34,0,1,5,0.00107043,0.00363829,0.01027078,0.43174916,0.58656696,0.95796545
47145,0,USTennesseeRoane,Tennessee,Roane,2020-07-15 03:34:57.418424,2020-03-30 00:00:00.000000,0.00428635,0.01862043,0.06676444,2,9,35,0,2,5,0.00112375,0.00383755,0.01044877,0.41705268,0.56877439,0.98313113
47145,0,USTennesseeRoane,Tennessee,Roane,2020-07-15 03:34:57.418424,2020-03-31 00:00:00.000000,0.00455041,0.01860932,0.06715592,2,9,35,0,2,5,0.00113691,0.00402275,0.01045281,0.40634666,0.53714102,1.02041136
47145,0,USTennesseeRoane,Tennessee,Roane,2020-07-15 03:34:57.418424,2020-04-01 00:00:00.000000,0.00483032,0.01863024,0.06753780,2,9,36,0,2,5,0.00114733,0.00405587,0.01035990,0.40098225,0.53327994,1.02318122
47145,0,USTennesseeRoane,Tennessee,Roane,2020-07-15 03:34:57.418424,2020-04-02 00:00:00.000000,0.00512513,0.01924587,0.06791655,2,10,36,0,2,5,0.00115827,0.00408410,0.01025257,0.40823248,0.53233412,1.02693671
47145,0,USTennesseeRoane,Tennessee,Roane,2020-07-15 03:34:57.418424,2020-04-03 00:00:00.000000,0.00552761,0.02005026,0.06850078,2,10,36,0,2,5,0.00117030,0.00426699,0.01019631,0.39209690,0.54129939,1.03262987
47145,0,USTennesseeRoane,Tennessee,Roane,2020-07-15 03:34:57.418424,2020-04-04 00:00:00.000000,0.00592435,0.02029274,0.06942262,3,10,37,0,2,5,0.00120608,0.00427284,0.01026294,0.37644395,0.54546931,1.04167842
47145,0,USTennesseeRoane,Tennessee,Roane,2020-07-15 03:34:57.418424,2020-04-05 00:00:00.000000,0.00629711,0.02001422,0.07034602,3,10,37,0,2,5,0.00127117,0.00451350,0.01035890,0.35509903,0.53271481,1.04271982
47145,0,USTennesseeRoane,Tennessee,Roane,2020-07-15 03:34:57.418424,2020-04-06 00:00:00.000000,0.00647265,0.02019293,0.07017085,3,10,37,0,2,5,0.00130864,0.00470438,0.01070037,0.34297301,0.52952419,1.05533446
47145,0,USTennesseeRoane,Tennessee,Roane,2020-07-15 03:34:57.418424,2020-04-07 00:00:00.000000,0.00703399,0.02087916,0.07000298,3,11,37,0,2,5,0.00136247,0.00472654,0.01102370,0.34016150,0.52463223,1.06624230
47145,0,USTennesseeRoane,Tennessee,Roane,2020-07-15 03:34:57.418424,2020-04-08 00:00:00.000000,0.00722903,0.02084452,0.06986464,3,11,37,0,2,5,0.00144578,0.00470541,0.01105034,0.34025404,0.52602370,1.07659993
47145,0,USTennesseeRoane,Tennessee,Roane,2020-07-15 03:34:57.418424,2020-04-09 00:00:00.000000,0.00764093,0.02214398,0.06973551,4,11,37,0,2,5,0.00152289,0.00476740,0.01112826,0.34146264,0.52453901,1.08372341
47145,0,USTennesseeRoane,Tennessee,Roane,2020-07-15 03:34:57.418424,2020-04-10 00:00:00.000000,0.00773758,0.02282263,0.06960916,4,12,37,0,2,6,0.00158466,0.00476331,0.01145238,0.34179318,0.48906808,1.06235112
47145,0,USTennesseeRoane,Tennessee,Roane,2020-07-15 03:34:57.418424,2020-04-11 00:00:00.000000,0.00808438,0.02306348,0.06948384,4,12,37,0,2,6,0.00161026,0.00469658,0.01192279,0.34356204,0.45526682,1.04008815
47145,0,USTennesseeRoane,Tennessee,Roane,2020-07-15 03:34:57.418424,2020-04-12 00:00:00.000000,0.00760774,0.02353735,0.06935912,4,12,37,0,2,6,0.00159426,0.00456291,0.01244468,0.34956206,0.44974171,1.02680760
47145,0,USTennesseeRoane,Tennessee,Roane,2020-07-15 03:34:57.418424,2020-04-13 00:00:00.000000,0.00772619,0.02361477,0.06924023,4,12,36,0,2,6,0.00157932,0.00469813,0.01298483,0.35224248,0.45320179,1.02351071
47145,0,USTennesseeRoane,Tennessee,Roane,2020-07-15 03:34:57.418424,2020-04-14 00:00:00.000000,0.00716232,0.02461823,0.06928001,3,13,36,0,2,7,0.00155985,0.00463258,0.01354459,0.33597910,0.46763589,1.02752998
47145,0,USTennesseeRoane,Tennessee,Roane,2020-07-15 03:34:57.418424,2020-04-15 00:00:00.000000,0.00712504,0.02451437,0.06932050,3,13,37,0,2,7,0.00154039,0.00451357,0.01412516,0.30250217,0.46974219,1.02599345
47145,0,USTennesseeRoane,Tennessee,Roane,2020-07-15 03:34:57.418424,2020-04-16 00:00:00.000000,0.00662761,0.02438810,0.06936371,3,13,37,0,2,7,0.00152152,0.00456621,0.01472766,0.28130703,0.47008918,1.02128264
47145,0,USTennesseeRoane,Tennessee,Roane,2020-07-15 03:34:57.418424,2020-04-17 00:00:00.000000,0.00660388,0.02406934,0.06965236,3,12,37,0,2,8,0.00150343,0.00453520,0.01535312,0.26893306,0.46140620,1.01678899
47145,0,USTennesseeRoane,Tennessee,Roane,2020-07-15 03:34:57.418424,2020-04-18 00:00:00.000000,0.00623050,0.02389675,0.07100754,3,12,37,0,2,8,0.00149709,0.00462365,0.01600247,0.26514766,0.44848215,1.01351372
47145,0,USTennesseeRoane,Tennessee,Roane,2020-07-15 03:34:57.418424,2020-04-19 00:00:00.000000,0.00624137,0.02411772,0.07272811,3,12,38,0,2,8,0.00150793,0.00453699,0.01667632,0.26407198,0.43950327,1.03455107
47145,0,USTennesseeRoane,Tennessee,Roane,2020-07-15 03:34:57.418424,2020-04-20 00:00:00.000000,0.00598131,0.02413099,0.07453942,3,12,39,0,2,9,0.00149997,0.00451829,0.01737477,0.25980983,0.43360818,1.05979025
47145,0,USTennesseeRoane,Tennessee,Roane,2020-07-15 03:34:57.418424,2020-04-21 00:00:00.000000,0.00602997,0.02390310,0.07645456,3,12,40,0,2,9,0.00152985,0.00442051,0.01809709,0.26044606,0.43614804,1.12862167
47145,0,USTennesseeRoane,Tennessee,Roane,2020-07-15 03:34:57.418424,2020-04-22 00:00:00.000000,0.00585705,0.02366613,0.07900720,3,12,42,0,2,10,0.00150912,0.00440387,0.01884227,0.26233235,0.44840051,1.21076239
47145,0,USTennesseeRoane,Tennessee,Roane,2020-07-15 03:34:57.418424,2020-04-23 00:00:00.000000,0.00582397,0.02340456,0.08158385,3,12,43,0,2,10,0.00153897,0.00446002,0.01961006,0.26576584,0.45558898,1.23838959
47145,0,USTennesseeRoane,Tennessee,Roane,2020-07-15 03:34:57.418424,2020-04-24 00:00:00.000000,0.00556899,0.02330496,0.08402348,2,12,44,0,2,10,0.00150963,0.00446785,0.02040113,0.26997925,0.44624099,1.28521626
47145,0,USTennesseeRoane,Tennessee,Roane,2020-07-15 03:34:57.418424,2020-04-25 00:00:00.000000,0.00545819,0.02355960,0.08620379,2,12,46,0,2,11,0.00154501,0.00430386,0.02121658,0.27522067,0.44760824,1.34044593
47145,0,USTennesseeRoane,Tennessee,Roane,2020-07-15 03:34:57.418424,2020-04-26 00:00:00.000000,0.00511458,0.02334317,0.08822778,2,12,47,0,2,11,0.00148351,0.00417532,0.02205771,0.27808257,0.44292592,1.34421942
47145,0,USTennesseeRoane,Tennessee,Roane,2020-07-15 03:34:57.418424,2020-04-27 00:00:00.000000,0.00504049,0.02314971,0.09020196,2,12,48,0,2,12,0.00152284,0.00414998,0.02292570,0.27856662,0.45832787,1.34346111
47145,0,USTennesseeRoane,Tennessee,Roane,2020-07-15 03:34:57.418424,2020-04-28 00:00:00.000000,0.00477067,0.02283258,0.09184000,2,12,49,0,2,12,0.00145906,0.00401109,0.02382165,0.27877704,0.47734130,1.36642356
47145,0,USTennesseeRoane,Tennessee,Roane,2020-07-15 03:34:57.418424,2020-04-29 00:00:00.000000,0.00476019,0.02281369,0.09359549,2,12,49,0,2,13,0.00152173,0.00405340,0.02501098,0.27892935,0.47770315,1.36867779
47145,0,USTennesseeRoane,Tennessee,Roane,2020-07-15 03:34:57.418424,2020-04-30 00:00:00.000000,0.00457257,0.02320273,0.09586046,2,12,51,0,2,14,0.00144434,0.00394143,0.02648756,0.27930931,0.47794408,1.37263182
47145,0,USTennesseeRoane,Tennessee,Roane,2020-07-15 03:34:57.418424,2020-05-01 00:00:00.000000,0.00460842,0.02327399,0.09848115,2,12,52,0,2,14,0.00153673,0.00400004,0.02805613,0.28102578,0.48185268,1.37893343
47145,0,USTennesseeRoane,Tennessee,Roane,2020-07-15 03:34:57.418424,2020-05-02 00:00:00.000000,0.00455287,0.02390782,0.10137451,2,12,54,0,2,15,0.00145233,0.00394500,0.02971457,0.28836276,0.50524139,1.38796555
47145,0,USTennesseeRoane,Tennessee,Roane,2020-07-15 03:34:57.418424,2020-05-03 00:00:00.000000,0.00455794,0.02458903,0.10526379,2,13,56,0,2,16,0.00155463,0.00390333,0.03144478,0.29949339,0.51850452,1.40058995
47145,0,USTennesseeRoane,Tennessee,Roane,2020-07-15 03:34:57.418424,2020-05-04 00:00:00.000000,0.00454573,0.02490915,0.11010726,2,13,58,0,2,17,0.00149831,0.00392191,0.03303848,0.30572250,0.51945335,1.43184531
47145,0,USTennesseeRoane,Tennessee,Roane,2020-07-15 03:34:57.418424,2020-05-05 00:00:00.000000,0.00453608,0.02433329,0.11554216,2,12,61,0,2,18,0.00156449,0.00394176,0.03429881,0.30379022,0.52144449,1.45528585
47145,0,USTennesseeRoane,Tennessee,Roane,2020-07-15 03:34:57.418424,2020-05-06 00:00:00.000000,0.00452748,0.02456579,0.12052246,2,13,64,0,2,19,0.00153063,0.00396258,0.03563451,0.31290212,0.52198559,1.45663552
47145,0,USTennesseeRoane,Tennessee,Roane,2020-07-15 03:34:57.418424,2020-05-07 00:00:00.000000,0.00451924,0.02539358,0.12559672,2,13,67,0,2,19,0.00158195,0.00398409,0.03707436,0.32202558,0.52472267,1.43745412
47145,0,USTennesseeRoane,Tennessee,Roane,2020-07-15 03:34:57.418424,2020-05-08 00:00:00.000000,0.00451061,0.02617732,0.13044345,2,13,69,0,2,20,0.00155167,0.00398342,0.03856626,0.30368867,0.52185248,1.44239192
47145,0,USTennesseeRoane,Tennessee,Roane,2020-07-15 03:34:57.418424,2020-05-09 00:00:00.000000,0.00450006,0.02683425,0.13508931,2,14,72,0,2,21,0.00162957,0.00398117,0.04011227,0.27959681,0.52399488,1.46489305
47145,0,USTennesseeRoane,Tennessee,Roane,2020-07-15 03:34:57.418424,2020-05-10 00:00:00.000000,0.00448556,0.02735871,0.13970138,2,14,74,0,2,22,0.00157709,0.00398013,0.04171662,0.26990774,0.52765508,1.49851917
47145,0,USTennesseeRoane,Tennessee,Roane,2020-07-15 03:34:57.418424,2020-05-11 00:00:00.000000,0.00446988,0.02768328,0.14441524,2,14,77,0,2,23,0.00168751,0.00396310,0.04358846,0.27126489,0.54511311,1.54038906
47145,0,USTennesseeRoane,Tennessee,Roane,2020-07-15 03:34:57.418424,2020-05-12 00:00:00.000000,0.00446735,0.02808865,0.15003350,2,14,80,0,2,24,0.00159701,0.00396088,0.04561259,0.27394104,0.56773719,1.58755008
47145,0,USTennesseeRoane,Tennessee,Roane,2020-07-15 03:34:57.418424,2020-05-13 00:00:00.000000,0.00450329,0.02855784,0.15718072,2,15,83,0,2,25,0.00167458,0.00397109,0.04775940,0.27849520,0.58172105,1.60880546
47145,0,USTennesseeRoane,Tennessee,Roane,2020-07-15 03:34:57.418424,2020-05-14 00:00:00.000000,0.00460839,0.02910646,0.16509444,2,15,88,0,2,26,0.00161852,0.00400561,0.05009894,0.28393376,0.60270826,1.61621530
47145,0,USTennesseeRoane,Tennessee,Roane,2020-07-15 03:34:57.418424,2020-05-15 00:00:00.000000,0.00480483,0.02974865,0.17360188,2,15,92,0,2,28,0.00169949,0.00410441,0.05252596,0.29130526,0.61076009,1.63340938
47145,0,USTennesseeRoane,Tennessee,Roane,2020-07-15 03:34:57.418424,2020-05-16 00:00:00.000000,0.00509189,0.03046779,0.18263186,2,16,97,0,2,29,0.00173136,0.00423643,0.05505171,0.27572214,0.63047451,1.70673949
47145,0,USTennesseeRoane,Tennessee,Roane,2020-07-15 03:34:57.418424,2020-05-17 00:00:00.000000,0.00537658,0.03112955,0.19215154,2,16,102,0,2,30,0.00182005,0.00437817,0.05768434,0.26335844,0.68569287,1.81190823
47145,0,USTennesseeRoane,Tennessee,Roane,2020-07-15 03:34:57.418424,2020-05-18 00:00:00.000000,0.00567617,0.03178274,0.20188991,3,16,107,0,2,32,0.00187284,0.00450989,0.06043041,0.26373950,0.72962572,1.91822719
47145,0,USTennesseeRoane,Tennessee,Roane,2020-07-15 03:34:57.418424,2020-05-19 00:00:00.000000,0.00613096,0.03236891,0.21075873,3,17,112,1,2,33,0.00191037,0.00453283,0.06329612,0.26791451,0.76562462,1.94046286
47145,0,USTennesseeRoane,Tennessee,Roane,2020-07-15 03:34:57.418424,2020-05-20 00:00:00.000000,0.00662897,0.03312920,0.22107827,3,17,118,1,2,35,0.00195917,0.00455276,0.06639256,0.27151572,0.78154702,1.97759695
47145,0,USTennesseeRoane,Tennessee,Roane,2020-07-15 03:34:57.418424,2020-05-21 00:00:00.000000,0.00717033,0.03380892,0.23208957,3,18,123,1,2,37,0.00201722,0.00460713,0.07016473,0.27442161,0.79708932,2.07152930
47145,0,USTennesseeRoane,Tennessee,Roane,2020-07-15 03:34:57.418424,2020-05-22 00:00:00.000000,0.00775708,0.03447359,0.24371678,4,18,130,1,2,39,0.00208149,0.00466713,0.07417382,0.26498298,0.80969762,2.19853566
47145,0,USTennesseeRoane,Tennessee,Roane,2020-07-15 03:34:57.418424,2020-05-23 00:00:00.000000,0.00836769,0.03523210,0.25596730,4,18,136,1,2,41,0.00215014,0.00468037,0.07839240,0.28086086,0.82289507,2.27346013
47145,0,USTennesseeRoane,Tennessee,Roane,2020-07-15 03:34:57.418424,2020-05-24 00:00:00.000000,0.00892066,0.03632023,0.26883111,4,19,143,1,2,44,0.00222229,0.00473883,0.08283624,0.28544445,0.83825123,2.29294148
47145,0,USTennesseeRoane,Tennessee,Roane,2020-07-15 03:34:57.418424,2020-05-25 00:00:00.000000,0.00960397,0.03754282,0.28228474,5,20,150,1,2,46,0.00229823,0.00497964,0.08752371,0.28113456,0.84419639,2.29632818
47145,0,USTennesseeRoane,Tennessee,Roane,2020-07-15 03:34:57.418424,2020-05-26 00:00:00.000000,0.01007997,0.03888085,0.29634592,5,20,158,1,2,49,0.00238814,0.00527435,0.09247167,0.27790984,0.84649429,2.29329319
47145,0,USTennesseeRoane,Tennessee,Roane,2020-07-15 03:34:57.418424,2020-05-27 00:00:00.000000,0.01074314,0.04072947,0.31106786,5,21,166,1,2,52,0.00244444,0.00551179,0.09769609,0.27611930,0.84669576,2.29099825
47145,0,USTennesseeRoane,Tennessee,Roane,2020-07-15 03:34:57.418424,2020-05-28 00:00:00.000000,0.01144095,0.04250988,0.32651984,6,22,174,1,3,55,0.00248910,0.00570457,0.10321326,0.27447216,0.84857457,2.29738017
47145,0,USTennesseeRoane,Tennessee,Roane,2020-07-15 03:34:57.418424,2020-05-29 00:00:00.000000,0.01217045,0.04413459,0.34426269,6,23,183,1,3,58,0.00253849,0.00592104,0.10904056,0.27286407,0.88075532,2.31450711
47145,0,USTennesseeRoane,Tennessee,Roane,2020-07-15 03:34:57.418424,2020-05-30 00:00:00.000000,0.01292844,0.04585437,0.36356174,6,24,194,1,3,61,0.00259894,0.00615849,0.11519717,0.27160762,0.89476730,2.35196823
47145,0,USTennesseeRoane,Tennessee,Roane,2020-07-15 03:34:57.418424,2020-05-31 00:00:00.000000,0.01370536,0.04820873,0.38168996,7,25,203,1,3,64,0.00267943,0.00641289,0.12170489,0.27481998,0.92650432,2.36107915
47145,0,USTennesseeRoane,Tennessee,Roane,2020-07-15 03:34:57.418424,2020-06-01 00:00:00.000000,0.01445533,0.05070633,0.39909522,7,27,213,1,3,68,0.00278871,0.00668185,0.12858853,0.27666575,0.93341148,2.38194822
47145,0,USTennesseeRoane,Tennessee,Roane,2020-07-15 03:34:57.418424,2020-06-02 00:00:00.000000,0.01518906,0.05335274,0.41739198,8,28,222,1,3,72,0.00292879,0.00697384,0.13587467,0.27787980,0.94270967,2.40783658
47145,0,USTennesseeRoane,Tennessee,Roane,2020-07-15 03:34:57.418424,2020-06-03 00:00:00.000000,0.01596943,0.05615608,0.43699555,8,29,233,1,3,76,0.00309644,0.00737546,0.14358982,0.27911431,0.94656911,2.42952556
47145,0,USTennesseeRoane,Tennessee,Roane,2020-07-15 03:34:57.418424,2020-06-04 00:00:00.000000,0.01682101,0.05925486,0.46017526,8,31,245,1,4,81,0.00328915,0.00780354,0.15176019,0.28079932,0.95377895,2.46390681
47145,0,USTennesseeRoane,Tennessee,Roane,2020-07-15 03:34:57.418424,2020-06-05 00:00:00.000000,0.01774314,0.06302141,0.48724097,9,33,260,1,4,85,0.00350795,0.00827790,0.16041240,0.28333801,0.98008180,2.60938554
47145,0,USTennesseeRoane,Tennessee,Roane,2020-07-15 03:34:57.418424,2020-06-06 00:00:00.000000,0.01873543,0.06612731,0.51722892,10,35,276,1,4,90,0.00374591,0.00879301,0.16883531,0.28560390,1.06038798,2.80857192
47145,0,USTennesseeRoane,Tennessee,Roane,2020-07-15 03:34:57.418424,2020-06-07 00:00:00.000000,0.02006032,0.06950903,0.55027503,10,37,293,2,4,94,0.00406908,0.00934263,0.17757836,0.28829891,1.18343919,2.87079570
47145,0,USTennesseeRoane,Tennessee,Roane,2020-07-15 03:34:57.418424,2020-06-08 00:00:00.000000,0.02171641,0.07352019,0.58560179,11,39,312,2,5,99,0.00442985,0.00993126,0.18702115,0.31177255,1.20629707,2.98299902
47145,0,USTennesseeRoane,Tennessee,Roane,2020-07-15 03:34:57.418424,2020-06-09 00:00:00.000000,0.02368402,0.07811231,0.62301399,12,41,332,2,5,105,0.00484089,0.01057163,0.19719760,0.35377628,1.21800461,3.13333988
47145,0,USTennesseeRoane,Tennessee,Roane,2020-07-15 03:34:57.418424,2020-06-10 00:00:00.000000,0.02592673,0.08322734,0.66264625,13,44,353,2,6,111,0.00536768,0.01128928,0.20813677,0.37235484,1.22660617,3.20128930
47145,0,USTennesseeRoane,Tennessee,Roane,2020-07-15 03:34:57.418424,2020-06-11 00:00:00.000000,0.02829350,0.08894589,0.70474491,15,47,376,3,6,117,0.00590383,0.01212414,0.21987182,0.40454847,1.24187691,3.22739118
47145,0,USTennesseeRoane,Tennessee,Roane,2020-07-15 03:34:57.418424,2020-06-12 00:00:00.000000,0.03109247,0.09538774,0.74964233,16,50,400,3,6,124,0.00627838,0.01308653,0.23244271,0.41668212,1.26353542,3.24164826
47145,0,USTennesseeRoane,Tennessee,Roane,2020-07-15 03:34:57.418424,2020-06-13 00:00:00.000000,0.03453273,0.10269505,0.79583803,18,54,424,3,7,131,0.00675755,0.01431911,0.24589898,0.45475110,1.28761388,3.29249291
47145,0,USTennesseeRoane,Tennessee,Roane,2020-07-15 03:34:57.418424,2020-06-14 00:00:00.000000,0.03817618,0.10864046,0.84905657,20,57,453,3,8,138,0.00731182,0.01602952,0.26030511,0.49410194,1.30931545,3.50062133
47145,0,USTennesseeRoane,Tennessee,Roane,2020-07-15 03:34:57.418424,2020-06-15 00:00:00.000000,0.04213576,0.11411000,0.92459275,22,60,493,4,9,147,0.00787701,0.01701857,0.27575247,0.50298803,1.32997884,3.84156251
47145,0,USTennesseeRoane,Tennessee,Roane,2020-07-15 03:34:57.418424,2020-06-16 00:00:00.000000,0.04721471,0.12054020,0.99704179,25,64,532,4,9,156,0.00845201,0.01860577,0.29238129,0.51153848,1.35292344,4.01339463
47145,0,USTennesseeRoane,Tennessee,Roane,2020-07-15 03:34:57.418424,2020-06-17 00:00:00.000000,0.05334775,0.13190965,1.07927856,28,70,576,4,11,165,0.00917415,0.02097398,0.31039803,0.54890677,1.37451953,4.09868517
47145,0,USTennesseeRoane,Tennessee,Roane,2020-07-15 03:34:57.418424,2020-06-18 00:00:00.000000,0.05938425,0.14307344,1.17267167,31,76,625,5,12,176,0.01008454,0.02341631,0.33004770,0.58191940,1.38605659,4.21811502
47145,0,USTennesseeRoane,Tennessee,Roane,2020-07-15 03:34:57.418424,2020-06-19 00:00:00.000000,0.06380094,0.15856493,1.27611899,34,84,681,5,13,187,0.01114603,0.02604234,0.35154983,0.60805620,1.39577159,4.54110631
47145,0,USTennesseeRoane,Tennessee,Roane,2020-07-15 03:34:57.418424,2020-06-20 00:00:00.000000,0.06854809,0.17952573,1.38875584,36,95,741,6,15,200,0.01235417,0.02899246,0.37542709,0.61661969,1.41400728,4.63497997
47145,0,USTennesseeRoane,Tennessee,Roane,2020-07-15 03:34:57.418424,2020-06-21 00:00:00.000000,0.07580977,0.19929795,1.51014649,40,106,806,7,16,216,0.01369188,0.03154396,0.40579557,0.62471225,1.51428434,4.65493194
47145,0,USTennesseeRoane,Tennessee,Roane,2020-07-15 03:34:57.418424,2020-06-22 00:00:00.000000,0.08326984,0.21723505,1.63850465,44,115,874,8,18,235,0.01506131,0.03467571,0.44025356,0.63385088,1.55716209,4.65899297
47145,0,USTennesseeRoane,Tennessee,Roane,2020-07-15 03:34:57.418424,2020-06-23 00:00:00.000000,0.09151789,0.24616670,1.77602576,48,131,948,8,20,255,0.01638853,0.03892062,0.47783756,0.64603540,1.57125356,4.66009456
47145,0,USTennesseeRoane,Tennessee,Roane,2020-07-15 03:34:57.418424,2020-06-24 00:00:00.000000,0.10082001,0.27180728,1.92611847,53,145,1028,9,22,276,0.01788974,0.04298055,0.51865837,0.66577237,1.56718301,4.66155455
47145,0,USTennesseeRoane,Tennessee,Roane,2020-07-15 03:34:57.418424,2020-06-25 00:00:00.000000,0.11194758,0.30453788,2.09186592,59,162,1116,10,25,300,0.01958766,0.04740889,0.56299318,0.68693831,1.58984197,4.66741317
47145,0,USTennesseeRoane,Tennessee,Roane,2020-07-15 03:34:57.418424,2020-06-26 00:00:00.000000,0.12397908,0.33643351,2.28067555,66,179,1217,11,28,326,0.02193408,0.05291879,0.61111965,0.70172112,1.62720701,4.75938818
47145,0,USTennesseeRoane,Tennessee,Roane,2020-07-15 03:34:57.418424,2020-06-27 00:00:00.000000,0.13907527,0.37267564,2.52059523,74,198,1345,13,32,357,0.02441426,0.06077199,0.67000938,0.72550998,1.63720101,4.92005912
47145,0,USTennesseeRoane,Tennessee,Roane,2020-07-15 03:34:57.418424,2020-06-28 00:00:00.000000,0.15540979,0.42161470,2.79235221,82,225,1490,14,37,386,0.02688290,0.06933988,0.72379730,0.77817395,1.67240682,5.08651921
47145,0,USTennesseeRoane,Tennessee,Roane,2020-07-15 03:34:57.418424,2020-06-29 00:00:00.000000,0.17546254,0.47223394,3.09519702,93,252,1652,15,40,418,0.02967836,0.07589628,0.78313431,0.84556730,1.69049306,5.24760955
47145,0,USTennesseeRoane,Tennessee,Roane,2020-07-15 03:34:57.418424,2020-06-30 00:00:00.000000,0.20642680,0.52929008,3.42875007,110,282,1830,17,44,453,0.03249379,0.08333126,0.84866828,0.85303119,1.69966087,5.33443361
47145,0,USTennesseeRoane,Tennessee,Roane,2020-07-15 03:34:57.418424,2020-07-01 00:00:00.000000,0.24370510,0.59323190,3.79379279,130,316,2025,18,50,491,0.03543682,0.09465931,0.92100322,0.86046487,1.70354032,5.40199267
47145,0,USTennesseeRoane,Tennessee,Roane,2020-07-15 03:34:57.418424,2020-07-02 00:00:00.000000,0.28217494,0.66364952,4.19211375,150,354,2237,20,56,534,0.03892217,0.10512428,1.00073015,0.86579371,1.70224705,5.52784166
47145,0,USTennesseeRoane,Tennessee,Roane,2020-07-15 03:34:57.418424,2020-07-03 00:00:00.000000,0.31506647,0.74475639,4.62594637,168,397,2469,22,62,581,0.04274903,0.11692096,1.08845705,0.87164517,1.70106145,5.72832362
47145,0,USTennesseeRoane,Tennessee,Roane,2020-07-15 03:34:57.418424,2020-07-04 00:00:00.000000,0.36843503,0.83432758,5.09690072,196,445,2720,25,71,632,0.04837709,0.13389958,1.18482091,0.87909601,1.69106168,5.94037715
47145,0,USTennesseeRoane,Tennessee,Roane,2020-07-15 03:34:57.418424,2020-07-05 00:00:00.000000,0.43308998,0.93339549,5.60381490,231,498,2991,29,82,688,0.05527267,0.15517499,1.29046439,0.87599272,1.68009063,6.13182541
47145,0,USTennesseeRoane,Tennessee,Roane,2020-07-15 03:34:57.418424,2020-07-06 00:00:00.000000,0.48635623,1.04325915,6.14291666,259,556,3279,33,92,750,0.06263202,0.17349137,1.40594095,0.86529618,1.65662586,5.88599736
47145,0,USTennesseeRoane,Tennessee,Roane,2020-07-15 03:34:57.418424,2020-07-07 00:00:00.000000,0.54138840,1.14193023,6.71694814,289,609,3585,37,102,817,0.07001109,0.19222691,1.53163018,0.85947953,1.67222535,5.87618755
47145,0,USTennesseeRoane,Tennessee,Roane,2020-07-15 03:34:57.418424,2020-07-08 00:00:00.000000,0.60194248,1.27884513,7.33508667,321,682,3915,41,114,890,0.07833262,0.21503460,1.66841405,0.86367807,1.66902274,5.88367415
47145,0,USTennesseeRoane,Tennessee,Roane,2020-07-15 03:34:57.418424,2020-07-09 00:00:00.000000,0.66942579,1.43913675,8.00479309,357,768,4273,46,128,975,0.08753307,0.24069938,1.82788861,0.86120739,1.66714965,5.90689875
47145,0,USTennesseeRoane,Tennessee,Roane,2020-07-15 03:34:57.418424,2020-07-10 00:00:00.000000,0.74459987,1.59759412,8.73140302,397,852,4660,51,144,1068,0.09646574,0.26975786,2.00149631,0.86054304,1.66611702,5.91864113
47145,0,USTennesseeRoane,Tennessee,Roane,2020-07-15 03:34:57.418424,2020-07-11 00:00:00.000000,0.82821322,1.78410892,9.51953722,442,952,5081,56,160,1169,0.10627081,0.30087184,2.19041935,0.86037094,1.66556624,5.92335715
47145,0,USTennesseeRoane,Tennessee,Roane,2020-07-15 03:34:57.418424,2020-07-12 00:00:00.000000,0.92113140,1.96567916,10.37368748,491,1049,5537,62,179,1278,0.11704003,0.33697043,2.39593303,0.86032698,1.66527765,5.92522074
47145,0,USTennesseeRoane,Tennessee,Roane,2020-07-15 03:34:57.418424,2020-07-13 00:00:00.000000,1.02431774,2.21944179,11.29836301,546,1184,6031,68,202,1398,0.12763296,0.37908441,2.61939680,0.86031587,1.66512786,5.92595268
47145,0,USTennesseeRoane,Tennessee,Roane,2020-07-15 03:34:57.418424,2020-07-14 00:00:00.000000,1.15522189,2.52613817,12.29810179,616,1348,6564,73,227,1527,0.13797385,0.42610800,2.86225104,0.86031312,1.66505050,5.92623955
47145,0,USTennesseeRoane,Tennessee,Roane,2020-07-15 03:34:57.418424,2020-07-15 00:00:00.000000,1.30662510,2.87341086,13.40312131,697,1533,7154,79,254,1668,0.14909837,0.47587535,3.12601459,0.86031245,1.66501065,5.92635192
47145,0,USTennesseeRoane,Tennessee,Roane,2020-07-15 03:34:57.418424,2020-07-16 00:00:00.000000,1.46876849,3.24724436,14.59994503,784,1733,7793,85,283,1821,0.16106837,0.53035124,3.41228145,0.86031230,1.66499015,5.92639594
47145,0,USTennesseeRoane,Tennessee,Roane,2020-07-15 03:34:57.418424,2020-07-17 00:00:00.000000,1.64456312,3.61677293,16.03810565,877,1930,8561,92,315,1987,0.17394843,0.59068685,3.72271623,0.86031227,1.66497962,5.92641319
47145,0,USTennesseeRoane,Tennessee,Roane,2020-07-15 03:34:57.418424,2020-07-18 00:00:00.000000,1.79896161,4.16522554,18.48147349,960,2223,9865,100,350,2166,0.18780596,0.65742007,4.05904772,0.86031227,1.66497421,5.92641995
47145,0,USTennesseeRoane,Tennessee,Roane,2020-07-15 03:34:57.418424,2020-07-19 00:00:00.000000,1.96443704,4.77059281,21.50879689,1048,2546,11481,108,391,2361,0.20271136,0.73326336,4.42306038,0.86031227,1.66497144,5.92642260
47145,0,USTennesseeRoane,Tennessee,Roane,2020-07-15 03:34:57.418424,2020-07-20 00:00:00.000000,2.15032664,5.36946922,24.88791749,1147,2866,13285,116,443,2571,0.21873813,0.83101988,4.81658326,0.86031227,1.66497002,5.92642364
47145,0,USTennesseeRoane,Tennessee,Roane,2020-07-15 03:34:57.418424,2020-07-21 00:00:00.000000,2.33398345,6.00603793,27.48314241,1245,3206,14671,125,497,2798,0.23596297,0.93108068,5.24147599,0.86031228,1.66496929,5.92642405
47145,0,USTennesseeRoane,Tennessee,Roane,2020-07-15 03:34:57.418424,2020-07-22 00:00:00.000000,2.53224399,6.69631010,28.82128477,1351,3574,15385,135,548,3042,0.25446575,1.02794604,5.69961159,0.86031228,1.66496891,5.92642421
47145,0,USTennesseeRoane,Tennessee,Roane,2020-07-15 03:34:57.418424,2020-07-23 00:00:00.000000,2.76084485,7.37546734,30.60504821,1473,3937,16337,146,617,3305,0.27432950,1.15736112,6.19285565,0.86031228,1.66496872,5.92642428
47145,0,USTennesseeRoane,Tennessee,Roane,2020-07-15 03:34:57.418424,2020-07-24 00:00:00.000000,3.03494789,8.10798670,32.84193836,1620,4328,17531,157,682,3588,0.29564021,1.27848165,6.72304175,0.86031228,1.66496863,5.92642430
47145,0,USTennesseeRoane,Tennessee,Roane,2020-07-15 03:34:57.418424,2020-07-25 00:00:00.000000,3.33398190,8.89455720,35.18375690,1779,4748,18781,169,751,3770,0.31837163,1.40819216,7.06365655,0.86031228,1.66496858,5.92642431
47145,0,USTennesseeRoane,Tennessee,Roane,2020-07-15 03:34:57.418424,2020-07-26 00:00:00.000000,3.65972530,9.76456229,38.12176013,1953,5212,20350,182,823,3927,0.34121573,1.54295536,7.35657907,0.86031228,1.66496856,5.92642432
47145,0,USTennesseeRoane,Tennessee,Roane,2020-07-15 03:34:57.418424,2020-07-27 00:00:00.000000,4.01397718,10.78430284,41.09318500,2142,5756,21936,195,899,4102,0.36553163,1.68537901,7.68547977,0.86031228,1.66496854,5.92642432
