FIPS,HR_UID,nameid,province,region,analysisTime,dates,pointprevalence_025,pointprevalence_50,pointprevalence_975,pointinfections_025,pointinfections_50,pointinfections_975,pointinfectious_025,pointinfectious_50,pointinfectious_975,pointinfectiousprevalence_05,pointinfectiousprevalence_50,pointinfectiousprevalence_95,infectrate_025,infectrate_50,infectrate_975
39029,0,USOhioColumbiana,Ohio,Columbiana,2020-07-15 21:26:59.153649,2020-03-09 00:00:00.000000,0.00535870,0.02167488,0.07157373,5,22,72,1,7,44,0.00168666,0.00748785,0.04329465,0.49682650,0.75843977,1.01402302
39029,0,USOhioColumbiana,Ohio,Columbiana,2020-07-15 21:26:59.153649,2020-03-10 00:00:00.000000,0.00456296,0.02388656,0.07971540,4,24,81,2,9,40,0.00292369,0.00930097,0.04020282,0.49682270,0.75973716,1.01402190
39029,0,USOhioColumbiana,Ohio,Columbiana,2020-07-15 21:26:59.153649,2020-03-11 00:00:00.000000,0.00602810,0.02674726,0.08422944,6,27,85,3,10,40,0.00313353,0.01052706,0.03958274,0.49681141,0.75973710,1.01401997
39029,0,USOhioColumbiana,Ohio,Columbiana,2020-07-15 21:26:59.153649,2020-03-12 00:00:00.000000,0.00586575,0.02971434,0.09388649,5,30,95,3,12,43,0.00355243,0.01191036,0.04315135,0.49677705,0.75973701,1.01401661
39029,0,USOhioColumbiana,Ohio,Columbiana,2020-07-15 21:26:59.153649,2020-03-13 00:00:00.000000,0.00757651,0.03309071,0.10376030,7,33,105,4,13,49,0.00395177,0.01343171,0.04845219,0.49666837,0.75973684,1.01401073
39029,0,USOhioColumbiana,Ohio,Columbiana,2020-07-15 21:26:59.153649,2020-03-14 00:00:00.000000,0.00792176,0.03698792,0.11609322,8,37,118,4,15,54,0.00454070,0.01486608,0.05391376,0.49630659,0.76143560,1.01400050
39029,0,USOhioColumbiana,Ohio,Columbiana,2020-07-15 21:26:59.153649,2020-03-15 00:00:00.000000,0.00971307,0.04199100,0.13100619,9,42,133,5,17,60,0.00513830,0.01687280,0.05977024,0.49504508,0.76639649,1.01398289
39029,0,USOhioColumbiana,Ohio,Columbiana,2020-07-15 21:26:59.153649,2020-03-16 00:00:00.000000,0.01094074,0.04528443,0.14805202,11,46,150,5,18,67,0.00584760,0.01858591,0.06617421,0.49268343,0.76809019,1.01395361
39029,0,USOhioColumbiana,Ohio,Columbiana,2020-07-15 21:26:59.153649,2020-03-17 00:00:00.000000,0.01296913,0.05131425,0.16726887,13,52,170,6,21,74,0.00663854,0.02132162,0.07324422,0.48675674,0.75975706,1.01167766
39029,0,USOhioColumbiana,Ohio,Columbiana,2020-07-15 21:26:59.153649,2020-03-18 00:00:00.000000,0.01497903,0.05683998,0.18816908,15,57,191,7,23,82,0.00755151,0.02344182,0.08108767,0.47198460,0.75879183,1.01385596
39029,0,USOhioColumbiana,Ohio,Columbiana,2020-07-15 21:26:59.153649,2020-03-19 00:00:00.000000,0.01740094,0.06518450,0.21003716,17,66,213,8,25,91,0.00860062,0.02525604,0.08942376,0.44292712,0.75649233,1.02209210
39029,0,USOhioColumbiana,Ohio,Columbiana,2020-07-15 21:26:59.153649,2020-03-20 00:00:00.000000,0.02026469,0.07239412,0.23182415,20,73,236,10,29,100,0.00982019,0.02893965,0.09821399,0.40627349,0.74550839,1.04579822
39029,0,USOhioColumbiana,Ohio,Columbiana,2020-07-15 21:26:59.153649,2020-03-21 00:00:00.000000,0.02386269,0.08067023,0.25307053,24,82,257,11,33,109,0.01123795,0.03307058,0.10743315,0.38245126,0.73680736,1.07778140
39029,0,USOhioColumbiana,Ohio,Columbiana,2020-07-15 21:26:59.153649,2020-03-22 00:00:00.000000,0.02797548,0.09020307,0.27472206,28,91,279,13,37,119,0.01289228,0.03670282,0.11750968,0.38040437,0.73203998,1.09484525
39029,0,USOhioColumbiana,Ohio,Columbiana,2020-07-15 21:26:59.153649,2020-03-23 00:00:00.000000,0.03207265,0.10125760,0.29775839,32,103,303,15,41,132,0.01483363,0.04033499,0.12970428,0.38122340,0.73530269,1.12288641
39029,0,USOhioColumbiana,Ohio,Columbiana,2020-07-15 21:26:59.153649,2020-03-24 00:00:00.000000,0.03585479,0.11306001,0.32261970,36,115,328,17,45,145,0.01712559,0.04441242,0.14325746,0.37605354,0.73923690,1.14235804
39029,0,USOhioColumbiana,Ohio,Columbiana,2020-07-15 21:26:59.153649,2020-03-25 00:00:00.000000,0.04020061,0.12540108,0.34942569,40,127,356,20,51,161,0.01982763,0.05027631,0.15840139,0.36909931,0.73393301,1.16067914
39029,0,USOhioColumbiana,Ohio,Columbiana,2020-07-15 21:26:59.153649,2020-03-26 00:00:00.000000,0.04497118,0.13842291,0.37802330,45,141,385,23,56,178,0.02297633,0.05510915,0.17528279,0.36370849,0.73105510,1.16358136
39029,0,USOhioColumbiana,Ohio,Columbiana,2020-07-15 21:26:59.153649,2020-03-27 00:00:00.000000,0.05051708,0.15348452,0.40814159,51,156,415,26,63,197,0.02624837,0.06196703,0.19400611,0.35747439,0.71855133,1.14640202
39029,0,USOhioColumbiana,Ohio,Columbiana,2020-07-15 21:26:59.153649,2020-03-28 00:00:00.000000,0.05686190,0.16582718,0.43971249,57,168,447,30,70,218,0.02994694,0.06879706,0.21467120,0.34975155,0.70120958,1.12660503
39029,0,USOhioColumbiana,Ohio,Columbiana,2020-07-15 21:26:59.153649,2020-03-29 00:00:00.000000,0.06407108,0.18099279,0.47290582,65,184,481,32,76,241,0.03235274,0.07501482,0.23738870,0.34061818,0.70159140,1.10775305
39029,0,USOhioColumbiana,Ohio,Columbiana,2020-07-15 21:26:59.153649,2020-03-30 00:00:00.000000,0.07156223,0.20144773,0.50783604,72,205,517,36,84,268,0.03547385,0.08264532,0.26393691,0.32927670,0.68259155,1.10121523
39029,0,USOhioColumbiana,Ohio,Columbiana,2020-07-15 21:26:59.153649,2020-03-31 00:00:00.000000,0.08008215,0.21996432,0.54440494,81,224,554,40,91,298,0.03949560,0.09001921,0.29261533,0.31914761,0.64928455,1.09692324
39029,0,USOhioColumbiana,Ohio,Columbiana,2020-07-15 21:26:59.153649,2020-04-01 00:00:00.000000,0.08915070,0.23873160,0.58239036,90,243,593,45,102,329,0.04433636,0.10083093,0.32299081,0.31179433,0.64096518,1.09550199
39029,0,USOhioColumbiana,Ohio,Columbiana,2020-07-15 21:26:59.153649,2020-04-02 00:00:00.000000,0.10021832,0.25950757,0.62165906,102,264,633,50,114,361,0.04995150,0.11217930,0.35502460,0.30568509,0.61939764,1.09513499
39029,0,USOhioColumbiana,Ohio,Columbiana,2020-07-15 21:26:59.153649,2020-04-03 00:00:00.000000,0.11278200,0.28287848,0.66231833,114,288,674,55,124,396,0.05474210,0.12228284,0.38868799,0.30065438,0.59867466,1.09379541
39029,0,USOhioColumbiana,Ohio,Columbiana,2020-07-15 21:26:59.153649,2020-04-04 00:00:00.000000,0.12695681,0.30940766,0.70467968,129,315,717,60,137,431,0.05977766,0.13512091,0.42401467,0.29688948,0.58869106,1.07845953
39029,0,USOhioColumbiana,Ohio,Columbiana,2020-07-15 21:26:59.153649,2020-04-05 00:00:00.000000,0.14284639,0.33263300,0.74433427,145,338,758,66,152,469,0.06526116,0.14973847,0.46070261,0.29425346,0.56564425,1.07083066
39029,0,USOhioColumbiana,Ohio,Columbiana,2020-07-15 21:26:59.153649,2020-04-06 00:00:00.000000,0.16070339,0.35840354,0.78568161,163,365,800,72,164,508,0.07122779,0.16164558,0.49875892,0.29218509,0.53336698,1.03913802
39029,0,USOhioColumbiana,Ohio,Columbiana,2020-07-15 21:26:59.153649,2020-04-07 00:00:00.000000,0.18148733,0.37972584,0.84178394,184,386,857,78,174,548,0.07722802,0.17141876,0.53871273,0.28979967,0.51542693,1.00981127
39029,0,USOhioColumbiana,Ohio,Columbiana,2020-07-15 21:26:59.153649,2020-04-08 00:00:00.000000,0.19937528,0.39992440,0.90021992,203,407,917,83,187,591,0.08171080,0.18407915,0.58062523,0.26316392,0.50185122,0.98355906
39029,0,USOhioColumbiana,Ohio,Columbiana,2020-07-15 21:26:59.153649,2020-04-09 00:00:00.000000,0.21465531,0.41989377,0.95294541,218,427,970,88,199,636,0.08652550,0.19572797,0.62443530,0.25561804,0.48078070,0.94681704
39029,0,USOhioColumbiana,Ohio,Columbiana,2020-07-15 21:26:59.153649,2020-04-10 00:00:00.000000,0.23427059,0.42885386,1.00111481,238,436,1019,96,209,682,0.09514128,0.20569799,0.66987565,0.24550141,0.47218109,0.91447233
39029,0,USOhioColumbiana,Ohio,Columbiana,2020-07-15 21:26:59.153649,2020-04-11 00:00:00.000000,0.24808165,0.45096186,1.05695402,252,459,1076,107,219,729,0.10520832,0.21547604,0.71637979,0.22931580,0.44924667,0.89118788
39029,0,USOhioColumbiana,Ohio,Columbiana,2020-07-15 21:26:59.153649,2020-04-12 00:00:00.000000,0.26138955,0.48026701,1.12031036,266,489,1141,114,231,777,0.11274701,0.22711175,0.76308058,0.21025847,0.43303994,0.89335470
39029,0,USOhioColumbiana,Ohio,Columbiana,2020-07-15 21:26:59.153649,2020-04-13 00:00:00.000000,0.27340748,0.49040780,1.17026464,278,499,1192,122,242,824,0.12036668,0.23831730,0.80907283,0.19168958,0.41859299,0.82159964
39029,0,USOhioColumbiana,Ohio,Columbiana,2020-07-15 21:26:59.153649,2020-04-14 00:00:00.000000,0.28517348,0.51488561,1.21722706,290,524,1240,130,250,867,0.12814718,0.24599898,0.85125314,0.18213315,0.39875211,0.80754066
39029,0,USOhioColumbiana,Ohio,Columbiana,2020-07-15 21:26:59.153649,2020-04-15 00:00:00.000000,0.29845809,0.53505625,1.26770891,304,545,1291,138,265,879,0.13620421,0.26028572,0.86306416,0.17837288,0.39332802,0.79180472
39029,0,USOhioColumbiana,Ohio,Columbiana,2020-07-15 21:26:59.153649,2020-04-16 00:00:00.000000,0.31251545,0.55185507,1.30604768,318,562,1330,147,281,884,0.14458745,0.27668191,0.86775109,0.17579184,0.37878956,0.75871420
39029,0,USOhioColumbiana,Ohio,Columbiana,2020-07-15 21:26:59.153649,2020-04-17 00:00:00.000000,0.32366750,0.56371743,1.35401512,329,574,1379,156,289,885,0.15324775,0.28446751,0.86906497,0.17347287,0.37154617,0.70949630
39029,0,USOhioColumbiana,Ohio,Columbiana,2020-07-15 21:26:59.153649,2020-04-18 00:00:00.000000,0.33211265,0.57810165,1.39704613,338,588,1423,157,299,881,0.15507212,0.29369148,0.86499868,0.17112571,0.36239238,0.67105692
39029,0,USOhioColumbiana,Ohio,Columbiana,2020-07-15 21:26:59.153649,2020-04-19 00:00:00.000000,0.34350849,0.59349462,1.43264326,349,604,1459,159,314,873,0.15634906,0.30884978,0.85742189,0.16865110,0.35595061,0.64846743
39029,0,USOhioColumbiana,Ohio,Columbiana,2020-07-15 21:26:59.153649,2020-04-20 00:00:00.000000,0.34911889,0.59912300,1.46273683,355,610,1490,161,317,878,0.15836068,0.31134444,0.86224197,0.16605555,0.34901838,0.63839232
39029,0,USOhioColumbiana,Ohio,Columbiana,2020-07-15 21:26:59.153649,2020-04-21 00:00:00.000000,0.34988500,0.60077449,1.48711453,356,612,1515,163,326,877,0.16084225,0.32046745,0.86164876,0.16313570,0.34573639,0.63700251
39029,0,USOhioColumbiana,Ohio,Columbiana,2020-07-15 21:26:59.153649,2020-04-22 00:00:00.000000,0.34996587,0.60830284,1.50667630,356,619,1535,166,334,876,0.16352427,0.32785429,0.86051990,0.15907469,0.33656131,0.63410701
39029,0,USOhioColumbiana,Ohio,Columbiana,2020-07-15 21:26:59.153649,2020-04-23 00:00:00.000000,0.34930978,0.61282406,1.54081600,355,624,1569,169,344,875,0.16623916,0.33811834,0.85923385,0.15280845,0.32804919,0.63199538
39029,0,USOhioColumbiana,Ohio,Columbiana,2020-07-15 21:26:59.153649,2020-04-24 00:00:00.000000,0.34799753,0.62504634,1.53986344,354,636,1568,172,354,884,0.16890637,0.34835967,0.86771669,0.14448827,0.32685774,0.62171768
39029,0,USOhioColumbiana,Ohio,Columbiana,2020-07-15 21:26:59.153649,2020-04-25 00:00:00.000000,0.34617056,0.63781321,1.53527470,352,649,1564,174,360,889,0.17148446,0.35345809,0.87321966,0.13671552,0.31851232,0.61462078
39029,0,USOhioColumbiana,Ohio,Columbiana,2020-07-15 21:26:59.153649,2020-04-26 00:00:00.000000,0.34379130,0.65184720,1.56030406,350,664,1589,177,368,891,0.17392348,0.36185833,0.87533910,0.13159746,0.31473517,0.61497076
39029,0,USOhioColumbiana,Ohio,Columbiana,2020-07-15 21:26:59.153649,2020-04-27 00:00:00.000000,0.34068790,0.64822372,1.57958450,347,660,1609,179,369,891,0.17614943,0.36234992,0.87483865,0.13183621,0.30587186,0.61706366
39029,0,USOhioColumbiana,Ohio,Columbiana,2020-07-15 21:26:59.153649,2020-04-28 00:00:00.000000,0.33735110,0.65385046,1.58487187,343,666,1614,181,374,897,0.17808929,0.36805357,0.88052231,0.13444933,0.30619673,0.61805239
39029,0,USOhioColumbiana,Ohio,Columbiana,2020-07-15 21:26:59.153649,2020-04-29 00:00:00.000000,0.33454650,0.65996735,1.58440013,340,672,1614,183,381,918,0.17971199,0.37463788,0.90141148,0.13643375,0.30356206,0.61806279
39029,0,USOhioColumbiana,Ohio,Columbiana,2020-07-15 21:26:59.153649,2020-04-30 00:00:00.000000,0.33349548,0.66902990,1.58189352,339,681,1611,184,385,938,0.18141543,0.37877629,0.92157395,0.13796267,0.30712108,0.61713327
39029,0,USOhioColumbiana,Ohio,Columbiana,2020-07-15 21:26:59.153649,2020-05-01 00:00:00.000000,0.33820821,0.67699475,1.57831698,344,689,1608,186,389,957,0.18272927,0.38202388,0.94007995,0.13914959,0.30115242,0.61566908
39029,0,USOhioColumbiana,Ohio,Columbiana,2020-07-15 21:26:59.153649,2020-05-02 00:00:00.000000,0.34782911,0.68629764,1.57401024,354,699,1603,187,397,973,0.18416091,0.38974914,0.95575647,0.14085648,0.29809981,0.61012465
39029,0,USOhioColumbiana,Ohio,Columbiana,2020-07-15 21:26:59.153649,2020-05-03 00:00:00.000000,0.36010605,0.68417806,1.56907376,366,697,1598,189,404,986,0.18570345,0.39697631,0.96874396,0.13622456,0.29495860,0.60963411
39029,0,USOhioColumbiana,Ohio,Columbiana,2020-07-15 21:26:59.153649,2020-05-04 00:00:00.000000,0.37467972,0.69939021,1.58705643,381,712,1616,190,406,997,0.18672861,0.39939381,0.97954623,0.13282066,0.30106204,0.60273161
39029,0,USOhioColumbiana,Ohio,Columbiana,2020-07-15 21:26:59.153649,2020-05-05 00:00:00.000000,0.38728415,0.71517646,1.61150256,394,728,1641,190,409,1007,0.18723544,0.40223630,0.98854051,0.12561428,0.30236933,0.58352068
39029,0,USOhioColumbiana,Ohio,Columbiana,2020-07-15 21:26:59.153649,2020-05-06 00:00:00.000000,0.38887783,0.73494111,1.63683768,396,748,1667,190,412,1014,0.18672402,0.40467975,0.99583930,0.11913060,0.29801876,0.56998537
39029,0,USOhioColumbiana,Ohio,Columbiana,2020-07-15 21:26:59.153649,2020-05-07 00:00:00.000000,0.39171161,0.74579972,1.66446958,399,759,1695,189,417,1018,0.18595967,0.41026851,0.99921810,0.12105256,0.30155690,0.56966181
39029,0,USOhioColumbiana,Ohio,Columbiana,2020-07-15 21:26:59.153649,2020-05-08 00:00:00.000000,0.39104630,0.74379826,1.69533203,398,757,1727,189,419,1013,0.18631833,0.41204810,0.99471166,0.12166740,0.30448795,0.56965050
39029,0,USOhioColumbiana,Ohio,Columbiana,2020-07-15 21:26:59.153649,2020-05-09 00:00:00.000000,0.39129165,0.74223581,1.72992607,398,756,1762,190,424,1019,0.18673217,0.41679664,1.00024786,0.12179768,0.30640228,0.56979001
39029,0,USOhioColumbiana,Ohio,Columbiana,2020-07-15 21:26:59.153649,2020-05-10 00:00:00.000000,0.39238530,0.74970303,1.75186948,399,763,1784,190,434,1037,0.18651705,0.42617166,1.01870204,0.12182327,0.30776645,0.61208903
39029,0,USOhioColumbiana,Ohio,Columbiana,2020-07-15 21:26:59.153649,2020-05-11 00:00:00.000000,0.40051291,0.74642352,1.76189562,408,760,1795,189,442,1043,0.18582393,0.43452640,1.02424738,0.12182831,0.30638485,0.57141195
39029,0,USOhioColumbiana,Ohio,Columbiana,2020-07-15 21:26:59.153649,2020-05-12 00:00:00.000000,0.39796400,0.75569948,1.77238165,405,769,1805,188,443,1057,0.18479625,0.43505977,1.03786409,0.12182956,0.30634665,0.58356569
39029,0,USOhioColumbiana,Ohio,Columbiana,2020-07-15 21:26:59.153649,2020-05-13 00:00:00.000000,0.39803317,0.76586586,1.77539459,405,780,1808,187,448,1070,0.18379834,0.43991087,1.05100615,0.12183076,0.30546894,0.55939779
39029,0,USOhioColumbiana,Ohio,Columbiana,2020-07-15 21:26:59.153649,2020-05-14 00:00:00.000000,0.40499514,0.76296117,1.77246796,412,777,1805,186,453,1106,0.18286340,0.44475349,1.08598376,0.12183433,0.29510446,0.53385791
39029,0,USOhioColumbiana,Ohio,Columbiana,2020-07-15 21:26:59.153649,2020-05-15 00:00:00.000000,0.40631073,0.77436274,1.77959715,413,788,1813,185,456,1132,0.18182967,0.44799203,1.11109236,0.12184658,0.29547714,0.52326879
39029,0,USOhioColumbiana,Ohio,Columbiana,2020-07-15 21:26:59.153649,2020-05-16 00:00:00.000000,0.40315826,0.76865587,1.81258323,410,783,1846,186,459,1146,0.18259627,0.45116319,1.12542205,0.12188733,0.29126034,0.49892870
39029,0,USOhioColumbiana,Ohio,Columbiana,2020-07-15 21:26:59.153649,2020-05-17 00:00:00.000000,0.39739594,0.76573741,1.80180303,404,780,1835,186,460,1159,0.18336234,0.45202255,1.13759136,0.12200872,0.28252464,0.48473525
39029,0,USOhioColumbiana,Ohio,Columbiana,2020-07-15 21:26:59.153649,2020-05-18 00:00:00.000000,0.39345545,0.77482405,1.78951019,400,789,1823,184,459,1169,0.18090287,0.45064682,1.14780372,0.12012691,0.27676333,0.48943886
39029,0,USOhioColumbiana,Ohio,Columbiana,2020-07-15 21:26:59.153649,2020-05-19 00:00:00.000000,0.39350776,0.76793402,1.76537728,400,782,1798,181,454,1178,0.17815353,0.44613111,1.15650938,0.11631964,0.27460101,0.48955815
39029,0,USOhioColumbiana,Ohio,Columbiana,2020-07-15 21:26:59.153649,2020-05-20 00:00:00.000000,0.39285708,0.75883981,1.77840005,400,773,1811,178,456,1196,0.17524695,0.44781373,1.17425985,0.11600395,0.27122223,0.48807519
39029,0,USOhioColumbiana,Ohio,Columbiana,2020-07-15 21:26:59.153649,2020-05-21 00:00:00.000000,0.39097189,0.74913250,1.79113887,398,763,1824,176,448,1208,0.17275821,0.44025275,1.18597956,0.11518048,0.26420040,0.47579689
39029,0,USOhioColumbiana,Ohio,Columbiana,2020-07-15 21:26:59.153649,2020-05-22 00:00:00.000000,0.38888543,0.74631629,1.79439794,396,760,1828,174,448,1206,0.17083148,0.43976441,1.18436667,0.11269660,0.25872926,0.48089494
39029,0,USOhioColumbiana,Ohio,Columbiana,2020-07-15 21:26:59.153649,2020-05-23 00:00:00.000000,0.38423094,0.73433730,1.78431415,391,748,1817,172,444,1212,0.16884306,0.43650392,1.18970005,0.11232924,0.25436086,0.46582015
39029,0,USOhioColumbiana,Ohio,Columbiana,2020-07-15 21:26:59.153649,2020-05-24 00:00:00.000000,0.37488573,0.72583599,1.76533439,381,739,1798,170,448,1219,0.16687372,0.44025845,1.19658526,0.11279046,0.25258928,0.44635389
39029,0,USOhioColumbiana,Ohio,Columbiana,2020-07-15 21:26:59.153649,2020-05-25 00:00:00.000000,0.36371033,0.72002695,1.75648405,370,733,1789,168,443,1224,0.16497642,0.43497606,1.20201375,0.11183040,0.24785357,0.44084245
39029,0,USOhioColumbiana,Ohio,Columbiana,2020-07-15 21:26:59.153649,2020-05-26 00:00:00.000000,0.35557771,0.71409236,1.74321386,362,727,1776,166,435,1213,0.16316015,0.42742395,1.19139595,0.11220149,0.24372954,0.43290260
39029,0,USOhioColumbiana,Ohio,Columbiana,2020-07-15 21:26:59.153649,2020-05-27 00:00:00.000000,0.35110400,0.70741629,1.74261503,357,720,1775,164,427,1194,0.16139453,0.41948617,1.17234157,0.11231509,0.23598549,0.42762835
39029,0,USOhioColumbiana,Ohio,Columbiana,2020-07-15 21:26:59.153649,2020-05-28 00:00:00.000000,0.34551644,0.70214984,1.73696859,352,715,1769,163,419,1194,0.16076500,0.41133346,1.17257888,0.11235951,0.23035288,0.42530270
39029,0,USOhioColumbiana,Ohio,Columbiana,2020-07-15 21:26:59.153649,2020-05-29 00:00:00.000000,0.34010847,0.69195251,1.72639718,346,704,1758,163,413,1197,0.16048870,0.40594481,1.17564610,0.10894930,0.22927155,0.43564822
39029,0,USOhioColumbiana,Ohio,Columbiana,2020-07-15 21:26:59.153649,2020-05-30 00:00:00.000000,0.33665315,0.68436500,1.71558565,342,697,1747,163,408,1199,0.16013853,0.40123207,1.17689605,0.10519281,0.22391047,0.43691264
39029,0,USOhioColumbiana,Ohio,Columbiana,2020-07-15 21:26:59.153649,2020-05-31 00:00:00.000000,0.32650286,0.66574365,1.70561621,332,678,1737,162,404,1198,0.15962507,0.39656216,1.17617665,0.10083042,0.22145140,0.43712516
39029,0,USOhioColumbiana,Ohio,Columbiana,2020-07-15 21:26:59.153649,2020-06-01 00:00:00.000000,0.31977683,0.65463568,1.69273574,325,666,1724,160,403,1195,0.15744599,0.39558955,1.17349025,0.09988098,0.21355982,0.43964908
39029,0,USOhioColumbiana,Ohio,Columbiana,2020-07-15 21:26:59.153649,2020-06-02 00:00:00.000000,0.31449521,0.64581005,1.66877880,320,657,1700,154,404,1191,0.15118443,0.39665498,1.16902608,0.10045629,0.21638223,0.43710896
39029,0,USOhioColumbiana,Ohio,Columbiana,2020-07-15 21:26:59.153649,2020-06-03 00:00:00.000000,0.31076551,0.62914197,1.64110212,316,640,1672,151,391,1184,0.14841243,0.38473119,1.16227749,0.10229038,0.21923789,0.43704986
39029,0,USOhioColumbiana,Ohio,Columbiana,2020-07-15 21:26:59.153649,2020-06-04 00:00:00.000000,0.30929857,0.62525952,1.59692015,315,637,1626,143,383,1171,0.14076065,0.37671802,1.15027018,0.10212560,0.21776165,0.45462380
39029,0,USOhioColumbiana,Ohio,Columbiana,2020-07-15 21:26:59.153649,2020-06-05 00:00:00.000000,0.30571969,0.61948975,1.56609440,311,631,1595,135,379,1158,0.13306984,0.37231262,1.13689186,0.10111000,0.22061886,0.48179518
39029,0,USOhioColumbiana,Ohio,Columbiana,2020-07-15 21:26:59.153649,2020-06-06 00:00:00.000000,0.30202003,0.61171676,1.54549792,307,623,1574,129,372,1117,0.12730247,0.36584476,1.09636805,0.09955128,0.22578080,0.48930349
39029,0,USOhioColumbiana,Ohio,Columbiana,2020-07-15 21:26:59.153649,2020-06-07 00:00:00.000000,0.29660480,0.60384357,1.52154559,302,615,1550,125,363,1080,0.12347314,0.35677816,1.06008876,0.09740207,0.22995184,0.49894449
39029,0,USOhioColumbiana,Ohio,Columbiana,2020-07-15 21:26:59.153649,2020-06-08 00:00:00.000000,0.29342820,0.59565529,1.49455994,298,606,1522,122,361,1063,0.12009217,0.35510127,1.04415645,0.10582055,0.23292969,0.50573511
39029,0,USOhioColumbiana,Ohio,Columbiana,2020-07-15 21:26:59.153649,2020-06-09 00:00:00.000000,0.28632291,0.58867017,1.46739978,291,599,1495,119,357,1047,0.11718858,0.35051178,1.02770753,0.10853270,0.23545201,0.50750710
39029,0,USOhioColumbiana,Ohio,Columbiana,2020-07-15 21:26:59.153649,2020-06-10 00:00:00.000000,0.27728690,0.58556639,1.46104432,282,596,1488,116,351,1029,0.11476891,0.34460122,1.01094304,0.10818378,0.24146755,0.50793659
39029,0,USOhioColumbiana,Ohio,Columbiana,2020-07-15 21:26:59.153649,2020-06-11 00:00:00.000000,0.26941931,0.58001600,1.47294641,274,590,1500,114,345,1012,0.11281445,0.33928283,0.99400661,0.10818668,0.24942011,0.50804439
39029,0,USOhioColumbiana,Ohio,Columbiana,2020-07-15 21:26:59.153649,2020-06-12 00:00:00.000000,0.26312344,0.57360257,1.47565739,268,584,1503,113,334,993,0.11135484,0.32853182,0.97473193,0.11096595,0.25511317,0.54998752
39029,0,USOhioColumbiana,Ohio,Columbiana,2020-07-15 21:26:59.153649,2020-06-13 00:00:00.000000,0.26139079,0.58201101,1.47880144,266,592,1506,111,328,976,0.10976964,0.32266057,0.95835695,0.11464824,0.26873873,0.57445485
39029,0,USOhioColumbiana,Ohio,Columbiana,2020-07-15 21:26:59.153649,2020-06-14 00:00:00.000000,0.26061266,0.58028383,1.48431026,265,591,1512,108,330,972,0.10696752,0.32435242,0.95422859,0.12614966,0.27270875,0.58285054
39029,0,USOhioColumbiana,Ohio,Columbiana,2020-07-15 21:26:59.153649,2020-06-15 00:00:00.000000,0.26236638,0.58748218,1.49033697,267,598,1518,106,334,970,0.10444656,0.32843610,0.95246082,0.13152839,0.27285053,0.60426172
39029,0,USOhioColumbiana,Ohio,Columbiana,2020-07-15 21:26:59.153649,2020-06-16 00:00:00.000000,0.26423871,0.59798861,1.49319864,269,609,1521,104,335,972,0.10217400,0.32912757,0.95475799,0.13088322,0.27538566,0.61309741
39029,0,USOhioColumbiana,Ohio,Columbiana,2020-07-15 21:26:59.153649,2020-06-17 00:00:00.000000,0.26618734,0.60597018,1.49376970,271,617,1521,102,334,975,0.10013379,0.32878365,0.95715205,0.12923700,0.28564276,0.62450228
39029,0,USOhioColumbiana,Ohio,Columbiana,2020-07-15 21:26:59.153649,2020-06-18 00:00:00.000000,0.26721927,0.61546228,1.49401691,272,627,1522,100,334,977,0.09908772,0.32790102,0.95897786,0.12746039,0.29288575,0.61853627
39029,0,USOhioColumbiana,Ohio,Columbiana,2020-07-15 21:26:59.153649,2020-06-19 00:00:00.000000,0.26792795,0.61866624,1.49557531,272,630,1523,100,336,964,0.09854043,0.33023054,0.94644588,0.12814417,0.30351841,0.63297934
39029,0,USOhioColumbiana,Ohio,Columbiana,2020-07-15 21:26:59.153649,2020-06-20 00:00:00.000000,0.27075643,0.62272791,1.51344029,275,634,1541,100,340,956,0.09874183,0.33416867,0.93849052,0.12879099,0.31385027,0.64742851
39029,0,USOhioColumbiana,Ohio,Columbiana,2020-07-15 21:26:59.153649,2020-06-21 00:00:00.000000,0.27928259,0.63094788,1.53059051,284,642,1559,102,337,953,0.10044513,0.33089453,0.93630353,0.13038183,0.31842795,0.69673603
39029,0,USOhioColumbiana,Ohio,Columbiana,2020-07-15 21:26:59.153649,2020-06-22 00:00:00.000000,0.28538355,0.63987268,1.54812227,290,651,1577,105,337,950,0.10375231,0.33149972,0.93329669,0.13210901,0.32180352,0.70799232
39029,0,USOhioColumbiana,Ohio,Columbiana,2020-07-15 21:26:59.153649,2020-06-23 00:00:00.000000,0.29026182,0.65206067,1.56535772,295,664,1594,110,355,947,0.10838189,0.34924979,0.92965102,0.13305204,0.32224372,0.71891013
39029,0,USOhioColumbiana,Ohio,Columbiana,2020-07-15 21:26:59.153649,2020-06-24 00:00:00.000000,0.29781084,0.66141894,1.58253058,303,673,1612,116,357,943,0.11388257,0.35133733,0.92558248,0.13420172,0.32194732,0.72582161
39029,0,USOhioColumbiana,Ohio,Columbiana,2020-07-15 21:26:59.153649,2020-06-25 00:00:00.000000,0.29994426,0.67352025,1.60027105,305,686,1630,122,357,938,0.11993535,0.35081655,0.92131346,0.13628412,0.31951753,0.73165420
39029,0,USOhioColumbiana,Ohio,Columbiana,2020-07-15 21:26:59.153649,2020-06-26 00:00:00.000000,0.30330464,0.68662490,1.61981809,309,699,1650,128,364,934,0.12639882,0.35822501,0.91709261,0.13940934,0.32455708,0.73632941
39029,0,USOhioColumbiana,Ohio,Columbiana,2020-07-15 21:26:59.153649,2020-06-27 00:00:00.000000,0.31053988,0.70146356,1.64371048,316,714,1674,135,367,930,0.13322972,0.36082479,0.91319104,0.13951568,0.32932076,0.73663065
39029,0,USOhioColumbiana,Ohio,Columbiana,2020-07-15 21:26:59.153649,2020-06-28 00:00:00.000000,0.31341875,0.72790808,1.67625475,319,741,1707,143,370,927,0.14043873,0.36352166,0.90997555,0.14023175,0.33614060,0.73023006
39029,0,USOhioColumbiana,Ohio,Columbiana,2020-07-15 21:26:59.153649,2020-06-29 00:00:00.000000,0.31630579,0.74089253,1.70626409,322,754,1738,150,373,933,0.14808553,0.36669872,0.91598581,0.14160375,0.34323676,0.73528200
39029,0,USOhioColumbiana,Ohio,Columbiana,2020-07-15 21:26:59.153649,2020-06-30 00:00:00.000000,0.31919292,0.75050541,1.72573815,325,764,1758,159,379,942,0.15638025,0.37243921,0.92473226,0.14393293,0.34966805,0.75845047
39029,0,USOhioColumbiana,Ohio,Columbiana,2020-07-15 21:26:59.153649,2020-07-01 00:00:00.000000,0.32206977,0.76016721,1.74685430,328,774,1779,166,384,967,0.16331744,0.37721618,0.94957531,0.14481895,0.35112415,0.77511984
39029,0,USOhioColumbiana,Ohio,Columbiana,2020-07-15 21:26:59.153649,2020-07-02 00:00:00.000000,0.33001970,0.76448722,1.76966701,336,778,1802,169,395,995,0.16621020,0.38806953,0.97671345,0.14548700,0.35136789,0.78146246
39029,0,USOhioColumbiana,Ohio,Columbiana,2020-07-15 21:26:59.153649,2020-07-03 00:00:00.000000,0.35448900,0.77304585,1.79518513,361,787,1828,182,399,1023,0.17928646,0.39210203,1.00431039,0.14745867,0.35360216,0.78444595
39029,0,USOhioColumbiana,Ohio,Columbiana,2020-07-15 21:26:59.153649,2020-07-04 00:00:00.000000,0.36825083,0.77274261,1.82360364,375,787,1857,197,402,1034,0.19370998,0.39463973,1.01550566,0.15148917,0.35805617,0.78411646
39029,0,USOhioColumbiana,Ohio,Columbiana,2020-07-15 21:26:59.153649,2020-07-05 00:00:00.000000,0.37205469,0.78581943,1.85367710,379,800,1888,205,411,1063,0.20213674,0.40376804,1.04379880,0.15421895,0.35451177,0.76278697
39029,0,USOhioColumbiana,Ohio,Columbiana,2020-07-15 21:26:59.153649,2020-07-06 00:00:00.000000,0.37585804,0.79032337,1.88466973,382,805,1920,208,418,1105,0.20445488,0.41042477,1.08521816,0.15484248,0.35399605,0.72932652
39029,0,USOhioColumbiana,Ohio,Columbiana,2020-07-15 21:26:59.153649,2020-07-07 00:00:00.000000,0.37974887,0.80361462,1.91939512,386,818,1955,215,415,1149,0.21104947,0.40791000,1.12865392,0.15824039,0.35417942,0.72591221
39029,0,USOhioColumbiana,Ohio,Columbiana,2020-07-15 21:26:59.153649,2020-07-08 00:00:00.000000,0.38370498,0.84195433,1.95279697,390,857,1989,224,432,1180,0.22017170,0.42456307,1.15894715,0.15514781,0.35450020,0.74062013
39029,0,USOhioColumbiana,Ohio,Columbiana,2020-07-15 21:26:59.153649,2020-07-09 00:00:00.000000,0.38774554,0.87125672,1.99333878,395,887,2030,224,447,1203,0.22012997,0.43914631,1.18119063,0.15498848,0.35467132,0.76414555
39029,0,USOhioColumbiana,Ohio,Columbiana,2020-07-15 21:26:59.153649,2020-07-10 00:00:00.000000,0.39184209,0.89367817,2.03534197,399,910,2073,226,460,1220,0.22195429,0.45239555,1.19749402,0.15495117,0.35476102,0.77432669
39029,0,USOhioColumbiana,Ohio,Columbiana,2020-07-15 21:26:59.153649,2020-07-11 00:00:00.000000,0.39599084,0.91600710,2.07770089,403,933,2116,227,486,1234,0.22292127,0.47775684,1.21216543,0.15494251,0.35480760,0.77763590
39029,0,USOhioColumbiana,Ohio,Columbiana,2020-07-15 21:26:59.153649,2020-07-12 00:00:00.000000,0.40018359,0.94294939,2.11341494,407,960,2153,226,500,1248,0.22213970,0.49079303,1.22573687,0.15494048,0.35483168,0.77886044
39029,0,USOhioColumbiana,Ohio,Columbiana,2020-07-15 21:26:59.153649,2020-07-13 00:00:00.000000,0.40353503,0.98032833,2.14961845,411,998,2190,225,509,1261,0.22146541,0.50003624,1.23857890,0.15494000,0.35484410,0.77930749
39029,0,USOhioColumbiana,Ohio,Columbiana,2020-07-15 21:26:59.153649,2020-07-14 00:00:00.000000,0.40566275,0.99013778,2.20410647,413,1008,2245,224,516,1274,0.22077531,0.50679475,1.25093757,0.15493988,0.35485050,0.77947167
39029,0,USOhioColumbiana,Ohio,Columbiana,2020-07-15 21:26:59.153649,2020-07-15 00:00:00.000000,0.40776619,0.99968219,2.32381757,415,1018,2367,224,523,1295,0.22007361,0.51382072,1.27140113,0.15493985,0.35485379,0.77953286
39029,0,USOhioColumbiana,Ohio,Columbiana,2020-07-15 21:26:59.153649,2020-07-16 00:00:00.000000,0.40451396,1.03510371,2.44965092,412,1054,2495,223,543,1330,0.21936278,0.53393630,1.30552498,0.15493984,0.35485549,0.77955614
39029,0,USOhioColumbiana,Ohio,Columbiana,2020-07-15 21:26:59.153649,2020-07-17 00:00:00.000000,0.40133448,1.06023835,2.58182149,408,1080,2630,222,567,1353,0.21864435,0.55658348,1.32886178,0.15493984,0.35485636,0.77956522
39029,0,USOhioColumbiana,Ohio,Columbiana,2020-07-15 21:26:59.153649,2020-07-18 00:00:00.000000,0.39821636,1.08586431,2.72053713,405,1106,2771,222,574,1404,0.21791920,0.56410473,1.37814529,0.15493983,0.35485681,0.77956886
39029,0,USOhioColumbiana,Ohio,Columbiana,2020-07-15 21:26:59.153649,2020-07-19 00:00:00.000000,0.39565624,1.09537827,2.86599593,403,1116,2919,221,596,1492,0.21718791,0.58520582,1.46448702,0.15493983,0.35485704,0.77957038
39029,0,USOhioColumbiana,Ohio,Columbiana,2020-07-15 21:26:59.153649,2020-07-20 00:00:00.000000,0.39391564,1.10288702,3.13537376,401,1123,3194,220,616,1652,0.21630844,0.60484458,1.62230179,0.15493983,0.35485716,0.77957104
39029,0,USOhioColumbiana,Ohio,Columbiana,2020-07-15 21:26:59.153649,2020-07-21 00:00:00.000000,0.39620789,1.15135625,3.51224108,403,1173,3578,217,635,1830,0.21387972,0.62410667,1.79652375,0.15493983,0.35485722,0.77957134
39029,0,USOhioColumbiana,Ohio,Columbiana,2020-07-15 21:26:59.153649,2020-07-22 00:00:00.000000,0.40096580,1.19339236,3.80617334,408,1215,3877,215,660,1972,0.21161357,0.64808736,1.93626286,0.15493983,0.35485725,0.77957148
39029,0,USOhioColumbiana,Ohio,Columbiana,2020-07-15 21:26:59.153649,2020-07-23 00:00:00.000000,0.39729387,1.22113481,4.06918034,404,1244,4145,213,683,2106,0.20948484,0.67066151,2.06750596,0.15493983,0.35485727,0.77957155
39029,0,USOhioColumbiana,Ohio,Columbiana,2020-07-15 21:26:59.153649,2020-07-24 00:00:00.000000,0.39328648,1.24650643,4.50228795,400,1269,4587,211,705,2224,0.20737759,0.69256929,2.18369871,0.15493983,0.35485727,0.77957159
39029,0,USOhioColumbiana,Ohio,Columbiana,2020-07-15 21:26:59.153649,2020-07-25 00:00:00.000000,0.38931898,1.25291602,4.97448888,396,1276,5068,209,718,2373,0.20529115,0.70542511,2.32938533,0.15493983,0.35485728,0.77957161
39029,0,USOhioColumbiana,Ohio,Columbiana,2020-07-15 21:26:59.153649,2020-07-26 00:00:00.000000,0.38539001,1.27612306,5.43629844,392,1300,5538,207,722,2587,0.20322491,0.70936013,2.53925986,0.15493983,0.35485728,0.77957162
39029,0,USOhioColumbiana,Ohio,Columbiana,2020-07-15 21:26:59.153649,2020-07-27 00:00:00.000000,0.38149838,1.29973472,5.70047592,388,1324,5807,204,723,2731,0.20117829,0.71037451,2.68100842,0.15493983,0.35485728,0.77957163
