FIPS,HR_UID,nameid,province,region,analysisTime,dates,pointprevalence_025,pointprevalence_50,pointprevalence_975,pointinfections_025,pointinfections_50,pointinfections_975,pointinfectious_025,pointinfectious_50,pointinfectious_975,pointinfectiousprevalence_05,pointinfectiousprevalence_50,pointinfectiousprevalence_95,infectrate_025,infectrate_50,infectrate_975
19013,0,USIowaBlackHawk,Iowa,Black Hawk,2020-07-18 16:48:22.216598,2020-03-09 00:00:00.000000,0.00167857,0.00595890,0.05261311,2,7,69,0,3,36,0.00064426,0.00269293,0.02779731,0.54511280,0.78267517,1.10099293
19013,0,USIowaBlackHawk,Iowa,Black Hawk,2020-07-18 16:48:22.216598,2020-03-10 00:00:00.000000,0.00184118,0.00481861,0.04514021,2,6,59,1,3,18,0.00094376,0.00298226,0.01389198,0.54511283,0.78267516,1.10099294
19013,0,USIowaBlackHawk,Iowa,Black Hawk,2020-07-18 16:48:22.216598,2020-03-11 00:00:00.000000,0.00198323,0.00543157,0.04292623,2,7,56,1,3,24,0.00098383,0.00290361,0.01833086,0.54511289,0.78267510,1.10099295
19013,0,USIowaBlackHawk,Iowa,Black Hawk,2020-07-18 16:48:22.216598,2020-03-12 00:00:00.000000,0.00215744,0.00526678,0.03886015,2,6,50,1,4,18,0.00108172,0.00323386,0.01428667,0.54511301,0.78267487,1.10099296
19013,0,USIowaBlackHawk,Iowa,Black Hawk,2020-07-18 16:48:22.216598,2020-03-13 00:00:00.000000,0.00231805,0.00549468,0.03612545,3,7,47,1,4,18,0.00116480,0.00315740,0.01445585,0.54511328,0.78267400,1.10099300
19013,0,USIowaBlackHawk,Iowa,Black Hawk,2020-07-18 16:48:22.216598,2020-03-14 00:00:00.000000,0.00249866,0.00548954,0.03299234,3,7,43,1,4,16,0.00118590,0.00337434,0.01276924,0.54511394,0.78267071,1.10099306
19013,0,USIowaBlackHawk,Iowa,Black Hawk,2020-07-18 16:48:22.216598,2020-03-15 00:00:00.000000,0.00262007,0.00577869,0.03050720,3,7,40,1,4,15,0.00123935,0.00337970,0.01201387,0.54511580,0.78265830,1.10099320
19013,0,USIowaBlackHawk,Iowa,Black Hawk,2020-07-18 16:48:22.216598,2020-03-16 00:00:00.000000,0.00248312,0.00570061,0.02815344,3,7,36,1,4,14,0.00102270,0.00353286,0.01098183,0.54512191,0.78261149,1.10099378
19013,0,USIowaBlackHawk,Iowa,Black Hawk,2020-07-18 16:48:22.216598,2020-03-17 00:00:00.000000,0.00229335,0.00594474,0.02602526,3,7,34,1,4,14,0.00110723,0.00351992,0.01089755,0.54796363,0.78243653,1.10099922
19013,0,USIowaBlackHawk,Iowa,Black Hawk,2020-07-18 16:48:22.216598,2020-03-18 00:00:00.000000,0.00217153,0.00614730,0.02404682,2,8,31,1,4,14,0.00088543,0.00354528,0.01127629,0.55842824,0.78180313,1.10106693
19013,0,USIowaBlackHawk,Iowa,Black Hawk,2020-07-18 16:48:22.216598,2020-03-19 00:00:00.000000,0.00198600,0.00641868,0.02282096,2,8,29,1,4,15,0.00094134,0.00360432,0.01182433,0.56277556,0.80837557,1.12142978
19013,0,USIowaBlackHawk,Iowa,Black Hawk,2020-07-18 16:48:22.216598,2020-03-20 00:00:00.000000,0.00186856,0.00652822,0.02290427,2,8,30,0,4,16,0.00075500,0.00379036,0.01243004,0.57430786,0.82465313,1.12468375
19013,0,USIowaBlackHawk,Iowa,Black Hawk,2020-07-18 16:48:22.216598,2020-03-21 00:00:00.000000,0.00175101,0.00694749,0.02202151,2,9,28,1,5,16,0.00079449,0.00386837,0.01225474,0.58421264,0.83793139,1.22541821
19013,0,USIowaBlackHawk,Iowa,Black Hawk,2020-07-18 16:48:22.216598,2020-03-22 00:00:00.000000,0.00175091,0.00730052,0.02264667,2,9,29,0,5,17,0.00067252,0.00415044,0.01313277,0.57826109,0.84929616,1.49828705
19013,0,USIowaBlackHawk,Iowa,Black Hawk,2020-07-18 16:48:22.216598,2020-03-23 00:00:00.000000,0.00188437,0.00793797,0.02435432,2,10,31,1,5,18,0.00080686,0.00446640,0.01419594,0.57369652,0.85716309,1.76232391
19013,0,USIowaBlackHawk,Iowa,Black Hawk,2020-07-18 16:48:22.216598,2020-03-24 00:00:00.000000,0.00223403,0.00861649,0.02634647,2,11,34,1,6,19,0.00084465,0.00492703,0.01486866,0.57725841,0.87601210,1.91514430
19013,0,USIowaBlackHawk,Iowa,Black Hawk,2020-07-18 16:48:22.216598,2020-03-25 00:00:00.000000,0.00254420,0.00925092,0.02852035,3,12,37,1,6,21,0.00108203,0.00533074,0.01654153,0.62976380,0.88603774,1.93898103
19013,0,USIowaBlackHawk,Iowa,Black Hawk,2020-07-18 16:48:22.216598,2020-03-26 00:00:00.000000,0.00306453,0.01006672,0.03089292,4,13,40,1,7,22,0.00113167,0.00571281,0.01750021,0.70687584,0.92435251,1.94469358
19013,0,USIowaBlackHawk,Iowa,Black Hawk,2020-07-18 16:48:22.216598,2020-03-27 00:00:00.000000,0.00351754,0.01116807,0.03342209,4,14,43,2,7,24,0.00153396,0.00601425,0.01862210,0.72312694,0.96996052,1.94948814
19013,0,USIowaBlackHawk,Iowa,Black Hawk,2020-07-18 16:48:22.216598,2020-03-28 00:00:00.000000,0.00388477,0.01239716,0.03621242,5,16,47,2,9,25,0.00155094,0.00695660,0.01976991,0.73487975,1.04409377,1.95532950
19013,0,USIowaBlackHawk,Iowa,Black Hawk,2020-07-18 16:48:22.216598,2020-03-29 00:00:00.000000,0.00433403,0.01424544,0.03933637,5,18,51,2,10,27,0.00195000,0.00772398,0.02105359,0.74753075,1.08346535,1.96320342
19013,0,USIowaBlackHawk,Iowa,Black Hawk,2020-07-18 16:48:22.216598,2020-03-30 00:00:00.000000,0.00460172,0.01634109,0.04308048,6,21,56,2,11,29,0.00216576,0.00905929,0.02273148,0.77750151,1.13951239,1.99123128
19013,0,USIowaBlackHawk,Iowa,Black Hawk,2020-07-18 16:48:22.216598,2020-03-31 00:00:00.000000,0.00531930,0.01943174,0.04774084,6,25,62,3,13,33,0.00279861,0.01035781,0.02589657,0.81776747,1.14691354,2.02906828
19013,0,USIowaBlackHawk,Iowa,Black Hawk,2020-07-18 16:48:22.216598,2020-04-01 00:00:00.000000,0.00592272,0.02335361,0.05433810,7,30,71,3,16,37,0.00284138,0.01237153,0.02895490,0.81750261,1.18812613,2.07193374
19013,0,USIowaBlackHawk,Iowa,Black Hawk,2020-07-18 16:48:22.216598,2020-04-02 00:00:00.000000,0.00692626,0.02799516,0.06461227,9,36,84,5,19,42,0.00401771,0.01492928,0.03223438,0.83369410,1.21323540,2.10411515
19013,0,USIowaBlackHawk,Iowa,Black Hawk,2020-07-18 16:48:22.216598,2020-04-03 00:00:00.000000,0.00784803,0.03422640,0.07764964,10,44,101,4,23,48,0.00375405,0.01785296,0.03668985,0.87270396,1.24511972,2.13114681
19013,0,USIowaBlackHawk,Iowa,Black Hawk,2020-07-18 16:48:22.216598,2020-04-04 00:00:00.000000,0.00937024,0.04132051,0.09372828,12,54,122,7,28,57,0.00554175,0.02136916,0.04346986,0.90716466,1.27807571,2.25040305
19013,0,USIowaBlackHawk,Iowa,Black Hawk,2020-07-18 16:48:22.216598,2020-04-05 00:00:00.000000,0.01141329,0.05065145,0.11337598,14,66,148,6,34,69,0.00523895,0.02621983,0.05259090,0.93719559,1.34042649,2.33378343
19013,0,USIowaBlackHawk,Iowa,Black Hawk,2020-07-18 16:48:22.216598,2020-04-06 00:00:00.000000,0.01563536,0.06289608,0.13531343,20,82,177,11,42,83,0.00889049,0.03226792,0.06373208,0.99566122,1.34690160,2.42701026
19013,0,USIowaBlackHawk,Iowa,Black Hawk,2020-07-18 16:48:22.216598,2020-04-07 00:00:00.000000,0.02354362,0.07794130,0.16158440,30,102,212,13,50,105,0.01033562,0.03875813,0.08006847,1.02036764,1.35672658,2.51355000
19013,0,USIowaBlackHawk,Iowa,Black Hawk,2020-07-18 16:48:22.216598,2020-04-08 00:00:00.000000,0.03518912,0.10047181,0.19361449,46,131,254,21,61,133,0.01608646,0.04668609,0.10175572,1.02712344,1.37109890,2.55213742
19013,0,USIowaBlackHawk,Iowa,Black Hawk,2020-07-18 16:48:22.216598,2020-04-09 00:00:00.000000,0.04732689,0.12715002,0.24537699,62,166,322,24,79,164,0.01843052,0.06076164,0.12551009,1.01620556,1.38667160,2.55126175
19013,0,USIowaBlackHawk,Iowa,Black Hawk,2020-07-18 16:48:22.216598,2020-04-10 00:00:00.000000,0.06137829,0.15888576,0.31898150,80,208,418,31,96,202,0.02406581,0.07332405,0.15444995,1.01135612,1.39824051,2.53967709
19013,0,USIowaBlackHawk,Iowa,Black Hawk,2020-07-18 16:48:22.216598,2020-04-11 00:00:00.000000,0.07627575,0.19601978,0.41684450,100,257,547,39,125,264,0.02980437,0.09546834,0.20126607,1.00743637,1.45376278,2.53625043
19013,0,USIowaBlackHawk,Iowa,Black Hawk,2020-07-18 16:48:22.216598,2020-04-12 00:00:00.000000,0.09692458,0.23954951,0.52665036,127,314,691,50,151,344,0.03865559,0.11550529,0.26289069,1.00338230,1.48611243,2.52603749
19013,0,USIowaBlackHawk,Iowa,Black Hawk,2020-07-18 16:48:22.216598,2020-04-13 00:00:00.000000,0.12196014,0.30729885,0.66620648,160,403,874,63,187,446,0.04829481,0.14286555,0.34039077,0.97951953,1.49610940,2.54634020
19013,0,USIowaBlackHawk,Iowa,Black Hawk,2020-07-18 16:48:22.216598,2020-04-14 00:00:00.000000,0.16372262,0.38524591,0.84812005,214,505,1112,88,232,569,0.06778627,0.17730285,0.43434977,0.96856762,1.50330253,2.54794004
19013,0,USIowaBlackHawk,Iowa,Black Hawk,2020-07-18 16:48:22.216598,2020-04-15 00:00:00.000000,0.20008258,0.49075986,1.08888112,262,644,1428,102,306,731,0.07827287,0.23378136,0.55747687,0.93420001,1.49120581,2.54470643
19013,0,USIowaBlackHawk,Iowa,Black Hawk,2020-07-18 16:48:22.216598,2020-04-16 00:00:00.000000,0.26986143,0.61106747,1.39434878,354,801,1829,148,371,929,0.11326197,0.28276361,0.70838975,0.91679727,1.46839303,2.53071054
19013,0,USIowaBlackHawk,Iowa,Black Hawk,2020-07-18 16:48:22.216598,2020-04-17 00:00:00.000000,0.33073417,0.75212452,1.74404049,434,986,2288,167,490,1164,0.12801280,0.37361870,0.88708767,0.90258207,1.42943373,2.48826985
19013,0,USIowaBlackHawk,Iowa,Black Hawk,2020-07-18 16:48:22.216598,2020-04-18 00:00:00.000000,0.45077528,0.93342245,2.10554899,591,1224,2763,234,572,1425,0.17891760,0.43663005,1.08633661,0.87843273,1.40367860,2.40705833
19013,0,USIowaBlackHawk,Iowa,Black Hawk,2020-07-18 16:48:22.216598,2020-04-19 00:00:00.000000,0.53239216,1.06649425,2.46757911,698,1399,3238,270,731,1783,0.20583059,0.55775761,1.35913860,0.87667767,1.34791702,2.28576229
19013,0,USIowaBlackHawk,Iowa,Black Hawk,2020-07-18 16:48:22.216598,2020-04-20 00:00:00.000000,0.66575452,1.29915731,2.97260708,873,1704,3900,363,850,2114,0.27722263,0.64816921,1.61161238,0.85475587,1.29530818,2.14293953
19013,0,USIowaBlackHawk,Iowa,Black Hawk,2020-07-18 16:48:22.216598,2020-04-21 00:00:00.000000,0.74924352,1.47083077,3.50091103,983,1930,4594,403,1047,2397,0.30730673,0.79831904,1.82693358,0.84943852,1.22691283,1.95081624
19013,0,USIowaBlackHawk,Iowa,Black Hawk,2020-07-18 16:48:22.216598,2020-04-22 00:00:00.000000,0.84241555,1.68840730,3.90053845,1105,2215,5118,488,1138,3227,0.37196588,0.86731805,2.45967713,0.84269454,1.16501227,1.84315296
19013,0,USIowaBlackHawk,Iowa,Black Hawk,2020-07-18 16:48:22.216598,2020-04-23 00:00:00.000000,0.93389897,1.89489192,4.50783780,1225,2486,5915,498,1355,3085,0.37950135,1.03314881,2.35144153,0.77344136,1.09769661,1.71580965
19013,0,USIowaBlackHawk,Iowa,Black Hawk,2020-07-18 16:48:22.216598,2020-04-24 00:00:00.000000,1.02935288,2.10402960,5.18433544,1350,2761,6803,589,1437,4428,0.44897102,1.09577410,3.37486395,0.68086957,1.01668466,1.64687651
19013,0,USIowaBlackHawk,Iowa,Black Hawk,2020-07-18 16:48:22.216598,2020-04-25 00:00:00.000000,1.11543372,2.27023873,5.51875816,1463,2979,7242,594,1686,3722,0.45267745,1.28532215,2.83632126,0.60570779,0.94098542,1.60722132
19013,0,USIowaBlackHawk,Iowa,Black Hawk,2020-07-18 16:48:22.216598,2020-04-26 00:00:00.000000,1.18395801,2.38085295,5.97111907,1553,3124,7835,670,1646,5321,0.51087619,1.25488150,4.05541300,0.54085918,0.82550924,1.54581461
19013,0,USIowaBlackHawk,Iowa,Black Hawk,2020-07-18 16:48:22.216598,2020-04-27 00:00:00.000000,1.23263597,2.37218031,5.81173133,1617,3112,7626,640,1823,4141,0.48779048,1.38946702,3.15627670,0.46309661,0.72624045,1.38733699
19013,0,USIowaBlackHawk,Iowa,Black Hawk,2020-07-18 16:48:22.216598,2020-04-28 00:00:00.000000,1.25797945,2.22897203,5.83070630,1650,2925,7651,631,1623,5357,0.48118430,1.23741921,4.08228272,0.40622390,0.67293515,1.17599235
19013,0,USIowaBlackHawk,Iowa,Black Hawk,2020-07-18 16:48:22.216598,2020-04-29 00:00:00.000000,1.19867507,2.10638784,5.30691168,1572,2764,6964,583,1765,3851,0.44492376,1.34559277,2.93464155,0.34221031,0.61117132,1.11782432
19013,0,USIowaBlackHawk,Iowa,Black Hawk,2020-07-18 16:48:22.216598,2020-04-30 00:00:00.000000,1.09766370,2.01639874,5.19864298,1440,2646,6822,537,1557,4750,0.40972941,1.18665264,3.62029393,0.29455859,0.57413089,1.11203436
19013,0,USIowaBlackHawk,Iowa,Black Hawk,2020-07-18 16:48:22.216598,2020-05-01 00:00:00.000000,1.02542738,1.85824135,4.65733618,1345,2438,6111,491,1531,3537,0.37436395,1.16681808,2.69582858,0.27752888,0.53530873,1.10192511
19013,0,USIowaBlackHawk,Iowa,Black Hawk,2020-07-18 16:48:22.216598,2020-05-02 00:00:00.000000,0.93078229,1.71785872,4.39980320,1221,2254,5773,444,1331,3927,0.33896836,1.01489674,2.99251103,0.27034204,0.51263756,1.09812750
19013,0,USIowaBlackHawk,Iowa,Black Hawk,2020-07-18 16:48:22.216598,2020-05-03 00:00:00.000000,0.84231321,1.54163426,3.86864256,1105,2023,5076,396,1243,2870,0.30195262,0.94781746,2.18703983,0.26885837,0.50583102,1.09419576
19013,0,USIowaBlackHawk,Iowa,Black Hawk,2020-07-18 16:48:22.216598,2020-05-04 00:00:00.000000,0.72409750,1.39459434,3.65245993,950,1830,4793,353,1074,3308,0.26974192,0.81852350,2.52082468,0.26893458,0.49326456,1.09088067
19013,0,USIowaBlackHawk,Iowa,Black Hawk,2020-07-18 16:48:22.216598,2020-05-05 00:00:00.000000,0.61555224,1.22443336,3.15910310,807,1606,4145,314,1030,2283,0.23943559,0.78546454,1.73979037,0.26128090,0.48697569,1.08872807
19013,0,USIowaBlackHawk,Iowa,Black Hawk,2020-07-18 16:48:22.216598,2020-05-06 00:00:00.000000,0.52373485,1.09543650,2.95303074,687,1437,3875,281,883,2689,0.21425294,0.67325551,2.04912429,0.23690857,0.48880076,1.08825908
19013,0,USIowaBlackHawk,Iowa,Black Hawk,2020-07-18 16:48:22.216598,2020-05-07 00:00:00.000000,0.45700359,0.96530887,2.54562000,599,1266,3340,244,795,1870,0.18603499,0.60582628,1.42524293,0.23385371,0.49711025,1.09183134
19013,0,USIowaBlackHawk,Iowa,Black Hawk,2020-07-18 16:48:22.216598,2020-05-08 00:00:00.000000,0.40692258,0.88808665,2.38338497,533,1165,3127,208,704,2163,0.15908024,0.53670247,1.64892695,0.23354007,0.50479141,1.10377045
19013,0,USIowaBlackHawk,Iowa,Black Hawk,2020-07-18 16:48:22.216598,2020-05-09 00:00:00.000000,0.36947179,0.79756743,2.06451139,484,1046,2709,181,656,1527,0.13793630,0.50010574,1.16386316,0.25947673,0.51105577,1.13745239
19013,0,USIowaBlackHawk,Iowa,Black Hawk,2020-07-18 16:48:22.216598,2020-05-10 00:00:00.000000,0.33895620,0.71479198,1.92269005,444,938,2523,160,587,1736,0.12227099,0.44781527,1.32291247,0.26084709,0.51893612,1.17565861
19013,0,USIowaBlackHawk,Iowa,Black Hawk,2020-07-18 16:48:22.216598,2020-05-11 00:00:00.000000,0.31161380,0.64371431,1.68924510,408,844,2216,145,542,1263,0.11099406,0.41306843,0.96260055,0.26038183,0.52865520,1.19410209
19013,0,USIowaBlackHawk,Iowa,Black Hawk,2020-07-18 16:48:22.216598,2020-05-12 00:00:00.000000,0.28677818,0.59974821,1.57286004,376,787,2064,134,483,1411,0.10260691,0.36877253,1.07556194,0.25897902,0.53909064,1.20388109
19013,0,USIowaBlackHawk,Iowa,Black Hawk,2020-07-18 16:48:22.216598,2020-05-13 00:00:00.000000,0.26387587,0.53608474,1.39003501,346,703,1824,125,441,1041,0.09588435,0.33605953,0.79362436,0.26055121,0.56350437,1.21043662
19013,0,USIowaBlackHawk,Iowa,Black Hawk,2020-07-18 16:48:22.216598,2020-05-14 00:00:00.000000,0.24279319,0.51234230,1.28722616,318,672,1689,118,401,1154,0.09009904,0.30586435,0.88009021,0.29370611,0.58358071,1.21531246
19013,0,USIowaBlackHawk,Iowa,Black Hawk,2020-07-18 16:48:22.216598,2020-05-15 00:00:00.000000,0.22530291,0.47329570,1.11321811,295,621,1460,111,371,870,0.08487064,0.28300112,0.66371542,0.29606976,0.59133903,1.21514949
19013,0,USIowaBlackHawk,Iowa,Black Hawk,2020-07-18 16:48:22.216598,2020-05-16 00:00:00.000000,0.21167433,0.44778190,1.01846062,277,587,1336,104,346,917,0.07997266,0.26382112,0.69913870,0.30613713,0.59642236,1.21464057
19013,0,USIowaBlackHawk,Iowa,Black Hawk,2020-07-18 16:48:22.216598,2020-05-17 00:00:00.000000,0.20075345,0.40875251,0.87012343,263,536,1141,98,329,769,0.07515754,0.25132936,0.58654495,0.31565331,0.60303201,1.26042536
19013,0,USIowaBlackHawk,Iowa,Black Hawk,2020-07-18 16:48:22.216598,2020-05-18 00:00:00.000000,0.19061504,0.38933157,0.79998537,250,510,1049,94,304,737,0.07199691,0.23197244,0.56183531,0.32117172,0.59977565,1.27538337
19013,0,USIowaBlackHawk,Iowa,Black Hawk,2020-07-18 16:48:22.216598,2020-05-19 00:00:00.000000,0.18424139,0.36110122,0.73940867,241,473,970,92,287,690,0.07053161,0.21926353,0.52603162,0.32766002,0.59294764,1.27622140
19013,0,USIowaBlackHawk,Iowa,Black Hawk,2020-07-18 16:48:22.216598,2020-05-20 00:00:00.000000,0.16946546,0.34221617,0.71277941,222,449,935,90,265,653,0.06918744,0.20238692,0.49784979,0.33653520,0.60490033,1.27542783
19013,0,USIowaBlackHawk,Iowa,Black Hawk,2020-07-18 16:48:22.216598,2020-05-21 00:00:00.000000,0.15666671,0.32349657,0.67021945,205,424,879,88,255,617,0.06748516,0.19481158,0.47088697,0.34863279,0.60537059,1.27310577
19013,0,USIowaBlackHawk,Iowa,Black Hawk,2020-07-18 16:48:22.216598,2020-05-22 00:00:00.000000,0.14590223,0.30244650,0.63426292,191,396,832,83,232,583,0.06386304,0.17701535,0.44467352,0.34995589,0.61353368,1.27184999
19013,0,USIowaBlackHawk,Iowa,Black Hawk,2020-07-18 16:48:22.216598,2020-05-23 00:00:00.000000,0.13706372,0.28068414,0.60908093,179,368,799,79,220,547,0.06085698,0.16810607,0.41696892,0.35761470,0.62552163,1.26992430
19013,0,USIowaBlackHawk,Iowa,Black Hawk,2020-07-18 16:48:22.216598,2020-05-24 00:00:00.000000,0.13211569,0.25977084,0.58508630,173,340,767,76,201,502,0.05856113,0.15317582,0.38273499,0.35673304,0.64414758,1.25173460
19013,0,USIowaBlackHawk,Iowa,Black Hawk,2020-07-18 16:48:22.216598,2020-05-25 00:00:00.000000,0.13130118,0.23916542,0.56131049,172,313,736,74,190,453,0.05696245,0.14490167,0.34553423,0.35455319,0.63523459,1.27528606
19013,0,USIowaBlackHawk,Iowa,Black Hawk,2020-07-18 16:48:22.216598,2020-05-26 00:00:00.000000,0.13051820,0.22861381,0.53722539,171,300,704,73,171,426,0.05587680,0.13081688,0.32525758,0.35000380,0.63627253,1.30536444
19013,0,USIowaBlackHawk,Iowa,Black Hawk,2020-07-18 16:48:22.216598,2020-05-27 00:00:00.000000,0.12731091,0.21900266,0.49253126,167,287,646,72,165,404,0.05496302,0.12614043,0.30845909,0.34578856,0.64685142,1.33421850
19013,0,USIowaBlackHawk,Iowa,Black Hawk,2020-07-18 16:48:22.216598,2020-05-28 00:00:00.000000,0.12230364,0.20612991,0.45878214,160,270,602,71,152,382,0.05426468,0.11612676,0.29164579,0.34171819,0.64774371,1.35031043
19013,0,USIowaBlackHawk,Iowa,Black Hawk,2020-07-18 16:48:22.216598,2020-05-29 00:00:00.000000,0.11809886,0.19686380,0.43346747,154,258,568,68,143,359,0.05248995,0.10968764,0.27388164,0.37186336,0.65939895,1.36794401
19013,0,USIowaBlackHawk,Iowa,Black Hawk,2020-07-18 16:48:22.216598,2020-05-30 00:00:00.000000,0.11417163,0.18304211,0.43448851,149,240,570,65,136,371,0.04981976,0.10412770,0.28296574,0.39883947,0.66113276,1.37909485
19013,0,USIowaBlackHawk,Iowa,Black Hawk,2020-07-18 16:48:22.216598,2020-05-31 00:00:00.000000,0.10903721,0.17700217,0.41741394,143,232,547,61,131,323,0.04712883,0.10035290,0.24658288,0.39379955,0.66496098,1.38823233
19013,0,USIowaBlackHawk,Iowa,Black Hawk,2020-07-18 16:48:22.216598,2020-06-01 00:00:00.000000,0.10445078,0.17174022,0.41202530,137,225,540,61,125,355,0.04713355,0.09537633,0.27122930,0.39112459,0.67389431,1.39885382
19013,0,USIowaBlackHawk,Iowa,Black Hawk,2020-07-18 16:48:22.216598,2020-06-02 00:00:00.000000,0.10019126,0.16733097,0.39589852,131,219,519,58,126,300,0.04460157,0.09633517,0.22926160,0.39097991,0.67780580,1.41388751
19013,0,USIowaBlackHawk,Iowa,Black Hawk,2020-07-18 16:48:22.216598,2020-06-03 00:00:00.000000,0.09436553,0.16695008,0.38223967,123,219,501,60,121,335,0.04619505,0.09234723,0.25552922,0.39345895,0.68069580,1.43242239
19013,0,USIowaBlackHawk,Iowa,Black Hawk,2020-07-18 16:48:22.216598,2020-06-04 00:00:00.000000,0.09226992,0.16350814,0.36806062,121,214,482,54,121,284,0.04175896,0.09225945,0.21677969,0.39970140,0.68793514,1.42247779
19013,0,USIowaBlackHawk,Iowa,Black Hawk,2020-07-18 16:48:22.216598,2020-06-05 00:00:00.000000,0.09126000,0.16321728,0.35537513,119,214,466,55,113,315,0.04243300,0.08643197,0.24073947,0.41179931,0.69859013,1.43411275
19013,0,USIowaBlackHawk,Iowa,Black Hawk,2020-07-18 16:48:22.216598,2020-06-06 00:00:00.000000,0.09159245,0.15902166,0.34381188,120,208,451,52,118,272,0.04018572,0.09019409,0.20744662,0.41856867,0.72268188,1.47181669
19013,0,USIowaBlackHawk,Iowa,Black Hawk,2020-07-18 16:48:22.216598,2020-06-07 00:00:00.000000,0.09166739,0.16177912,0.34942159,120,212,458,53,105,308,0.04047793,0.08074898,0.23528636,0.42071914,0.73739978,1.52002405
19013,0,USIowaBlackHawk,Iowa,Black Hawk,2020-07-18 16:48:22.216598,2020-06-08 00:00:00.000000,0.09090114,0.15749113,0.35365874,119,206,464,52,115,273,0.03969570,0.08775748,0.20848014,0.42272339,0.79702953,1.55537422
19013,0,USIowaBlackHawk,Iowa,Black Hawk,2020-07-18 16:48:22.216598,2020-06-09 00:00:00.000000,0.09120861,0.15957840,0.36498299,119,209,478,53,108,318,0.04069077,0.08273018,0.24288069,0.42442264,0.83014353,1.57832184
19013,0,USIowaBlackHawk,Iowa,Black Hawk,2020-07-18 16:48:22.216598,2020-06-10 00:00:00.000000,0.09118089,0.15804009,0.37378671,119,207,490,49,114,287,0.03756355,0.08729313,0.21875411,0.42724405,0.87193934,1.58883681
19013,0,USIowaBlackHawk,Iowa,Black Hawk,2020-07-18 16:48:22.216598,2020-06-11 00:00:00.000000,0.08962575,0.16460186,0.39329083,117,216,516,53,112,330,0.04051594,0.08605015,0.25216847,0.43712214,0.89691508,1.59431528
19013,0,USIowaBlackHawk,Iowa,Black Hawk,2020-07-18 16:48:22.216598,2020-06-12 00:00:00.000000,0.08788371,0.16771751,0.40485473,115,220,531,47,117,300,0.03597195,0.08943260,0.22863430,0.46962026,0.91429683,1.59911643
19013,0,USIowaBlackHawk,Iowa,Black Hawk,2020-07-18 16:48:22.216598,2020-06-13 00:00:00.000000,0.08559641,0.18102039,0.42680492,112,237,560,54,115,353,0.04123994,0.08818240,0.26947457,0.52302024,0.95012746,1.61015359
19013,0,USIowaBlackHawk,Iowa,Black Hawk,2020-07-18 16:48:22.216598,2020-06-14 00:00:00.000000,0.08891250,0.18622724,0.43938135,116,244,576,46,118,321,0.03549899,0.09041015,0.24485471,0.54335208,0.97887713,1.63980795
19013,0,USIowaBlackHawk,Iowa,Black Hawk,2020-07-18 16:48:22.216598,2020-06-15 00:00:00.000000,0.09298845,0.19916948,0.46224246,122,261,606,56,124,378,0.04280243,0.09517743,0.28862517,0.60284315,1.00263549,1.71198580
19013,0,USIowaBlackHawk,Iowa,Black Hawk,2020-07-18 16:48:22.216598,2020-06-16 00:00:00.000000,0.09852338,0.21072414,0.47405721,129,276,622,49,144,348,0.03736581,0.10974454,0.26589987,0.63486877,1.01335056,1.82483332
19013,0,USIowaBlackHawk,Iowa,Black Hawk,2020-07-18 16:48:22.216598,2020-06-17 00:00:00.000000,0.10104250,0.22853243,0.49883707,132,299,654,64,143,415,0.04923422,0.10945526,0.31698015,0.68030063,1.04298308,1.87949649
19013,0,USIowaBlackHawk,Iowa,Black Hawk,2020-07-18 16:48:22.216598,2020-06-18 00:00:00.000000,0.11093673,0.25099056,0.52151264,145,329,684,54,171,422,0.04173333,0.13045831,0.32159720,0.70753510,1.04755650,1.90068115
19013,0,USIowaBlackHawk,Iowa,Black Hawk,2020-07-18 16:48:22.216598,2020-06-19 00:00:00.000000,0.12048599,0.27475623,0.57531389,158,360,754,79,175,471,0.06036116,0.13383982,0.35931898,0.70422024,1.07372756,1.94017689
19013,0,USIowaBlackHawk,Iowa,Black Hawk,2020-07-18 16:48:22.216598,2020-06-20 00:00:00.000000,0.13345912,0.30484774,0.64183299,175,400,842,70,200,505,0.05385025,0.15311120,0.38530508,0.69143355,1.09400939,1.97870446
19013,0,USIowaBlackHawk,Iowa,Black Hawk,2020-07-18 16:48:22.216598,2020-06-21 00:00:00.000000,0.15346775,0.33704975,0.71866609,201,442,943,97,219,565,0.07461167,0.16762138,0.43055579,0.68837929,1.11709770,1.98305540
19013,0,USIowaBlackHawk,Iowa,Black Hawk,2020-07-18 16:48:22.216598,2020-06-22 00:00:00.000000,0.17572409,0.37072154,0.80715508,230,486,1059,93,250,632,0.07102125,0.19088220,0.48162157,0.69478363,1.14470146,1.98299997
19013,0,USIowaBlackHawk,Iowa,Black Hawk,2020-07-18 16:48:22.216598,2020-06-23 00:00:00.000000,0.20304250,0.41562332,0.90532600,266,545,1188,125,265,711,0.09525699,0.20242382,0.54197656,0.72400651,1.15832482,1.98170341
19013,0,USIowaBlackHawk,Iowa,Black Hawk,2020-07-18 16:48:22.216598,2020-06-24 00:00:00.000000,0.23112112,0.45614166,1.01115931,303,598,1326,121,293,788,0.09243674,0.22334630,0.60050587,0.74925602,1.14744509,1.97609875
19013,0,USIowaBlackHawk,Iowa,Black Hawk,2020-07-18 16:48:22.216598,2020-06-25 00:00:00.000000,0.26303910,0.48802558,1.11994398,345,640,1469,161,321,888,0.12313222,0.24498219,0.67685942,0.71015636,1.14444276,1.96519800
19013,0,USIowaBlackHawk,Iowa,Black Hawk,2020-07-18 16:48:22.216598,2020-06-26 00:00:00.000000,0.29939076,0.55363942,1.22469650,392,726,1607,157,359,962,0.11968263,0.27414541,0.73349476,0.68289810,1.12906926,1.95279006
19013,0,USIowaBlackHawk,Iowa,Black Hawk,2020-07-18 16:48:22.216598,2020-06-27 00:00:00.000000,0.33240918,0.58735266,1.31406786,436,770,1724,194,385,1043,0.14814876,0.29399125,0.79528918,0.66896469,1.10203745,1.95786972
19013,0,USIowaBlackHawk,Iowa,Black Hawk,2020-07-18 16:48:22.216598,2020-06-28 00:00:00.000000,0.36405358,0.63330234,1.38413859,477,831,1816,199,436,1099,0.15180409,0.33258478,0.83795192,0.66313701,1.06201166,1.96830943
19013,0,USIowaBlackHawk,Iowa,Black Hawk,2020-07-18 16:48:22.216598,2020-06-29 00:00:00.000000,0.41300575,0.67373003,1.44637051,541,884,1898,235,448,1174,0.17968177,0.34201831,0.89530777,0.65959414,1.03125279,1.90752801
19013,0,USIowaBlackHawk,Iowa,Black Hawk,2020-07-18 16:48:22.216598,2020-06-30 00:00:00.000000,0.43536236,0.72425271,1.50508762,571,950,1975,242,503,1202,0.18452000,0.38398722,0.91648308,0.65871176,1.00982577,1.82812794
19013,0,USIowaBlackHawk,Iowa,Black Hawk,2020-07-18 16:48:22.216598,2020-07-01 00:00:00.000000,0.46628391,0.79575654,1.56703674,611,1044,2056,289,511,1289,0.22073695,0.38991702,0.98232488,0.65620713,0.99629949,1.80060904
19013,0,USIowaBlackHawk,Iowa,Black Hawk,2020-07-18 16:48:22.216598,2020-07-02 00:00:00.000000,0.48326180,0.81981929,1.69143898,634,1075,2219,293,581,1299,0.22333408,0.44276022,0.99029899,0.64182774,0.96059555,1.75963593
19013,0,USIowaBlackHawk,Iowa,Black Hawk,2020-07-18 16:48:22.216598,2020-07-03 00:00:00.000000,0.49235250,0.87025169,1.75815409,646,1142,2307,325,577,1387,0.24789353,0.44017173,1.05757500,0.57395075,0.92316584,1.72324120
19013,0,USIowaBlackHawk,Iowa,Black Hawk,2020-07-18 16:48:22.216598,2020-07-04 00:00:00.000000,0.49684545,0.90419249,1.79421830,652,1186,2354,321,646,1392,0.24531351,0.49262372,1.06147398,0.52627966,0.89791298,1.64424050
19013,0,USIowaBlackHawk,Iowa,Black Hawk,2020-07-18 16:48:22.216598,2020-07-05 00:00:00.000000,0.50157180,0.93730611,1.81404945,658,1230,2380,334,633,1450,0.25521891,0.48306552,1.10523908,0.51991934,0.88391406,1.58625228
19013,0,USIowaBlackHawk,Iowa,Black Hawk,2020-07-18 16:48:22.216598,2020-07-06 00:00:00.000000,0.50093494,0.93831586,1.82482491,657,1231,2394,344,701,1487,0.26250598,0.53478494,1.13342340,0.51876896,0.86029940,1.55665384
19013,0,USIowaBlackHawk,Iowa,Black Hawk,2020-07-18 16:48:22.216598,2020-07-07 00:00:00.000000,0.50676371,0.95031642,1.82845020,665,1247,2399,326,636,1510,0.24853608,0.48512018,1.15100287,0.51796870,0.84270634,1.55194399
19013,0,USIowaBlackHawk,Iowa,Black Hawk,2020-07-18 16:48:22.216598,2020-07-08 00:00:00.000000,0.48899587,0.96303410,1.84844936,641,1263,2425,352,691,1522,0.26872968,0.52656814,1.16008060,0.50123455,0.84010171,1.55026622
19013,0,USIowaBlackHawk,Iowa,Black Hawk,2020-07-18 16:48:22.216598,2020-07-09 00:00:00.000000,0.51049044,0.96005808,1.86516887,669,1259,2447,332,657,1533,0.25375578,0.50069519,1.16869605,0.49427411,0.84133928,1.54967658
19013,0,USIowaBlackHawk,Iowa,Black Hawk,2020-07-18 16:48:22.216598,2020-07-10 00:00:00.000000,0.47389021,0.97045765,1.87877137,621,1273,2465,349,704,1543,0.26653676,0.53667313,1.17618998,0.49365448,0.84177195,1.54947011
19013,0,USIowaBlackHawk,Iowa,Black Hawk,2020-07-18 16:48:22.216598,2020-07-11 00:00:00.000000,0.49854263,0.96998987,1.89210942,654,1272,2482,347,676,1555,0.26491258,0.51530969,1.18516298,0.49359584,0.84192048,1.54939780
19013,0,USIowaBlackHawk,Iowa,Black Hawk,2020-07-18 16:48:22.216598,2020-07-12 00:00:00.000000,0.46812585,0.97433219,1.90707797,614,1278,2502,345,700,1564,0.26313826,0.53368828,1.19243893,0.49358995,0.84197114,1.54937243
19013,0,USIowaBlackHawk,Iowa,Black Hawk,2020-07-18 16:48:22.216598,2020-07-13 00:00:00.000000,0.48222235,0.96414165,1.91984369,632,1265,2519,337,648,1585,0.25740463,0.49454938,1.20831607,0.49358917,0.84198837,1.54936351
19013,0,USIowaBlackHawk,Iowa,Black Hawk,2020-07-18 16:48:22.216598,2020-07-14 00:00:00.000000,0.46380328,0.96187021,1.95680369,608,1262,2567,330,690,1627,0.25194779,0.52594662,1.24008407,0.49358897,0.84199422,1.54936036
19013,0,USIowaBlackHawk,Iowa,Black Hawk,2020-07-18 16:48:22.216598,2020-07-15 00:00:00.000000,0.46161658,0.95340144,1.99952964,605,1251,2623,318,668,1661,0.24233686,0.50956942,1.26642577,0.49358889,0.84199621,1.54935924
19013,0,USIowaBlackHawk,Iowa,Black Hawk,2020-07-18 16:48:22.216598,2020-07-16 00:00:00.000000,0.45680240,0.96612629,2.04082486,599,1267,2678,318,689,1682,0.24261753,0.52576905,1.28176290,0.49358884,0.84199688,1.54935884
19013,0,USIowaBlackHawk,Iowa,Black Hawk,2020-07-18 16:48:22.216598,2020-07-17 00:00:00.000000,0.44575655,0.97367576,2.08046039,584,1277,2730,298,670,1733,0.22770386,0.51105116,1.32063992,0.49358882,0.84199711,1.54935870
19013,0,USIowaBlackHawk,Iowa,Black Hawk,2020-07-18 16:48:22.216598,2020-07-18 00:00:00.000000,0.42921422,0.94360097,2.08573862,563,1238,2737,306,674,1754,0.23331816,0.51386064,1.33673221,0.49358881,0.84199718,1.54935865
19013,0,USIowaBlackHawk,Iowa,Black Hawk,2020-07-18 16:48:22.216598,2020-07-19 00:00:00.000000,0.42539251,0.95029096,2.08399474,558,1247,2734,280,656,1762,0.21356101,0.50009958,1.34324291,0.49358880,0.84199721,1.54935863
19013,0,USIowaBlackHawk,Iowa,Black Hawk,2020-07-18 16:48:22.216598,2020-07-20 00:00:00.000000,0.39779459,0.92242931,2.09325485,522,1210,2746,294,665,1790,0.22408278,0.50686444,1.36478898,0.49358880,0.84199722,1.54935862
19013,0,USIowaBlackHawk,Iowa,Black Hawk,2020-07-18 16:48:22.216598,2020-07-21 00:00:00.000000,0.40888189,0.91764488,2.10056816,536,1204,2756,261,648,1817,0.19927748,0.49383766,1.38484695,0.49358880,0.84199722,1.54935862
19013,0,USIowaBlackHawk,Iowa,Black Hawk,2020-07-18 16:48:22.216598,2020-07-22 00:00:00.000000,0.37472866,0.91390231,2.12740947,491,1199,2791,280,648,1841,0.21363173,0.49385066,1.40330821,0.49358880,0.84199722,1.54935862
19013,0,USIowaBlackHawk,Iowa,Black Hawk,2020-07-18 16:48:22.216598,2020-07-23 00:00:00.000000,0.39265366,0.90936311,2.16635871,515,1193,2842,242,637,1865,0.18500672,0.48593390,1.42142712,0.49358880,0.84199722,1.54935862
19013,0,USIowaBlackHawk,Iowa,Black Hawk,2020-07-18 16:48:22.216598,2020-07-24 00:00:00.000000,0.35972391,0.91143212,2.20353171,472,1196,2891,267,666,1889,0.20348029,0.50823496,1.43976142,0.49358880,0.84199722,1.54935862
19013,0,USIowaBlackHawk,Iowa,Black Hawk,2020-07-18 16:48:22.216598,2020-07-25 00:00:00.000000,0.37674446,0.92317726,2.23876759,494,1211,2937,227,638,1910,0.17363153,0.48625870,1.45620921,0.49358880,0.84199722,1.54935862
19013,0,USIowaBlackHawk,Iowa,Black Hawk,2020-07-18 16:48:22.216598,2020-07-26 00:00:00.000000,0.34460588,0.93100078,2.27192120,452,1221,2981,247,637,1929,0.18829697,0.48617635,1.47067603,0.49358880,0.84199722,1.54935862
19013,0,USIowaBlackHawk,Iowa,Black Hawk,2020-07-18 16:48:22.216598,2020-07-27 00:00:00.000000,0.35985041,0.92417378,2.30284459,472,1212,3021,216,633,1946,0.16502699,0.48284401,1.48307767,0.49358880,0.84199722,1.54935862
19013,0,USIowaBlackHawk,Iowa,Black Hawk,2020-07-18 16:48:22.216598,2020-07-28 00:00:00.000000,0.32845178,0.91680123,2.33140448,431,1203,3059,227,642,1959,0.17325506,0.48932599,1.49334108,0.49358880,0.84199722,1.54935862
19013,0,USIowaBlackHawk,Iowa,Black Hawk,2020-07-18 16:48:22.216598,2020-07-29 00:00:00.000000,0.34293152,0.90890172,2.36196732,450,1192,3099,205,631,1970,0.15672562,0.48138186,1.50140523,0.49358880,0.84199722,1.54935862
19013,0,USIowaBlackHawk,Iowa,Black Hawk,2020-07-18 16:48:22.216598,2020-07-30 00:00:00.000000,0.31244406,0.90044776,2.39005197,410,1181,3136,208,652,1978,0.15894920,0.49713281,1.50787565,0.49358880,0.84199722,1.54935862
