FIPS,HR_UID,nameid,province,region,analysisTime,dates,pointprevalence_025,pointprevalence_50,pointprevalence_975,pointinfections_025,pointinfections_50,pointinfections_975,pointinfectious_025,pointinfectious_50,pointinfectious_975,pointinfectiousprevalence_05,pointinfectiousprevalence_50,pointinfectiousprevalence_95,infectrate_025,infectrate_50,infectrate_975
15001,0,USHawaiiHawaii,Hawaii,Hawaii,2020-07-14 20:27:39.417134,2020-03-09 00:00:00.000000,0.00272703,0.01289314,0.08549701,5,25,172,0,7,46,0.00045965,0.00390574,0.02284134,0.59357067,0.75582819,0.99678915
15001,0,USHawaiiHawaii,Hawaii,Hawaii,2020-07-14 20:27:39.417134,2020-03-10 00:00:00.000000,0.00311259,0.01428458,0.03192841,6,28,64,2,8,16,0.00119770,0.00403690,0.00834337,0.59357667,0.75582503,0.99676637
15001,0,USHawaiiHawaii,Hawaii,Hawaii,2020-07-14 20:27:39.417134,2020-03-11 00:00:00.000000,0.00321160,0.01230861,0.04398586,6,24,88,2,9,28,0.00103756,0.00448499,0.01437234,0.59359312,0.75581825,0.99672874
15001,0,USHawaiiHawaii,Hawaii,Hawaii,2020-07-14 20:27:39.417134,2020-03-12 00:00:00.000000,0.00330285,0.01339849,0.02936314,6,26,59,3,9,16,0.00156853,0.00472687,0.00824168,0.59363830,0.75580368,0.99666661
15001,0,USHawaiiHawaii,Hawaii,Hawaii,2020-07-14 20:27:39.417134,2020-03-13 00:00:00.000000,0.00340838,0.01334283,0.03858648,6,26,77,2,10,24,0.00132526,0.00501333,0.01221946,0.59376237,0.75577236,0.99656412
15001,0,USHawaiiHawaii,Hawaii,Hawaii,2020-07-14 20:27:39.417134,2020-03-14 00:00:00.000000,0.00352050,0.01407368,0.02735924,7,28,55,3,10,17,0.00174446,0.00521223,0.00860604,0.59410274,0.75697935,0.99639520
15001,0,USHawaiiHawaii,Hawaii,Hawaii,2020-07-14 20:27:39.417134,2020-03-15 00:00:00.000000,0.00373838,0.01499442,0.04029207,7,30,81,3,11,23,0.00157168,0.00557253,0.01182178,0.59502230,0.76035840,0.99611722
15001,0,USHawaiiHawaii,Hawaii,Hawaii,2020-07-14 20:27:39.417134,2020-03-16 00:00:00.000000,0.00397275,0.01463537,0.02746551,8,29,55,3,11,19,0.00193779,0.00574182,0.00953494,0.59722981,0.76977991,0.99566087
15001,0,USHawaiiHawaii,Hawaii,Hawaii,2020-07-14 20:27:39.417134,2020-03-17 00:00:00.000000,0.00424469,0.01702111,0.04262169,8,34,85,3,12,24,0.00171932,0.00623653,0.01204046,0.60618722,0.77826648,1.00461163
15001,0,USHawaiiHawaii,Hawaii,Hawaii,2020-07-14 20:27:39.417134,2020-03-18 00:00:00.000000,0.00470295,0.01580855,0.02891824,9,31,58,4,12,21,0.00213744,0.00621626,0.01050171,0.61241541,0.78013057,1.02923666
15001,0,USHawaiiHawaii,Hawaii,Hawaii,2020-07-14 20:27:39.417134,2020-03-19 00:00:00.000000,0.00531960,0.01837122,0.04516054,10,37,91,3,14,24,0.00186944,0.00715873,0.01228209,0.59082198,0.78789464,1.02728947
15001,0,USHawaiiHawaii,Hawaii,Hawaii,2020-07-14 20:27:39.417134,2020-03-20 00:00:00.000000,0.00612382,0.01734315,0.03339784,12,34,67,4,13,24,0.00239400,0.00646909,0.01218684,0.59948584,0.78492092,1.00470777
15001,0,USHawaiiHawaii,Hawaii,Hawaii,2020-07-14 20:27:39.417134,2020-03-21 00:00:00.000000,0.00590121,0.02050473,0.04685386,11,41,94,4,15,27,0.00203205,0.00755224,0.01374451,0.62600833,0.77432102,1.00756355
15001,0,USHawaiiHawaii,Hawaii,Hawaii,2020-07-14 20:27:39.417134,2020-03-22 00:00:00.000000,0.00752794,0.01860554,0.03842327,15,37,77,5,13,31,0.00272741,0.00690752,0.01541105,0.62480321,0.76727579,1.00948504
15001,0,USHawaiiHawaii,Hawaii,Hawaii,2020-07-14 20:27:39.417134,2020-03-23 00:00:00.000000,0.00661766,0.02329137,0.04518160,13,46,91,4,17,33,0.00221914,0.00858581,0.01655303,0.60092986,0.75210425,1.00907226
15001,0,USHawaiiHawaii,Hawaii,Hawaii,2020-07-14 20:27:39.417134,2020-03-24 00:00:00.000000,0.00849734,0.02049715,0.04231470,17,41,85,6,14,35,0.00312686,0.00734713,0.01767632,0.57749408,0.74487395,1.00675768
15001,0,USHawaiiHawaii,Hawaii,Hawaii,2020-07-14 20:27:39.417134,2020-03-25 00:00:00.000000,0.00736187,0.02569543,0.04532441,14,51,91,4,18,37,0.00245086,0.00934603,0.01866643,0.55430095,0.72540845,1.01152552
15001,0,USHawaiiHawaii,Hawaii,Hawaii,2020-07-14 20:27:39.417134,2020-03-26 00:00:00.000000,0.00959652,0.02169586,0.04607418,19,43,92,6,16,39,0.00341424,0.00797534,0.01937353,0.54743163,0.70306625,1.00132210
15001,0,USHawaiiHawaii,Hawaii,Hawaii,2020-07-14 20:27:39.417134,2020-03-27 00:00:00.000000,0.00868730,0.02602978,0.04950274,17,52,99,5,20,40,0.00265318,0.01035874,0.01994239,0.54127076,0.68242130,0.99533009
15001,0,USHawaiiHawaii,Hawaii,Hawaii,2020-07-14 20:27:39.417134,2020-03-28 00:00:00.000000,0.01082953,0.02326119,0.04945877,21,46,99,6,17,41,0.00329515,0.00858883,0.02078807,0.52925034,0.66367320,0.96179031
15001,0,USHawaiiHawaii,Hawaii,Hawaii,2020-07-14 20:27:39.417134,2020-03-29 00:00:00.000000,0.01043036,0.02673737,0.05315818,21,53,107,5,21,44,0.00288394,0.01091482,0.02194228,0.48763551,0.65681241,0.95041601
15001,0,USHawaiiHawaii,Hawaii,Hawaii,2020-07-14 20:27:39.417134,2020-03-30 00:00:00.000000,0.01176582,0.02445852,0.05197769,23,49,104,6,18,47,0.00319449,0.00913442,0.02359186,0.45231945,0.64806851,0.92450770
15001,0,USHawaiiHawaii,Hawaii,Hawaii,2020-07-14 20:27:39.417134,2020-03-31 00:00:00.000000,0.01161557,0.02704216,0.05380994,23,54,108,6,23,49,0.00307328,0.01142189,0.02480326,0.42918212,0.62897260,0.90969205
15001,0,USHawaiiHawaii,Hawaii,Hawaii,2020-07-14 20:27:39.417134,2020-04-01 00:00:00.000000,0.01169650,0.02575772,0.05353265,23,51,107,6,19,50,0.00312119,0.00976192,0.02482075,0.41262199,0.60822688,0.90697970
15001,0,USHawaiiHawaii,Hawaii,Hawaii,2020-07-14 20:27:39.417134,2020-04-02 00:00:00.000000,0.01177874,0.02725122,0.05332536,23,54,107,6,23,48,0.00317641,0.01166198,0.02411171,0.40675332,0.58596602,0.89462450
15001,0,USHawaiiHawaii,Hawaii,Hawaii,2020-07-14 20:27:39.417134,2020-04-03 00:00:00.000000,0.01190101,0.02495363,0.05251220,23,50,105,6,19,46,0.00305495,0.00990222,0.02316409,0.40447761,0.54997522,0.89028031
15001,0,USHawaiiHawaii,Hawaii,Hawaii,2020-07-14 20:27:39.417134,2020-04-04 00:00:00.000000,0.01165395,0.02541627,0.05241440,23,51,105,6,22,46,0.00321864,0.01138086,0.02304078,0.38645993,0.51924377,0.87712875
15001,0,USHawaiiHawaii,Hawaii,Hawaii,2020-07-14 20:27:39.417134,2020-04-05 00:00:00.000000,0.01129863,0.02375052,0.05056331,22,47,101,5,19,46,0.00296903,0.00979496,0.02320240,0.36824784,0.49593813,0.84042415
15001,0,USHawaiiHawaii,Hawaii,Hawaii,2020-07-14 20:27:39.417134,2020-04-06 00:00:00.000000,0.01113105,0.02484011,0.05195430,22,50,104,6,22,46,0.00321536,0.01098672,0.02330545,0.36162653,0.48567662,0.82573786
15001,0,USHawaiiHawaii,Hawaii,Hawaii,2020-07-14 20:27:39.417134,2020-04-07 00:00:00.000000,0.01063470,0.02267609,0.05291496,21,45,106,5,19,47,0.00297060,0.00972962,0.02335343,0.35111459,0.47848118,0.79363122
15001,0,USHawaiiHawaii,Hawaii,Hawaii,2020-07-14 20:27:39.417134,2020-04-08 00:00:00.000000,0.01043555,0.02422645,0.05301696,21,48,106,6,21,47,0.00318538,0.01070172,0.02334367,0.34607362,0.46321949,0.75925806
15001,0,USHawaiiHawaii,Hawaii,Hawaii,2020-07-14 20:27:39.417134,2020-04-09 00:00:00.000000,0.01002603,0.02207775,0.05157256,20,44,103,5,19,46,0.00286605,0.00964596,0.02327854,0.34501929,0.45833446,0.74185833
15001,0,USHawaiiHawaii,Hawaii,Hawaii,2020-07-14 20:27:39.417134,2020-04-10 00:00:00.000000,0.00961445,0.02323448,0.04977349,19,46,100,6,20,46,0.00304592,0.01020557,0.02315876,0.34400707,0.46045762,0.72700173
15001,0,USHawaiiHawaii,Hawaii,Hawaii,2020-07-14 20:27:39.417134,2020-04-11 00:00:00.000000,0.00945245,0.02157446,0.04782085,19,43,96,5,19,46,0.00271223,0.00943380,0.02298483,0.33936812,0.46175179,0.69634568
15001,0,USHawaiiHawaii,Hawaii,Hawaii,2020-07-14 20:27:39.417134,2020-04-12 00:00:00.000000,0.00861374,0.02274950,0.04667890,17,45,94,6,20,45,0.00300556,0.00992708,0.02275996,0.31772325,0.46200435,0.67474860
15001,0,USHawaiiHawaii,Hawaii,Hawaii,2020-07-14 20:27:39.417134,2020-04-13 00:00:00.000000,0.00884987,0.02073791,0.04328623,17,41,87,5,18,45,0.00256008,0.00896987,0.02248887,0.30096167,0.46060573,0.66035607
15001,0,USHawaiiHawaii,Hawaii,Hawaii,2020-07-14 20:27:39.417134,2020-04-14 00:00:00.000000,0.00777779,0.02103319,0.04510805,15,42,90,5,19,44,0.00288689,0.00960026,0.02217356,0.28873772,0.46048558,0.65057374
15001,0,USHawaiiHawaii,Hawaii,Hawaii,2020-07-14 20:27:39.417134,2020-04-15 00:00:00.000000,0.00816586,0.01949953,0.03959899,16,39,79,4,16,43,0.00240605,0.00841530,0.02180939,0.27698473,0.46051450,0.64276069
15001,0,USHawaiiHawaii,Hawaii,Hawaii,2020-07-14 20:27:39.417134,2020-04-16 00:00:00.000000,0.00713348,0.02021003,0.04324673,14,40,87,5,18,43,0.00263358,0.00925611,0.02138792,0.27457068,0.46021139,0.62834241
15001,0,USHawaiiHawaii,Hawaii,Hawaii,2020-07-14 20:27:39.417134,2020-04-17 00:00:00.000000,0.00743525,0.01876547,0.03642706,14,37,73,4,15,42,0.00224240,0.00763788,0.02090801,0.26355570,0.45945963,0.59840184
15001,0,USHawaiiHawaii,Hawaii,Hawaii,2020-07-14 20:27:39.417134,2020-04-18 00:00:00.000000,0.00654088,0.01960374,0.04147081,13,39,83,4,18,41,0.00234538,0.00895824,0.02038074,0.24974851,0.45798745,0.56099773
15001,0,USHawaiiHawaii,Hawaii,Hawaii,2020-07-14 20:27:39.417134,2020-04-19 00:00:00.000000,0.00673234,0.01713951,0.03404757,13,34,68,4,14,39,0.00206798,0.00705130,0.01982286,0.24597683,0.45428866,0.54121235
15001,0,USHawaiiHawaii,Hawaii,Hawaii,2020-07-14 20:27:39.417134,2020-04-20 00:00:00.000000,0.00596617,0.01833033,0.03987849,12,36,80,4,16,38,0.00209047,0.00818659,0.01924976,0.23718420,0.44468712,0.53024427
15001,0,USHawaiiHawaii,Hawaii,Hawaii,2020-07-14 20:27:39.417134,2020-04-21 00:00:00.000000,0.00588652,0.01507149,0.03131575,11,30,63,3,13,37,0.00188890,0.00645146,0.01867239,0.23655400,0.43491958,0.53040007
15001,0,USHawaiiHawaii,Hawaii,Hawaii,2020-07-14 20:27:39.417134,2020-04-22 00:00:00.000000,0.00524750,0.01615578,0.03838289,10,32,77,3,14,36,0.00182515,0.00735121,0.01809588,0.23563361,0.42187817,0.52281855
15001,0,USHawaiiHawaii,Hawaii,Hawaii,2020-07-14 20:27:39.417134,2020-04-23 00:00:00.000000,0.00508032,0.01371059,0.02942130,10,27,59,3,11,35,0.00169027,0.00592616,0.01751690,0.22856372,0.39984054,0.52722505
15001,0,USHawaiiHawaii,Hawaii,Hawaii,2020-07-14 20:27:39.417134,2020-04-24 00:00:00.000000,0.00440728,0.01463579,0.03695119,8,29,74,3,13,34,0.00159582,0.00652165,0.01691900,0.22436406,0.38434356,0.53689181
15001,0,USHawaiiHawaii,Hawaii,Hawaii,2020-07-14 20:27:39.417134,2020-04-25 00:00:00.000000,0.00451103,0.01184189,0.02701722,9,23,54,3,10,32,0.00148912,0.00542902,0.01616549,0.22075778,0.36653732,0.55086168
15001,0,USHawaiiHawaii,Hawaii,Hawaii,2020-07-14 20:27:39.417134,2020-04-26 00:00:00.000000,0.00368743,0.01336025,0.03432940,7,26,69,2,11,29,0.00139889,0.00581358,0.01458997,0.21967842,0.35623648,0.56574608
15001,0,USHawaiiHawaii,Hawaii,Hawaii,2020-07-14 20:27:39.417134,2020-04-27 00:00:00.000000,0.00403093,0.01034667,0.02549771,8,20,51,2,10,26,0.00130154,0.00502456,0.01305667,0.21947129,0.35135211,0.57244835
15001,0,USHawaiiHawaii,Hawaii,Hawaii,2020-07-14 20:27:39.417134,2020-04-28 00:00:00.000000,0.00306439,0.01249877,0.02917309,6,25,58,2,10,23,0.00119334,0.00520799,0.01165766,0.21987845,0.34862590,0.57367782
15001,0,USHawaiiHawaii,Hawaii,Hawaii,2020-07-14 20:27:39.417134,2020-04-29 00:00:00.000000,0.00356855,0.00946100,0.02411088,7,19,48,2,9,20,0.00112548,0.00461389,0.01040003,0.22340081,0.34722598,0.57254364
15001,0,USHawaiiHawaii,Hawaii,Hawaii,2020-07-14 20:27:39.417134,2020-04-30 00:00:00.000000,0.00256783,0.01128389,0.02471813,5,22,49,2,9,18,0.00099918,0.00473623,0.00927096,0.22102033,0.34680141,0.56626816
15001,0,USHawaiiHawaii,Hawaii,Hawaii,2020-07-14 20:27:39.417134,2020-05-01 00:00:00.000000,0.00291578,0.00879601,0.02269475,5,17,45,1,8,17,0.00097715,0.00421819,0.00846549,0.21678729,0.34640511,0.54703829
15001,0,USHawaiiHawaii,Hawaii,Hawaii,2020-07-14 20:27:39.417134,2020-05-02 00:00:00.000000,0.00221593,0.00991980,0.02283422,4,19,46,1,8,15,0.00085063,0.00439722,0.00787247,0.22320438,0.34476571,0.53967454
15001,0,USHawaiiHawaii,Hawaii,Hawaii,2020-07-14 20:27:39.417134,2020-05-03 00:00:00.000000,0.00220760,0.00786610,0.02144030,4,15,43,1,7,15,0.00087091,0.00382850,0.00756596,0.22841381,0.34606668,0.55473091
15001,0,USHawaiiHawaii,Hawaii,Hawaii,2020-07-14 20:27:39.417134,2020-05-04 00:00:00.000000,0.00194975,0.00893869,0.02244377,3,18,45,1,8,14,0.00072979,0.00412304,0.00726140,0.22348083,0.35362000,0.56716794
15001,0,USHawaiiHawaii,Hawaii,Hawaii,2020-07-14 20:27:39.417134,2020-05-05 00:00:00.000000,0.00194522,0.00734488,0.02024130,3,14,40,1,6,13,0.00080571,0.00346575,0.00686035,0.21618589,0.35894938,0.57738178
15001,0,USHawaiiHawaii,Hawaii,Hawaii,2020-07-14 20:27:39.417134,2020-05-06 00:00:00.000000,0.00155322,0.00803643,0.02192143,3,16,44,1,7,12,0.00062328,0.00377757,0.00642308,0.21163326,0.36750891,0.58816380
15001,0,USHawaiiHawaii,Hawaii,Hawaii,2020-07-14 20:27:39.417134,2020-05-07 00:00:00.000000,0.00176021,0.00654273,0.02000464,3,13,40,1,6,12,0.00074797,0.00312041,0.00600669,0.21014284,0.37632049,0.59900100
15001,0,USHawaiiHawaii,Hawaii,Hawaii,2020-07-14 20:27:39.417134,2020-05-08 00:00:00.000000,0.00134486,0.00747171,0.01973130,2,15,39,1,6,11,0.00052837,0.00329037,0.00571027,0.22569980,0.37903915,0.57881467
15001,0,USHawaiiHawaii,Hawaii,Hawaii,2020-07-14 20:27:39.417134,2020-05-09 00:00:00.000000,0.00151069,0.00592021,0.01834150,3,11,36,1,5,11,0.00061568,0.00280179,0.00551251,0.23783390,0.38314721,0.57110882
15001,0,USHawaiiHawaii,Hawaii,Hawaii,2020-07-14 20:27:39.417134,2020-05-10 00:00:00.000000,0.00118388,0.00700694,0.01902340,2,14,38,0,6,10,0.00044315,0.00301742,0.00524390,0.24441306,0.38130689,0.57514464
15001,0,USHawaiiHawaii,Hawaii,Hawaii,2020-07-14 20:27:39.417134,2020-05-11 00:00:00.000000,0.00126647,0.00536463,0.01725218,2,10,34,1,5,9,0.00056566,0.00250406,0.00490645,0.26081513,0.36982340,0.57659711
15001,0,USHawaiiHawaii,Hawaii,Hawaii,2020-07-14 20:27:39.417134,2020-05-12 00:00:00.000000,0.00103636,0.00646299,0.01871254,2,13,37,0,5,9,0.00036505,0.00270320,0.00465187,0.26190491,0.37221475,0.57627024
15001,0,USHawaiiHawaii,Hawaii,Hawaii,2020-07-14 20:27:39.417134,2020-05-13 00:00:00.000000,0.00110449,0.00502654,0.01651036,2,10,33,1,4,9,0.00050008,0.00221240,0.00449836,0.26128869,0.38283227,0.57347833
15001,0,USHawaiiHawaii,Hawaii,Hawaii,2020-07-14 20:27:39.417134,2020-05-14 00:00:00.000000,0.00090109,0.00583765,0.01837115,1,11,37,0,4,9,0.00029184,0.00242305,0.00446657,0.26058030,0.38140624,0.57612020
15001,0,USHawaiiHawaii,Hawaii,Hawaii,2020-07-14 20:27:39.417134,2020-05-15 00:00:00.000000,0.00102780,0.00462069,0.01578492,2,9,31,0,3,8,0.00045056,0.00198183,0.00424707,0.26598845,0.39024418,0.58930476
15001,0,USHawaiiHawaii,Hawaii,Hawaii,2020-07-14 20:27:39.417134,2020-05-16 00:00:00.000000,0.00077536,0.00514490,0.01808661,1,10,36,0,4,8,0.00022462,0.00218938,0.00442879,0.26044743,0.38125133,0.59539780
15001,0,USHawaiiHawaii,Hawaii,Hawaii,2020-07-14 20:27:39.417134,2020-05-17 00:00:00.000000,0.00099260,0.00426345,0.01487152,2,8,29,0,3,8,0.00040006,0.00186740,0.00402002,0.25682662,0.38850812,0.60487110
15001,0,USHawaiiHawaii,Hawaii,Hawaii,2020-07-14 20:27:39.417134,2020-05-18 00:00:00.000000,0.00066940,0.00476162,0.01811336,1,9,36,0,4,8,0.00016217,0.00199755,0.00433339,0.25499557,0.38715929,0.71792455
15001,0,USHawaiiHawaii,Hawaii,Hawaii,2020-07-14 20:27:39.417134,2020-05-19 00:00:00.000000,0.00101893,0.00378580,0.01410249,2,7,28,0,3,7,0.00034674,0.00171314,0.00378367,0.25421380,0.38979578,0.74496010
15001,0,USHawaiiHawaii,Hawaii,Hawaii,2020-07-14 20:27:39.417134,2020-05-20 00:00:00.000000,0.00062435,0.00440390,0.01812847,1,8,36,0,3,8,0.00011854,0.00183503,0.00400174,0.25484636,0.38722990,0.79059280
15001,0,USHawaiiHawaii,Hawaii,Hawaii,2020-07-14 20:27:39.417134,2020-05-21 00:00:00.000000,0.00103679,0.00352413,0.01390940,2,7,28,0,3,7,0.00030017,0.00156118,0.00371017,0.26880212,0.43148565,0.79903936
15001,0,USHawaiiHawaii,Hawaii,Hawaii,2020-07-14 20:27:39.417134,2020-05-22 00:00:00.000000,0.00066121,0.00427126,0.01809469,1,8,36,0,3,7,0.00009778,0.00171827,0.00388961,0.28040109,0.47832045,0.82710043
15001,0,USHawaiiHawaii,Hawaii,Hawaii,2020-07-14 20:27:39.417134,2020-05-23 00:00:00.000000,0.00106814,0.00320871,0.01372253,2,6,27,0,3,7,0.00030784,0.00149412,0.00361550,0.28890209,0.48289281,0.92445280
15001,0,USHawaiiHawaii,Hawaii,Hawaii,2020-07-14 20:27:39.417134,2020-05-24 00:00:00.000000,0.00060982,0.00392597,0.01804268,1,7,36,0,3,7,0.00007254,0.00164759,0.00380438,0.29507226,0.48340940,1.01751801
15001,0,USHawaiiHawaii,Hawaii,Hawaii,2020-07-14 20:27:39.417134,2020-05-25 00:00:00.000000,0.00091384,0.00308518,0.01357330,1,6,27,0,2,7,0.00032428,0.00137389,0.00347472,0.30481825,0.48391979,1.06815217
15001,0,USHawaiiHawaii,Hawaii,Hawaii,2020-07-14 20:27:39.417134,2020-05-26 00:00:00.000000,0.00061045,0.00380878,0.01795694,1,7,36,0,2,7,0.00005584,0.00146936,0.00376390,0.31222119,0.48519158,1.07415955
15001,0,USHawaiiHawaii,Hawaii,Hawaii,2020-07-14 20:27:39.417134,2020-05-27 00:00:00.000000,0.00085125,0.00296963,0.01348492,1,5,27,0,2,6,0.00037444,0.00132095,0.00339088,0.31229538,0.48729255,1.07873048
15001,0,USHawaiiHawaii,Hawaii,Hawaii,2020-07-14 20:27:39.417134,2020-05-28 00:00:00.000000,0.00067420,0.00369362,0.01776596,1,7,35,0,2,7,0.00005167,0.00145602,0.00370877,0.31131247,0.48996020,1.09181600
15001,0,USHawaiiHawaii,Hawaii,Hawaii,2020-07-14 20:27:39.417134,2020-05-29 00:00:00.000000,0.00085173,0.00292823,0.01340330,1,5,27,0,2,7,0.00037041,0.00125657,0.00353199,0.30961328,0.49381848,1.10426890
15001,0,USHawaiiHawaii,Hawaii,Hawaii,2020-07-14 20:27:39.417134,2020-05-30 00:00:00.000000,0.00060870,0.00365607,0.01755937,1,7,35,0,2,7,0.00005563,0.00144761,0.00367116,0.33294590,0.49859054,1.05682420
15001,0,USHawaiiHawaii,Hawaii,Hawaii,2020-07-14 20:27:39.417134,2020-05-31 00:00:00.000000,0.00078791,0.00303589,0.01332463,1,6,26,0,2,7,0.00035328,0.00123733,0.00353692,0.35206325,0.50381571,1.07269636
15001,0,USHawaiiHawaii,Hawaii,Hawaii,2020-07-14 20:27:39.417134,2020-06-01 00:00:00.000000,0.00059198,0.00387248,0.01738689,1,7,35,0,2,7,0.00005633,0.00138060,0.00368763,0.35545249,0.50761007,1.07956420
15001,0,USHawaiiHawaii,Hawaii,Hawaii,2020-07-14 20:27:39.417134,2020-06-02 00:00:00.000000,0.00076477,0.00316119,0.01326811,1,6,26,0,2,7,0.00033492,0.00128652,0.00351411,0.36031481,0.51070940,1.08169841
15001,0,USHawaiiHawaii,Hawaii,Hawaii,2020-07-14 20:27:39.417134,2020-06-03 00:00:00.000000,0.00062165,0.00400839,0.01724823,1,8,34,0,3,7,0.00003882,0.00150007,0.00370583,0.37186713,0.51603025,1.03722267
15001,0,USHawaiiHawaii,Hawaii,Hawaii,2020-07-14 20:27:39.417134,2020-06-04 00:00:00.000000,0.00071822,0.00312439,0.01326110,1,6,26,0,2,7,0.00031725,0.00133356,0.00350702,0.38688124,0.52326878,1.01005334
15001,0,USHawaiiHawaii,Hawaii,Hawaii,2020-07-14 20:27:39.417134,2020-06-05 00:00:00.000000,0.00062108,0.00419094,0.01719525,1,8,34,0,3,7,0.00002422,0.00156590,0.00377874,0.41605428,0.53518626,0.97663021
15001,0,USHawaiiHawaii,Hawaii,Hawaii,2020-07-14 20:27:39.417134,2020-06-06 00:00:00.000000,0.00069949,0.00317079,0.01353271,1,6,27,0,2,7,0.00030809,0.00132160,0.00351673,0.42588403,0.55818983,0.96724807
15001,0,USHawaiiHawaii,Hawaii,Hawaii,2020-07-14 20:27:39.417134,2020-06-07 00:00:00.000000,0.00064957,0.00451153,0.01735557,1,9,34,0,3,7,0.00001441,0.00157587,0.00384849,0.42951422,0.57983339,0.96875906
15001,0,USHawaiiHawaii,Hawaii,Hawaii,2020-07-14 20:27:39.417134,2020-06-08 00:00:00.000000,0.00069441,0.00339909,0.01392501,1,6,28,0,2,7,0.00031794,0.00136402,0.00358452,0.44171043,0.60508776,0.96988400
15001,0,USHawaiiHawaii,Hawaii,Hawaii,2020-07-14 20:27:39.417134,2020-06-09 00:00:00.000000,0.00067199,0.00487975,0.01767349,1,9,35,0,3,7,0.00001098,0.00160666,0.00383087,0.45267740,0.61242817,0.97591620
15001,0,USHawaiiHawaii,Hawaii,Hawaii,2020-07-14 20:27:39.417134,2020-06-10 00:00:00.000000,0.00074546,0.00357949,0.01435022,1,7,28,0,2,7,0.00036383,0.00144379,0.00368493,0.45158637,0.61780691,1.01377489
15001,0,USHawaiiHawaii,Hawaii,Hawaii,2020-07-14 20:27:39.417134,2020-06-11 00:00:00.000000,0.00070016,0.00486853,0.01797083,1,9,36,0,3,7,0.00001627,0.00174612,0.00381466,0.45104224,0.61987057,1.11396122
15001,0,USHawaiiHawaii,Hawaii,Hawaii,2020-07-14 20:27:39.417134,2020-06-12 00:00:00.000000,0.00082038,0.00381144,0.01489762,1,7,30,0,3,7,0.00037334,0.00151157,0.00375596,0.45340975,0.62504568,1.13843759
15001,0,USHawaiiHawaii,Hawaii,Hawaii,2020-07-14 20:27:39.417134,2020-06-13 00:00:00.000000,0.00072794,0.00505865,0.01825577,1,10,36,0,3,7,0.00004969,0.00183218,0.00390534,0.45423711,0.63637238,1.16345720
15001,0,USHawaiiHawaii,Hawaii,Hawaii,2020-07-14 20:27:39.417134,2020-06-14 00:00:00.000000,0.00093221,0.00409237,0.01539844,1,8,31,0,3,7,0.00037149,0.00162249,0.00393734,0.45799206,0.64926190,1.20594519
15001,0,USHawaiiHawaii,Hawaii,Hawaii,2020-07-14 20:27:39.417134,2020-06-15 00:00:00.000000,0.00081241,0.00500481,0.01868282,1,10,37,0,3,8,0.00008914,0.00192069,0.00415075,0.45586303,0.66021363,1.21838007
15001,0,USHawaiiHawaii,Hawaii,Hawaii,2020-07-14 20:27:39.417134,2020-06-16 00:00:00.000000,0.00109262,0.00436838,0.01601103,2,8,32,0,3,8,0.00039848,0.00171641,0.00410301,0.45540826,0.67203780,1.22159222
15001,0,USHawaiiHawaii,Hawaii,Hawaii,2020-07-14 20:27:39.417134,2020-06-17 00:00:00.000000,0.00091968,0.00495490,0.01938317,1,9,39,0,4,8,0.00013684,0.00201803,0.00443506,0.44026833,0.68542495,1.22151863
15001,0,USHawaiiHawaii,Hawaii,Hawaii,2020-07-14 20:27:39.417134,2020-06-18 00:00:00.000000,0.00117059,0.00480594,0.01677798,2,9,33,0,3,9,0.00045202,0.00181886,0.00451084,0.43703491,0.69336310,1.21798767
15001,0,USHawaiiHawaii,Hawaii,Hawaii,2020-07-14 20:27:39.417134,2020-06-19 00:00:00.000000,0.00103581,0.00526870,0.02015177,2,10,40,0,4,9,0.00019701,0.00215323,0.00489131,0.43892517,0.71117344,1.21300186
15001,0,USHawaiiHawaii,Hawaii,Hawaii,2020-07-14 20:27:39.417134,2020-06-20 00:00:00.000000,0.00123524,0.00513320,0.01752527,2,10,35,1,3,9,0.00051914,0.00195903,0.00487328,0.44239530,0.72823458,1.18307346
15001,0,USHawaiiHawaii,Hawaii,Hawaii,2020-07-14 20:27:39.417134,2020-06-21 00:00:00.000000,0.00117061,0.00573417,0.02068064,2,11,41,0,4,10,0.00026542,0.00230534,0.00520422,0.44317625,0.75016929,1.18867889
15001,0,USHawaiiHawaii,Hawaii,Hawaii,2020-07-14 20:27:39.417134,2020-06-22 00:00:00.000000,0.00131478,0.00565137,0.01841534,2,11,37,1,4,11,0.00057742,0.00207813,0.00566379,0.44545515,0.78128126,1.20851421
15001,0,USHawaiiHawaii,Hawaii,Hawaii,2020-07-14 20:27:39.417134,2020-06-23 00:00:00.000000,0.00136008,0.00667606,0.02073899,2,13,41,0,4,11,0.00034029,0.00244262,0.00560058,0.44672748,0.78907544,1.21844481
15001,0,USHawaiiHawaii,Hawaii,Hawaii,2020-07-14 20:27:39.417134,2020-06-24 00:00:00.000000,0.00150325,0.00603912,0.01976156,3,12,39,1,4,12,0.00061266,0.00231872,0.00620656,0.44494279,0.78921578,1.21668251
15001,0,USHawaiiHawaii,Hawaii,Hawaii,2020-07-14 20:27:39.417134,2020-06-25 00:00:00.000000,0.00160753,0.00728586,0.02088397,3,14,42,0,5,13,0.00042210,0.00258209,0.00656682,0.46594207,0.80120024,1.14631163
15001,0,USHawaiiHawaii,Hawaii,Hawaii,2020-07-14 20:27:39.417134,2020-06-26 00:00:00.000000,0.00195438,0.00688304,0.02166947,3,13,43,1,5,14,0.00066854,0.00257813,0.00724638,0.47404652,0.82763088,1.14251309
15001,0,USHawaiiHawaii,Hawaii,Hawaii,2020-07-14 20:27:39.417134,2020-06-27 00:00:00.000000,0.00193077,0.00838908,0.02302004,3,16,46,1,5,15,0.00051161,0.00290989,0.00784167,0.46558962,0.90603411,1.13615762
15001,0,USHawaiiHawaii,Hawaii,Hawaii,2020-07-14 20:27:39.417134,2020-06-28 00:00:00.000000,0.00244213,0.00827279,0.02546260,4,16,51,1,5,16,0.00072661,0.00297081,0.00813183,0.48309142,0.96726201,1.12914788
15001,0,USHawaiiHawaii,Hawaii,Hawaii,2020-07-14 20:27:39.417134,2020-06-29 00:00:00.000000,0.00253722,0.01011435,0.02651509,5,20,53,1,6,17,0.00060997,0.00345771,0.00883000,0.49272613,0.98661831,1.13440696
15001,0,USHawaiiHawaii,Hawaii,Hawaii,2020-07-14 20:27:39.417134,2020-06-30 00:00:00.000000,0.00304042,0.00996034,0.02926961,6,20,58,1,7,19,0.00080104,0.00348616,0.00952862,0.48743347,0.99858140,1.15699886
15001,0,USHawaiiHawaii,Hawaii,Hawaii,2020-07-14 20:27:39.417134,2020-07-01 00:00:00.000000,0.00291548,0.01222274,0.03042683,5,24,61,1,8,20,0.00072002,0.00411166,0.01017666,0.48422080,1.00835851,1.17493345
15001,0,USHawaiiHawaii,Hawaii,Hawaii,2020-07-14 20:27:39.417134,2020-07-02 00:00:00.000000,0.00367100,0.01125532,0.03191178,7,22,64,1,8,23,0.00091652,0.00403050,0.01141873,0.48379446,1.00414837,1.18532761
15001,0,USHawaiiHawaii,Hawaii,Hawaii,2020-07-14 20:27:39.417134,2020-07-03 00:00:00.000000,0.00314514,0.01476979,0.03476536,6,29,70,1,9,25,0.00083987,0.00481319,0.01279927,0.48744115,1.01240083,1.19362235
15001,0,USHawaiiHawaii,Hawaii,Hawaii,2020-07-14 20:27:39.417134,2020-07-04 00:00:00.000000,0.00400481,0.01300566,0.03718642,8,26,74,2,9,28,0.00106860,0.00476286,0.01389854,0.49658477,0.98377420,1.21301092
15001,0,USHawaiiHawaii,Hawaii,Hawaii,2020-07-14 20:27:39.417134,2020-07-05 00:00:00.000000,0.00338780,0.01707050,0.04016550,6,34,80,1,11,29,0.00093115,0.00589630,0.01470975,0.49815569,1.00119659,1.23837502
15001,0,USHawaiiHawaii,Hawaii,Hawaii,2020-07-14 20:27:39.417134,2020-07-06 00:00:00.000000,0.00496431,0.01590488,0.04327958,10,32,87,2,11,30,0.00128311,0.00555807,0.01521350,0.49454693,0.99109648,1.26136176
15001,0,USHawaiiHawaii,Hawaii,Hawaii,2020-07-14 20:27:39.417134,2020-07-07 00:00:00.000000,0.00381003,0.02048645,0.04593958,7,41,92,2,14,31,0.00102374,0.00697218,0.01551730,0.50526644,0.98215720,1.27747788
15001,0,USHawaiiHawaii,Hawaii,Hawaii,2020-07-14 20:27:39.417134,2020-07-08 00:00:00.000000,0.00626302,0.01984871,0.05104806,12,39,102,3,13,34,0.00152941,0.00673119,0.01687718,0.50846427,0.99135808,1.29601091
15001,0,USHawaiiHawaii,Hawaii,Hawaii,2020-07-14 20:27:39.417134,2020-07-09 00:00:00.000000,0.00427677,0.02534782,0.05523756,8,51,111,2,16,38,0.00118593,0.00824651,0.01915017,0.50863429,0.98553740,1.30749715
15001,0,USHawaiiHawaii,Hawaii,Hawaii,2020-07-14 20:27:39.417134,2020-07-10 00:00:00.000000,0.00796530,0.02205509,0.05679214,16,44,114,3,16,43,0.00187539,0.00828244,0.02169253,0.50868512,0.97837406,1.31229411
15001,0,USHawaiiHawaii,Hawaii,Hawaii,2020-07-14 20:27:39.417134,2020-07-11 00:00:00.000000,0.00456030,0.03054660,0.06537594,9,61,131,2,20,52,0.00136228,0.01005038,0.02600101,0.50780114,0.97833895,1.31422058
15001,0,USHawaiiHawaii,Hawaii,Hawaii,2020-07-14 20:27:39.417134,2020-07-12 00:00:00.000000,0.00912747,0.02557134,0.07327881,18,51,147,4,19,65,0.00217930,0.00973771,0.03242684,0.50726592,0.97848537,1.31498207
15001,0,USHawaiiHawaii,Hawaii,Hawaii,2020-07-14 20:27:39.417134,2020-07-13 00:00:00.000000,0.00517570,0.03501785,0.08005297,10,70,161,2,24,77,0.00145796,0.01227281,0.03869118,0.50708195,0.97852296,1.31528116
15001,0,USHawaiiHawaii,Hawaii,Hawaii,2020-07-14 20:27:39.417134,2020-07-14 00:00:00.000000,0.00942747,0.03144188,0.09203821,18,63,185,4,21,88,0.00231695,0.01079010,0.04382934,0.50701960,0.97853263,1.31539836
15001,0,USHawaiiHawaii,Hawaii,Hawaii,2020-07-14 20:27:39.417134,2020-07-15 00:00:00.000000,0.00599193,0.04056675,0.10371633,12,81,209,2,29,103,0.00148469,0.01469877,0.05160294,0.50699855,0.97853513,1.31544423
15001,0,USHawaiiHawaii,Hawaii,Hawaii,2020-07-14 20:27:39.417134,2020-07-16 00:00:00.000000,0.00973743,0.03522338,0.11835627,19,70,238,4,25,128,0.00246258,0.01255981,0.06365850,0.50699145,0.97853578,1.31546218
15001,0,USHawaiiHawaii,Hawaii,Hawaii,2020-07-14 20:27:39.417134,2020-07-17 00:00:00.000000,0.00639203,0.04570925,0.14583088,12,92,293,3,33,157,0.00151202,0.01679253,0.07838815,0.50698905,0.97853595,1.31546920
15001,0,USHawaiiHawaii,Hawaii,Hawaii,2020-07-14 20:27:39.417134,2020-07-18 00:00:00.000000,0.01010223,0.04003138,0.17182800,20,80,346,5,28,193,0.00261607,0.01428102,0.09621395,0.50698824,0.97853599,1.31547195
15001,0,USHawaiiHawaii,Hawaii,Hawaii,2020-07-14 20:27:39.417134,2020-07-19 00:00:00.000000,0.00681000,0.05286081,0.19636113,13,106,395,3,37,221,0.00153987,0.01872933,0.10988746,0.50698797,0.97853600,1.31547302
15001,0,USHawaiiHawaii,Hawaii,Hawaii,2020-07-14 20:27:39.417134,2020-07-20 00:00:00.000000,0.01126463,0.04903486,0.22466419,22,98,452,5,31,253,0.00289673,0.01552584,0.12564909,0.50698787,0.97853601,1.31547344
15001,0,USHawaiiHawaii,Hawaii,Hawaii,2020-07-14 20:27:39.417134,2020-07-21 00:00:00.000000,0.00724681,0.06142007,0.25737106,14,123,518,3,41,289,0.00159258,0.02080046,0.14384784,0.50698784,0.97853601,1.31547360
15001,0,USHawaiiHawaii,Hawaii,Hawaii,2020-07-14 20:27:39.417134,2020-07-22 00:00:00.000000,0.01093004,0.06121134,0.29523094,22,123,594,6,35,332,0.00322141,0.01782410,0.16489608,0.50698783,0.97853601,1.31547367
15001,0,USHawaiiHawaii,Hawaii,Hawaii,2020-07-14 20:27:39.417134,2020-07-23 00:00:00.000000,0.00770345,0.07487375,0.33947150,15,150,684,3,48,381,0.00167391,0.02424057,0.18928134,0.50698783,0.97853601,1.31547369
15001,0,USHawaiiHawaii,Hawaii,Hawaii,2020-07-14 20:27:39.417134,2020-07-24 00:00:00.000000,0.01060791,0.07498263,0.40301050,21,151,812,6,42,438,0.00346825,0.02126360,0.21758004,0.50698783,0.97853601,1.31547370
15001,0,USHawaiiHawaii,Hawaii,Hawaii,2020-07-14 20:27:39.417134,2020-07-25 00:00:00.000000,0.00818088,0.08471694,0.47859453,16,170,964,3,55,504,0.00175727,0.02736813,0.25047319,0.50698783,0.97853601,1.31547371
15001,0,USHawaiiHawaii,Hawaii,Hawaii,2020-07-14 20:27:39.417134,2020-07-26 00:00:00.000000,0.01067237,0.08205396,0.56861593,21,165,1145,7,51,581,0.00376073,0.02558457,0.28876391,0.50698783,0.97853601,1.31547371
15001,0,USHawaiiHawaii,Hawaii,Hawaii,2020-07-14 20:27:39.417134,2020-07-27 00:00:00.000000,0.00868008,0.09666127,0.68414572,17,194,1378,3,66,671,0.00184269,0.03305823,0.33339643,0.50698783,0.97853601,1.31547371
