FIPS,HR_UID,nameid,province,region,analysisTime,dates,pointprevalence_025,pointprevalence_50,pointprevalence_975,pointinfections_025,pointinfections_50,pointinfections_975,pointinfectious_025,pointinfectious_50,pointinfectious_975,pointinfectiousprevalence_05,pointinfectiousprevalence_50,pointinfectiousprevalence_95,infectrate_025,infectrate_50,infectrate_975
28101,0,USMississippiNewton,Mississippi,Newton,2020-07-18 09:56:11.442192,2020-03-09 00:00:00.000000,0.01785077,0.06976752,0.26315083,3,14,55,1,6,25,0.00533228,0.02910158,0.12117468,0.49814758,0.72640990,1.13132830
28101,0,USMississippiNewton,Mississippi,Newton,2020-07-18 09:56:11.442192,2020-03-10 00:00:00.000000,0.01719939,0.06639430,0.29458030,3,13,61,1,6,28,0.00784675,0.03192880,0.13401431,0.49815302,0.72640990,1.13138822
28101,0,USMississippiNewton,Mississippi,Newton,2020-07-18 09:56:11.442192,2020-03-11 00:00:00.000000,0.01743618,0.07329270,0.33714325,3,15,70,1,6,32,0.00865275,0.03293815,0.15650433,0.49816715,0.72640990,1.13150896
28101,0,USMississippiNewton,Mississippi,Newton,2020-07-18 09:56:11.442192,2020-03-12 00:00:00.000000,0.01824884,0.07373771,0.39426554,3,15,82,1,7,37,0.00921617,0.03515923,0.17649056,0.49820389,0.72640990,1.13175237
28101,0,USMississippiNewton,Mississippi,Newton,2020-07-18 09:56:11.442192,2020-03-13 00:00:00.000000,0.01892505,0.08064219,0.46411743,3,16,97,2,7,42,0.00967254,0.03656186,0.20333157,0.49829932,0.72640990,1.13224299
28101,0,USMississippiNewton,Mississippi,Newton,2020-07-18 09:56:11.442192,2020-03-14 00:00:00.000000,0.01993746,0.08247045,0.55103376,4,17,115,2,8,51,0.01012955,0.03897239,0.24426113,0.49854473,0.72623442,1.13323058
28101,0,USMississippiNewton,Mississippi,Newton,2020-07-18 09:56:11.442192,2020-03-15 00:00:00.000000,0.02160604,0.08418605,0.65406820,4,17,137,2,8,63,0.01062275,0.03996191,0.30077029,0.49915768,0.72564575,1.13521127
28101,0,USMississippiNewton,Mississippi,Newton,2020-07-18 09:56:11.442192,2020-03-16 00:00:00.000000,0.02365977,0.08768625,0.77904407,4,18,163,2,8,77,0.01158546,0.04217923,0.36830225,0.50699014,0.72654859,1.13915169
28101,0,USMississippiNewton,Mississippi,Newton,2020-07-18 09:56:11.442192,2020-03-17 00:00:00.000000,0.02592286,0.09317901,0.92777947,5,19,195,2,9,92,0.01202425,0.04342796,0.44144410,0.51445810,0.72640724,1.14686037
28101,0,USMississippiNewton,Mississippi,Newton,2020-07-18 09:56:11.442192,2020-03-18 00:00:00.000000,0.02763739,0.09900527,1.10393328,5,20,232,2,9,110,0.01252435,0.04563927,0.52493620,0.51482566,0.72638702,1.16398814
28101,0,USMississippiNewton,Mississippi,Newton,2020-07-18 09:56:11.442192,2020-03-19 00:00:00.000000,0.03040381,0.10165575,1.31020642,6,21,275,2,10,131,0.01310211,0.04816198,0.62387608,0.51591733,0.72621275,1.19595655
28101,0,USMississippiNewton,Mississippi,Newton,2020-07-18 09:56:11.442192,2020-03-20 00:00:00.000000,0.03134337,0.10291592,1.56664246,6,21,329,2,10,155,0.01377534,0.04907746,0.74033976,0.49721875,0.72875201,1.23912837
28101,0,USMississippiNewton,Mississippi,Newton,2020-07-18 09:56:11.442192,2020-03-21 00:00:00.000000,0.03222529,0.10680169,1.85435982,6,22,389,3,10,184,0.01455896,0.05119749,0.87638763,0.48277930,0.72760297,1.29484972
28101,0,USMississippiNewton,Mississippi,Newton,2020-07-18 09:56:11.442192,2020-03-22 00:00:00.000000,0.03490712,0.11032188,2.19393765,7,23,461,3,11,217,0.01546921,0.05303358,1.03527403,0.47583693,0.74914839,1.35023747
28101,0,USMississippiNewton,Mississippi,Newton,2020-07-18 09:56:11.442192,2020-03-23 00:00:00.000000,0.03849413,0.11665564,2.59436586,8,24,545,3,11,256,0.01654867,0.05539202,1.22134179,0.47497042,0.74681579,1.36468203
28101,0,USMississippiNewton,Mississippi,Newton,2020-07-18 09:56:11.442192,2020-03-24 00:00:00.000000,0.04184964,0.12255915,3.06591131,8,25,644,3,12,302,0.01796527,0.05815792,1.43960858,0.47536437,0.74856254,1.36389094
28101,0,USMississippiNewton,Mississippi,Newton,2020-07-18 09:56:11.442192,2020-03-25 00:00:00.000000,0.04433110,0.12775652,3.62038912,9,26,760,4,12,355,0.01912408,0.06106816,1.69068163,0.47677595,0.76605650,1.34551402
28101,0,USMississippiNewton,Mississippi,Newton,2020-07-18 09:56:11.442192,2020-03-26 00:00:00.000000,0.04684897,0.13389801,4.27179631,9,28,897,4,13,421,0.02050195,0.06253846,2.00667597,0.47920548,0.78453262,1.42631259
28101,0,USMississippiNewton,Mississippi,Newton,2020-07-18 09:56:11.442192,2020-03-27 00:00:00.000000,0.04791968,0.14522734,5.03860041,10,30,1059,4,13,498,0.02225325,0.06605250,2.37078160,0.48066062,0.79974675,1.47418825
28101,0,USMississippiNewton,Mississippi,Newton,2020-07-18 09:56:11.442192,2020-03-28 00:00:00.000000,0.04972851,0.15232837,6.01533251,10,32,1264,4,14,588,0.02366275,0.07025911,2.79983008,0.48734098,0.80594075,1.48636068
28101,0,USMississippiNewton,Mississippi,Newton,2020-07-18 09:56:11.442192,2020-03-29 00:00:00.000000,0.05363691,0.15799977,7.46258990,11,33,1568,5,15,695,0.02428353,0.07447209,3.30767174,0.50791117,0.82060652,1.48675485
28101,0,USMississippiNewton,Mississippi,Newton,2020-07-18 09:56:11.442192,2020-03-30 00:00:00.000000,0.05820641,0.17273763,8.92533537,12,36,1875,5,16,854,0.02582447,0.07946357,4.06536099,0.52054574,0.83198132,1.50015661
28101,0,USMississippiNewton,Mississippi,Newton,2020-07-18 09:56:11.442192,2020-03-31 00:00:00.000000,0.06344323,0.18974247,10.83005353,13,39,2276,5,17,1031,0.02747470,0.08417742,4.90918773,0.53530893,0.84697775,1.51262386
28101,0,USMississippiNewton,Mississippi,Newton,2020-07-18 09:56:11.442192,2020-04-01 00:00:00.000000,0.06865109,0.20437727,13.39171303,14,42,2814,6,18,1260,0.02993270,0.09034812,5.99603360,0.55436666,0.85617878,1.50594118
28101,0,USMississippiNewton,Mississippi,Newton,2020-07-18 09:56:11.442192,2020-04-02 00:00:00.000000,0.07398428,0.22931379,15.80998049,15,48,3322,6,20,1539,0.03272152,0.09754734,7.32418234,0.58008785,0.87815783,1.50397335
28101,0,USMississippiNewton,Mississippi,Newton,2020-07-18 09:56:11.442192,2020-04-03 00:00:00.000000,0.08017837,0.24775942,18.59849490,16,52,3909,7,22,1886,0.03503108,0.10493878,8.97794809,0.58013279,0.90632443,1.61944321
28101,0,USMississippiNewton,Mississippi,Newton,2020-07-18 09:56:11.442192,2020-04-04 00:00:00.000000,0.08771669,0.27122908,21.84123210,18,57,4590,7,23,2333,0.03747855,0.11242264,11.10290669,0.60135186,0.91865353,1.71676152
28101,0,USMississippiNewton,Mississippi,Newton,2020-07-18 09:56:11.442192,2020-04-05 00:00:00.000000,0.09655081,0.29482590,25.67357702,20,61,5396,8,25,2811,0.03819715,0.12219041,13.37749585,0.59346380,0.94778723,1.81069123
28101,0,USMississippiNewton,Mississippi,Newton,2020-07-18 09:56:11.442192,2020-04-06 00:00:00.000000,0.10690188,0.31615479,31.44360064,22,66,6608,8,28,3363,0.04161382,0.13355910,16.00163483,0.56558559,0.95391632,1.81988223
28101,0,USMississippiNewton,Mississippi,Newton,2020-07-18 09:56:11.442192,2020-04-07 00:00:00.000000,0.12362474,0.35270940,36.69844371,25,74,7713,9,30,4000,0.04671318,0.14674113,19.03337708,0.56897952,0.95560488,1.82287607
28101,0,USMississippiNewton,Mississippi,Newton,2020-07-18 09:56:11.442192,2020-04-08 00:00:00.000000,0.14571338,0.38579738,42.44772703,30,81,8921,11,34,4727,0.05314332,0.16617492,22.49415673,0.58793995,0.95407378,1.82528996
28101,0,USMississippiNewton,Mississippi,Newton,2020-07-18 09:56:11.442192,2020-04-09 00:00:00.000000,0.17118123,0.42501713,48.50585746,35,89,10194,12,38,5508,0.06087678,0.18351930,26.20984509,0.59698058,0.97340636,1.82564439
28101,0,USMississippiNewton,Mississippi,Newton,2020-07-18 09:56:11.442192,2020-04-10 00:00:00.000000,0.19943869,0.49010016,55.15127003,41,103,11591,14,43,6372,0.07007294,0.20803567,30.31863011,0.60364577,0.97845991,1.84178783
28101,0,USMississippiNewton,Mississippi,Newton,2020-07-18 09:56:11.442192,2020-04-11 00:00:00.000000,0.23101320,0.53252473,61.45599744,48,111,12916,17,48,7323,0.08105304,0.23243261,34.84382713,0.62150512,0.97948916,1.91926635
28101,0,USMississippiNewton,Mississippi,Newton,2020-07-18 09:56:11.442192,2020-04-12 00:00:00.000000,0.25408242,0.59083911,64.68971371,53,124,13596,19,53,8363,0.09420025,0.25445256,39.78985778,0.62761949,0.96443007,1.97002716
28101,0,USMississippiNewton,Mississippi,Newton,2020-07-18 09:56:11.442192,2020-04-13 00:00:00.000000,0.27549749,0.65942621,67.43733736,57,138,14173,21,58,9471,0.10196955,0.27618951,45.06428165,0.62337284,0.96362099,1.95949302
28101,0,USMississippiNewton,Mississippi,Newton,2020-07-18 09:56:11.442192,2020-04-14 00:00:00.000000,0.29685974,0.73119904,74.07535308,62,153,15569,22,63,10390,0.10930375,0.30309652,49.43449477,0.62284547,0.97456808,1.87879860
28101,0,USMississippiNewton,Mississippi,Newton,2020-07-18 09:56:11.442192,2020-04-15 00:00:00.000000,0.32205514,0.81084125,80.11140244,67,170,16837,24,71,11478,0.11864477,0.34039685,54.61310120,0.62211472,0.97826419,1.79786859
28101,0,USMississippiNewton,Mississippi,Newton,2020-07-18 09:56:11.442192,2020-04-16 00:00:00.000000,0.34340575,0.90220014,83.42603946,72,189,17534,27,78,12931,0.12949722,0.37524127,61.52719723,0.61927228,0.96019980,1.81205517
28101,0,USMississippiNewton,Mississippi,Newton,2020-07-18 09:56:11.442192,2020-04-17 00:00:00.000000,0.36658160,0.99624725,88.32516285,77,209,18564,29,86,13962,0.14208922,0.40976069,66.43027981,0.60638954,0.95663565,1.81434917
28101,0,USMississippiNewton,Mississippi,Newton,2020-07-18 09:56:11.442192,2020-04-18 00:00:00.000000,0.39477154,1.07991300,90.97127906,82,226,19120,32,93,14808,0.15637885,0.44685149,70.45634493,0.60423825,0.93995154,1.87537501
28101,0,USMississippiNewton,Mississippi,Newton,2020-07-18 09:56:11.442192,2020-04-19 00:00:00.000000,0.42626392,1.16636148,92.01424358,89,245,19339,36,101,15479,0.17208126,0.48432702,73.64980147,0.59519848,0.94022167,1.80461126
28101,0,USMississippiNewton,Mississippi,Newton,2020-07-18 09:56:11.442192,2020-04-20 00:00:00.000000,0.46039766,1.25272890,94.23897561,96,263,19807,39,109,16412,0.18927198,0.52093999,78.08558873,0.58640007,0.93016894,1.61154966
28101,0,USMississippiNewton,Mississippi,Newton,2020-07-18 09:56:11.442192,2020-04-21 00:00:00.000000,0.48600586,1.34722072,96.04606938,102,283,20186,42,117,17237,0.20207687,0.55962261,82.01290548,0.58459031,0.92702490,1.61864631
28101,0,USMississippiNewton,Mississippi,Newton,2020-07-18 09:56:11.442192,2020-04-22 00:00:00.000000,0.51695393,1.45917247,96.64019376,108,306,20311,47,126,17816,0.22378161,0.60209578,84.76762650,0.57829538,0.92986601,1.59433183
28101,0,USMississippiNewton,Mississippi,Newton,2020-07-18 09:56:11.442192,2020-04-23 00:00:00.000000,0.55868422,1.55493711,96.71908391,117,326,20328,51,136,18206,0.24548560,0.64745657,86.62467932,0.55675860,0.91361392,1.56534373
28101,0,USMississippiNewton,Mississippi,Newton,2020-07-18 09:56:11.442192,2020-04-24 00:00:00.000000,0.59849581,1.65601244,97.03653362,125,348,20395,55,144,18528,0.26560022,0.68643115,88.15667347,0.54520306,0.89263786,1.58326219
28101,0,USMississippiNewton,Mississippi,Newton,2020-07-18 09:56:11.442192,2020-04-25 00:00:00.000000,0.63741089,1.74622250,97.39203147,133,367,20469,59,152,18884,0.28443773,0.72575590,89.84689306,0.52194965,0.85891181,1.57012548
28101,0,USMississippiNewton,Mississippi,Newton,2020-07-18 09:56:11.442192,2020-04-26 00:00:00.000000,0.67538586,1.85758195,97.42056558,141,390,20475,63,161,18963,0.30365401,0.76895972,90.22555371,0.48032156,0.83686030,1.50294436
28101,0,USMississippiNewton,Mississippi,Newton,2020-07-18 09:56:11.442192,2020-04-27 00:00:00.000000,0.71307966,1.90958245,97.24275650,149,401,20438,67,169,19128,0.32195852,0.80556719,91.01199138,0.45734111,0.83225475,1.49701361
28101,0,USMississippiNewton,Mississippi,Newton,2020-07-18 09:56:11.442192,2020-04-28 00:00:00.000000,0.75100157,2.00410972,97.03177659,157,421,20394,70,179,19243,0.33682500,0.85227258,91.55886229,0.45602251,0.81104056,1.51018579
28101,0,USMississippiNewton,Mississippi,Newton,2020-07-18 09:56:11.442192,2020-04-29 00:00:00.000000,0.78062404,2.10247662,96.80363170,164,441,20346,74,186,19326,0.35584358,0.88820725,91.95185094,0.45549155,0.79568184,1.55869104
28101,0,USMississippiNewton,Mississippi,Newton,2020-07-18 09:56:11.442192,2020-04-30 00:00:00.000000,0.80681213,2.15658651,96.56570604,169,453,20296,78,194,19383,0.37155846,0.92415495,92.22109759,0.45462004,0.77747687,1.58943435
28101,0,USMississippiNewton,Mississippi,Newton,2020-07-18 09:56:11.442192,2020-05-01 00:00:00.000000,0.83420128,2.17535068,96.32186274,175,457,20244,81,202,19418,0.38616708,0.96161517,92.38895772,0.45355331,0.77496845,1.59170296
28101,0,USMississippiNewton,Mississippi,Newton,2020-07-18 09:56:11.442192,2020-05-02 00:00:00.000000,0.85772487,2.19445133,96.07543902,180,461,20193,83,209,19398,0.39921301,0.99445963,92.29580213,0.45314709,0.77061104,1.59379075
28101,0,USMississippiNewton,Mississippi,Newton,2020-07-18 09:56:11.442192,2020-05-03 00:00:00.000000,0.87996018,2.26051087,95.82803384,184,475,20141,86,213,19344,0.41029249,1.01579186,92.03949870,0.45214163,0.76659041,1.58951040
28101,0,USMississippiNewton,Mississippi,Newton,2020-07-18 09:56:11.442192,2020-05-04 00:00:00.000000,0.90250577,2.26198398,95.58033902,189,475,20089,88,218,19283,0.41977819,1.04010183,91.74703005,0.43052684,0.76587394,1.58819373
28101,0,USMississippiNewton,Mississippi,Newton,2020-07-18 09:56:11.442192,2020-05-05 00:00:00.000000,0.92772660,2.27634637,95.33269224,194,478,20037,89,225,19350,0.42769975,1.07099398,92.06839825,0.41081720,0.72427987,1.58673747
28101,0,USMississippiNewton,Mississippi,Newton,2020-07-18 09:56:11.442192,2020-05-06 00:00:00.000000,0.96176187,2.31550831,95.08528334,202,486,19985,91,235,19411,0.43419056,1.11868601,92.35695770,0.41123139,0.70920866,1.58574919
28101,0,USMississippiNewton,Mississippi,Newton,2020-07-18 09:56:11.442192,2020-05-07 00:00:00.000000,0.99702038,2.32324187,94.83823123,209,488,19933,92,243,19450,0.43970826,1.16078437,92.54103616,0.41895303,0.69656424,1.58414762
28101,0,USMississippiNewton,Mississippi,Newton,2020-07-18 09:56:11.442192,2020-05-08 00:00:00.000000,1.02735513,2.34344135,94.59161575,215,492,19881,93,248,19501,0.44460183,1.18107035,92.78675491,0.43051866,0.68406325,1.58049412
28101,0,USMississippiNewton,Mississippi,Newton,2020-07-18 09:56:11.442192,2020-05-09 00:00:00.000000,1.04127158,2.37274191,94.34549304,218,498,19829,94,250,19529,0.45093927,1.19096900,92.91941477,0.42505593,0.69014645,1.57293405
28101,0,USMississippiNewton,Mississippi,Newton,2020-07-18 09:56:11.442192,2020-05-10 00:00:00.000000,1.05202525,2.36725506,94.09990381,221,497,19777,94,251,19546,0.45158346,1.19715954,92.99929493,0.42695021,0.68537080,1.56990076
28101,0,USMississippiNewton,Mississippi,Newton,2020-07-18 09:56:11.442192,2020-05-11 00:00:00.000000,1.07923719,2.37357019,93.85487828,226,498,19726,95,250,19549,0.45599980,1.19243209,93.01143784,0.41900589,0.68322593,1.55523169
28101,0,USMississippiNewton,Mississippi,Newton,2020-07-18 09:56:11.442192,2020-05-12 00:00:00.000000,1.10523269,2.36257732,93.61043889,232,496,19675,97,252,19539,0.46296387,1.20061876,92.96705766,0.40532052,0.67263589,1.52384268
28101,0,USMississippiNewton,Mississippi,Newton,2020-07-18 09:56:11.442192,2020-05-13 00:00:00.000000,1.10027127,2.40382733,93.36660259,231,505,19623,98,252,19524,0.47065212,1.20287171,92.89396554,0.39510739,0.66592692,1.48772030
28101,0,USMississippiNewton,Mississippi,Newton,2020-07-18 09:56:11.442192,2020-05-14 00:00:00.000000,1.07710696,2.44651313,93.12338229,226,514,19572,101,253,19502,0.48064766,1.20747555,92.78856055,0.39099375,0.65698180,1.50405579
28101,0,USMississippiNewton,Mississippi,Newton,2020-07-18 09:56:11.442192,2020-05-15 00:00:00.000000,1.05451966,2.45665721,92.88078783,221,516,19521,100,251,19454,0.47940873,1.19736585,92.56151294,0.39084738,0.65715646,1.51539779
28101,0,USMississippiNewton,Mississippi,Newton,2020-07-18 09:56:11.442192,2020-05-16 00:00:00.000000,1.03357469,2.44210515,92.63882671,217,513,19470,100,250,19406,0.47758487,1.19093109,92.33258413,0.38955228,0.65152071,1.53290167
28101,0,USMississippiNewton,Mississippi,Newton,2020-07-18 09:56:11.442192,2020-05-17 00:00:00.000000,1.02545389,2.40745006,92.39750454,215,505,19420,100,245,19358,0.47618046,1.16910448,92.10223717,0.38688310,0.64803682,1.54180117
28101,0,USMississippiNewton,Mississippi,Newton,2020-07-18 09:56:11.442192,2020-05-18 00:00:00.000000,1.02003731,2.37271704,92.15682553,214,498,19369,99,241,19309,0.47508958,1.14691765,91.87084187,0.37764258,0.64350158,1.49766601
28101,0,USMississippiNewton,Mississippi,Newton,2020-07-18 09:56:11.442192,2020-05-19 00:00:00.000000,1.00836475,2.37364146,91.91679274,211,498,19319,98,238,19260,0.46692246,1.13668214,91.63869559,0.36587226,0.63621879,1.48616246
28101,0,USMississippiNewton,Mississippi,Newton,2020-07-18 09:56:11.442192,2020-05-20 00:00:00.000000,0.98017915,2.31485987,91.67740830,206,486,19268,96,237,19211,0.45739001,1.13081909,91.40603893,0.35657714,0.63229921,1.51798780
28101,0,USMississippiNewton,Mississippi,Newton,2020-07-18 09:56:11.442192,2020-05-21 00:00:00.000000,0.94998654,2.28268383,91.43867363,199,479,19218,94,230,19162,0.44768088,1.09881612,91.17306763,0.35029401,0.63374687,1.53900151
28101,0,USMississippiNewton,Mississippi,Newton,2020-07-18 09:56:11.442192,2020-05-22 00:00:00.000000,0.93402000,2.24844927,91.20058954,196,472,19168,92,227,19113,0.43987246,1.08137474,90.93994175,0.34610257,0.61768572,1.54270292
28101,0,USMississippiNewton,Mississippi,Newton,2020-07-18 09:56:11.442192,2020-05-23 00:00:00.000000,0.91382924,2.19804525,90.96315639,192,461,19118,89,222,19064,0.42508596,1.06088172,90.70679274,0.34395907,0.61325705,1.55697085
28101,0,USMississippiNewton,Mississippi,Newton,2020-07-18 09:56:11.442192,2020-05-24 00:00:00.000000,0.88241255,2.15112768,90.72637411,185,452,19068,86,221,19015,0.41123037,1.05295601,90.47372899,0.32751064,0.60329080,1.56785820
28101,0,USMississippiNewton,Mississippi,Newton,2020-07-18 09:56:11.442192,2020-05-25 00:00:00.000000,0.84795229,2.08694657,90.49024234,178,438,19019,84,215,18966,0.40081010,1.02537870,90.24084014,0.31708693,0.59853486,1.57419827
28101,0,USMississippiNewton,Mississippi,Newton,2020-07-18 09:56:11.442192,2020-05-26 00:00:00.000000,0.82076232,1.98362581,90.25476043,172,416,18969,82,208,18917,0.39479575,0.99344788,90.00820054,0.30234873,0.57952254,1.58208708
28101,0,USMississippiNewton,Mississippi,Newton,2020-07-18 09:56:11.442192,2020-05-27 00:00:00.000000,0.78980170,1.93818884,90.01992753,166,407,18920,81,203,18869,0.38869856,0.96704149,89.77587195,0.29558829,0.58207860,1.60628149
28101,0,USMississippiNewton,Mississippi,Newton,2020-07-18 09:56:11.442192,2020-05-28 00:00:00.000000,0.76028986,1.84904520,89.78574260,159,388,18871,76,200,18820,0.36530040,0.95221910,89.54390580,0.28999041,0.56969490,1.62470353
28101,0,USMississippiNewton,Mississippi,Newton,2020-07-18 09:56:11.442192,2020-05-29 00:00:00.000000,0.71601200,1.73893473,89.55220446,150,365,18822,72,194,18771,0.34337525,0.92744624,89.31234490,0.29557951,0.56425861,1.63939130
28101,0,USMississippiNewton,Mississippi,Newton,2020-07-18 09:56:11.442192,2020-05-30 00:00:00.000000,0.68262862,1.66797954,89.31931178,143,350,18773,68,188,18723,0.32665056,0.89724686,89.08122496,0.29130078,0.54129418,1.60590422
28101,0,USMississippiNewton,Mississippi,Newton,2020-07-18 09:56:11.442192,2020-05-31 00:00:00.000000,0.66783754,1.61139440,89.08706317,140,338,18724,65,182,18674,0.30995171,0.86776694,88.85057574,0.28449529,0.52977849,1.60652702
28101,0,USMississippiNewton,Mississippi,Newton,2020-07-18 09:56:11.442192,2020-06-01 00:00:00.000000,0.65172596,1.57884027,88.85545710,136,331,18675,61,173,18626,0.29229416,0.82512475,88.62042202,0.28243124,0.53179609,1.64308670
28101,0,USMississippiNewton,Mississippi,Newton,2020-07-18 09:56:11.442192,2020-06-02 00:00:00.000000,0.62152257,1.50443023,88.62449202,130,316,18627,58,164,18577,0.27623776,0.78337160,88.39078442,0.28112073,0.52438945,1.64572806
28101,0,USMississippiNewton,Mississippi,Newton,2020-07-18 09:56:11.442192,2020-06-03 00:00:00.000000,0.59155394,1.45153727,88.39416629,124,305,18578,55,158,18529,0.26511383,0.75192227,88.16168006,0.26640563,0.52349871,1.65764097
28101,0,USMississippiNewton,Mississippi,Newton,2020-07-18 09:56:11.442192,2020-06-04 00:00:00.000000,0.56155163,1.36627835,88.16447824,118,287,18530,53,149,18481,0.25588399,0.70941963,87.93312312,0.26693236,0.51012848,1.67844898
28101,0,USMississippiNewton,Mississippi,Newton,2020-07-18 09:56:11.442192,2020-06-05 00:00:00.000000,0.53112715,1.30601303,87.93542613,111,274,18482,50,141,18433,0.23926001,0.67267732,87.70512531,0.26329730,0.50075584,1.71613751
28101,0,USMississippiNewton,Mississippi,Newton,2020-07-18 09:56:11.442192,2020-06-06 00:00:00.000000,0.50022603,1.24650570,87.70700822,105,261,18434,48,134,18386,0.23061914,0.64168013,87.47769624,0.27401407,0.49988738,1.77988303
28101,0,USMississippiNewton,Mississippi,Newton,2020-07-18 09:56:11.442192,2020-06-07 00:00:00.000000,0.46931339,1.18890272,87.47922273,98,249,18386,45,127,18338,0.21560885,0.60652980,87.25084377,0.27127821,0.49803059,1.90854599
28101,0,USMississippiNewton,Mississippi,Newton,2020-07-18 09:56:11.442192,2020-06-08 00:00:00.000000,0.44337864,1.12652708,87.25206786,93,236,18338,42,120,18290,0.20108342,0.57104929,87.02457426,0.27836489,0.50121820,1.88783133
28101,0,USMississippiNewton,Mississippi,Newton,2020-07-18 09:56:11.442192,2020-06-09 00:00:00.000000,0.41015786,1.06438733,87.02554179,86,223,18291,38,113,18243,0.18509723,0.53857782,86.79889281,0.27716817,0.50640857,1.82574987
28101,0,USMississippiNewton,Mississippi,Newton,2020-07-18 09:56:11.442192,2020-06-10 00:00:00.000000,0.38059199,0.99799421,86.79964269,79,209,18243,35,105,18196,0.17009756,0.49963183,86.57380347,0.27709574,0.50524425,1.81446394
28101,0,USMississippiNewton,Mississippi,Newton,2020-07-18 09:56:11.442192,2020-06-11 00:00:00.000000,0.35344726,0.92999182,86.57436871,74,195,18196,33,99,18148,0.15926513,0.47496300,86.34930938,0.27784908,0.50380080,1.81713791
28101,0,USMississippiNewton,Mississippi,Newton,2020-07-18 09:56:11.442192,2020-06-12 00:00:00.000000,0.32894413,0.85755049,86.34971801,69,180,18148,31,95,18101,0.14914217,0.45273402,86.12541291,0.28814386,0.50099439,1.82014414
28101,0,USMississippiNewton,Mississippi,Newton,2020-07-18 09:56:11.442192,2020-06-13 00:00:00.000000,0.30723717,0.80647339,86.12568873,64,169,18101,29,89,18054,0.13970844,0.42802141,85.90211580,0.29899225,0.50576061,1.83920377
28101,0,USMississippiNewton,Mississippi,Newton,2020-07-18 09:56:11.442192,2020-06-14 00:00:00.000000,0.29069267,0.76369500,85.90227901,61,160,18054,27,84,18008,0.13123333,0.40014641,85.67941924,0.30498136,0.50832520,1.74515832
28101,0,USMississippiNewton,Mississippi,Newton,2020-07-18 09:56:11.442192,2020-06-15 00:00:00.000000,0.28139173,0.74300358,85.67948700,59,156,18008,26,78,17961,0.12519635,0.37231773,85.45732396,0.30802979,0.52445367,1.67790216
28101,0,USMississippiNewton,Mississippi,Newton,2020-07-18 09:56:11.442192,2020-06-16 00:00:00.000000,0.27690188,0.70909594,85.45731082,58,149,17961,25,74,17914,0.12106415,0.35499369,85.23583029,0.30990339,0.53138836,1.65421468
28101,0,USMississippiNewton,Mississippi,Newton,2020-07-18 09:56:11.442192,2020-06-17 00:00:00.000000,0.27562568,0.67235402,85.23574862,57,141,17914,24,71,17868,0.11703000,0.33826365,85.01493823,0.32057884,0.54080677,1.63556583
28101,0,USMississippiNewton,Mississippi,Newton,2020-07-18 09:56:11.442192,2020-06-18 00:00:00.000000,0.27452877,0.64522056,85.01479854,57,135,17868,23,67,17822,0.11384313,0.32190142,84.79464751,0.32598685,0.55743032,1.64201022
28101,0,USMississippiNewton,Mississippi,Newton,2020-07-18 09:56:11.442192,2020-06-19 00:00:00.000000,0.27192559,0.62478623,84.79445871,57,131,17822,22,64,17775,0.10825472,0.30903013,84.57495762,0.34293317,0.58165684,1.64724133
28101,0,USMississippiNewton,Mississippi,Newton,2020-07-18 09:56:11.442192,2020-06-20 00:00:00.000000,0.26339112,0.61731863,84.57472728,55,129,17775,22,63,17729,0.10801475,0.30235230,84.35586786,0.35693152,0.61309115,1.64109466
28101,0,USMississippiNewton,Mississippi,Newton,2020-07-18 09:56:11.442192,2020-06-21 00:00:00.000000,0.25433765,0.62126335,84.35560241,53,130,17729,21,62,17683,0.10459342,0.29805801,84.13737733,0.37158305,0.64525160,1.67229210
28101,0,USMississippiNewton,Mississippi,Newton,2020-07-18 09:56:11.442192,2020-06-22 00:00:00.000000,0.25037062,0.61984406,84.13708224,52,130,17683,20,62,17638,0.09973666,0.29738223,83.91948502,0.37644188,0.68478560,1.74981854
28101,0,USMississippiNewton,Mississippi,Newton,2020-07-18 09:56:11.442192,2020-06-23 00:00:00.000000,0.24522253,0.62215658,83.91916492,51,130,17638,21,62,17592,0.10219103,0.29971713,83.70218980,0.37683463,0.71221340,1.79564974
28101,0,USMississippiNewton,Mississippi,Newton,2020-07-18 09:56:11.442192,2020-06-24 00:00:00.000000,0.24352394,0.62173090,83.70184862,51,130,17592,22,62,17546,0.10695934,0.29715944,83.48549041,0.37712643,0.75632789,1.84952177
28101,0,USMississippiNewton,Mississippi,Newton,2020-07-18 09:56:11.442192,2020-06-25 00:00:00.000000,0.24393434,0.62213040,83.48513151,51,130,17546,22,62,17501,0.10636934,0.29775693,83.26938553,0.37824717,0.78197063,2.00196386
28101,0,USMississippiNewton,Mississippi,Newton,2020-07-18 09:56:11.442192,2020-06-26 00:00:00.000000,0.24865821,0.62714324,83.26901174,52,131,17501,23,64,17456,0.11331483,0.30755759,83.05387377,0.37769809,0.80894343,2.19921961
28101,0,USMississippiNewton,Mississippi,Newton,2020-07-18 09:56:11.442192,2020-06-27 00:00:00.000000,0.25501714,0.64925532,83.05348750,53,136,17456,23,65,17411,0.11376387,0.31213764,82.83895367,0.37441674,0.82815945,2.36079853
28101,0,USMississippiNewton,Mississippi,Newton,2020-07-18 09:56:11.442192,2020-06-28 00:00:00.000000,0.26290194,0.69711876,82.83855697,55,146,17411,24,67,17366,0.11654304,0.31975786,82.62462373,0.37132364,0.85352378,2.38532862
28101,0,USMississippiNewton,Mississippi,Newton,2020-07-18 09:56:11.442192,2020-06-29 00:00:00.000000,0.27214804,0.72179082,82.62421834,57,151,17365,25,69,17321,0.12331322,0.32830570,82.41088240,0.37719353,0.86544869,2.38395727
28101,0,USMississippiNewton,Mississippi,Newton,2020-07-18 09:56:11.442192,2020-06-30 00:00:00.000000,0.28262534,0.76347741,82.41046979,59,160,17321,27,72,17276,0.13176754,0.34342104,82.19772810,0.38235539,0.87780605,2.26150862
28101,0,USMississippiNewton,Mississippi,Newton,2020-07-18 09:56:11.442192,2020-07-01 00:00:00.000000,0.29293608,0.80178682,82.19730953,61,168,17276,28,77,17231,0.13667766,0.36674115,81.98515922,0.34831708,0.89235289,2.19536250
28101,0,USMississippiNewton,Mississippi,Newton,2020-07-18 09:56:11.442192,2020-07-02 00:00:00.000000,0.30892173,0.84194098,81.98473575,64,176,17231,29,81,17187,0.14205239,0.38925573,81.77317414,0.33430612,0.92652978,2.31764274
28101,0,USMississippiNewton,Mississippi,Newton,2020-07-18 09:56:11.442192,2020-07-03 00:00:00.000000,0.32945304,0.89702579,81.77274668,69,188,17186,31,87,17142,0.14783855,0.41447605,81.56177120,0.33319272,0.93799191,2.32218604
28101,0,USMississippiNewton,Mississippi,Newton,2020-07-18 09:56:11.442192,2020-07-04 00:00:00.000000,0.34970929,0.96303372,81.56134051,73,202,17142,32,91,17098,0.15401716,0.43657291,81.35094875,0.33692215,0.95067294,2.23379390
28101,0,USMississippiNewton,Mississippi,Newton,2020-07-18 09:56:11.442192,2020-07-05 00:00:00.000000,0.36776973,1.02406145,81.35051548,77,215,17098,33,97,17054,0.15842500,0.46517523,81.14070510,0.34172189,0.95495344,2.23540908
28101,0,USMississippiNewton,Mississippi,Newton,2020-07-18 09:56:11.442192,2020-07-06 00:00:00.000000,0.39060360,1.08435780,81.14026981,82,227,17054,33,103,17010,0.16120417,0.49423827,80.93103858,0.34724472,0.96990417,2.23606862
28101,0,USMississippiNewton,Mississippi,Newton,2020-07-18 09:56:11.442192,2020-07-07 00:00:00.000000,0.42045769,1.15216869,80.93060174,88,242,17009,34,109,16966,0.16472361,0.52270352,80.72194750,0.34748261,0.97059720,2.22951333
28101,0,USMississippiNewton,Mississippi,Newton,2020-07-18 09:56:11.442192,2020-07-08 00:00:00.000000,0.44912993,1.22900919,80.72150950,94,258,16966,36,117,16922,0.17519385,0.55696745,80.51343017,0.35579984,0.97707189,2.22649327
28101,0,USMississippiNewton,Mississippi,Newton,2020-07-18 09:56:11.442192,2020-07-09 00:00:00.000000,0.45998339,1.30048473,80.51299134,96,273,16922,39,122,16878,0.18759228,0.58403852,80.30548488,0.36108327,0.97939325,2.22521656
28101,0,USMississippiNewton,Mississippi,Newton,2020-07-18 09:56:11.442192,2020-07-10 00:00:00.000000,0.48753134,1.37910484,80.30504552,102,289,16878,42,127,16835,0.20318880,0.60787914,80.09810993,0.36376207,0.98003406,2.22468189
28101,0,USMississippiNewton,Mississippi,Newton,2020-07-18 09:56:11.442192,2020-07-11 00:00:00.000000,0.51648512,1.45870197,80.09767028,108,306,16834,44,132,16791,0.21383763,0.63234662,79.89130363,0.36556831,0.98022249,2.22445887
28101,0,USMississippiNewton,Mississippi,Newton,2020-07-18 09:56:11.442192,2020-07-12 00:00:00.000000,0.53391096,1.52447184,79.89086390,112,320,16791,45,138,16748,0.21744814,0.65894903,79.68506428,0.36674595,0.98027550,2.22436600
28101,0,USMississippiNewton,Mississippi,Newton,2020-07-18 09:56:11.442192,2020-07-13 00:00:00.000000,0.55363862,1.61684932,79.68462464,116,339,16748,47,146,16704,0.22487137,0.69600271,79.47939019,0.36749668,0.98029039,2.22432736
28101,0,USMississippiNewton,Mississippi,Newton,2020-07-18 09:56:11.442192,2020-07-14 00:00:00.000000,0.57261402,1.68818615,79.47895077,120,354,16704,50,157,16661,0.24108980,0.74882100,79.27427964,0.36796833,0.98029457,2.22431128
28101,0,USMississippiNewton,Mississippi,Newton,2020-07-18 09:56:11.442192,2020-07-15 00:00:00.000000,0.59284061,1.75359137,79.27384059,124,368,16661,54,163,16618,0.25842703,0.77843993,79.06973096,0.36826193,0.98029574,2.22430460
28101,0,USMississippiNewton,Mississippi,Newton,2020-07-18 09:56:11.442192,2020-07-16 00:00:00.000000,0.60231144,1.83950865,79.06929238,126,386,16618,58,168,16576,0.27695135,0.80240191,78.86574245,0.36844366,0.98029607,2.22430182
28101,0,USMississippiNewton,Mississippi,Newton,2020-07-18 09:56:11.442192,2020-07-17 00:00:00.000000,0.61770559,1.96567429,78.86530442,129,413,16575,59,176,16533,0.28374981,0.84018590,78.66231243,0.36855576,0.98029617,2.22430066
28101,0,USMississippiNewton,Mississippi,Newton,2020-07-18 09:56:11.442192,2020-07-18 00:00:00.000000,0.63337078,2.05802797,78.66187503,133,432,16533,61,187,16490,0.29239198,0.89405130,78.45943921,0.36862477,0.98029619,2.22430018
28101,0,USMississippiNewton,Mississippi,Newton,2020-07-18 09:56:11.442192,2020-07-19 00:00:00.000000,0.64930310,2.16790676,78.45900250,136,455,16490,64,192,16448,0.30501795,0.91716557,78.25712111,0.36866719,0.98029620,2.22429998
28101,0,USMississippiNewton,Mississippi,Newton,2020-07-18 09:56:11.442192,2020-07-20 00:00:00.000000,0.66549797,2.25931868,78.25668516,139,474,16447,64,205,16405,0.30529973,0.97917518,78.05535646,0.36869326,0.98029620,2.22429989
28101,0,USMississippiNewton,Mississippi,Newton,2020-07-18 09:56:11.442192,2020-07-21 00:00:00.000000,0.68195009,2.39029623,78.05492130,143,502,16405,64,215,16363,0.30554167,1.02535493,77.85414359,0.36870926,0.98029620,2.22429986
28101,0,USMississippiNewton,Mississippi,Newton,2020-07-18 09:56:11.442192,2020-07-22 00:00:00.000000,0.69865342,2.54967092,77.85370927,146,535,16363,64,227,16321,0.30574406,1.08142524,77.65348084,0.36871909,0.98029620,2.22429985
28101,0,USMississippiNewton,Mississippi,Newton,2020-07-18 09:56:11.442192,2020-07-23 00:00:00.000000,0.71560117,2.62515189,77.65304738,150,551,16321,64,243,16279,0.30590632,1.15864178,77.45336654,0.36872512,0.98029620,2.22429984
28101,0,USMississippiNewton,Mississippi,Newton,2020-07-18 09:56:11.442192,2020-07-24 00:00:00.000000,0.71400079,2.65808435,77.45293397,150,558,16279,64,250,16237,0.30602877,1.19318224,77.25379904,0.36872883,0.98029620,2.22429984
28101,0,USMississippiNewton,Mississippi,Newton,2020-07-18 09:56:11.442192,2020-07-25 00:00:00.000000,0.70461600,2.77550027,77.25336739,148,583,16237,64,258,16195,0.30611136,1.22865346,77.05477670,0.36873110,0.98029620,2.22429984
28101,0,USMississippiNewton,Mississippi,Newton,2020-07-18 09:56:11.442192,2020-07-26 00:00:00.000000,0.69511863,2.86024508,77.05434597,146,601,16195,64,270,16153,0.30615443,1.28774269,76.85629785,0.36873250,0.98029620,2.22429984
28101,0,USMississippiNewton,Mississippi,Newton,2020-07-18 09:56:11.442192,2020-07-27 00:00:00.000000,0.68552017,2.93121954,76.85586808,144,616,16153,64,283,16112,0.30623298,1.34783530,76.65836088,0.36873335,0.98029620,2.22429984
28101,0,USMississippiNewton,Mississippi,Newton,2020-07-18 09:56:11.442192,2020-07-28 00:00:00.000000,0.67583271,3.05744081,76.65793207,142,642,16111,64,296,16070,0.30677117,1.40872091,76.46096414,0.36873388,0.98029620,2.22429984
28101,0,USMississippiNewton,Mississippi,Newton,2020-07-18 09:56:11.442192,2020-07-29 00:00:00.000000,0.66606866,3.16203934,76.46053629,139,664,16070,64,310,16029,0.30726981,1.47791395,76.26410600,0.36873420,0.98029620,2.22429984
28101,0,USMississippiNewton,Mississippi,Newton,2020-07-18 09:56:11.442192,2020-07-30 00:00:00.000000,0.66006870,3.19835032,76.26367913,138,672,16029,64,328,15987,0.30772862,1.56316690,76.06778484,0.36873440,0.98029620,2.22429984
