FIPS,HR_UID,nameid,province,region,analysisTime,dates,pointprevalence_025,pointprevalence_50,pointprevalence_975,pointinfections_025,pointinfections_50,pointinfections_975,pointinfectious_025,pointinfectious_50,pointinfectious_975,pointinfectiousprevalence_05,pointinfectiousprevalence_50,pointinfectiousprevalence_95,infectrate_025,infectrate_50,infectrate_975
22051,0,USLouisianaJefferson,Louisiana,Jefferson,2020-07-18 14:04:14.490583,2020-03-09 00:00:00.000000,0.01869229,0.04922893,0.11365472,80,212,491,19,76,219,0.00439473,0.01769820,0.05086604,0.74702972,1.01514818,1.39863426
22051,0,USLouisianaJefferson,Louisiana,Jefferson,2020-07-18 14:04:14.490583,2020-03-10 00:00:00.000000,0.02098294,0.04935117,0.11660275,90,213,504,49,122,292,0.01152218,0.02841815,0.06762276,0.74702605,1.01514817,1.39863291
22051,0,USLouisianaJefferson,Louisiana,Jefferson,2020-07-18 14:04:14.490583,2020-03-11 00:00:00.000000,0.02605578,0.05775129,0.12418231,112,249,537,51,125,315,0.01179471,0.02892685,0.07283664,0.74701850,1.01514815,1.39864038
22051,0,USLouisianaJefferson,Louisiana,Jefferson,2020-07-18 14:04:14.490583,2020-03-12 00:00:00.000000,0.02939784,0.06412632,0.14303424,127,277,618,69,155,355,0.01605453,0.03588090,0.08221137,0.74700300,1.01514812,1.39867123
22051,0,USLouisianaJefferson,Louisiana,Jefferson,2020-07-18 14:04:14.490583,2020-03-13 00:00:00.000000,0.03391978,0.07332311,0.16408981,146,317,709,76,170,392,0.01763088,0.03934887,0.09073839,0.74697121,1.01518308,1.39875866
22051,0,USLouisianaJefferson,Louisiana,Jefferson,2020-07-18 14:04:14.490583,2020-03-14 00:00:00.000000,0.04188339,0.08279506,0.18885277,181,358,816,97,199,445,0.02250947,0.04622603,0.10301589,0.74690661,1.01852288,1.39897618
22051,0,USLouisianaJefferson,Louisiana,Jefferson,2020-07-18 14:04:14.490583,2020-03-15 00:00:00.000000,0.04959397,0.09653026,0.21729111,214,417,939,113,225,505,0.02615185,0.05212547,0.11688309,0.74678063,1.02189087,1.39948170
22051,0,USLouisianaJefferson,Louisiana,Jefferson,2020-07-18 14:04:14.490583,2020-03-16 00:00:00.000000,0.05559811,0.11163809,0.25028850,240,482,1082,122,267,576,0.02829005,0.06186240,0.13323925,0.74659271,1.02901938,1.39898692
22051,0,USLouisianaJefferson,Louisiana,Jefferson,2020-07-18 14:04:14.490583,2020-03-17 00:00:00.000000,0.05997828,0.13238599,0.29197165,259,572,1262,136,308,667,0.03159527,0.07124442,0.15425409,0.75375294,1.02978848,1.39863124
22051,0,USLouisianaJefferson,Louisiana,Jefferson,2020-07-18 14:04:14.490583,2020-03-18 00:00:00.000000,0.06920568,0.15309007,0.34577771,299,662,1495,152,364,790,0.03517150,0.08437292,0.18276402,0.78159755,1.04708074,1.41434960
22051,0,USLouisianaJefferson,Louisiana,Jefferson,2020-07-18 14:04:14.490583,2020-03-19 00:00:00.000000,0.08175262,0.18509512,0.40935207,353,800,1770,166,426,936,0.03846077,0.09855494,0.21647628,0.84131628,1.05762155,1.41817411
22051,0,USLouisianaJefferson,Louisiana,Jefferson,2020-07-18 14:04:14.490583,2020-03-20 00:00:00.000000,0.09974011,0.21883491,0.48436068,431,946,2094,210,502,1108,0.04867280,0.11614538,0.25631574,0.87797664,1.07951926,1.44506555
22051,0,USLouisianaJefferson,Louisiana,Jefferson,2020-07-18 14:04:14.490583,2020-03-21 00:00:00.000000,0.12883197,0.26151746,0.57358730,557,1131,2480,258,599,1327,0.05977044,0.13856243,0.30691782,0.88624712,1.10897988,1.47297379
22051,0,USLouisianaJefferson,Louisiana,Jefferson,2020-07-18 14:04:14.490583,2020-03-22 00:00:00.000000,0.14434356,0.31088527,0.67814386,624,1344,2932,311,716,1590,0.07209535,0.16577529,0.36779890,0.88938878,1.12757839,1.52985107
22051,0,USLouisianaJefferson,Louisiana,Jefferson,2020-07-18 14:04:14.490583,2020-03-23 00:00:00.000000,0.17438722,0.36763299,0.79737219,754,1589,3448,335,854,1904,0.07745884,0.19760868,0.44027915,0.89557557,1.15385419,1.60687376
22051,0,USLouisianaJefferson,Louisiana,Jefferson,2020-07-18 14:04:14.490583,2020-03-24 00:00:00.000000,0.19660905,0.44562481,0.93892531,850,1927,4060,458,1052,2290,0.10599633,0.24332071,0.52950588,0.88657970,1.18159606,1.62914611
22051,0,USLouisianaJefferson,Louisiana,Jefferson,2020-07-18 14:04:14.490583,2020-03-25 00:00:00.000000,0.24901397,0.53573833,1.11959579,1076,2317,4842,457,1273,2741,0.10585452,0.29456769,0.63378063,0.86375743,1.18900394,1.64145798
22051,0,USLouisianaJefferson,Louisiana,Jefferson,2020-07-18 14:04:14.490583,2020-03-26 00:00:00.000000,0.26332276,0.64577330,1.35286853,1138,2792,5851,623,1547,3387,0.14409029,0.35780645,0.78318618,0.83896624,1.18931699,1.64680064
22051,0,USLouisianaJefferson,Louisiana,Jefferson,2020-07-18 14:04:14.490583,2020-03-27 00:00:00.000000,0.34146767,0.77550354,1.60976977,1476,3353,6962,602,1839,4226,0.13925588,0.42523113,0.97726282,0.80412668,1.19069271,1.63938260
22051,0,USLouisianaJefferson,Louisiana,Jefferson,2020-07-18 14:04:14.490583,2020-03-28 00:00:00.000000,0.36214622,0.92018365,1.93483434,1566,3979,8368,854,2219,5125,0.19746902,0.51329974,1.18505692,0.77418285,1.19682268,1.61660787
22051,0,USLouisianaJefferson,Louisiana,Jefferson,2020-07-18 14:04:14.490583,2020-03-29 00:00:00.000000,0.47814598,1.12020604,2.34538577,2067,4844,10143,833,2609,6043,0.19263494,0.60344240,1.39739656,0.73647688,1.15524866,1.59370703
22051,0,USLouisianaJefferson,Louisiana,Jefferson,2020-07-18 14:04:14.490583,2020-03-30 00:00:00.000000,0.51702105,1.32148158,2.75979776,2236,5715,11935,1215,3139,7224,0.28099334,0.72582094,1.67034627,0.71063320,1.13301003,1.53877704
22051,0,USLouisianaJefferson,Louisiana,Jefferson,2020-07-18 14:04:14.490583,2020-03-31 00:00:00.000000,0.66923748,1.58301390,3.19605137,2894,6846,13822,1189,3714,8338,0.27500331,0.85891479,1.92811798,0.64380667,1.08387632,1.48541502
22051,0,USLouisianaJefferson,Louisiana,Jefferson,2020-07-18 14:04:14.490583,2020-04-01 00:00:00.000000,0.74072405,1.81342611,3.63036802,3203,7842,15701,1724,4472,9509,0.39883435,1.03422827,2.19886347,0.60729913,1.02311485,1.48163315
22051,0,USLouisianaJefferson,Louisiana,Jefferson,2020-07-18 14:04:14.490583,2020-04-02 00:00:00.000000,0.91133647,2.01331583,4.00488670,3941,8707,17320,1702,5074,10718,0.39372353,1.17321699,2.47820220,0.55582094,0.95799294,1.46165527
22051,0,USLouisianaJefferson,Louisiana,Jefferson,2020-07-18 14:04:14.490583,2020-04-03 00:00:00.000000,1.00845860,2.17786170,4.29676836,4361,9419,18583,2399,5810,11569,0.55491847,1.34346272,2.67514602,0.48482866,0.87832673,1.44782444
22051,0,USLouisianaJefferson,Louisiana,Jefferson,2020-07-18 14:04:14.490583,2020-04-04 00:00:00.000000,1.18213381,2.35443797,4.49987302,5112,10182,19461,2414,6054,12304,0.55820791,1.39981527,2.84502217,0.43774739,0.80268599,1.37795261
22051,0,USLouisianaJefferson,Louisiana,Jefferson,2020-07-18 14:04:14.490583,2020-04-05 00:00:00.000000,1.22789953,2.41326782,4.63070174,5310,10437,20027,3029,6448,12726,0.70037061,1.49098066,2.94269044,0.39129129,0.69854709,1.26463650
22051,0,USLouisianaJefferson,Louisiana,Jefferson,2020-07-18 14:04:14.490583,2020-04-06 00:00:00.000000,1.27038441,2.42438034,4.66261569,5494,10485,20165,2976,6475,13154,0.68828708,1.49715726,3.04157343,0.32964837,0.59523889,1.04490610
22051,0,USLouisianaJefferson,Louisiana,Jefferson,2020-07-18 14:04:14.490583,2020-04-07 00:00:00.000000,1.23950259,2.34278376,4.54259555,5360,10132,19646,2955,6608,13088,0.68330484,1.52797448,3.02632380,0.28943304,0.53367819,0.90023741
22051,0,USLouisianaJefferson,Louisiana,Jefferson,2020-07-18 14:04:14.490583,2020-04-08 00:00:00.000000,1.16959548,2.23741362,4.19611447,5058,9676,18147,2758,6155,12818,0.63771477,1.42328187,2.96380654,0.26531653,0.47103249,0.82146340
22051,0,USLouisianaJefferson,Louisiana,Jefferson,2020-07-18 14:04:14.490583,2020-04-09 00:00:00.000000,1.03641480,2.06300947,3.93323804,4482,8922,17010,2511,6130,12568,0.58072280,1.41748414,2.90616614,0.25889549,0.42112036,0.72926937
22051,0,USLouisianaJefferson,Louisiana,Jefferson,2020-07-18 14:04:14.490583,2020-04-10 00:00:00.000000,0.94661179,1.87615153,3.74456906,4094,8114,16194,2245,5377,11779,0.51929831,1.24335148,2.72373161,0.25216974,0.39444048,0.68599739
22051,0,USLouisianaJefferson,Louisiana,Jefferson,2020-07-18 14:04:14.490583,2020-04-11 00:00:00.000000,0.84328790,1.69242695,3.45855806,3647,7319,14958,2008,4957,10933,0.46447054,1.14633448,2.52807535,0.24978765,0.37475109,0.65845697
22051,0,USLouisianaJefferson,Louisiana,Jefferson,2020-07-18 14:04:14.490583,2020-04-12 00:00:00.000000,0.74272662,1.52528630,3.17763932,3212,6596,13743,1767,4238,10096,0.40871096,0.98000438,2.33453781,0.24648169,0.37087463,0.65112340
22051,0,USLouisianaJefferson,Louisiana,Jefferson,2020-07-18 14:04:14.490583,2020-04-13 00:00:00.000000,0.65355070,1.35082755,2.90071871,2826,5842,12545,1573,3959,9350,0.36381916,0.91544522,2.16208664,0.24278844,0.37321790,0.65031760
22051,0,USLouisianaJefferson,Louisiana,Jefferson,2020-07-18 14:04:14.490583,2020-04-14 00:00:00.000000,0.57761141,1.19443895,2.63695201,2498,5165,11404,1386,3419,8690,0.32067528,0.79064825,2.00928260,0.24293591,0.37047645,0.65249634
22051,0,USLouisianaJefferson,Louisiana,Jefferson,2020-07-18 14:04:14.490583,2020-04-15 00:00:00.000000,0.51476798,1.06547585,2.43658602,2226,4608,10538,1229,3150,8062,0.28438615,0.72837150,1.86426144,0.24123929,0.37273481,0.65702879
22051,0,USLouisianaJefferson,Louisiana,Jefferson,2020-07-18 14:04:14.490583,2020-04-16 00:00:00.000000,0.45359313,0.96058203,2.26181371,1961,4154,9782,1061,2769,7443,0.24533339,0.64044892,1.72112659,0.24409118,0.37348833,0.66550205
22051,0,USLouisianaJefferson,Louisiana,Jefferson,2020-07-18 14:04:14.490583,2020-04-17 00:00:00.000000,0.40104545,0.85193925,2.10206312,1734,3684,9091,965,2513,6813,0.22330225,0.58112998,1.57549434,0.24234162,0.38158221,0.68970843
22051,0,USLouisianaJefferson,Louisiana,Jefferson,2020-07-18 14:04:14.490583,2020-04-18 00:00:00.000000,0.36032878,0.76926682,1.93566807,1558,3327,8371,823,2238,6246,0.19044522,0.51747601,1.44426609,0.23105838,0.38423117,0.71868015
22051,0,USLouisianaJefferson,Louisiana,Jefferson,2020-07-18 14:04:14.490583,2020-04-19 00:00:00.000000,0.32340305,0.71081316,1.78376521,1398,3074,7714,770,2053,5726,0.17821177,0.47476552,1.32402628,0.22311469,0.39082638,0.72826642
22051,0,USLouisianaJefferson,Louisiana,Jefferson,2020-07-18 14:04:14.490583,2020-04-20 00:00:00.000000,0.30150182,0.64025993,1.65532352,1303,2769,7159,672,1858,5309,0.15546552,0.42977454,1.22761684,0.22233045,0.40398544,0.74801228
22051,0,USLouisianaJefferson,Louisiana,Jefferson,2020-07-18 14:04:14.490583,2020-04-21 00:00:00.000000,0.27679536,0.59373853,1.54456720,1197,2567,6680,641,1735,4937,0.14825299,0.40127703,1.14158426,0.22379866,0.41925464,0.76344314
22051,0,USLouisianaJefferson,Louisiana,Jefferson,2020-07-18 14:04:14.490583,2020-04-22 00:00:00.000000,0.25897424,0.55710013,1.44697588,1120,2409,6258,573,1585,4625,0.13257604,0.36668265,1.06944584,0.22271147,0.42409557,0.78009206
22051,0,USLouisianaJefferson,Louisiana,Jefferson,2020-07-18 14:04:14.490583,2020-04-23 00:00:00.000000,0.23886746,0.51802115,1.35507318,1033,2240,5860,537,1457,4328,0.12418566,0.33705689,1.00085912,0.22317630,0.43855483,0.82312620
22051,0,USLouisianaJefferson,Louisiana,Jefferson,2020-07-18 14:04:14.490583,2020-04-24 00:00:00.000000,0.22763484,0.48191619,1.25925532,984,2084,5446,508,1354,4032,0.11750437,0.31320134,0.93243086,0.22507077,0.44441013,0.85473403
22051,0,USLouisianaJefferson,Louisiana,Jefferson,2020-07-18 14:04:14.490583,2020-04-25 00:00:00.000000,0.20598077,0.45078002,1.16277072,890,1949,5028,485,1267,3682,0.11236590,0.29315343,0.85135161,0.22845704,0.46967797,0.87444033
22051,0,USLouisianaJefferson,Louisiana,Jefferson,2020-07-18 14:04:14.490583,2020-04-26 00:00:00.000000,0.19537054,0.42511131,1.07534620,844,1838,4650,451,1205,3401,0.10435244,0.27875720,0.78643077,0.23452713,0.48719111,0.87710143
22051,0,USLouisianaJefferson,Louisiana,Jefferson,2020-07-18 14:04:14.490583,2020-04-27 00:00:00.000000,0.17974239,0.39733611,0.99476666,777,1718,4302,444,1133,3120,0.10268633,0.26209780,0.72156456,0.24478126,0.50603042,0.88810724
22051,0,USLouisianaJefferson,Louisiana,Jefferson,2020-07-18 14:04:14.490583,2020-04-28 00:00:00.000000,0.17657662,0.37666943,0.93806180,763,1629,4057,397,1067,2899,0.09193884,0.24685396,0.67052238,0.25671225,0.52046706,0.89735077
22051,0,USLouisianaJefferson,Louisiana,Jefferson,2020-07-18 14:04:14.490583,2020-04-29 00:00:00.000000,0.16596099,0.35791204,0.90431872,717,1547,3911,407,1018,2794,0.09410845,0.23540481,0.64621105,0.26793480,0.53009563,0.91166654
22051,0,USLouisianaJefferson,Louisiana,Jefferson,2020-07-18 14:04:14.490583,2020-04-30 00:00:00.000000,0.16381918,0.34142891,0.87431446,708,1476,3781,365,958,2696,0.08443852,0.22150769,0.62356067,0.27708531,0.54273934,0.93552734
22051,0,USLouisianaJefferson,Louisiana,Jefferson,2020-07-18 14:04:14.490583,2020-05-01 00:00:00.000000,0.15431356,0.32762545,0.84717071,667,1416,3663,378,904,2606,0.08760730,0.20919054,0.60261296,0.28508227,0.55176782,0.96777980
22051,0,USLouisianaJefferson,Louisiana,Jefferson,2020-07-18 14:04:14.490583,2020-05-02 00:00:00.000000,0.16070586,0.31942759,0.82195336,695,1381,3554,353,862,2521,0.08171570,0.19947502,0.58294044,0.29527053,0.56976607,1.00950466
22051,0,USLouisianaJefferson,Louisiana,Jefferson,2020-07-18 14:04:14.490583,2020-05-03 00:00:00.000000,0.14895100,0.30990592,0.79762145,644,1340,3449,373,845,2446,0.08632930,0.19556549,0.56565924,0.29749553,0.58776931,1.03481552
22051,0,USLouisianaJefferson,Louisiana,Jefferson,2020-07-18 14:04:14.490583,2020-05-04 00:00:00.000000,0.15996435,0.30184569,0.77251173,691,1305,3341,350,821,2385,0.08102983,0.18986016,0.55160772,0.30545974,0.60092222,1.04345799
22051,0,USLouisianaJefferson,Louisiana,Jefferson,2020-07-18 14:04:14.490583,2020-05-05 00:00:00.000000,0.15202844,0.30003291,0.75644886,657,1297,3271,365,804,2331,0.08442786,0.18610680,0.53903831,0.32550944,0.60920903,1.03877700
22051,0,USLouisianaJefferson,Louisiana,Jefferson,2020-07-18 14:04:14.490583,2020-05-06 00:00:00.000000,0.15935541,0.29700665,0.73545124,689,1284,3180,342,805,2261,0.07922171,0.18625222,0.52280610,0.35837602,0.62442341,1.01182200
22051,0,USLouisianaJefferson,Louisiana,Jefferson,2020-07-18 14:04:14.490583,2020-05-07 00:00:00.000000,0.15050369,0.29499817,0.71152578,650,1275,3077,360,804,2183,0.08327954,0.18589928,0.50486717,0.36281715,0.62849994,0.98324525
22051,0,USLouisianaJefferson,Louisiana,Jefferson,2020-07-18 14:04:14.490583,2020-05-08 00:00:00.000000,0.16064998,0.29219731,0.68624177,694,1263,2967,331,792,2109,0.07661727,0.18322980,0.48773529,0.36431147,0.64050193,0.97721153
22051,0,USLouisianaJefferson,Louisiana,Jefferson,2020-07-18 14:04:14.490583,2020-05-09 00:00:00.000000,0.14784873,0.29139972,0.65911014,639,1260,2850,361,761,2037,0.08366513,0.17615712,0.47107323,0.36641869,0.64759933,0.97055154
22051,0,USLouisianaJefferson,Louisiana,Jefferson,2020-07-18 14:04:14.490583,2020-05-10 00:00:00.000000,0.15441256,0.28638303,0.64023039,667,1238,2768,320,768,1966,0.07410114,0.17767148,0.45471225,0.37006660,0.65388682,0.97420230
22051,0,USLouisianaJefferson,Louisiana,Jefferson,2020-07-18 14:04:14.490583,2020-05-11 00:00:00.000000,0.14279943,0.28770459,0.63213064,617,1244,2733,357,777,1897,0.08270226,0.17976941,0.43877550,0.37761618,0.65924876,0.97026339
22051,0,USLouisianaJefferson,Louisiana,Jefferson,2020-07-18 14:04:14.490583,2020-05-12 00:00:00.000000,0.14936835,0.29174992,0.63134774,646,1261,2730,310,761,1833,0.07187917,0.17602775,0.42391547,0.38085088,0.65944377,0.99586324
22051,0,USLouisianaJefferson,Louisiana,Jefferson,2020-07-18 14:04:14.490583,2020-05-13 00:00:00.000000,0.13727078,0.28894632,0.62184361,593,1249,2689,341,764,1771,0.07891847,0.17683212,0.40964273,0.38618362,0.65191366,1.05452553
22051,0,USLouisianaJefferson,Louisiana,Jefferson,2020-07-18 14:04:14.490583,2020-05-14 00:00:00.000000,0.14583267,0.28878681,0.60420180,630,1248,2613,300,759,1737,0.06958543,0.17560960,0.40170042,0.39407954,0.64763603,1.06267021
22051,0,USLouisianaJefferson,Louisiana,Jefferson,2020-07-18 14:04:14.490583,2020-05-15 00:00:00.000000,0.13212016,0.28624198,0.58805162,571,1237,2543,326,768,1715,0.07540057,0.17775435,0.39665068,0.40501346,0.64465085,1.04821536
22051,0,USLouisianaJefferson,Louisiana,Jefferson,2020-07-18 14:04:14.490583,2020-05-16 00:00:00.000000,0.13895732,0.28560346,0.58150753,600,1235,2514,292,762,1700,0.06764437,0.17632285,0.39314523,0.41332229,0.64787902,1.06038723
22051,0,USLouisianaJefferson,Louisiana,Jefferson,2020-07-18 14:04:14.490583,2020-05-17 00:00:00.000000,0.12917781,0.28370250,0.58156193,558,1226,2515,309,767,1699,0.07165442,0.17742531,0.39304810,0.41653212,0.65832712,1.07138074
22051,0,USLouisianaJefferson,Louisiana,Jefferson,2020-07-18 14:04:14.490583,2020-05-18 00:00:00.000000,0.13461454,0.28279132,0.58576111,582,1223,2533,278,769,1711,0.06434584,0.17782864,0.39583860,0.41762061,0.66742244,1.06853512
22051,0,USLouisianaJefferson,Louisiana,Jefferson,2020-07-18 14:04:14.490583,2020-05-19 00:00:00.000000,0.12729057,0.28391850,0.59734493,550,1227,2583,276,762,1734,0.06400155,0.17639337,0.40109028,0.41623778,0.66827202,1.05044749
22051,0,USLouisianaJefferson,Louisiana,Jefferson,2020-07-18 14:04:14.490583,2020-05-20 00:00:00.000000,0.12788479,0.28622758,0.61254576,553,1237,2649,267,753,1740,0.06196624,0.17424231,0.40240517,0.41677223,0.66902448,1.03487094
22051,0,USLouisianaJefferson,Louisiana,Jefferson,2020-07-18 14:04:14.490583,2020-05-21 00:00:00.000000,0.12232653,0.27964526,0.62789581,529,1209,2715,264,751,1757,0.06108940,0.17382866,0.40633014,0.41914655,0.66962233,1.04140677
22051,0,USLouisianaJefferson,Louisiana,Jefferson,2020-07-18 14:04:14.490583,2020-05-22 00:00:00.000000,0.11886375,0.28208934,0.63181213,514,1220,2732,257,749,1778,0.05962047,0.17332214,0.41115751,0.42242340,0.66958110,1.04075541
22051,0,USLouisianaJefferson,Louisiana,Jefferson,2020-07-18 14:04:14.490583,2020-05-23 00:00:00.000000,0.11812451,0.27953135,0.63354325,510,1208,2740,255,757,1802,0.05911538,0.17503651,0.41677920,0.42287115,0.66860431,1.06258723
22051,0,USLouisianaJefferson,Louisiana,Jefferson,2020-07-18 14:04:14.490583,2020-05-24 00:00:00.000000,0.12115008,0.28258817,0.63290722,523,1222,2737,264,756,1829,0.06107320,0.17484366,0.42308242,0.42044203,0.66827311,1.05021453
22051,0,USLouisianaJefferson,Louisiana,Jefferson,2020-07-18 14:04:14.490583,2020-05-25 00:00:00.000000,0.12544020,0.28474095,0.62957755,542,1231,2722,272,764,1857,0.06292895,0.17666935,0.42944285,0.42060400,0.66145006,1.05005909
22051,0,USLouisianaJefferson,Louisiana,Jefferson,2020-07-18 14:04:14.490583,2020-05-26 00:00:00.000000,0.13030187,0.28771172,0.63371314,563,1244,2740,282,760,1884,0.06536122,0.17573991,0.43578842,0.42603613,0.66766540,1.06320940
22051,0,USLouisianaJefferson,Louisiana,Jefferson,2020-07-18 14:04:14.490583,2020-05-27 00:00:00.000000,0.13206362,0.28736061,0.63576704,571,1242,2749,297,772,1909,0.06878206,0.17864918,0.44157771,0.42855880,0.66899969,1.06939618
22051,0,USLouisianaJefferson,Louisiana,Jefferson,2020-07-18 14:04:14.490583,2020-05-28 00:00:00.000000,0.13959534,0.28692367,0.63439312,603,1240,2743,304,759,1929,0.07046695,0.17562143,0.44610150,0.43461583,0.67000744,1.07099562
22051,0,USLouisianaJefferson,Louisiana,Jefferson,2020-07-18 14:04:14.490583,2020-05-29 00:00:00.000000,0.13651343,0.28634091,0.63449847,590,1238,2744,320,766,1925,0.07418670,0.17718835,0.44509543,0.44243089,0.67899806,1.06510623
22051,0,USLouisianaJefferson,Louisiana,Jefferson,2020-07-18 14:04:14.490583,2020-05-30 00:00:00.000000,0.14722543,0.28950883,0.63855110,636,1252,2761,316,753,1918,0.07322820,0.17420790,0.44351209,0.44650653,0.67230884,1.04081392
22051,0,USLouisianaJefferson,Louisiana,Jefferson,2020-07-18 14:04:14.490583,2020-05-31 00:00:00.000000,0.14378630,0.28971922,0.64118951,621,1253,2773,336,777,1916,0.07775669,0.17968596,0.44311673,0.44869149,0.66170219,1.01826667
22051,0,USLouisianaJefferson,Louisiana,Jefferson,2020-07-18 14:04:14.490583,2020-06-01 00:00:00.000000,0.15047362,0.28975738,0.64938057,650,1253,2808,322,759,1923,0.07457789,0.17553781,0.44467466,0.45125643,0.66070990,1.02982884
22051,0,USLouisianaJefferson,Louisiana,Jefferson,2020-07-18 14:04:14.490583,2020-06-02 00:00:00.000000,0.14512315,0.28991542,0.66319006,627,1253,2868,343,759,1920,0.07942306,0.17567294,0.44413808,0.45474464,0.65458512,1.00855120
22051,0,USLouisianaJefferson,Louisiana,Jefferson,2020-07-18 14:04:14.490583,2020-06-03 00:00:00.000000,0.14633382,0.28945019,0.66428964,632,1251,2873,317,757,1914,0.07338922,0.17511785,0.44268902,0.45186908,0.65403014,0.99376961
22051,0,USLouisianaJefferson,Louisiana,Jefferson,2020-07-18 14:04:14.490583,2020-06-04 00:00:00.000000,0.14292756,0.28890188,0.66459177,618,1249,2874,332,752,1919,0.07679383,0.17401448,0.44372596,0.45221130,0.65878213,1.03533095
22051,0,USLouisianaJefferson,Louisiana,Jefferson,2020-07-18 14:04:14.490583,2020-06-05 00:00:00.000000,0.14428338,0.29042049,0.66475139,624,1256,2875,314,747,1929,0.07267512,0.17286976,0.44618509,0.45449934,0.67021150,1.08264416
22051,0,USLouisianaJefferson,Louisiana,Jefferson,2020-07-18 14:04:14.490583,2020-06-06 00:00:00.000000,0.13831823,0.28879876,0.64741213,598,1249,2800,325,757,1931,0.07520527,0.17514896,0.44671217,0.46765202,0.68043923,1.09449195
22051,0,USLouisianaJefferson,Louisiana,Jefferson,2020-07-18 14:04:14.490583,2020-06-07 00:00:00.000000,0.14727942,0.29448793,0.66124521,636,1273,2859,307,771,1910,0.07117492,0.17832814,0.44175699,0.46690803,0.71530084,1.10466048
22051,0,USLouisianaJefferson,Louisiana,Jefferson,2020-07-18 14:04:14.490583,2020-06-08 00:00:00.000000,0.14173805,0.29994939,0.67544690,613,1297,2921,330,783,1887,0.07646536,0.18127406,0.43649242,0.46245274,0.73809936,1.12134253
22051,0,USLouisianaJefferson,Louisiana,Jefferson,2020-07-18 14:04:14.490583,2020-06-09 00:00:00.000000,0.15121318,0.30091503,0.68972998,653,1301,2983,319,795,1912,0.07389656,0.18389178,0.44213782,0.46900871,0.76265251,1.14502412
22051,0,USLouisianaJefferson,Louisiana,Jefferson,2020-07-18 14:04:14.490583,2020-06-10 00:00:00.000000,0.14947060,0.30914905,0.69544978,646,1337,3007,344,823,1954,0.07969985,0.19031728,0.45197330,0.46443268,0.76998696,1.14646319
22051,0,USLouisianaJefferson,Louisiana,Jefferson,2020-07-18 14:04:14.490583,2020-06-11 00:00:00.000000,0.15618635,0.31822037,0.71256096,675,1376,3081,336,853,2030,0.07791384,0.19730201,0.46942018,0.46311658,0.76739449,1.14708241
22051,0,USLouisianaJefferson,Louisiana,Jefferson,2020-07-18 14:04:14.490583,2020-06-12 00:00:00.000000,0.15792886,0.33078269,0.74189851,683,1430,3208,364,869,2107,0.08424244,0.20105412,0.48731353,0.47030471,0.75936002,1.14842683
22051,0,USLouisianaJefferson,Louisiana,Jefferson,2020-07-18 14:04:14.490583,2020-06-13 00:00:00.000000,0.17196075,0.34085243,0.74531549,743,1474,3223,356,908,2166,0.08244907,0.21016706,0.50092971,0.48081877,0.77236811,1.15992091
22051,0,USLouisianaJefferson,Louisiana,Jefferson,2020-07-18 14:04:14.490583,2020-06-14 00:00:00.000000,0.17606691,0.35497693,0.76115913,761,1535,3291,389,940,2250,0.09003663,0.21735084,0.52033137,0.48087857,0.77855222,1.18450111
22051,0,USLouisianaJefferson,Louisiana,Jefferson,2020-07-18 14:04:14.490583,2020-06-15 00:00:00.000000,0.18739055,0.36924806,0.78653629,810,1596,3401,394,981,2308,0.09124931,0.22692834,0.53373772,0.48578835,0.78579288,1.22178693
22051,0,USLouisianaJefferson,Louisiana,Jefferson,2020-07-18 14:04:14.490583,2020-06-16 00:00:00.000000,0.18585130,0.38247244,0.81386618,803,1654,3519,411,1003,2347,0.09520434,0.23202735,0.54271052,0.49920529,0.79186394,1.22911981
22051,0,USLouisianaJefferson,Louisiana,Jefferson,2020-07-18 14:04:14.490583,2020-06-17 00:00:00.000000,0.19317281,0.40139397,0.83879586,835,1736,3627,411,1023,2413,0.09509866,0.23671089,0.55814768,0.51145738,0.79262681,1.23162066
22051,0,USLouisianaJefferson,Louisiana,Jefferson,2020-07-18 14:04:14.490583,2020-06-18 00:00:00.000000,0.19437863,0.42092421,0.86717853,840,1820,3750,430,1069,2522,0.09947769,0.24718965,0.58327249,0.52374709,0.79470064,1.23145129
22051,0,USLouisianaJefferson,Louisiana,Jefferson,2020-07-18 14:04:14.490583,2020-06-19 00:00:00.000000,0.20224248,0.44086194,0.92679782,874,1906,4008,427,1133,2642,0.09889531,0.26211613,0.61095646,0.53536852,0.80877624,1.22820470
22051,0,USLouisianaJefferson,Louisiana,Jefferson,2020-07-18 14:04:14.490583,2020-06-20 00:00:00.000000,0.20393624,0.46810657,0.97833584,882,2024,4231,459,1211,2828,0.10633544,0.28009994,0.65395942,0.55325598,0.82370122,1.24571570
22051,0,USLouisianaJefferson,Louisiana,Jefferson,2020-07-18 14:04:14.490583,2020-06-21 00:00:00.000000,0.22173533,0.49202782,1.02738821,958,2127,4443,454,1276,2959,0.10507281,0.29516686,0.68438339,0.56736752,0.83542618,1.25652198
22051,0,USLouisianaJefferson,Louisiana,Jefferson,2020-07-18 14:04:14.490583,2020-06-22 00:00:00.000000,0.22795785,0.50963761,1.07198650,985,2204,4636,519,1341,3055,0.12008981,0.31015888,0.70646907,0.56926733,0.83599172,1.25146410
22051,0,USLouisianaJefferson,Louisiana,Jefferson,2020-07-18 14:04:14.490583,2020-06-23 00:00:00.000000,0.24639861,0.53465770,1.13438546,1065,2312,4906,515,1388,3237,0.11916819,0.32106709,0.74860963,0.56892030,0.83702711,1.25901452
22051,0,USLouisianaJefferson,Louisiana,Jefferson,2020-07-18 14:04:14.490583,2020-06-24 00:00:00.000000,0.25633205,0.55802598,1.18965333,1108,2413,5145,574,1468,3418,0.13277305,0.33961448,0.79031667,0.56884266,0.83290888,1.27589057
22051,0,USLouisianaJefferson,Louisiana,Jefferson,2020-07-18 14:04:14.490583,2020-06-25 00:00:00.000000,0.28552570,0.59112785,1.23860511,1234,2556,5356,576,1549,3598,0.13322689,0.35836837,0.83199016,0.56892849,0.82777086,1.28280526
22051,0,USLouisianaJefferson,Louisiana,Jefferson,2020-07-18 14:04:14.490583,2020-06-26 00:00:00.000000,0.28968719,0.62734022,1.28954436,1252,2713,5577,659,1652,3785,0.15259392,0.38203968,0.87533648,0.56923061,0.82946553,1.28237589
22051,0,USLouisianaJefferson,Louisiana,Jefferson,2020-07-18 14:04:14.490583,2020-06-27 00:00:00.000000,0.32255513,0.66341936,1.34411271,1395,2869,5813,651,1742,3962,0.15067811,0.40290984,0.91609855,0.57215797,0.81843917,1.27401353
22051,0,USLouisianaJefferson,Louisiana,Jefferson,2020-07-18 14:04:14.490583,2020-06-28 00:00:00.000000,0.32822617,0.68757421,1.40646953,1419,2973,6082,748,1807,4137,0.17298339,0.41785571,0.95671702,0.58766718,0.81364677,1.25981623
22051,0,USLouisianaJefferson,Louisiana,Jefferson,2020-07-18 14:04:14.490583,2020-06-29 00:00:00.000000,0.36802610,0.72294022,1.47764811,1591,3126,6390,743,1867,4304,0.17196541,0.43178263,0.99533778,0.59276858,0.80588983,1.26454900
22051,0,USLouisianaJefferson,Louisiana,Jefferson,2020-07-18 14:04:14.490583,2020-06-30 00:00:00.000000,0.37386793,0.75582734,1.55329998,1616,3268,6717,864,1968,4449,0.19978316,0.45504744,1.02869513,0.59294158,0.80356734,1.25944841
22051,0,USLouisianaJefferson,Louisiana,Jefferson,2020-07-18 14:04:14.490583,2020-07-01 00:00:00.000000,0.42020866,0.80443452,1.64322273,1817,3479,7106,846,2082,4646,0.19576918,0.48156697,1.07439456,0.59724362,0.82968271,1.25590669
22051,0,USLouisianaJefferson,Louisiana,Jefferson,2020-07-18 14:04:14.490583,2020-07-02 00:00:00.000000,0.42243772,0.84350872,1.74031223,1827,3648,7526,990,2228,4872,0.22909243,0.51525733,1.12657668,0.61388888,0.83092896,1.24954437
22051,0,USLouisianaJefferson,Louisiana,Jefferson,2020-07-18 14:04:14.490583,2020-07-03 00:00:00.000000,0.46840805,0.89149748,1.80425733,2025,3855,7803,965,2296,5085,0.22331064,0.53100270,1.17582735,0.62234003,0.83133918,1.25038161
22051,0,USLouisianaJefferson,Louisiana,Jefferson,2020-07-18 14:04:14.490583,2020-07-04 00:00:00.000000,0.46912798,0.93258455,1.88784684,2028,4033,8164,1111,2458,5245,0.25701821,0.56834273,1.21282390,0.61761112,0.83717274,1.24964063
22051,0,USLouisianaJefferson,Louisiana,Jefferson,2020-07-18 14:04:14.490583,2020-07-05 00:00:00.000000,0.50960492,0.97920502,1.98563490,2204,4234,8587,1100,2572,5518,0.25450051,0.59477242,1.27603891,0.62444013,0.84133991,1.25217676
22051,0,USLouisianaJefferson,Louisiana,Jefferson,2020-07-18 14:04:14.490583,2020-07-06 00:00:00.000000,0.52342147,1.02511124,2.08653831,2263,4433,9024,1193,2656,5804,0.27604214,0.61432499,1.34203934,0.61372953,0.84339395,1.27140935
22051,0,USLouisianaJefferson,Louisiana,Jefferson,2020-07-18 14:04:14.490583,2020-07-07 00:00:00.000000,0.55706466,1.06641433,2.21398368,2409,4612,9575,1201,2817,6233,0.27769253,0.65134589,1.44139448,0.60854892,0.84577740,1.26044134
22051,0,USLouisianaJefferson,Louisiana,Jefferson,2020-07-18 14:04:14.490583,2020-07-08 00:00:00.000000,0.58166139,1.10974054,2.38589121,2515,4799,10318,1280,2967,6724,0.29599713,0.68608442,1.55471036,0.60589838,0.84270443,1.25478649
22051,0,USLouisianaJefferson,Louisiana,Jefferson,2020-07-18 14:04:14.490583,2020-07-09 00:00:00.000000,0.61363695,1.15731605,2.54178711,2653,5005,10993,1294,3077,7245,0.29935659,0.71168271,1.67533336,0.60361771,0.83753032,1.25292713
22051,0,USLouisianaJefferson,Louisiana,Jefferson,2020-07-18 14:04:14.490583,2020-07-10 00:00:00.000000,0.64022523,1.22079822,2.68074241,2768,5279,11594,1384,3191,7799,0.32021703,0.73792423,1.80337881,0.60354941,0.83748788,1.25231716
22051,0,USLouisianaJefferson,Louisiana,Jefferson,2020-07-18 14:04:14.490583,2020-07-11 00:00:00.000000,0.65227186,1.28432655,2.82327951,2821,5554,12210,1358,3283,8334,0.31422417,0.75919192,1.92710944,0.60353895,0.83750431,1.25210222
22051,0,USLouisianaJefferson,Louisiana,Jefferson,2020-07-18 14:04:14.490583,2020-07-12 00:00:00.000000,0.65935535,1.31410741,2.96649010,2851,5683,12829,1444,3392,8777,0.33397000,0.78445917,2.02962384,0.60353657,0.83751935,1.25202164
22051,0,USLouisianaJefferson,Louisiana,Jefferson,2020-07-18 14:04:14.490583,2020-07-13 00:00:00.000000,0.68918831,1.38125952,3.15975169,2980,5973,13665,1388,3486,9220,0.32111259,0.80623617,2.13192118,0.60353604,0.83752781,1.25199025
22051,0,USLouisianaJefferson,Louisiana,Jefferson,2020-07-18 14:04:14.490583,2020-07-14 00:00:00.000000,0.67539350,1.42393332,3.44176636,2921,6158,14885,1541,3748,9677,0.35647576,0.86668139,2.23756620,0.60353592,0.83753202,1.25197778
22051,0,USLouisianaJefferson,Louisiana,Jefferson,2020-07-18 14:04:14.490583,2020-07-15 00:00:00.000000,0.73705832,1.49154382,3.74386438,3187,6450,16191,1454,3865,10171,0.33628459,0.89374088,2.35180641,0.60353589,0.83753402,1.25197279
22051,0,USLouisianaJefferson,Louisiana,Jefferson,2020-07-18 14:04:14.490583,2020-07-16 00:00:00.000000,0.71874236,1.53581404,4.06434621,3108,6642,17578,1645,4023,11055,0.38036856,0.93033461,2.55614800,0.60353589,0.83753495,1.25197079
22051,0,USLouisianaJefferson,Louisiana,Jefferson,2020-07-18 14:04:14.490583,2020-07-17 00:00:00.000000,0.78489251,1.59196712,4.36995483,3394,6885,18899,1576,4179,11997,0.36446459,0.96629651,2.77401552,0.60353589,0.83753538,1.25197000
22051,0,USLouisianaJefferson,Louisiana,Jefferson,2020-07-18 14:04:14.490583,2020-07-18 00:00:00.000000,0.76425950,1.66956086,4.59089857,3305,7220,19855,1745,4298,12997,0.40367401,0.99387547,3.00534385,0.60353589,0.83753558,1.25196969
22051,0,USLouisianaJefferson,Louisiana,Jefferson,2020-07-18 14:04:14.490583,2020-07-19 00:00:00.000000,0.82790869,1.73594462,4.80701224,3580,7507,20789,1670,4436,14023,0.38613748,1.02590180,3.24236907,0.60353589,0.83753567,1.25196957
22051,0,USLouisianaJefferson,Louisiana,Jefferson,2020-07-18 14:04:14.490583,2020-07-20 00:00:00.000000,0.79922539,1.75023400,5.02239114,3456,7569,21721,1828,4585,15020,0.42271427,1.06021415,3.47304417,0.60353589,0.83753572,1.25196953
22051,0,USLouisianaJefferson,Louisiana,Jefferson,2020-07-18 14:04:14.490583,2020-07-21 00:00:00.000000,0.85985032,1.81166074,5.29469197,3718,7835,22899,1769,4718,15645,0.40916599,1.09101119,3.61755089,0.60353589,0.83753573,1.25196951
22051,0,USLouisianaJefferson,Louisiana,Jefferson,2020-07-18 14:04:14.490583,2020-07-22 00:00:00.000000,0.83200052,1.86649301,5.63307141,3598,8072,24362,1907,4831,16252,0.44103329,1.11722254,3.75785418,0.60353589,0.83753574,1.25196950
22051,0,USLouisianaJefferson,Louisiana,Jefferson,2020-07-18 14:04:14.490583,2020-07-23 00:00:00.000000,0.88586875,1.92828403,5.97563408,3831,8339,25844,1839,4964,16844,0.42529829,1.14796640,3.89478381,0.60353589,0.83753575,1.25196950
22051,0,USLouisianaJefferson,Louisiana,Jefferson,2020-07-18 14:04:14.490583,2020-07-24 00:00:00.000000,0.85579339,1.96890423,6.31940880,3701,8515,27331,1982,5087,17417,0.45837820,1.17635776,4.02728929,0.60353589,0.83753575,1.25196950
22051,0,USLouisianaJefferson,Louisiana,Jefferson,2020-07-18 14:04:14.490583,2020-07-25 00:00:00.000000,0.90991831,2.03438757,6.64340907,3935,8798,28732,1891,5275,17967,0.43724181,1.21981039,4.15429558,0.60353589,0.83753575,1.25196950
22051,0,USLouisianaJefferson,Louisiana,Jefferson,2020-07-18 14:04:14.490583,2020-07-26 00:00:00.000000,0.87754898,2.06926398,6.93623300,3795,8949,29998,2062,5317,18756,0.47694906,1.22946843,4.33686719,0.60353589,0.83753575,1.25196950
22051,0,USLouisianaJefferson,Louisiana,Jefferson,2020-07-18 14:04:14.490583,2020-07-27 00:00:00.000000,0.91012884,2.10871392,7.26699702,3936,9120,31429,1938,5424,19690,0.44813371,1.25422833,4.55286471,0.60353589,0.83753575,1.25196950
22051,0,USLouisianaJefferson,Louisiana,Jefferson,2020-07-18 14:04:14.490583,2020-07-28 00:00:00.000000,0.89701639,2.18119641,7.58973385,3879,9433,32825,2134,5597,20616,0.49353785,1.29420021,4.76679279,0.60353589,0.83753575,1.25196950
22051,0,USLouisianaJefferson,Louisiana,Jefferson,2020-07-18 14:04:14.490583,2020-07-29 00:00:00.000000,0.89082056,2.21331347,7.90106184,3852,9572,34171,1980,5747,21524,0.45784894,1.32894224,4.97676558,0.60353589,0.83753575,1.25196950
22051,0,USLouisianaJefferson,Louisiana,Jefferson,2020-07-18 14:04:14.490583,2020-07-30 00:00:00.000000,0.88066312,2.25019750,8.16864806,3808,9731,35328,2108,5859,22406,0.48758691,1.35470413,5.18077819,0.60353589,0.83753575,1.25196950
