FIPS,HR_UID,nameid,province,region,analysisTime,dates,pointprevalence_025,pointprevalence_50,pointprevalence_975,pointinfections_025,pointinfections_50,pointinfections_975,pointinfectious_025,pointinfectious_50,pointinfectious_975,pointinfectiousprevalence_05,pointinfectiousprevalence_50,pointinfectiousprevalence_95,infectrate_025,infectrate_50,infectrate_975
48061,0,USTexasCameron,Texas,Cameron,2020-07-18 06:31:41.411659,2020-03-09 00:00:00.000000,0.01104744,0.04945282,0.17340431,46,209,733,9,24,49,0.00219718,0.00571637,0.01159698,0.67305524,0.89354890,1.10127771
48061,0,USTexasCameron,Texas,Cameron,2020-07-18 06:31:41.411659,2020-03-10 00:00:00.000000,0.01241622,0.04973294,0.13320155,52,210,563,17,32,76,0.00410098,0.00767086,0.01818568,0.67305567,0.89358273,1.10127769
48061,0,USTexasCameron,Texas,Cameron,2020-07-18 06:31:41.411659,2020-03-11 00:00:00.000000,0.01418436,0.05226754,0.13334842,60,221,564,21,39,94,0.00515275,0.00930056,0.02235248,0.67305651,0.89364736,1.10127764
48061,0,USTexasCameron,Texas,Cameron,2020-07-18 06:31:41.411659,2020-03-12 00:00:00.000000,0.01582127,0.05478783,0.13982453,66,231,591,25,46,111,0.00612690,0.01097464,0.02637744,0.67305822,0.89377169,1.10127746
48061,0,USTexasCameron,Texas,Cameron,2020-07-18 06:31:41.411659,2020-03-13 00:00:00.000000,0.01697548,0.05839191,0.14852437,71,247,628,28,52,125,0.00677689,0.01235098,0.02975525,0.67306188,0.89401283,1.10127686
48061,0,USTexasCameron,Texas,Cameron,2020-07-18 06:31:41.411659,2020-03-14 00:00:00.000000,0.01803265,0.06124391,0.15557863,76,259,658,31,57,138,0.00739865,0.01357756,0.03265143,0.67307036,0.89448457,1.10127477
48061,0,USTexasCameron,Texas,Cameron,2020-07-18 06:31:41.411659,2020-03-15 00:00:00.000000,0.01915772,0.06580377,0.16270739,81,278,688,33,62,149,0.00803051,0.01471507,0.03524143,0.67309213,0.89493527,1.10126761
48061,0,USTexasCameron,Texas,Cameron,2020-07-18 06:31:41.411659,2020-03-16 00:00:00.000000,0.02028498,0.07067127,0.17029903,85,299,720,36,66,159,0.00868494,0.01579452,0.03764755,0.67315458,0.89550119,1.10124308
48061,0,USTexasCameron,Texas,Cameron,2020-07-18 06:31:41.411659,2020-03-17 00:00:00.000000,0.02146220,0.07449872,0.17902802,90,315,757,39,72,171,0.00929084,0.01708977,0.04045953,0.67335232,0.89695449,1.10115986
48061,0,USTexasCameron,Texas,Cameron,2020-07-18 06:31:41.411659,2020-03-18 00:00:00.000000,0.02290008,0.07958866,0.19155168,96,336,810,41,76,183,0.00982488,0.01803253,0.04343357,0.67402411,0.89968010,1.10088652
48061,0,USTexasCameron,Texas,Cameron,2020-07-18 06:31:41.411659,2020-03-19 00:00:00.000000,0.02462784,0.08450475,0.20456842,104,357,865,43,80,197,0.01038784,0.01903699,0.04657675,0.67637620,0.87550784,1.09983945
48061,0,USTexasCameron,Texas,Cameron,2020-07-18 06:31:41.411659,2020-03-20 00:00:00.000000,0.02639937,0.08991629,0.21391061,111,380,905,46,86,211,0.01099507,0.02055645,0.04991620,0.68388866,0.89548034,1.08603943
48061,0,USTexasCameron,Texas,Cameron,2020-07-18 06:31:41.411659,2020-03-21 00:00:00.000000,0.02810954,0.09600912,0.22818724,118,406,965,49,91,226,0.01171087,0.02173144,0.05347390,0.68625500,0.87325805,1.08229911
48061,0,USTexasCameron,Texas,Cameron,2020-07-18 06:31:41.411659,2020-03-22 00:00:00.000000,0.02980647,0.10188858,0.24398326,126,431,1032,52,98,242,0.01251185,0.02321351,0.05726876,0.68477198,0.86244321,1.09262596
48061,0,USTexasCameron,Texas,Cameron,2020-07-18 06:31:41.411659,2020-03-23 00:00:00.000000,0.03158240,0.10961864,0.26073848,133,463,1103,56,105,259,0.01336646,0.02498873,0.06131201,0.68422959,0.83829080,1.08876875
48061,0,USTexasCameron,Texas,Cameron,2020-07-18 06:31:41.411659,2020-03-24 00:00:00.000000,0.03348670,0.11786414,0.27840903,141,498,1178,60,112,277,0.01424701,0.02661231,0.06561214,0.68378799,0.83383731,1.08568263
48061,0,USTexasCameron,Texas,Cameron,2020-07-18 06:31:41.411659,2020-03-25 00:00:00.000000,0.03588497,0.12525039,0.29690437,151,530,1256,64,120,296,0.01514147,0.02844122,0.07007186,0.68325290,0.83262996,1.07671891
48061,0,USTexasCameron,Texas,Cameron,2020-07-18 06:31:41.411659,2020-03-26 00:00:00.000000,0.03897948,0.13258141,0.31610176,164,561,1337,67,128,312,0.01591705,0.03039040,0.07393727,0.67214984,0.83191891,1.04912679
48061,0,USTexasCameron,Texas,Cameron,2020-07-18 06:31:41.411659,2020-03-27 00:00:00.000000,0.04293390,0.13860285,0.33568406,181,586,1420,73,137,327,0.01747253,0.03252405,0.07728439,0.64061880,0.82769998,0.97827078
48061,0,USTexasCameron,Texas,Cameron,2020-07-18 06:31:41.411659,2020-03-28 00:00:00.000000,0.04568807,0.14662401,0.35386246,193,620,1497,74,147,345,0.01767597,0.03480901,0.08170771,0.61212757,0.82271648,0.96438263
48061,0,USTexasCameron,Texas,Cameron,2020-07-18 06:31:41.411659,2020-03-29 00:00:00.000000,0.04829889,0.15565999,0.36781542,204,658,1556,82,157,366,0.01939704,0.03721138,0.08664792,0.60323121,0.77656050,0.96004088
48061,0,USTexasCameron,Texas,Cameron,2020-07-18 06:31:41.411659,2020-03-30 00:00:00.000000,0.05206617,0.16526457,0.37982749,220,699,1607,83,167,385,0.01973125,0.03965808,0.09119648,0.60016126,0.75488280,0.95070092
48061,0,USTexasCameron,Texas,Cameron,2020-07-18 06:31:41.411659,2020-03-31 00:00:00.000000,0.05610653,0.17167214,0.39119076,237,726,1655,91,177,405,0.02161273,0.04198036,0.09571548,0.59891521,0.74771898,0.94102478
48061,0,USTexasCameron,Texas,Cameron,2020-07-18 06:31:41.411659,2020-04-01 00:00:00.000000,0.06006853,0.18112701,0.40199969,254,766,1701,93,187,421,0.02203471,0.04431492,0.09961158,0.58445429,0.74638437,0.93826085
48061,0,USTexasCameron,Texas,Cameron,2020-07-18 06:31:41.411659,2020-04-02 00:00:00.000000,0.06446547,0.18862546,0.41223548,272,798,1744,101,197,436,0.02397451,0.04664221,0.10309512,0.56686230,0.74460184,0.91489182
48061,0,USTexasCameron,Texas,Cameron,2020-07-18 06:31:41.411659,2020-04-03 00:00:00.000000,0.06909359,0.20128309,0.42192973,292,851,1785,103,207,449,0.02457141,0.04900972,0.10632040,0.54860554,0.73882192,0.89008534
48061,0,USTexasCameron,Texas,Cameron,2020-07-18 06:31:41.411659,2020-04-04 00:00:00.000000,0.07392842,0.21153442,0.43116107,312,895,1824,111,217,462,0.02638803,0.05141802,0.10932321,0.48661227,0.72538877,0.88702722
48061,0,USTexasCameron,Texas,Cameron,2020-07-18 06:31:41.411659,2020-04-05 00:00:00.000000,0.07843958,0.22292741,0.44002583,331,943,1862,115,227,474,0.02723659,0.05387862,0.11210720,0.46409881,0.71637137,0.87291321
48061,0,USTexasCameron,Texas,Cameron,2020-07-18 06:31:41.411659,2020-04-06 00:00:00.000000,0.08429076,0.23411733,0.44860117,356,990,1898,121,236,485,0.02882578,0.05586909,0.11472780,0.43725314,0.70359662,0.87015275
48061,0,USTexasCameron,Texas,Cameron,2020-07-18 06:31:41.411659,2020-04-07 00:00:00.000000,0.08752323,0.24383602,0.45688314,370,1031,1933,126,249,499,0.02992618,0.05889277,0.11796061,0.42180872,0.69457902,0.87858867
48061,0,USTexasCameron,Texas,Cameron,2020-07-18 06:31:41.411659,2020-04-08 00:00:00.000000,0.09450479,0.25372294,0.47380251,399,1073,2004,132,256,521,0.03122135,0.06052219,0.12331507,0.41236519,0.69125707,0.86896852
48061,0,USTexasCameron,Texas,Cameron,2020-07-18 06:31:41.411659,2020-04-09 00:00:00.000000,0.09832516,0.26299758,0.48577501,416,1112,2055,138,271,537,0.03270574,0.06404482,0.12690778,0.40291610,0.67887240,0.85601748
48061,0,USTexasCameron,Texas,Cameron,2020-07-18 06:31:41.411659,2020-04-10 00:00:00.000000,0.10334606,0.27043123,0.49673996,437,1144,2102,145,279,549,0.03442832,0.06596255,0.12979708,0.39288878,0.64598152,0.80196457
48061,0,USTexasCameron,Texas,Cameron,2020-07-18 06:31:41.411659,2020-04-11 00:00:00.000000,0.10501886,0.27241988,0.50004747,444,1152,2116,151,292,555,0.03579857,0.06902807,0.13128797,0.38240423,0.60651717,0.77143799
48061,0,USTexasCameron,Texas,Cameron,2020-07-18 06:31:41.411659,2020-04-12 00:00:00.000000,0.10844957,0.27456201,0.50304499,458,1161,2128,157,297,570,0.03720876,0.07032396,0.13489187,0.37226430,0.58954293,0.75102466
48061,0,USTexasCameron,Texas,Cameron,2020-07-18 06:31:41.411659,2020-04-13 00:00:00.000000,0.10985726,0.27985127,0.50726157,464,1184,2146,161,302,586,0.03825993,0.07158582,0.13860117,0.36762373,0.56589045,0.73074682
48061,0,USTexasCameron,Texas,Cameron,2020-07-18 06:31:41.411659,2020-04-14 00:00:00.000000,0.11286938,0.28202473,0.51107926,477,1193,2162,167,310,596,0.03957089,0.07328164,0.14086019,0.36311550,0.55235782,0.69864250
48061,0,USTexasCameron,Texas,Cameron,2020-07-18 06:31:41.411659,2020-04-15 00:00:00.000000,0.11462673,0.28699336,0.51425197,485,1214,2176,168,317,610,0.03990398,0.07512904,0.14418146,0.36171894,0.52288517,0.69069081
48061,0,USTexasCameron,Texas,Cameron,2020-07-18 06:31:41.411659,2020-04-16 00:00:00.000000,0.11689521,0.29134471,0.52320247,494,1232,2213,177,323,628,0.04187113,0.07648793,0.14862654,0.35767412,0.51592489,0.67189027
48061,0,USTexasCameron,Texas,Cameron,2020-07-18 06:31:41.411659,2020-04-17 00:00:00.000000,0.11807432,0.29458504,0.53012258,499,1246,2243,177,330,640,0.04203406,0.07801920,0.15144315,0.34712571,0.51847098,0.65166568
48061,0,USTexasCameron,Texas,Cameron,2020-07-18 06:31:41.411659,2020-04-18 00:00:00.000000,0.11848088,0.29562655,0.54038059,501,1250,2286,184,335,654,0.04356406,0.07920840,0.15463241,0.33609201,0.50228410,0.63375189
48061,0,USTexasCameron,Texas,Cameron,2020-07-18 06:31:41.411659,2020-04-19 00:00:00.000000,0.11818352,0.30358110,0.54976782,500,1284,2326,184,339,655,0.04366784,0.08012682,0.15490597,0.34148010,0.48148140,0.61879509
48061,0,USTexasCameron,Texas,Cameron,2020-07-18 06:31:41.411659,2020-04-20 00:00:00.000000,0.11758747,0.30465385,0.55806158,497,1289,2361,190,343,668,0.04511703,0.08120171,0.15795264,0.34606779,0.46887978,0.61130952
48061,0,USTexasCameron,Texas,Cameron,2020-07-18 06:31:41.411659,2020-04-21 00:00:00.000000,0.11700237,0.31114666,0.56565431,495,1316,2393,190,347,681,0.04503048,0.08216443,0.16113673,0.34303918,0.46126796,0.60579629
48061,0,USTexasCameron,Texas,Cameron,2020-07-18 06:31:41.411659,2020-04-22 00:00:00.000000,0.11646688,0.31169353,0.57307094,492,1318,2425,195,352,694,0.04630639,0.08331094,0.16412312,0.34179638,0.45109983,0.60948178
48061,0,USTexasCameron,Texas,Cameron,2020-07-18 06:31:41.411659,2020-04-23 00:00:00.000000,0.11597766,0.31521254,0.58050612,490,1333,2456,197,358,706,0.04678941,0.08481558,0.16696570,0.34796778,0.44952128,0.60690605
48061,0,USTexasCameron,Texas,Cameron,2020-07-18 06:31:41.411659,2020-04-24 00:00:00.000000,0.11550193,0.31746388,0.58804813,488,1343,2488,198,362,718,0.04693542,0.08556418,0.16971485,0.34886312,0.43950389,0.60662947
48061,0,USTexasCameron,Texas,Cameron,2020-07-18 06:31:41.411659,2020-04-25 00:00:00.000000,0.11497257,0.32246140,0.59576043,486,1364,2521,200,367,729,0.04727267,0.08693231,0.17241485,0.34893440,0.44271332,0.60366401
48061,0,USTexasCameron,Texas,Cameron,2020-07-18 06:31:41.411659,2020-04-26 00:00:00.000000,0.11425987,0.32659538,0.60567546,483,1382,2562,197,370,740,0.04677315,0.08758630,0.17510956,0.34896162,0.44569827,0.59634052
48061,0,USTexasCameron,Texas,Cameron,2020-07-18 06:31:41.411659,2020-04-27 00:00:00.000000,0.11274485,0.33342879,0.61678733,477,1410,2610,207,373,755,0.04906674,0.08823483,0.17849681,0.34769191,0.46037192,0.58103992
48061,0,USTexasCameron,Texas,Cameron,2020-07-18 06:31:41.411659,2020-04-28 00:00:00.000000,0.11054865,0.33965038,0.62837882,467,1437,2659,205,378,773,0.04852457,0.08948141,0.18278543,0.34728192,0.46535669,0.58635220
48061,0,USTexasCameron,Texas,Cameron,2020-07-18 06:31:41.411659,2020-04-29 00:00:00.000000,0.10742503,0.34615508,0.63468420,454,1464,2685,209,382,787,0.04952202,0.09043651,0.18614155,0.35155767,0.46896025,0.59259863
48061,0,USTexasCameron,Texas,Cameron,2020-07-18 06:31:41.411659,2020-04-30 00:00:00.000000,0.10437481,0.34450508,0.64835476,441,1457,2743,206,383,798,0.04886070,0.09072606,0.18867256,0.35212777,0.47203091,0.61552772
48061,0,USTexasCameron,Texas,Cameron,2020-07-18 06:31:41.411659,2020-05-01 00:00:00.000000,0.10138603,0.34569183,0.64592724,429,1462,2733,201,388,807,0.04765534,0.09171162,0.19090559,0.35521885,0.46819768,0.62594808
48061,0,USTexasCameron,Texas,Cameron,2020-07-18 06:31:41.411659,2020-05-02 00:00:00.000000,0.09841226,0.34960648,0.65023154,416,1479,2751,196,392,815,0.04635988,0.09273905,0.19260517,0.36196715,0.46889836,0.63792042
48061,0,USTexasCameron,Texas,Cameron,2020-07-18 06:31:41.411659,2020-05-03 00:00:00.000000,0.09539125,0.34994110,0.66518120,403,1480,2814,191,394,826,0.04513711,0.09331310,0.19537840,0.35915013,0.47336128,0.64410990
48061,0,USTexasCameron,Texas,Cameron,2020-07-18 06:31:41.411659,2020-05-04 00:00:00.000000,0.09231941,0.35671635,0.68031812,390,1509,2878,185,402,837,0.04381928,0.09509832,0.19785375,0.35787074,0.47877739,0.64745490
48061,0,USTexasCameron,Texas,Cameron,2020-07-18 06:31:41.411659,2020-05-05 00:00:00.000000,0.08925581,0.36043762,0.69551207,377,1525,2943,180,404,847,0.04254365,0.09554099,0.20022987,0.35801969,0.48480612,0.64937939
48061,0,USTexasCameron,Texas,Cameron,2020-07-18 06:31:41.411659,2020-05-06 00:00:00.000000,0.08626495,0.36402809,0.71051885,365,1540,3006,174,410,862,0.04129156,0.09712492,0.20386178,0.35970879,0.48908166,0.65139367
48061,0,USTexasCameron,Texas,Cameron,2020-07-18 06:31:41.411659,2020-05-07 00:00:00.000000,0.08393723,0.36781543,0.72500317,355,1556,3067,169,412,881,0.03998839,0.09745479,0.20840227,0.36105658,0.49496450,0.65207908
48061,0,USTexasCameron,Texas,Cameron,2020-07-18 06:31:41.411659,2020-05-08 00:00:00.000000,0.08319901,0.37211188,0.73863899,352,1574,3125,163,415,896,0.03874239,0.09810974,0.21185305,0.36257609,0.50211411,0.65208288
48061,0,USTexasCameron,Texas,Cameron,2020-07-18 06:31:41.411659,2020-05-09 00:00:00.000000,0.08176981,0.37827988,0.75127226,346,1600,3179,159,420,906,0.03768030,0.09931050,0.21411530,0.36709359,0.51316587,0.66734930
48061,0,USTexasCameron,Texas,Cameron,2020-07-18 06:31:41.411659,2020-05-10 00:00:00.000000,0.08189098,0.38732642,0.76302691,346,1639,3228,157,429,915,0.03717767,0.10148644,0.21636109,0.37108194,0.53067866,0.69018086
48061,0,USTexasCameron,Texas,Cameron,2020-07-18 06:31:41.411659,2020-05-11 00:00:00.000000,0.08311855,0.39144263,0.77425725,351,1656,3276,155,435,925,0.03681997,0.10288740,0.21861139,0.37326923,0.54745519,0.68840088
48061,0,USTexasCameron,Texas,Cameron,2020-07-18 06:31:41.411659,2020-05-12 00:00:00.000000,0.08402211,0.39733657,0.78539153,355,1681,3323,155,448,942,0.03672100,0.10594605,0.22274166,0.37369747,0.56060042,0.68729238
48061,0,USTexasCameron,Texas,Cameron,2020-07-18 06:31:41.411659,2020-05-13 00:00:00.000000,0.08334152,0.40629549,0.79698092,352,1719,3372,153,457,964,0.03634004,0.10804669,0.22783400,0.37699112,0.56430954,0.68524842
48061,0,USTexasCameron,Texas,Cameron,2020-07-18 06:31:41.411659,2020-05-14 00:00:00.000000,0.08261456,0.41249975,0.80974523,349,1745,3426,154,462,984,0.03660175,0.10936349,0.23268163,0.38132046,0.56463394,0.67930853
48061,0,USTexasCameron,Texas,Cameron,2020-07-18 06:31:41.411659,2020-05-15 00:00:00.000000,0.08188840,0.42231992,0.82410726,346,1787,3487,156,470,1003,0.03687526,0.11112607,0.23720194,0.38408203,0.56839575,0.68743539
48061,0,USTexasCameron,Texas,Cameron,2020-07-18 06:31:41.411659,2020-05-16 00:00:00.000000,0.08129825,0.42876309,0.84020950,344,1814,3555,156,482,1021,0.03697035,0.11403740,0.24137742,0.38561398,0.57592849,0.70415896
48061,0,USTexasCameron,Texas,Cameron,2020-07-18 06:31:41.411659,2020-05-17 00:00:00.000000,0.08126192,0.44226267,0.85755869,343,1871,3628,155,486,1037,0.03670429,0.11486525,0.24526477,0.38764072,0.58865447,0.71429407
48061,0,USTexasCameron,Texas,Cameron,2020-07-18 06:31:41.411659,2020-05-18 00:00:00.000000,0.08234034,0.44968341,0.87574977,348,1902,3705,155,497,1053,0.03671461,0.11747848,0.24893718,0.38407776,0.60454846,0.73105480
48061,0,USTexasCameron,Texas,Cameron,2020-07-18 06:31:41.411659,2020-05-19 00:00:00.000000,0.08432603,0.45705362,0.89447279,356,1934,3785,157,507,1068,0.03724621,0.11987945,0.25246188,0.38479274,0.60847187,0.74059096
48061,0,USTexasCameron,Texas,Cameron,2020-07-18 06:31:41.411659,2020-05-20 00:00:00.000000,0.08666163,0.46263428,0.92573490,366,1957,3917,161,518,1092,0.03813480,0.12248080,0.25812922,0.39453764,0.61339359,0.74311163
48061,0,USTexasCameron,Texas,Cameron,2020-07-18 06:31:41.411659,2020-05-21 00:00:00.000000,0.08910739,0.47143313,0.96169880,377,1994,4069,165,525,1118,0.03913187,0.12419823,0.26441186,0.39593923,0.61737455,0.75262325
48061,0,USTexasCameron,Texas,Cameron,2020-07-18 06:31:41.411659,2020-05-22 00:00:00.000000,0.09171651,0.47901130,0.99884764,388,2026,4226,170,536,1155,0.04017685,0.12670323,0.27298991,0.39711172,0.61886627,0.75495060
48061,0,USTexasCameron,Texas,Cameron,2020-07-18 06:31:41.411659,2020-05-23 00:00:00.000000,0.09465515,0.49373701,1.03725792,400,2089,4389,174,545,1193,0.04131566,0.12885640,0.28203062,0.40999943,0.62616899,0.74927762
48061,0,USTexasCameron,Texas,Cameron,2020-07-18 06:31:41.411659,2020-05-24 00:00:00.000000,0.09800694,0.50873276,1.07711221,414,2152,4557,180,561,1233,0.04262232,0.13263680,0.29152444,0.41539300,0.63429383,0.76127395
48061,0,USTexasCameron,Texas,Cameron,2020-07-18 06:31:41.411659,2020-05-25 00:00:00.000000,0.10178774,0.51655037,1.11872355,430,2185,4734,186,574,1275,0.04412113,0.13575410,0.30137822,0.42320880,0.64805545,0.76494639
48061,0,USTexasCameron,Texas,Cameron,2020-07-18 06:31:41.411659,2020-05-26 00:00:00.000000,0.10620353,0.54137650,1.16251393,449,2290,4919,193,588,1319,0.04581296,0.13905948,0.31170703,0.43423247,0.66459231,0.77354244
48061,0,USTexasCameron,Texas,Cameron,2020-07-18 06:31:41.411659,2020-05-27 00:00:00.000000,0.11134318,0.56155239,1.20892847,471,2376,5115,202,604,1364,0.04780346,0.14283973,0.32254161,0.44817946,0.67803837,0.79338036
48061,0,USTexasCameron,Texas,Cameron,2020-07-18 06:31:41.411659,2020-05-28 00:00:00.000000,0.11849426,0.58889484,1.25835119,501,2491,5324,213,618,1404,0.05038683,0.14616389,0.33201317,0.46379422,0.71127071,0.83365072
48061,0,USTexasCameron,Texas,Cameron,2020-07-18 06:31:41.411659,2020-05-29 00:00:00.000000,0.12788156,0.60970942,1.31103034,541,2580,5547,227,646,1447,0.05382026,0.15288757,0.34202933,0.48818260,0.72650960,0.87464980
48061,0,USTexasCameron,Texas,Cameron,2020-07-18 06:31:41.411659,2020-05-30 00:00:00.000000,0.13887565,0.64332741,1.36709162,587,2722,5785,245,665,1499,0.05809948,0.15725276,0.35425610,0.50795175,0.73288710,0.89637436
48061,0,USTexasCameron,Texas,Cameron,2020-07-18 06:31:41.411659,2020-05-31 00:00:00.000000,0.15095384,0.67396798,1.43029489,638,2851,6052,266,696,1537,0.06301585,0.16459116,0.36336630,0.52577998,0.74426732,0.92412881
48061,0,USTexasCameron,Texas,Cameron,2020-07-18 06:31:41.411659,2020-06-01 00:00:00.000000,0.16394481,0.70514421,1.50542192,693,2983,6370,289,734,1580,0.06838858,0.17355508,0.37338918,0.54747667,0.77285207,0.92568739
48061,0,USTexasCameron,Texas,Cameron,2020-07-18 06:31:41.411659,2020-06-02 00:00:00.000000,0.17787072,0.74525866,1.58410891,752,3153,6703,313,771,1626,0.07418021,0.18237827,0.38439869,0.56521853,0.78714133,0.92481336
48061,0,USTexasCameron,Texas,Cameron,2020-07-18 06:31:41.411659,2020-06-03 00:00:00.000000,0.19281916,0.78599392,1.66659544,815,3326,7052,340,815,1677,0.08041140,0.19261377,0.39650194,0.57835684,0.80072132,0.93809816
48061,0,USTexasCameron,Texas,Cameron,2020-07-18 06:31:41.411659,2020-06-04 00:00:00.000000,0.20889227,0.83827797,1.77080768,883,3547,7493,368,849,1733,0.08712100,0.20066855,0.40975673,0.58788218,0.80935516,0.95345241
48061,0,USTexasCameron,Texas,Cameron,2020-07-18 06:31:41.411659,2020-06-05 00:00:00.000000,0.22455355,0.89687740,1.90746107,950,3795,8071,399,894,1795,0.09435243,0.21129830,0.42427886,0.62470236,0.82176881,0.99144183
48061,0,USTexasCameron,Texas,Cameron,2020-07-18 06:31:41.411659,2020-06-06 00:00:00.000000,0.24279905,0.96003609,2.05485063,1027,4062,8695,432,930,1863,0.10215074,0.21982704,0.44034907,0.65843179,0.83751721,1.05079399
48061,0,USTexasCameron,Texas,Cameron,2020-07-18 06:31:41.411659,2020-06-07 00:00:00.000000,0.26240369,1.02035064,2.21207967,1110,4317,9360,467,981,1940,0.11056438,0.23196673,0.45845976,0.68595370,0.85555378,1.10357804
48061,0,USTexasCameron,Texas,Cameron,2020-07-18 06:31:41.411659,2020-06-08 00:00:00.000000,0.28348026,1.08467625,2.37909954,1199,4589,10067,506,1025,2040,0.11964524,0.24233521,0.48219034,0.69126722,0.86305335,1.13626240
48061,0,USTexasCameron,Texas,Cameron,2020-07-18 06:31:41.411659,2020-06-09 00:00:00.000000,0.30709582,1.15278689,2.49583293,1299,4878,10561,547,1085,2153,0.12945167,0.25658481,0.50895572,0.69798391,0.86515693,1.14719458
48061,0,USTexasCameron,Texas,Cameron,2020-07-18 06:31:41.411659,2020-06-10 00:00:00.000000,0.33301997,1.22083820,2.59121683,1409,5166,10965,590,1136,2276,0.13966112,0.26867988,0.53792015,0.70888573,0.86952871,1.12807740
48061,0,USTexasCameron,Texas,Cameron,2020-07-18 06:31:41.411659,2020-06-11 00:00:00.000000,0.35705060,1.29536633,2.70423355,1510,5481,11443,640,1204,2402,0.15138128,0.28461818,0.56770235,0.72314048,0.87214982,1.08528150
48061,0,USTexasCameron,Texas,Cameron,2020-07-18 06:31:41.411659,2020-06-12 00:00:00.000000,0.38568788,1.37786560,2.86112312,1632,5830,12107,692,1290,2541,0.16369542,0.30499787,0.60057745,0.73727071,0.88007853,1.07309348
48061,0,USTexasCameron,Texas,Cameron,2020-07-18 06:31:41.411659,2020-06-13 00:00:00.000000,0.41698271,1.46365617,3.02354003,1764,6193,12794,748,1378,2671,0.17690524,0.32567689,0.63134988,0.74660464,0.88625384,1.08006299
48061,0,USTexasCameron,Texas,Cameron,2020-07-18 06:31:41.411659,2020-06-14 00:00:00.000000,0.45123640,1.56611754,3.19411973,1909,6627,13516,808,1487,2824,0.19102437,0.35152773,0.66739586,0.73010174,0.89611635,1.10191608
48061,0,USTexasCameron,Texas,Cameron,2020-07-18 06:31:41.411659,2020-06-15 00:00:00.000000,0.48872841,1.67055368,3.37383713,2068,7069,14276,870,1569,2980,0.20581250,0.37091427,0.70444094,0.71903651,0.89960861,1.12595053
48061,0,USTexasCameron,Texas,Cameron,2020-07-18 06:31:41.411659,2020-06-16 00:00:00.000000,0.52955514,1.75132418,3.56326518,2240,7410,15078,939,1682,3140,0.22211244,0.39749753,0.74223323,0.70739651,0.90278512,1.11604284
48061,0,USTexasCameron,Texas,Cameron,2020-07-18 06:31:41.411659,2020-06-17 00:00:00.000000,0.56998834,1.84704944,3.76284090,2411,7816,15922,1011,1768,3314,0.23911159,0.41803729,0.78331328,0.69296428,0.90136090,1.09839407
48061,0,USTexasCameron,Texas,Cameron,2020-07-18 06:31:41.411659,2020-06-18 00:00:00.000000,0.61316185,1.94949342,3.97297748,2594,8249,16812,1089,1884,3502,0.25739039,0.44537036,0.82759053,0.68456741,0.89892671,1.07489048
48061,0,USTexasCameron,Texas,Cameron,2020-07-18 06:31:41.411659,2020-06-19 00:00:00.000000,0.65902187,2.05639080,4.19411637,2788,8701,17747,1171,1969,3703,0.27679735,0.46548923,0.87525319,0.67259685,0.89641978,1.04926741
48061,0,USTexasCameron,Texas,Cameron,2020-07-18 06:31:41.411659,2020-06-20 00:00:00.000000,0.70829940,2.18153102,4.42677356,2997,9231,18732,1258,2095,3968,0.29751314,0.49526972,0.93785761,0.67062055,0.88737331,1.03328944
48061,0,USTexasCameron,Texas,Cameron,2020-07-18 06:31:41.411659,2020-06-21 00:00:00.000000,0.75980464,2.30840043,4.69258918,3215,9768,19857,1358,2222,4239,0.32107900,0.52511523,1.00179022,0.66887167,0.87366394,1.01713525
48061,0,USTexasCameron,Texas,Cameron,2020-07-18 06:31:41.411659,2020-06-22 00:00:00.000000,0.80634936,2.44472958,4.98574406,3412,10345,21097,1448,2355,4494,0.34237047,0.55667701,1.06202463,0.66487938,0.84931140,1.05246525
48061,0,USTexasCameron,Texas,Cameron,2020-07-18 06:31:41.411659,2020-06-23 00:00:00.000000,0.85142243,2.58441606,5.31083088,3602,10936,22473,1530,2466,4746,0.36177486,0.58294295,1.12159917,0.66095440,0.83562610,1.10612233
48061,0,USTexasCameron,Texas,Cameron,2020-07-18 06:31:41.411659,2020-06-24 00:00:00.000000,0.88848333,2.74144093,5.65994177,3759,11600,23950,1606,2611,5007,0.37960846,0.61718446,1.18337450,0.65716165,0.82730295,1.11437789
48061,0,USTexasCameron,Texas,Cameron,2020-07-18 06:31:41.411659,2020-06-25 00:00:00.000000,0.92409793,2.87110068,6.02717678,3910,12149,25504,1680,2738,5310,0.39709389,0.64708172,1.25501798,0.65643025,0.82484597,1.11855680
48061,0,USTexasCameron,Texas,Cameron,2020-07-18 06:31:41.411659,2020-06-26 00:00:00.000000,0.97026922,3.02860517,6.41107101,4105,12815,27129,1757,2896,5584,0.41543439,0.68445892,1.31981115,0.66691069,0.80949406,1.12220166
48061,0,USTexasCameron,Texas,Cameron,2020-07-18 06:31:41.411659,2020-06-27 00:00:00.000000,1.01090926,3.19982477,6.81237926,4277,13540,28827,1846,3037,5862,0.43643620,0.71772676,1.38534936,0.66677838,0.81059595,1.11796092
48061,0,USTexasCameron,Texas,Cameron,2020-07-18 06:31:41.411659,2020-06-28 00:00:00.000000,1.05187872,3.34085376,7.23287172,4451,14137,30606,1940,3181,6209,0.45851410,0.75195594,1.46742073,0.66714419,0.82640489,1.12894902
48061,0,USTexasCameron,Texas,Cameron,2020-07-18 06:31:41.411659,2020-06-29 00:00:00.000000,1.10894640,3.47080625,7.67446456,4692,14687,32475,2038,3333,6585,0.48175095,0.78770601,1.55616726,0.65778510,0.83130338,1.14655041
48061,0,USTexasCameron,Texas,Cameron,2020-07-18 06:31:41.411659,2020-06-30 00:00:00.000000,1.17181476,3.60132210,8.13886447,4958,15239,34440,2142,3495,6972,0.50619037,0.82607756,1.64779552,0.65810966,0.84805775,1.16674230
48061,0,USTexasCameron,Texas,Cameron,2020-07-18 06:31:41.411659,2020-07-01 00:00:00.000000,1.23981093,3.75644410,8.62753305,5246,15895,36508,2250,3665,7374,0.53188546,0.86622806,1.74278000,0.72691823,0.86096052,1.19798554
48061,0,USTexasCameron,Texas,Cameron,2020-07-18 06:31:41.411659,2020-07-02 00:00:00.000000,1.30316810,3.99324274,9.14166208,5514,16897,38684,2365,3857,7792,0.55904448,0.91148938,1.84155480,0.76781809,0.89156173,1.24193009
48061,0,USTexasCameron,Texas,Cameron,2020-07-18 06:31:41.411659,2020-07-03 00:00:00.000000,1.36869004,4.31889274,9.68206537,5791,18275,40970,2483,4044,8228,0.58680395,0.95571972,1.94457762,0.78125228,0.91845570,1.29649513
48061,0,USTexasCameron,Texas,Cameron,2020-07-18 06:31:41.411659,2020-07-04 00:00:00.000000,1.44085902,4.65784665,10.24906008,6097,19710,43370,2654,4292,8694,0.62722733,1.01449638,2.05469788,0.80952340,0.95729483,1.35598506
48061,0,USTexasCameron,Texas,Cameron,2020-07-18 06:31:41.411659,2020-07-05 00:00:00.000000,1.54292147,4.96811255,10.84244296,6529,21023,45881,2778,4561,9289,0.65671224,1.07789770,2.19519488,0.81278450,1.01792580,1.39753719
48061,0,USTexasCameron,Texas,Cameron,2020-07-18 06:31:41.411659,2020-07-06 00:00:00.000000,1.63806480,5.33447489,11.46156748,6931,22573,48501,2981,4932,9933,0.70465395,1.16568701,2.34749684,0.80506496,1.06713646,1.43148738
48061,0,USTexasCameron,Texas,Cameron,2020-07-18 06:31:41.411659,2020-07-07 00:00:00.000000,1.74379979,5.66440112,12.10937637,7379,23969,51242,3158,5229,10662,0.74651923,1.23580534,2.51962421,0.80490592,1.10069600,1.45522744
48061,0,USTexasCameron,Texas,Cameron,2020-07-18 06:31:41.411659,2020-07-08 00:00:00.000000,1.87031813,6.14825329,12.78015920,7914,26017,54080,3350,5697,11540,0.79171375,1.34641461,2.72723508,0.80487876,1.11147901,1.50674098
48061,0,USTexasCameron,Texas,Cameron,2020-07-18 06:31:41.411659,2020-07-09 00:00:00.000000,1.98090232,6.61788426,13.47718365,8382,28004,57030,3550,6024,12466,0.83913213,1.42361158,2.94592358,0.80486896,1.11393924,1.53027306
48061,0,USTexasCameron,Texas,Cameron,2020-07-18 06:31:41.411659,2020-07-10 00:00:00.000000,2.09533882,7.18421663,14.93714382,8866,30400,63208,3759,6590,13192,0.88842097,1.55750095,3.11749135,0.80486461,1.11843861,1.53934993
48061,0,USTexasCameron,Texas,Cameron,2020-07-18 06:31:41.411659,2020-07-11 00:00:00.000000,2.21354837,7.75536189,16.47756353,9366,32817,69726,3975,7049,13956,0.93949369,1.66590745,3.29809088,0.80486266,1.11886241,1.54481155
48061,0,USTexasCameron,Texas,Cameron,2020-07-18 06:31:41.411659,2020-07-12 00:00:00.000000,2.34216494,8.41168361,18.42618063,9911,35595,77972,4199,7654,14979,0.99231130,1.80879491,3.53989256,0.80486179,1.11885989,1.54805246
48061,0,USTexasCameron,Texas,Cameron,2020-07-18 06:31:41.411659,2020-07-13 00:00:00.000000,2.47513215,9.07880398,19.32818050,10473,38418,81789,4429,8377,16283,1.04682139,1.97970446,3.84806375,0.80486141,1.11885853,1.54995977
48061,0,USTexasCameron,Texas,Cameron,2020-07-18 06:31:41.411659,2020-07-14 00:00:00.000000,2.61218462,9.84038164,20.23831228,11053,41640,85641,4667,9088,17906,1.10294395,2.14769065,4.23165605,0.80486124,1.11885778,1.55107679
48061,0,USTexasCameron,Texas,Cameron,2020-07-18 06:31:41.411659,2020-07-15 00:00:00.000000,2.75306176,10.57871434,21.12912315,11649,44765,89410,4911,9733,19646,1.16056872,2.30023632,4.64272566,0.80486117,1.11885736,1.55172910
48061,0,USTexasCameron,Texas,Cameron,2020-07-18 06:31:41.411659,2020-07-16 00:00:00.000000,2.89741937,11.42806942,23.00992865,12260,48359,97369,5160,10569,21494,1.21955498,2.49765647,5.07945594,0.80486114,1.11885713,1.55210941
48061,0,USTexasCameron,Texas,Cameron,2020-07-18 06:31:41.411659,2020-07-17 00:00:00.000000,3.04483036,12.14414615,25.08860768,12884,51389,106165,5415,11360,23406,1.27973320,2.68460730,5.53143254,0.80486112,1.11885700,1.55233091
48061,0,USTexasCameron,Texas,Cameron,2020-07-18 06:31:41.411659,2020-07-18 00:00:00.000000,3.18209510,12.96311720,27.24014248,13465,54855,115270,5674,12196,24863,1.34095292,2.88223068,5.87572037,0.80486112,1.11885693,1.55245985
48061,0,USTexasCameron,Texas,Cameron,2020-07-18 06:31:41.411659,2020-07-19 00:00:00.000000,3.29973556,13.74143490,29.44268182,13963,58148,124590,5936,13081,26356,1.40293481,3.09140334,6.22843741,0.80486111,1.11885688,1.55253489
48061,0,USTexasCameron,Texas,Cameron,2020-07-18 06:31:41.411659,2020-07-20 00:00:00.000000,3.41637376,14.64462492,31.28347761,14456,61970,132380,6201,14103,27865,1.46541674,3.33285047,6.58498468,0.80486111,1.11885686,1.55257854
48061,0,USTexasCameron,Texas,Cameron,2020-07-18 06:31:41.411659,2020-07-21 00:00:00.000000,3.54616582,15.38490782,32.68242512,15006,65103,138299,6466,15032,30030,1.52810699,3.55233241,7.09668359,0.80486111,1.11885685,1.55260394
48061,0,USTexasCameron,Texas,Cameron,2020-07-18 06:31:41.411659,2020-07-22 00:00:00.000000,3.66828193,16.42248510,33.98524288,15522,69493,143812,6711,16042,32294,1.58613455,3.79099504,7.63161404,0.80486111,1.11885684,1.55261871
48061,0,USTexasCameron,Texas,Cameron,2020-07-18 06:31:41.411659,2020-07-23 00:00:00.000000,3.79190550,17.41141959,35.15603002,16045,73678,148767,6951,17348,33734,1.64280461,4.09969828,7.97201601,0.80486111,1.11885683,1.55262731
48061,0,USTexasCameron,Texas,Cameron,2020-07-18 06:31:41.411659,2020-07-24 00:00:00.000000,3.92906751,18.44295925,36.64225622,16626,78043,155056,7172,18359,35154,1.69504874,4.33855212,8.30767108,0.80486111,1.11885683,1.55263231
48061,0,USTexasCameron,Texas,Cameron,2020-07-18 06:31:41.411659,2020-07-25 00:00:00.000000,4.06360758,19.49524764,37.84508894,17195,82496,160146,7421,19300,36544,1.75389208,4.56110236,8.63605504,0.80486111,1.11885683,1.55263521
48061,0,USTexasCameron,Texas,Cameron,2020-07-18 06:31:41.411659,2020-07-26 00:00:00.000000,4.17991449,20.51322614,38.96425227,17687,86804,164882,7691,20470,38540,1.81754161,4.83761099,9.10765710,0.80486111,1.11885683,1.55263690
48061,0,USTexasCameron,Texas,Cameron,2020-07-18 06:31:41.411659,2020-07-27 00:00:00.000000,4.29651391,21.52679092,39.98858864,18181,91093,169216,7953,21497,40600,1.87951051,5.08009949,9.59452765,0.80486111,1.11885683,1.55263789
48061,0,USTexasCameron,Texas,Cameron,2020-07-18 06:31:41.411659,2020-07-28 00:00:00.000000,4.42199812,22.37034615,40.90800684,18712,94663,173107,8206,22410,42557,1.93921352,5.29598659,10.05706332,0.80486111,1.11885683,1.55263846
48061,0,USTexasCameron,Texas,Cameron,2020-07-18 06:31:41.411659,2020-07-29 00:00:00.000000,4.54070433,23.25882467,41.71373477,19214,98422,176517,8431,23634,44380,1.99238258,5.58511714,10.48787523,0.80486111,1.11885683,1.55263879
48061,0,USTexasCameron,Texas,Cameron,2020-07-18 06:31:41.411659,2020-07-30 00:00:00.000000,4.64251573,23.90460343,42.39853157,19645,101155,179414,8632,25077,46039,2.03998191,5.92620401,10.87987316,0.80486111,1.11885683,1.55263899
