FIPS,HR_UID,nameid,province,region,analysisTime,dates,pointprevalence_025,pointprevalence_50,pointprevalence_975,pointinfections_025,pointinfections_50,pointinfections_975,pointinfectious_025,pointinfectious_50,pointinfectious_975,pointinfectiousprevalence_05,pointinfectiousprevalence_50,pointinfectiousprevalence_95,infectrate_025,infectrate_50,infectrate_975
17191,0,USIllinoisWayne,Illinois,Wayne,2020-07-18 17:15:12.654736,2020-03-09 00:00:00.000000,50.74569203,79.02073341,99.86826020,8228,12813,16193,7914,12237,15562,48.80930204,75.46978778,95.97624499,1.90897817,2.07963255,2.11160104
17191,0,USIllinoisWayne,Illinois,Wayne,2020-07-18 17:15:12.654736,2020-03-10 00:00:00.000000,95.83566114,97.99334297,109.74116591,15539,15889,17794,7351,11632,14938,45.33476519,71.74036589,92.12795954,1.90897819,2.07964365,2.11162464
17191,0,USIllinoisWayne,Illinois,Wayne,2020-07-18 17:15:12.654736,2020-03-11 00:00:00.000000,91.96517819,106.10473248,128.92754867,14912,17204,20905,14333,14848,16501,88.39512861,91.57495997,101.76476344,1.90897825,2.07966685,2.11167368
17191,0,USIllinoisWayne,Illinois,Wayne,2020-07-18 17:15:12.654736,2020-03-12 00:00:00.000000,88.25104136,110.02598084,132.89208954,14309,17840,21548,13754,15051,16356,84.82635357,92.82378222,100.87168002,1.90897835,2.07971529,2.11177556
17191,0,USIllinoisWayne,Illinois,Wayne,2020-07-18 17:15:12.654736,2020-03-13 00:00:00.000000,84.68808277,95.56148470,107.19222906,13732,15495,17381,13199,14785,16389,81.40158099,91.18636644,101.07770733,1.90897859,2.07981641,2.11198708
17191,0,USIllinoisWayne,Illinois,Wayne,2020-07-18 17:15:12.654736,2020-03-14 00:00:00.000000,81.26889225,91.27013877,101.41308416,13177,14799,16444,12666,14152,15690,78.11508230,87.27940847,96.76422122,1.90897923,2.08002730,2.11242587
17191,0,USIllinoisWayne,Illinois,Wayne,2020-07-18 17:15:12.654736,2020-03-15 00:00:00.000000,77.98775068,87.14245571,96.64278829,12645,14130,15670,12154,13576,15144,74.96127227,83.72898164,93.39915586,1.90898157,2.08046633,2.11333442
17191,0,USIllinoisWayne,Illinois,Wayne,2020-07-18 17:15:12.654736,2020-03-16 00:00:00.000000,74.83908153,83.58979748,93.28607252,12135,13554,15126,11664,13022,14617,71.93479386,80.31198268,90.14958366,1.90899233,2.08137678,2.11520834
17191,0,USIllinoisWayne,Illinois,Wayne,2020-07-18 17:15:12.654736,2020-03-17 00:00:00.000000,71.81753643,80.17825378,90.04017427,11645,13000,14600,11193,12491,14109,69.03050619,77.03487990,87.01318478,1.90904834,2.08324987,2.11904246
17191,0,USIllinoisWayne,Illinois,Wayne,2020-07-18 17:15:12.654736,2020-03-18 00:00:00.000000,68.91798291,76.90659823,86.90759971,11175,12470,14092,10741,11981,13618,66.24347595,73.89146161,83.98620090,1.90935242,2.08704095,2.12676013
17191,0,USIllinoisWayne,Illinois,Wayne,2020-07-18 17:15:12.654736,2020-03-19 00:00:00.000000,66.13549567,73.76841476,83.88431006,10723,11961,13601,10307,11492,13144,63.56896900,70.87632958,81.06480244,1.91100549,2.09446568,2.14179602
17191,0,USIllinoisWayne,Illinois,Wayne,2020-07-18 17:15:12.654736,2020-03-20 00:00:00.000000,63.46534830,70.75830473,80.96647632,10290,11473,13128,9891,11023,12687,61.00244232,67.98424415,78.24529480,1.91945114,2.10810595,2.16930930
17191,0,USIllinoisWayne,Illinois,Wayne,2020-07-18 17:15:12.654736,2020-03-21 00:00:00.000000,60.90300520,67.87103640,78.15040826,9875,11005,12672,9492,10573,12246,58.53953634,65.21018361,75.52411328,1.95160379,2.13040387,2.21431449
17191,0,USIllinoisWayne,Illinois,Wayne,2020-07-18 17:15:12.654736,2020-03-22 00:00:00.000000,58.44411388,65.10159635,75.43254557,9476,10556,12231,9108,10142,11820,56.17606747,62.54933083,72.89781830,2.00447664,2.16041445,2.27591411
17191,0,USIllinoisWayne,Illinois,Wayne,2020-07-18 17:15:12.654736,2020-03-23 00:00:00.000000,56.08449760,62.44517546,72.80945292,9094,10125,11806,8741,9728,11409,53.90802107,59.99706530,70.36309103,2.02973287,2.19015364,2.34218648
17191,0,USIllinoisWayne,Illinois,Wayne,2020-07-18 17:15:12.654736,2020-03-24 00:00:00.000000,53.82014822,59.89716093,70.27781560,8726,9712,11395,8388,9331,11012,51.73154454,57.54895514,67.91672914,2.01559954,2.21160689,2.39597844
17191,0,USIllinoisWayne,Illinois,Wayne,2020-07-18 17:15:12.654736,2020-03-25 00:00:00.000000,51.64721947,57.45312824,67.83443523,8374,9316,10999,8049,8950,10629,49.64294085,55.20074936,65.55564267,1.96037163,2.21556447,2.42427243
17191,0,USIllinoisWayne,Illinois,Wayne,2020-07-18 17:15:12.654736,2020-03-26 00:00:00.000000,49.56202031,55.10883349,65.47622568,8036,8935,10616,7724,8585,10260,47.63866224,52.94837049,63.27685012,1.89993631,2.18781950,2.41007749
17191,0,USIllinoisWayne,Illinois,Wayne,2020-07-18 17:15:12.654736,2020-03-27 00:00:00.000000,47.56100878,52.86020600,63.20020911,7712,8571,10247,7412,8235,9903,45.71530418,50.78790750,61.07747456,1.86982331,2.11863884,2.31807440
17191,0,USIllinoisWayne,Illinois,Wayne,2020-07-18 17:15:12.654736,2020-03-28 00:00:00.000000,45.64078589,50.70334127,61.00351217,7400,8221,9891,7113,7899,9559,43.86959957,48.71560899,58.95474002,1.86019800,2.02703811,2.16125350
17191,0,USIllinoisWayne,Illinois,Wayne,2020-07-18 17:15:12.654736,2020-03-29 00:00:00.000000,43.79808987,48.63449416,58.88336231,7101,7886,9547,6826,7576,9227,42.09841325,46.72787671,56.90596787,1.85804451,1.97053123,2.05329326
17191,0,USIllinoisWayne,Illinois,Wayne,2020-07-18 17:15:12.654736,2020-03-30 00:00:00.000000,42.02979068,46.65007239,56.83708420,6815,7564,9216,6550,7267,8906,40.39873663,44.82125927,54.92857342,1.85850396,1.95509559,2.01380148
17191,0,USIllinoisWayne,Illinois,Wayne,2020-07-18 17:15:12.654736,2020-03-31 00:00:00.000000,40.33288462,44.74663033,54.86209636,6539,7255,8895,6286,6971,8597,38.76768257,42.99244614,53.02006265,1.86030128,1.95823476,2.00121900
17191,0,USIllinoisWayne,Illinois,Wayne,2020-07-18 17:15:12.654736,2020-04-01 00:00:00.000000,38.70448927,42.92086298,52.95590783,6275,6959,8586,6032,6686,8298,37.20248053,41.23826196,51.17802893,1.86310370,1.96822577,1.99416011
17191,0,USIllinoisWayne,Illinois,Wayne,2020-07-18 17:15:12.654736,2020-04-02 00:00:00.000000,37.14183858,41.16960025,51.11611496,6022,6675,8288,5788,6413,8010,35.70047179,39.55566093,49.40015004,1.86649893,1.97898062,1.98494691
17191,0,USIllinoisWayne,Illinois,Wayne,2020-07-18 17:15:12.654736,2020-04-03 00:00:00.000000,35.64227820,39.48980143,49.34039838,5779,6403,8000,5555,6152,7731,34.25910499,37.94172162,47.68418511,1.86725289,1.96898016,1.99982436
17191,0,USIllinoisWayne,Illinois,Wayne,2020-07-18 17:15:12.654736,2020-04-04 00:00:00.000000,34.20326090,37.87854995,47.62652000,5546,6142,7722,5330,5901,7463,32.87593179,36.39364180,46.02797185,1.86647461,1.94467602,2.01731324
17191,0,USIllinoisWayne,Illinois,Wayne,2020-07-18 17:15:12.654736,2020-04-05 00:00:00.000000,32.82234234,36.33304826,45.97232018,5322,5891,7454,5115,5660,7204,31.54860267,34.90873365,44.42942370,1.86470543,1.91139905,2.02728795
17191,0,USIllinoisWayne,Illinois,Wayne,2020-07-18 17:15:12.654736,2020-04-06 00:00:00.000000,31.49717684,34.85061301,44.37571494,5107,5651,7195,4909,5429,6954,30.27486301,33.48441905,42.88652722,1.86227729,1.87340594,2.03174877
17191,0,USIllinoisWayne,Illinois,Wayne,2020-07-18 17:15:12.654736,2020-04-07 00:00:00.000000,30.22551344,33.42867036,42.83469331,4901,5420,6945,4710,5207,6712,29.05254917,32.11822509,41.39733950,1.83570502,1.84896495,2.03489376
17191,0,USIllinoisWayne,Illinois,Wayne,2020-07-18 17:15:12.654736,2020-04-08 00:00:00.000000,29.00519203,32.06475155,41.34731479,4703,5199,6704,4520,4995,6479,27.87958490,30.80777982,39.95998568,1.79985387,1.83121472,2.03703217
17191,0,USIllinoisWayne,Illinois,Wayne,2020-07-18 17:15:12.654736,2020-04-09 00:00:00.000000,27.83413976,30.75648856,39.91170682,4513,4987,6471,4338,4791,6254,26.75397777,29.55080809,38.57265657,1.76248221,1.81257242,2.03802562
17191,0,USIllinoisWayne,Illinois,Wayne,2020-07-18 17:15:12.654736,2020-04-10 00:00:00.000000,26.71036742,29.50161005,38.52606243,4331,4783,6247,4163,4596,6037,25.67381578,28.34512761,37.23360632,1.71999441,1.79127078,2.03795608
17191,0,USIllinoisWayne,Illinois,Wayne,2020-07-18 17:15:12.654736,2020-04-11 00:00:00.000000,25.63196615,28.29793735,37.18863793,4156,4588,6030,3994,4408,5827,24.63726413,27.18864517,35.94115021,1.67248910,1.76742844,2.03528112
17191,0,USIllinoisWayne,Illinois,Wayne,2020-07-18 17:15:12.654736,2020-04-12 00:00:00.000000,24.59710414,27.14338074,35.89775065,3988,4401,5820,3833,4228,5625,23.64256211,26.07935299,34.69366249,1.62451881,1.74391244,2.02265130
17191,0,USIllinoisWayne,Illinois,Wayne,2020-07-18 17:15:12.654736,2020-04-13 00:00:00.000000,23.60402353,26.03593579,34.65177687,3827,4221,5618,3678,4056,5430,22.68802008,25.01532524,33.48957433,1.58226892,1.72520726,1.97820444
17191,0,USIllinoisWayne,Illinois,Wayne,2020-07-18 17:15:12.654736,2020-04-14 00:00:00.000000,22.65103745,24.97367988,33.44914966,3672,4049,5423,3530,3890,5241,21.77201662,23.99471470,32.32737179,1.55007551,1.71372410,1.89292057
17191,0,USIllinoisWayne,Illinois,Wayne,2020-07-18 17:15:12.654736,2020-04-15 00:00:00.000000,21.73652713,23.95476885,32.28835696,3524,3884,5235,3387,3732,5059,20.89299579,23.01574951,31.20559392,1.52801084,1.67763551,1.87675940
17191,0,USIllinoisWayne,Illinois,Wayne,2020-07-18 17:15:12.654736,2020-04-16 00:00:00.000000,20.85893915,22.97743382,31.16793961,3382,3725,5053,3251,3579,4884,20.04946446,22.07673018,30.12283087,1.51193155,1.65746478,1.87218715
17191,0,USIllinoisWayne,Illinois,Wayne,2020-07-18 17:15:12.654736,2020-04-17 00:00:00.000000,20.01678281,22.03997810,30.08648949,3245,3573,4878,3119,3433,4714,19.23998976,21.17602653,29.07772213,1.47053875,1.63359081,1.86088695
17191,0,USIllinoisWayne,Illinois,Wayne,2020-07-18 17:15:12.654736,2020-04-18 00:00:00.000000,19.20862760,21.14077426,29.04264776,3114,3427,4709,2993,3293,4551,18.46319671,20.31207496,28.06895477,1.32721736,1.55762411,1.83877918
17191,0,USIllinoisWayne,Illinois,Wayne,2020-07-18 17:15:12.654736,2020-04-19 00:00:00.000000,18.43310076,20.27826128,28.03510310,2988,3288,4545,2872,3159,4393,17.71776581,19.48337566,27.09526179,1.27343433,1.52469750,1.80118243
17191,0,USIllinoisWayne,Illinois,Wayne,2020-07-18 17:15:12.654736,2020-04-20 00:00:00.000000,17.68888495,19.45094186,27.06259007,2868,3153,4388,2756,3030,4241,17.00243086,18.68849003,26.15542048,1.27046884,1.50933502,1.76230393
17191,0,USIllinoisWayne,Illinois,Wayne,2020-07-18 17:15:12.654736,2020-04-21 00:00:00.000000,16.97471604,18.65737979,26.12388745,2752,3025,4235,2645,2906,4094,16.31597676,17.92603821,25.24825090,1.27499213,1.48086959,1.74491907
17191,0,USIllinoisWayne,Illinois,Wayne,2020-07-18 17:15:12.654736,2020-04-22 00:00:00.000000,16.28938089,17.89619751,25.21781675,2641,2901,4089,2538,2788,3952,15.65723748,17.19469662,24.37261434,1.28527913,1.45860695,1.71814339
17191,0,USIllinoisWayne,Illinois,Wayne,2020-07-18 17:15:12.654736,2020-04-23 00:00:00.000000,15.63171539,17.16607365,24.34324068,2534,2783,3947,2436,2674,3814,15.02509407,16.49319574,23.52741193,1.30400116,1.44232236,1.64991051
17191,0,USIllinoisWayne,Illinois,Wayne,2020-07-18 17:15:12.654736,2020-04-24 00:00:00.000000,15.00060241,16.46574080,23.49906168,2432,2669,3810,2337,2565,3682,14.41847275,15.82031782,22.71158317,1.33243371,1.41819047,1.51511477
17191,0,USIllinoisWayne,Illinois,Wayne,2020-07-18 17:15:12.654736,2020-04-25 00:00:00.000000,14.39496991,15.79398324,22.68422059,2334,2560,3678,2243,2460,3554,13.83634309,15.17489485,21.92410466,1.36049592,1.36656714,1.43968005
17191,0,USIllinoisWayne,Illinois,Wayne,2020-07-18 17:15:12.654736,2020-04-26 00:00:00.000000,13.81378915,15.14963490,21.89769522,2239,2456,3550,2152,2360,3431,13.27771626,14.55580645,21.16398874,1.30841690,1.39880538,1.40272438
17191,0,USIllinoisWayne,Illinois,Wayne,2020-07-18 17:15:12.654736,2020-04-27 00:00:00.000000,13.25607291,14.53157728,21.13849915,2149,2356,3427,2066,2263,3312,12.74164337,13.96197800,20.43028225,1.29447574,1.40678441,1.42547122
17191,0,USIllinoisWayne,Illinois,Wayne,2020-07-18 17:15:12.654736,2020-04-28 00:00:00.000000,12.72087385,13.93873754,20.40568038,2062,2260,3308,1982,2171,3197,12.22721383,13.39237872,19.72206536,1.29450059,1.41753522,1.44799509
17191,0,USIllinoisWayne,Illinois,Wayne,2020-07-18 17:15:12.654736,2020-04-29 00:00:00.000000,12.20728286,13.37008662,19.69832020,1979,2167,3194,1902,2082,3087,11.73355381,12.84601990,19.03845033,1.30099236,1.43002622,1.46852661
17191,0,USIllinoisWayne,Illinois,Wayne,2020-07-18 17:15:12.654736,2020-04-30 00:00:00.000000,11.71442752,12.82463746,19.01553197,1899,2079,3083,1825,1998,2980,11.25982476,12.32195318,18.37858047,1.31232868,1.44095329,1.48534322
17191,0,USIllinoisWayne,Illinois,Wayne,2020-07-18 17:15:12.654736,2020-05-01 00:00:00.000000,11.24147068,12.30144327,18.35646003,1822,1994,2976,1752,1916,2876,10.80522199,11.81926891,17.74162897,1.32576944,1.44844786,1.49582516
17191,0,USIllinoisWayne,Illinois,Wayne,2020-07-18 17:15:12.654736,2020-05-02 00:00:00.000000,10.78760893,11.79959592,17.72027859,1749,1913,2873,1681,1838,2777,10.36897330,11.33709455,17.12679791,1.33697332,1.45275209,1.50091777
17191,0,USIllinoisWayne,Illinois,Wayne,2020-07-18 17:15:12.654736,2020-05-03 00:00:00.000000,10.35207135,11.31822432,17.10619072,1678,1835,2773,1613,1763,2680,9.95033767,10.87459318,16.53331723,1.34370060,1.45471562,1.50261488
17191,0,USIllinoisWayne,Illinois,Wayne,2020-07-18 17:15:12.654736,2020-05-04 00:00:00.000000,9.93411812,10.85649296,16.51342728,1610,1760,2677,1548,1691,2587,9.54860398,10.43096204,15.96044375,1.34603066,1.45438951,1.50131472
17191,0,USIllinoisWayne,Illinois,Wayne,2020-07-18 17:15:12.654736,2020-05-05 00:00:00.000000,9.53303928,10.41360040,15.94124600,1545,1688,2584,1485,1622,2498,9.16308984,10.00543112,15.40746023,1.34287621,1.44942116,1.49390978
17191,0,USIllinoisWayne,Illinois,Wayne,2020-07-18 17:15:12.654736,2020-05-06 00:00:00.000000,9.14815355,9.98877792,15.38893053,1483,1619,2495,1425,1556,2411,8.79314041,9.59726183,14.87367445,1.32712402,1.43189639,1.47121234
17191,0,USIllinoisWayne,Illinois,Wayne,2020-07-18 17:15:12.654736,2020-05-07 00:00:00.000000,8.77880715,9.58128816,14.85578949,1423,1553,2408,1368,1492,2328,8.43812727,9.20574575,14.35841837,1.28101498,1.38872870,1.42715566
17191,0,USIllinoisWayne,Illinois,Wayne,2020-07-18 17:15:12.654736,2020-05-08 00:00:00.000000,8.42437270,9.19042388,14.34115566,1366,1490,2325,1313,1431,2247,8.09744739,8.83020334,13.86104726,1.19742110,1.31808362,1.38469316
17191,0,USIllinoisWayne,Illinois,Wayne,2020-07-18 17:15:12.654736,2020-05-09 00:00:00.000000,8.08424814,8.81550666,13.84438508,1310,1429,2244,1259,1373,2169,7.77052208,8.46998279,13.38093886,1.12467887,1.24901374,1.36375615
17191,0,USIllinoisWayne,Illinois,Wayne,2020-07-18 17:15:12.654736,2020-05-10 00:00:00.000000,7.75785574,8.45588580,13.36485627,1257,1371,2167,1209,1317,2094,7.45679601,8.12445893,12.91749264,1.07201060,1.22844269,1.35629428
17191,0,USIllinoisWayne,Illinois,Wayne,2020-07-18 17:15:12.654736,2020-05-11 00:00:00.000000,7.44464106,8.11093715,12.90196942,1207,1315,2092,1160,1263,2022,7.15573628,7.79303205,12.47012901,1.05208904,1.22791846,1.35314857
17191,0,USIllinoisWayne,Illinois,Wayne,2020-07-18 17:15:12.654736,2020-05-12 00:00:00.000000,7.14407207,7.78006201,12.45514566,1158,1261,2019,1113,1212,1952,6.86683150,7.47512695,12.03828859,1.04714102,1.22984458,1.35085063
17191,0,USIllinoisWayne,Illinois,Wayne,2020-07-18 17:15:12.654736,2020-05-13 00:00:00.000000,6.85563822,7.46268613,12.02382628,1111,1210,1949,1068,1162,1884,6.58959093,7.17019190,11.62143153,1.04612864,1.23053522,1.34832574
17191,0,USIllinoisWayne,Illinois,Wayne,2020-07-18 17:15:12.654736,2020-05-14 00:00:00.000000,6.57884957,7.15825870,11.60747209,1066,1160,1882,1025,1115,1819,6.32354364,6.87769766,11.21903677,1.04598509,1.22994986,1.34530471
17191,0,USIllinoisWayne,Illinois,Wayne,2020-07-18 17:15:12.654736,2020-05-15 00:00:00.000000,6.31323594,6.86625138,11.20556268,1023,1113,1816,983,1069,1756,6.06823770,6.59713662,10.83060144,1.04598301,1.22861837,1.34185706
17191,0,USIllinoisWayne,Illinois,Wayne,2020-07-18 17:15:12.654736,2020-05-16 00:00:00.000000,6.05834617,6.58615738,10.81759578,982,1067,1754,944,1026,1695,5.82323946,6.32802187,10.45564021,1.04594943,1.22696117,1.33824310
17191,0,USIllinoisWayne,Illinois,Wayne,2020-07-18 17:15:12.654736,2020-05-17 00:00:00.000000,5.81374729,6.31749060,10.44308664,942,1024,1693,906,984,1636,5.58813275,6.06988635,10.09368464,1.04577559,1.22524544,1.33478073
17191,0,USIllinoisWayne,Illinois,Wayne,2020-07-18 17:15:12.654736,2020-05-18 00:00:00.000000,5.57902382,6.05978479,10.08156741,904,982,1634,869,944,1580,5.36251821,5.82228210,9.74428264,1.04518772,1.22352508,1.33165958
17191,0,USIllinoisWayne,Illinois,Wayne,2020-07-18 17:15:12.654736,2020-05-19 00:00:00.000000,5.35377704,5.81259271,9.73258655,868,942,1578,834,905,1525,5.14601260,5.58477941,9.40699786,1.04335389,1.22137152,1.32862926
17191,0,USIllinoisWayne,Illinois,Wayne,2020-07-18 17:15:12.654736,2020-05-20 00:00:00.000000,5.13762434,5.57548536,9.39570824,833,904,1523,800,868,1472,4.93824816,5.35696612,9.08140917,1.03795135,1.21697626,1.32403633
17191,0,USIllinoisWayne,Illinois,Wayne,2020-07-18 17:15:12.654736,2020-05-21 00:00:00.000000,4.93019857,5.34805128,9.07051185,799,867,1470,768,833,1421,4.73887198,5.13844688,8.76711011,1.02403051,1.20477640,1.31122030
17191,0,USIllinoisWayne,Illinois,Wayne,2020-07-18 17:15:12.654736,2020-05-22 00:00:00.000000,4.73114739,5.12989578,8.75659142,767,831,1419,737,799,1372,4.54754539,4.92884247,8.46370838,0.99777296,1.17332505,1.27012522
17191,0,USIllinoisWayne,Illinois,Wayne,2020-07-18 17:15:12.654736,2020-05-23 00:00:00.000000,4.54013267,4.92064027,8.45355513,736,797,1370,707,766,1324,4.36394339,4.72778916,8.17082533,0.96847654,1.11907407,1.18294317
17191,0,USIllinoisWayne,Illinois,Wayne,2020-07-18 17:15:12.654736,2020-05-24 00:00:00.000000,4.35682995,4.71992162,8.16102480,706,765,1323,679,735,1279,4.18775412,4.53493805,7.88809552,0.95006200,1.07396679,1.10240279
17191,0,USIllinoisWayne,Illinois,Wayne,2020-07-18 17:15:12.654736,2020-05-25 00:00:00.000000,4.18092788,4.52739151,7.87863543,677,734,1277,651,705,1234,4.01867830,4.34995448,7.61516624,0.94255071,1.05534969,1.06804591
17191,0,USIllinoisWayne,Illinois,Wayne,2020-07-18 17:15:12.654736,2020-05-26 00:00:00.000000,4.01212765,4.34271585,7.60603473,650,704,1233,625,676,1192,3.85642872,4.17251746,7.35169704,0.94105463,1.04830163,1.05088466
17191,0,USIllinoisWayne,Illinois,Wayne,2020-07-18 17:15:12.654736,2020-05-27 00:00:00.000000,3.85014255,4.16557416,7.34288268,624,675,1190,600,648,1150,3.70072978,4.00231906,7.09735936,0.94134963,1.01315178,1.05394421
17191,0,USIllinoisWayne,Illinois,Wayne,2020-07-18 17:15:12.654736,2020-05-28 00:00:00.000000,3.69469741,3.99565906,7.08885109,599,647,1149,575,622,1111,3.55131701,3.83906397,6.85183604,0.90305799,0.92850091,1.06482293
17191,0,USIllinoisWayne,Illinois,Wayne,2020-07-18 17:15:12.654736,2020-05-29 00:00:00.000000,3.54552819,3.83267569,6.84362321,574,621,1109,552,597,1072,3.40793662,3.68246888,6.61482099,0.73866589,0.86794614,1.08732926
17191,0,USIllinoisWayne,Illinois,Wayne,2020-07-18 17:15:12.654736,2020-05-30 00:00:00.000000,3.40238151,3.67634124,6.60689332,551,596,1071,530,572,1035,3.27034504,3.53226207,6.38601876,0.64174605,0.85146371,1.10820727
17191,0,USIllinoisWayne,Illinois,Wayne,2020-07-18 17:15:12.654736,2020-05-31 00:00:00.000000,3.26501422,3.52638444,6.37836633,529,571,1034,508,549,999,3.13830858,3.38818290,6.16514420,0.61278345,0.85466566,1.12069881
17191,0,USIllinoisWayne,Illinois,Wayne,2020-07-18 17:15:12.654736,2020-06-01 00:00:00.000000,3.13319298,3.38254507,6.15775742,508,548,998,488,526,965,3.01160293,3.24998136,5.95192206,0.60600251,0.85671404,1.12607878
17191,0,USIllinoisWayne,Illinois,Wayne,2020-07-18 17:15:12.654736,2020-06-02 00:00:00.000000,3.00669387,3.24457355,5.94479170,487,526,963,468,505,931,2.89001289,3.11741765,5.74608670,0.60451372,0.85729956,1.12759663
17191,0,USIllinoisWayne,Illinois,Wayne,2020-07-18 17:15:12.654736,2020-06-03 00:00:00.000000,2.88530202,3.11223047,5.73920383,467,504,930,449,484,899,2.77333190,2.99026175,5.54738170,0.60423472,0.85745777,1.12689801
17191,0,USIllinoisWayne,Illinois,Wayne,2020-07-18 17:15:12.654736,2020-06-04 00:00:00.000000,2.76881123,2.98528620,5.54073771,448,484,898,431,465,868,2.66136178,2.86829302,5.35555956,0.60456393,0.85768201,1.12441371
17191,0,USIllinoisWayne,Illinois,Wayne,2020-07-18 17:15:12.654736,2020-06-05 00:00:00.000000,2.65702363,2.86352047,5.34914615,430,464,867,414,446,838,2.55391232,2.75129984,5.17038142,0.60790578,0.85941818,1.12003363
17191,0,USIllinoisWayne,Illinois,Wayne,2020-07-18 17:15:12.654736,2020-06-06 00:00:00.000000,2.54974932,2.74672200,5.16419055,413,445,837,397,427,809,2.45080102,2.63907921,4.99161668,0.63252322,0.87210231,1.11370291
17191,0,USIllinoisWayne,Illinois,Wayne,2020-07-18 17:15:12.654736,2020-06-07 00:00:00.000000,2.44680609,2.63468814,4.98564063,396,427,808,381,410,781,2.35185272,2.53143642,4.81904281,0.72145775,0.91436124,1.10970160
17191,0,USIllinoisWayne,Illinois,Wayne,2020-07-18 17:15:12.654736,2020-06-08 00:00:00.000000,2.34801908,2.52722450,4.81327410,380,409,780,365,393,754,2.25689934,2.42818470,4.65244499,0.78914215,0.94339142,1.10820948
17191,0,USIllinoisWayne,Illinois,Wayne,2020-07-18 17:15:12.654736,2020-06-09 00:00:00.000000,2.25322049,2.42414461,4.64687641,365,393,753,351,377,728,2.16577960,2.32914490,4.49161588,0.80163358,0.94681335,1.10577311
17191,0,USIllinoisWayne,Illinois,Wayne,2020-07-18 17:15:12.654736,2020-06-10 00:00:00.000000,2.16224927,2.32526964,4.48624047,350,377,727,337,362,703,2.07833872,2.23414520,4.33635535,0.80140169,0.94547860,1.10105451
17191,0,USIllinoisWayne,Illinois,Wayne,2020-07-18 17:15:12.654736,2020-06-11 00:00:00.000000,2.07495092,2.23042803,4.33116640,336,361,702,323,347,678,1.99442816,2.14302075,4.18647023,0.79641132,0.94370110,1.09120440
17191,0,USIllinoisWayne,Illinois,Wayne,2020-07-18 17:15:12.654736,2020-06-12 00:00:00.000000,1.99117714,2.13945524,4.18146125,322,346,678,310,333,655,1.91390540,2.05561346,4.04177406,0.78340498,0.92731303,1.09280515
17191,0,USIllinoisWayne,Illinois,Wayne,2020-07-18 17:15:12.654736,2020-06-13 00:00:00.000000,1.91078564,2.05219341,4.03693880,309,332,654,297,319,632,1.83663365,1.97177169,3.90208687,0.75589213,0.89884812,1.09342391
17191,0,USIllinoisWayne,Illinois,Wayne,2020-07-18 17:15:12.654736,2020-06-14 00:00:00.000000,1.83363985,1.96849116,3.89741929,297,319,631,285,306,610,1.76248166,1.89134996,3.76723494,0.71437266,0.86288988,1.08793733
17191,0,USIllinoisWayne,Illinois,Wayne,2020-07-18 17:15:12.654736,2020-06-15 00:00:00.000000,1.75960873,1.88820327,3.76272921,285,306,610,274,294,589,1.69132348,1.81420876,3.63705058,0.67540425,0.83075618,1.07047633
17191,0,USIllinoisWayne,Illinois,Wayne,2020-07-18 17:15:12.654736,2020-06-16 00:00:00.000000,1.68856654,1.81119045,3.63270109,273,293,589,263,282,569,1.62303822,1.74021425,3.51137195,0.65396329,0.81008516,1.03517120
17191,0,USIllinoisWayne,Illinois,Wayne,2020-07-18 17:15:12.654736,2020-06-17 00:00:00.000000,1.62039259,1.73731907,3.50717326,262,281,568,252,270,549,1.55750991,1.66923805,3.39004282,0.65477359,0.80285593,0.98424606
17191,0,USIllinoisWayne,Illinois,Wayne,2020-07-18 17:15:12.654736,2020-06-18 00:00:00.000000,1.55497109,1.66646099,3.38598968,252,270,549,242,259,530,1.49462722,1.60115704,3.27291238,0.69321689,0.81351484,0.93996013
17191,0,USIllinoisWayne,Illinois,Wayne,2020-07-18 17:15:12.654736,2020-06-19 00:00:00.000000,1.49219091,1.59849326,3.26899975,241,259,530,232,249,512,1.43428336,1.53585310,3.15983508,0.77365566,0.83522740,0.93147051
17191,0,USIllinoisWayne,Illinois,Wayne,2020-07-18 17:15:12.654736,2020-06-20 00:00:00.000000,1.43194540,1.53329799,3.15605807,232,248,511,223,238,494,1.37637581,1.47321293,3.05067041,0.82830767,0.85312887,0.92688466
17191,0,USIllinoisWayne,Illinois,Wayne,2020-07-18 17:15:12.654736,2020-06-21 00:00:00.000000,1.37413225,1.47076206,3.04702431,222,238,494,214,229,477,1.32080621,1.41312787,2.94528275,0.84481987,0.85713540,0.92487921
17191,0,USIllinoisWayne,Illinois,Wayne,2020-07-18 17:15:12.654736,2020-06-22 00:00:00.000000,1.31865323,1.41077698,2.94176302,213,228,477,205,219,461,1.26748017,1.35549368,2.84354119,0.84846365,0.85746057,0.92474843
17191,0,USIllinoisWayne,Illinois,Wayne,2020-07-18 17:15:12.654736,2020-06-23 00:00:00.000000,1.26541411,1.35323870,2.84014344,205,219,460,197,210,445,1.21630710,1.30021038,2.74531936,0.84928165,0.85811711,0.92663821
17191,0,USIllinoisWayne,Illinois,Wayne,2020-07-18 17:15:12.654736,2020-06-24 00:00:00.000000,1.21432447,1.29804739,2.74203935,196,210,444,189,202,429,1.16720010,1.24718206,2.65049529,0.84972388,0.86052606,0.93159314
17191,0,USIllinoisWayne,Illinois,Wayne,2020-07-18 17:15:12.654736,2020-06-25 00:00:00.000000,1.16529750,1.24510731,2.64732893,188,201,429,181,193,414,1.12007573,1.19631674,2.55895124,0.85074124,0.86640170,0.94114632
17191,0,USIllinoisWayne,Illinois,Wayne,2020-07-18 17:15:12.654736,2020-06-26 00:00:00.000000,1.11824995,1.19432662,2.55589458,181,193,414,174,186,400,1.07485396,1.14752617,2.47057354,0.85399468,0.87779843,0.95543653
17191,0,USIllinoisWayne,Illinois,Wayne,2020-07-18 17:15:12.654736,2020-06-27 00:00:00.000000,1.07310189,1.14561724,2.46762278,174,185,400,167,178,386,1.03145796,1.10072572,2.38525250,0.86422215,0.89541721,0.97099298
17191,0,USIllinoisWayne,Illinois,Wayne,2020-07-18 17:15:12.654736,2020-06-28 00:00:00.000000,1.02977663,1.09889466,2.38240397,166,178,386,160,171,373,0.98981403,1.05583420,2.30288223,0.89217788,0.92001670,0.98307462
17191,0,USIllinoisWayne,Illinois,Wayne,2020-07-18 17:15:12.654736,2020-06-29 00:00:00.000000,0.98820058,1.05407783,2.30013236,160,170,372,154,164,360,0.94985142,1.01277374,2.22336049,0.94575426,0.95307275,0.99021624
17191,0,USIllinoisWayne,Illinois,Wayne,2020-07-18 17:15:12.654736,2020-06-30 00:00:00.000000,0.94830312,1.01108902,2.22070587,153,163,360,147,157,348,0.91150226,0.97146964,2.14658861,0.96734345,0.99924931,1.00292375
17191,0,USIllinoisWayne,Illinois,Wayne,2020-07-18 17:15:12.654736,2020-07-01 00:00:00.000000,0.91001646,0.96985365,2.14402594,147,157,347,141,151,336,0.87470140,0.93185026,2.07247135,0.96969408,1.01670573,1.03603030
17191,0,USIllinoisWayne,Illinois,Wayne,2020-07-18 17:15:12.654736,2020-07-02 00:00:00.000000,0.87327559,0.93030019,2.06999743,141,150,335,136,144,324,0.83938633,0.89384687,2.00091676,0.97064375,1.02518968,1.05256770
17191,0,USIllinoisWayne,Illinois,Wayne,2020-07-18 17:15:12.654736,2020-07-03 00:00:00.000000,0.83801809,0.89236004,1.99852851,135,144,324,130,139,313,0.80549707,0.85739356,1.93183609,0.97107119,1.03170596,1.06462363
17191,0,USIllinoisWayne,Illinois,Wayne,2020-07-18 17:15:12.654736,2020-07-04 00:00:00.000000,0.80418408,0.85596737,1.92953054,130,138,312,125,133,302,0.77297606,0.82242708,1.86514367,0.97167816,1.04095979,1.07854360
17191,0,USIllinoisWayne,Illinois,Wayne,2020-07-18 17:15:12.654736,2020-07-05 00:00:00.000000,0.77171607,0.82105907,1.86291795,125,133,302,120,127,291,0.74176804,0.78888679,1.80075679,0.97537420,1.06281015,1.09621180
17191,0,USIllinoisWayne,Illinois,Wayne,2020-07-18 17:15:12.654736,2020-07-06 00:00:00.000000,0.74055892,0.78757459,1.79860814,120,127,291,115,122,281,0.71182000,0.75671451,1.73859564,0.99028733,1.11429170,1.14174118
17191,0,USIllinoisWayne,Illinois,Wayne,2020-07-18 17:15:12.654736,2020-07-07 00:00:00.000000,0.71065970,0.75545583,1.73652137,115,122,281,110,117,272,0.68308109,0.72585444,1.67858314,0.99899960,1.13005819,1.27801229
17191,0,USIllinoisWayne,Illinois,Wayne,2020-07-18 17:15:12.654736,2020-07-08 00:00:00.000000,0.68196763,0.72464710,1.67658068,110,117,271,106,112,262,0.65550248,0.69625304,1.62064490,1.00105401,1.14128398,1.32207041
17191,0,USIllinoisWayne,Illinois,Wayne,2020-07-18 17:15:12.654736,2020-07-09 00:00:00.000000,0.65443397,0.69509496,1.61871176,106,112,262,101,108,253,0.62903732,0.66785898,1.56470913,1.00168001,1.14824871,1.32966441
17191,0,USIllinoisWayne,Illinois,Wayne,2020-07-18 17:15:12.654736,2020-07-10 00:00:00.000000,0.62801196,0.66674814,1.56284290,101,108,253,97,103,244,0.60364066,0.64062301,1.51070649,1.00197908,1.15220637,1.33096783
17191,0,USIllinoisWayne,Illinois,Wayne,2020-07-18 17:15:12.654736,2020-07-11 00:00:00.000000,0.60265670,0.63955748,1.50890486,97,103,244,93,99,236,0.57926936,0.61449788,1.45857008,1.00213576,1.15434366,1.33127113
17191,0,USIllinoisWayne,Illinois,Wayne,2020-07-18 17:15:12.654736,2020-07-12 00:00:00.000000,0.57832513,0.61347581,1.45683080,93,99,236,90,95,228,0.55588203,0.58943829,1.40823531,1.00221762,1.15546622,1.33137700
17191,0,USIllinoisWayne,Illinois,Wayne,2020-07-18 17:15:12.654736,2020-07-13 00:00:00.000000,0.55497591,0.58845791,1.40655622,89,95,228,86,91,220,0.53343893,0.56540077,1.35963982,1.00225995,1.15604720,1.33142455
17191,0,USIllinoisWayne,Illinois,Wayne,2020-07-18 17:15:12.654736,2020-07-14 00:00:00.000000,0.53256940,0.56446038,1.35801884,86,91,220,83,87,212,0.51190195,0.54234363,1.31272342,1.00228169,1.15634560,1.33144798
17191,0,USIllinoisWayne,Illinois,Wayne,2020-07-18 17:15:12.654736,2020-07-15 00:00:00.000000,0.51106753,0.54144160,1.31115853,82,87,212,79,84,205,0.49123450,0.52022687,1.26742801,1.00229281,1.15649827,1.33145982
17191,0,USIllinoisWayne,Illinois,Wayne,2020-07-18 17:15:12.654736,2020-07-16 00:00:00.000000,0.49043376,0.51936164,1.26591726,79,84,205,76,80,198,0.47140147,0.49901215,1.22369749,1.00229849,1.15657621,1.33146585
17191,0,USIllinoisWayne,Illinois,Wayne,2020-07-18 17:15:12.654736,2020-07-17 00:00:00.000000,0.47063307,0.49818221,1.22223901,76,80,198,73,77,191,0.45236918,0.47866266,1.18147771,1.00230139,1.15661597,1.33146892
17191,0,USIllinoisWayne,Illinois,Wayne,2020-07-18 17:15:12.654736,2020-07-18 00:00:00.000000,0.45163180,0.47786657,1.18006969,73,77,191,70,74,184,0.43410530,0.45914312,1.14071642,1.00230286,1.15663624,1.33147049
17191,0,USIllinoisWayne,Illinois,Wayne,2020-07-18 17:15:12.654736,2020-07-19 00:00:00.000000,0.43339769,0.45837950,1.13935711,70,74,184,67,71,178,0.41657880,0.44041967,1.10136315,1.00230362,1.15664656,1.33147129
17191,0,USIllinoisWayne,Illinois,Wayne,2020-07-18 17:15:12.654736,2020-07-20 00:00:00.000000,0.41589975,0.43968720,1.10005086,67,71,178,64,68,172,0.39975991,0.42245984,1.06336919,1.00230400,1.15665183,1.33147169
17191,0,USIllinoisWayne,Illinois,Wayne,2020-07-18 17:15:12.654736,2020-07-21 00:00:00.000000,0.39910828,0.42175724,1.06210229,64,68,172,62,65,166,0.38362006,0.40523248,1.02668753,1.00230420,1.15665451,1.33147190
17191,0,USIllinoisWayne,Illinois,Wayne,2020-07-18 17:15:12.654736,2020-07-22 00:00:00.000000,0.38299475,0.40455854,1.02546444,62,65,166,59,63,160,0.36813185,0.38870772,0.99127276,1.00230429,1.15665588,1.33147200
17191,0,USIllinoisWayne,Illinois,Wayne,2020-07-18 17:15:12.654736,2020-07-23 00:00:00.000000,0.36753178,0.38806127,0.99009198,59,62,160,57,60,155,0.35326895,0.37285689,0.95708108,1.00230435,1.15665657,1.33147206
17191,0,USIllinoisWayne,Illinois,Wayne,2020-07-18 17:15:12.654736,2020-07-24 00:00:00.000000,0.35269310,0.37223681,0.95594113,57,60,155,54,57,149,0.33900612,0.35765251,0.92407017,1.00230437,1.15665693,1.33147208
17191,0,USIllinoisWayne,Illinois,Wayne,2020-07-18 17:15:12.654736,2020-07-25 00:00:00.000000,0.33845353,0.35705772,0.92296965,54,57,149,52,55,144,0.32531914,0.34306821,0.89219921,1.00230438,1.15665711,1.33147210
17191,0,USIllinoisWayne,Illinois,Wayne,2020-07-18 17:15:12.654736,2020-07-26 00:00:00.000000,0.32478886,0.34249768,0.89113674,52,55,144,50,53,139,0.31218476,0.32907870,0.86142878,1.00230439,1.15665720,1.33147210
17191,0,USIllinoisWayne,Illinois,Wayne,2020-07-18 17:15:12.654736,2020-07-27 00:00:00.000000,0.31167588,0.32853144,0.86040305,50,53,139,48,51,134,0.29958066,0.31565972,0.83172081,1.00230439,1.15665725,1.33147211
17191,0,USIllinoisWayne,Illinois,Wayne,2020-07-18 17:15:12.654736,2020-07-28 00:00:00.000000,0.29909233,0.31513478,0.83073055,48,51,134,46,49,130,0.28748544,0.30278800,0.80303858,1.00230440,1.15665727,1.33147211
17191,0,USIllinoisWayne,Illinois,Wayne,2020-07-18 17:15:12.654736,2020-07-29 00:00:00.000000,0.28701682,0.30228447,0.80208255,46,49,130,44,47,125,0.27587855,0.29044121,0.77534662,1.00230440,1.15665728,1.33147211
17191,0,USIllinoisWayne,Illinois,Wayne,2020-07-18 17:15:12.654736,2020-07-30 00:00:00.000000,0.27542885,0.28995822,0.77442364,44,47,125,42,45,121,0.26474027,0.27859795,0.74861068,1.00230440,1.15665729,1.33147211
