FIPS,HR_UID,nameid,province,region,analysisTime,dates,pointprevalence_025,pointprevalence_50,pointprevalence_975,pointinfections_025,pointinfections_50,pointinfections_975,pointinfectious_025,pointinfectious_50,pointinfectious_975,pointinfectiousprevalence_05,pointinfectiousprevalence_50,pointinfectiousprevalence_95,infectrate_025,infectrate_50,infectrate_975
48317,0,USTexasMartin,Texas,Martin,2020-07-15 02:58:32.657550,2020-03-09 00:00:00.000000,97.85462499,100.29997174,103.83865911,5647,5788,5992,5608,5771,5776,97.19088884,100.01066778,100.09208911,1.84815018,1.93107593,1.94048451
48317,0,USTexasMartin,Texas,Martin,2020-07-15 02:58:32.657550,2020-03-10 00:00:00.000000,99.85616237,100.00645956,143.75865566,5762,5771,8296,5338,5549,5759,92.51190601,96.16456499,99.79602474,1.84812197,1.93101266,1.94046290
48317,0,USTexasMartin,Texas,Martin,2020-07-15 02:58:32.657550,2020-03-11 00:00:00.000000,96.03270216,99.74210750,104.29894874,5542,5756,6019,5338,5744,5938,92.51355959,99.54643182,102.90670704,1.84805840,1.93090516,1.94042067
48317,0,USTexasMartin,Texas,Martin,2020-07-15 02:58:32.657550,2020-03-12 00:00:00.000000,92.38053640,99.54376513,103.23937019,5331,5744,5957,5135,5733,5761,88.99530373,99.34346025,99.83638572,1.84791521,1.93072260,1.94033355
48317,0,USTexasMartin,Texas,Martin,2020-07-15 02:58:32.657550,2020-03-13 00:00:00.000000,88.86664470,99.34282777,99.95464729,5128,5733,5768,4940,5721,5749,85.61050553,99.14197567,99.63181565,1.84759299,1.93041274,1.94014130
48317,0,USTexasMartin,Texas,Martin,2020-07-15 02:58:32.657550,2020-03-14 00:00:00.000000,85.48667231,99.14154780,99.62373638,4933,5721,5749,4752,5709,5736,82.35442224,98.94099545,99.40990522,1.84686953,1.92988732,1.93968507
48317,0,USTexasMartin,Texas,Martin,2020-07-15 02:58:32.657550,2020-03-15 00:00:00.000000,82.23529222,98.94058708,99.40929014,4745,5709,5736,4571,5698,5725,79.22217808,98.74043099,99.20823371,1.84525325,1.92899784,1.93852845
48317,0,USTexasMartin,Texas,Martin,2020-07-15 02:58:32.657550,2020-03-16 00:00:00.000000,79.10757830,98.74002509,99.20780516,4565,5698,5725,4398,5686,5713,76.20906457,98.54027381,99.00693627,1.84168219,1.92749622,1.93545638
48317,0,USTexasMartin,Texas,Martin,2020-07-15 02:58:32.657550,2020-03-17 00:00:00.000000,76.09882335,98.53986888,99.00651320,4391,5686,5713,4230,5675,5702,73.31055092,98.34052244,98.80605052,1.83412431,1.92497299,1.92720951
48317,0,USTexasMartin,Texas,Martin,2020-07-15 02:58:32.657550,2020-03-18 00:00:00.000000,73.20450257,98.34011834,98.80562849,4224,5675,5702,4069,5663,5690,70.52227850,98.14117599,98.60558722,1.81847562,1.89043169,1.92076621
48317,0,USTexasMartin,Texas,Martin,2020-07-15 02:58:32.657550,2020-03-19 00:00:00.000000,70.42026356,98.14077271,98.60516611,4063,5663,5690,3915,5652,5678,67.84005443,97.94223364,98.40554592,1.78864875,1.80710815,1.91384350
48317,0,USTexasMartin,Texas,Martin,2020-07-15 02:58:32.657550,2020-03-20 00:00:00.000000,67.74191949,97.94183118,98.40512573,3909,5652,5678,3766,5640,5667,65.25984529,97.74369456,98.20592573,1.71901755,1.76005973,1.90269295
48317,0,USTexasMartin,Texas,Martin,2020-07-15 02:58:32.657550,2020-03-21 00:00:00.000000,65.16544280,97.74329291,98.20550645,3760,5640,5667,3622,5629,5655,62.77777110,97.54555794,98.00672573,1.64872484,1.70703081,1.88534052
48317,0,USTexasMartin,Texas,Martin,2020-07-15 02:58:32.657550,2020-03-22 00:00:00.000000,62.68695908,97.54515711,98.00630737,3617,5629,5655,3485,5617,5644,60.39009939,97.34782296,97.80188316,1.60557544,1.66102354,1.85974384
48317,0,USTexasMartin,Texas,Martin,2020-07-15 02:58:32.657550,2020-03-23 00:00:00.000000,60.30274129,97.34742295,97.80161044,3480,5617,5644,3352,5606,5634,58.09323971,97.15048882,97.63856830,1.58630107,1.63011959,1.82486142
48317,0,USTexasMartin,Texas,Martin,2020-07-15 02:58:32.657550,2020-03-24 00:00:00.000000,58.00920416,97.15008961,97.63829604,3347,5606,5634,3225,5595,5625,55.88373813,96.95355469,97.47552616,1.58190006,1.61199898,1.78227388
48317,0,USTexasMartin,Texas,Martin,2020-07-15 02:58:32.657550,2020-03-25 00:00:00.000000,55.80289876,96.95315629,97.47525436,3220,5595,5625,3102,5583,5615,53.75827209,96.75701977,97.31275629,1.58514474,1.59950327,1.73713320
48317,0,USTexasMartin,Texas,Martin,2020-07-15 02:58:32.657550,2020-03-26 00:00:00.000000,53.68050735,96.75662218,97.31248493,3097,5583,5615,2984,5572,5606,51.71364542,96.56088324,97.15025822,1.57100637,1.60981477,1.69650392
48317,0,USTexasMartin,Texas,Martin,2020-07-15 02:58:32.657550,2020-03-27 00:00:00.000000,51.63883836,96.56048646,97.14998732,2980,5572,5606,2870,5561,5597,49.74678349,96.36514430,96.98803150,1.53518133,1.63648153,1.66489945
48317,0,USTexasMartin,Texas,Martin,2020-07-15 02:58:32.657550,2020-03-28 00:00:00.000000,49.67482162,96.36474832,96.98776105,2866,5561,5597,2761,5549,5587,47.85472863,96.16980215,96.82607568,1.47202190,1.64183516,1.65125291
48317,0,USTexasMartin,Texas,Martin,2020-07-15 02:58:32.657550,2020-03-29 00:00:00.000000,47.78550373,96.16940697,96.82580568,2757,5549,5587,2656,5538,5578,46.03463563,95.97485597,96.66439031,1.40771045,1.62516390,1.65255058
48317,0,USTexasMartin,Texas,Martin,2020-07-15 02:58:32.657550,2020-03-30 00:00:00.000000,45.96804362,95.97446160,96.66412076,2652,5538,5578,2555,5527,5569,44.28376753,95.78030497,96.50297493,1.37131970,1.61332609,1.65400263
48317,0,USTexasMartin,Texas,Martin,2020-07-15 02:58:32.657550,2020-03-31 00:00:00.000000,44.21970826,95.77991140,96.50270584,2551,5527,5569,2458,5516,5559,42.59949145,95.58614835,96.34182910,1.35697623,1.60462008,1.65485802
48317,0,USTexasMartin,Texas,Martin,2020-07-15 02:58:32.657550,2020-04-01 00:00:00.000000,42.53786859,95.58575557,96.34156045,2454,5516,5559,2364,5505,5550,40.97927463,95.39238530,96.18095236,1.35392452,1.59659104,1.65424408
48317,0,USTexasMartin,Texas,Martin,2020-07-15 02:58:32.657550,2020-04-02 00:00:00.000000,40.91999552,95.39199332,96.18068417,2361,5505,5550,2274,5493,5541,39.42068068,95.19684783,96.02034427,1.36081165,1.58529153,1.65033977
48317,0,USTexasMartin,Texas,Martin,2020-07-15 02:58:32.657550,2020-04-03 00:00:00.000000,39.36365617,95.19628013,96.02007652,2271,5493,5541,2188,5480,5532,37.92136584,94.96437682,95.86000437,1.39300847,1.56459943,1.63870371
48317,0,USTexasMartin,Texas,Martin,2020-07-15 02:58:32.657550,2020-04-04 00:00:00.000000,37.86651018,94.96381051,95.85973707,2185,5480,5532,2105,5467,5522,36.47907551,94.73247351,95.69993223,1.45582889,1.52874703,1.60879051
48317,0,USTexasMartin,Texas,Martin,2020-07-15 02:58:32.657550,2020-04-05 00:00:00.000000,36.42630622,94.73190858,95.69966537,2102,5466,5522,2025,5453,5513,35.09164084,94.50113650,95.54012738,1.47550792,1.48193912,1.58286508
48317,0,USTexasMartin,Texas,Martin,2020-07-15 02:58:32.657550,2020-04-06 00:00:00.000000,35.04087856,94.50057296,95.53986097,2022,5453,5513,1948,5440,5504,33.75697545,94.27036443,95.38058939,1.39674652,1.48962530,1.57074547
48317,0,USTexasMartin,Texas,Martin,2020-07-15 02:58:32.657550,2020-04-07 00:00:00.000000,33.70814385,94.26980226,95.38032342,1945,5440,5504,1874,5427,5495,32.47307235,94.04015589,95.22131781,1.27911068,1.49142410,1.54328012
48317,0,USTexasMartin,Texas,Martin,2020-07-15 02:58:32.657550,2020-04-08 00:00:00.000000,32.42609800,94.03959510,95.22105229,1871,5427,5495,1802,5413,5486,31.23800085,93.81050953,95.06231219,1.13474377,1.35216466,1.54385924
48317,0,USTexasMartin,Texas,Martin,2020-07-15 02:58:32.657550,2020-04-09 00:00:00.000000,31.19281311,93.80995010,95.06204711,1800,5413,5486,1734,5400,5476,30.04990370,93.58142397,94.90357209,1.00760525,1.12651826,1.54400165
48317,0,USTexasMartin,Texas,Martin,2020-07-15 02:58:32.657550,2020-04-10 00:00:00.000000,30.00643462,93.58086590,94.90330746,1731,5400,5476,1668,5387,5467,28.90699430,93.35289783,94.74509707,0.92607915,0.99048101,1.54404122
48317,0,USTexasMartin,Texas,Martin,2020-07-15 02:58:32.657550,2020-04-11 00:00:00.000000,28.86517851,93.35234113,94.74483288,1665,5387,5467,1604,5374,5458,27.80755399,93.12492975,94.58688669,0.88395255,0.94165594,1.54369889
48317,0,USTexasMartin,Texas,Martin,2020-07-15 02:58:32.657550,2020-04-12 00:00:00.000000,27.76732860,93.12437441,94.58662294,1602,5374,5458,1543,5361,5449,26.74992947,92.89751838,94.42894049,0.86458106,0.92755637,1.53983950
48317,0,USTexasMartin,Texas,Martin,2020-07-15 02:58:32.657550,2020-04-13 00:00:00.000000,26.71123401,92.89696439,94.42867718,1541,5361,5449,1485,5348,5440,25.73253034,92.67066234,94.27125805,0.85617846,0.92382864,1.50786305
48317,0,USTexasMartin,Texas,Martin,2020-07-15 02:58:32.657550,2020-04-14 00:00:00.000000,25.69530661,92.67010971,94.27099518,1482,5347,5440,1428,5334,5431,24.75382668,92.44436028,94.11383892,0.85273571,0.92302766,1.39288431
48317,0,USTexasMartin,Texas,Martin,2020-07-15 02:58:32.657550,2020-04-15 00:00:00.000000,24.71801870,92.44380900,94.11357649,1426,5334,5431,1374,5321,5422,23.81234675,92.21861086,93.95668266,0.85175364,0.92320003,1.27804574
48317,0,USTexasMartin,Texas,Martin,2020-07-15 02:58:32.657550,2020-04-16 00:00:00.000000,23.77790069,92.21806092,93.95642067,1372,5321,5422,1321,5308,5413,22.90667480,91.99341272,93.79978883,0.85299210,0.92400883,1.25791675
48317,0,USTexasMartin,Texas,Martin,2020-07-15 02:58:32.657550,2020-04-17 00:00:00.000000,22.87353884,91.99286412,93.79952728,1320,5308,5413,1271,5295,5404,22.03544891,91.76876451,93.64315700,0.85917491,0.92568150,1.25632462
48317,0,USTexasMartin,Texas,Martin,2020-07-15 02:58:32.657550,2020-04-18 00:00:00.000000,22.00357324,91.76821726,93.64289588,1269,5295,5404,1223,5283,5395,21.19735898,91.54466489,93.48678672,0.87946823,0.92870429,1.25685926
48317,0,USTexasMartin,Texas,Martin,2020-07-15 02:58:32.657550,2020-04-19 00:00:00.000000,21.16669566,91.54411897,93.48652604,1221,5283,5395,1176,5270,5386,20.39114472,91.32111252,93.33067757,0.92985669,0.93348148,1.25799401
48317,0,USTexasMartin,Texas,Martin,2020-07-15 02:58:32.657550,2020-04-20 00:00:00.000000,20.36164764,91.32056794,93.33041732,1175,5270,5386,1132,5257,5377,19.61559379,91.09810608,93.17482909,0.97312411,1.00334433,1.26010765
48317,0,USTexasMartin,Texas,Martin,2020-07-15 02:58:32.657550,2020-04-21 00:00:00.000000,19.58721859,91.09756282,93.17456928,1130,5257,5377,1088,5244,5368,18.86953993,90.87564421,93.01924087,1.00397167,1.05621566,1.26521334
48317,0,USTexasMartin,Texas,Martin,2020-07-15 02:58:32.657550,2020-04-22 00:00:00.000000,18.84224395,90.87510228,93.01898149,1087,5244,5368,1047,5231,5359,18.15186127,90.65372559,92.86391245,1.01754252,1.07697747,1.28064203
48317,0,USTexasMartin,Texas,Martin,2020-07-15 02:58:32.657550,2020-04-23 00:00:00.000000,18.12560345,90.65318499,92.86365351,1046,5231,5359,1007,5218,5350,17.46147860,90.43234890,92.70884342,1.02078612,1.07896617,1.32759091
48317,0,USTexasMartin,Texas,Martin,2020-07-15 02:58:32.657550,2020-04-24 00:00:00.000000,17.43621946,90.43180962,92.70858491,1006,5218,5350,969,5206,5341,16.79735374,90.21151282,92.55403334,1.01525434,1.06447186,1.43191798
48317,0,USTexasMartin,Texas,Martin,2020-07-15 02:58:32.657550,2020-04-25 00:00:00.000000,16.77305530,90.21097485,92.55377525,967,5206,5341,932,5193,5332,16.15848801,89.99121602,92.39948176,0.99440184,1.02016845,1.55174517
48317,0,USTexasMartin,Texas,Martin,2020-07-15 02:58:32.657550,2020-04-26 00:00:00.000000,16.13511374,89.99067936,92.39922411,931,5193,5332,897,5180,5323,15.54392072,89.77145718,92.24518828,0.94023611,0.97243173,1.61173910
48317,0,USTexasMartin,Texas,Martin,2020-07-15 02:58:32.657550,2020-04-27 00:00:00.000000,15.52143546,89.77092184,92.24493105,895,5180,5323,862,5168,5314,14.95272771,89.55223499,92.09115244,0.86620009,0.98063538,1.62198274
48317,0,USTexasMartin,Texas,Martin,2020-07-15 02:58:32.657550,2020-04-28 00:00:00.000000,14.93109764,89.55170096,92.09089565,861,5168,5314,830,5155,5305,14.38401996,89.33354815,91.93737382,0.82961232,0.99007178,1.60276879
48317,0,USTexasMartin,Texas,Martin,2020-07-15 02:58:32.657550,2020-04-29 00:00:00.000000,14.36321257,89.33301542,91.93711746,828,5155,5305,798,5142,5296,13.83694228,89.11539533,91.78385200,0.81753028,0.99970407,1.55626479
48317,0,USTexasMartin,Texas,Martin,2020-07-15 02:58:32.657550,2020-04-30 00:00:00.000000,13.81692627,89.11486391,91.78359606,797,5142,5296,768,5130,5288,13.31067200,88.89777525,91.63058654,0.81520403,1.00853044,1.50223685
48317,0,USTexasMartin,Texas,Martin,2020-07-15 02:58:32.657550,2020-05-01 00:00:00.000000,13.29141727,88.89724512,91.63033103,767,5130,5287,738,5117,5279,12.80441772,88.68068660,91.47757701,0.81695649,1.01616989,1.45658475
48317,0,USTexasMartin,Texas,Martin,2020-07-15 02:58:32.657550,2020-05-02 00:00:00.000000,12.78589532,88.68015776,91.47732193,737,5117,5279,710,5105,5270,12.31741818,88.46412808,91.32482299,0.82156530,1.02286510,1.42972878
48317,0,USTexasMartin,Texas,Martin,2020-07-15 02:58:32.657550,2020-05-03 00:00:00.000000,12.29960025,88.46360054,91.32456834,709,5105,5270,683,5092,5261,11.84894104,88.24809840,91.17232406,0.82919898,1.02894705,1.41726186
48317,0,USTexasMartin,Texas,Martin,2020-07-15 02:58:32.657550,2020-05-04 00:00:00.000000,11.83180079,88.24757214,91.17206983,682,5092,5261,657,5080,5252,11.39828182,88.03259626,91.02007977,0.83980948,1.03435437,1.41210194
48317,0,USTexasMartin,Texas,Martin,2020-07-15 02:58:32.657550,2020-05-05 00:00:00.000000,11.38179348,88.03207128,91.01982597,656,5080,5252,632,5067,5243,10.96476284,87.81762037,90.86808972,0.85212347,1.03888641,1.40996458
48317,0,USTexasMartin,Texas,Martin,2020-07-15 02:58:32.657550,2020-05-06 00:00:00.000000,10.94890162,87.81709668,90.86783634,631,5067,5243,608,5055,5235,10.54773221,87.60316946,90.71635347,0.86381734,1.04309546,1.40880670
48317,0,USTexasMartin,Texas,Martin,2020-07-15 02:58:32.657550,2020-05-07 00:00:00.000000,10.53247424,87.60264705,90.71610051,607,5055,5235,585,5043,5226,10.14656279,87.38924224,90.56487060,0.87286362,1.04917348,1.40758279
48317,0,USTexasMartin,Texas,Martin,2020-07-15 02:58:32.657550,2020-05-08 00:00:00.000000,10.13188514,87.38872111,90.56461807,584,5043,5226,563,5030,5217,9.76065134,87.17583743,90.41364069,0.87808117,1.06090728,1.40545038
48317,0,USTexasMartin,Texas,Martin,2020-07-15 02:58:32.657550,2020-05-09 00:00:00.000000,9.74653194,87.17531757,90.41338858,562,5030,5217,541,5018,5209,9.38941753,86.96295376,90.26266332,0.87737159,1.07826507,1.40123274
48317,0,USTexasMartin,Texas,Martin,2020-07-15 02:58:32.657550,2020-05-10 00:00:00.000000,9.37583514,86.96243517,90.26241163,541,5018,5209,521,5006,5200,9.03230312,86.75058995,90.11193806,0.86768449,1.08885054,1.39292008
48317,0,USTexasMartin,Texas,Martin,2020-07-15 02:58:32.657550,2020-05-11 00:00:00.000000,9.01923732,86.75007262,90.11168679,520,5006,5200,501,4994,5191,8.68877110,86.53874473,89.96146450,0.85698293,1.07919186,1.37730463
48317,0,USTexasMartin,Texas,Martin,2020-07-15 02:58:32.657550,2020-05-12 00:00:00.000000,8.67620224,86.53822866,89.96121364,500,4994,5191,482,4981,5183,8.35830488,86.32741684,89.81124220,0.85332263,1.04771063,1.35060011
48317,0,USTexasMartin,Texas,Martin,2020-07-15 02:58:32.657550,2020-05-13 00:00:00.000000,8.34621406,86.32690203,89.81099177,481,4981,5182,464,4969,5174,8.04040751,86.11660501,89.66127076,0.85327197,1.00079858,1.31156567
48317,0,USTexasMartin,Texas,Martin,2020-07-15 02:58:32.657550,2020-05-14 00:00:00.000000,8.02877655,86.11609146,89.66102075,463,4969,5174,446,4957,5165,7.73460096,85.90630798,89.51154976,0.85439888,0.95035209,1.26573912
48317,0,USTexasMartin,Texas,Martin,2020-07-15 02:58:32.657550,2020-05-15 00:00:00.000000,7.72341237,85.90579569,89.51130016,445,4957,5165,429,4945,5157,7.44042537,85.69652450,89.36207877,0.85625731,0.90840337,1.22411906
48317,0,USTexasMartin,Texas,Martin,2020-07-15 02:58:32.657550,2020-05-16 00:00:00.000000,7.42966233,85.69601346,89.36182958,428,4945,5157,413,4933,5148,7.15743837,85.48725331,89.21285737,0.85900371,0.87995489,1.19895185
48317,0,USTexasMartin,Texas,Martin,2020-07-15 02:58:32.657550,2020-05-17 00:00:00.000000,7.14708469,85.48674352,89.21260861,412,4933,5148,397,4921,5139,6.88521442,85.27849317,89.06388516,0.86294641,0.86327665,1.18271711
48317,0,USTexasMartin,Texas,Martin,2020-07-15 02:58:32.657550,2020-05-18 00:00:00.000000,6.87525452,85.27798462,89.06363681,396,4921,5139,382,4909,5131,6.62334415,85.07024281,88.91516172,0.86181903,0.86832394,1.17124676
48317,0,USTexasMartin,Texas,Martin,2020-07-15 02:58:32.657550,2020-05-19 00:00:00.000000,6.61376307,85.06973551,88.91491378,381,4909,5131,367,4897,5122,6.37143379,84.86250101,88.76668662,0.86368137,0.87481140,1.16070635
48317,0,USTexasMartin,Texas,Martin,2020-07-15 02:58:32.657550,2020-05-20 00:00:00.000000,6.36221710,84.86199494,88.76643910,367,4897,5122,353,4885,5114,6.12910450,84.65526651,88.61845946,0.86732499,0.88005824,1.14767942
48317,0,USTexasMartin,Texas,Martin,2020-07-15 02:58:32.657550,2020-05-21 00:00:00.000000,6.12023837,84.65476168,88.61821236,353,4885,5114,340,4873,5105,5.89599190,84.44853808,88.47047983,0.87054319,0.87707297,1.12966120
48317,0,USTexasMartin,Texas,Martin,2020-07-15 02:58:32.657550,2020-05-22 00:00:00.000000,5.88746298,84.44803448,88.47023313,339,4873,5105,327,4861,5097,5.67174544,84.24231448,88.32274730,0.86003626,0.88738099,1.10681027
48317,0,USTexasMartin,Texas,Martin,2020-07-15 02:58:32.657550,2020-05-23 00:00:00.000000,5.66354090,84.24181211,88.32250101,326,4861,5097,314,4849,5088,5.45602791,84.03659447,88.17526146,0.84409367,0.92425744,1.08484813
48317,0,USTexasMartin,Texas,Martin,2020-07-15 02:58:32.657550,2020-05-24 00:00:00.000000,5.44813542,84.03609333,88.17501559,314,4849,5088,302,4837,5080,5.24851491,83.83137684,88.02802191,0.84140142,0.95750227,1.06836560
48317,0,USTexasMartin,Texas,Martin,2020-07-15 02:58:32.657550,2020-05-25 00:00:00.000000,5.24092260,83.83087692,88.02777645,302,4837,5080,291,4826,5071,5.04889440,83.62666035,87.88102823,0.84514577,0.97606284,1.05832886
48317,0,USTexasMartin,Texas,Martin,2020-07-15 02:58:32.657550,2020-05-26 00:00:00.000000,5.04159086,83.62616165,87.88078318,290,4826,5071,280,4814,5063,4.85686620,83.42244378,87.73428002,0.84929454,0.98376907,1.05244562
48317,0,USTexasMartin,Texas,Martin,2020-07-15 02:58:32.657550,2020-05-27 00:00:00.000000,4.84984044,83.42194630,87.73403537,279,4814,5063,269,4802,5054,4.67214155,83.21872590,87.58777685,0.85175649,0.98647056,1.04768815
48317,0,USTexasMartin,Texas,Martin,2020-07-15 02:58:32.657550,2020-05-28 00:00:00.000000,4.66538300,83.21822964,87.58753262,269,4802,5054,259,4790,5046,4.49444266,83.01550551,87.44151833,0.85149768,0.98683158,1.03898494
48317,0,USTexasMartin,Texas,Martin,2020-07-15 02:58:32.657550,2020-05-29 00:00:00.000000,4.48794117,83.01501045,87.44127450,258,4790,5046,249,4779,5037,4.32350232,82.81278137,87.29550404,0.84436565,0.98400940,1.01815283
48317,0,USTexasMartin,Texas,Martin,2020-07-15 02:58:32.657550,2020-05-30 00:00:00.000000,4.31724810,82.81228753,87.29526062,249,4779,5037,240,4767,5029,4.15906348,82.61055230,87.14973358,0.80935456,0.97124306,0.99205753
48317,0,USTexasMartin,Texas,Martin,2020-07-15 02:58:32.657550,2020-05-31 00:00:00.000000,4.15304713,82.61005966,87.14949056,239,4767,5029,230,4755,5021,4.00087885,82.40881706,87.00420653,0.73251375,0.94568067,0.96672781
48317,0,USTexasMartin,Texas,Martin,2020-07-15 02:58:32.657550,2020-06-01 00:00:00.000000,3.99509133,82.40832563,87.00396393,230,4755,5020,222,4744,5012,3.84871058,82.20757447,86.85892250,0.68885740,0.92943652,0.95158701
48317,0,USTexasMartin,Texas,Martin,2020-07-15 02:58:32.657550,2020-06-02 00:00:00.000000,3.84314317,82.20708423,86.85868030,221,4744,5012,213,4732,5004,3.70232982,82.00682331,86.71388108,0.67393454,0.92215383,0.94063628
48317,0,USTexasMartin,Texas,Martin,2020-07-15 02:58:32.657550,2020-06-03 00:00:00.000000,3.69697417,82.00633427,86.71363928,213,4732,5004,205,4721,4995,3.56151647,81.80656238,86.56908185,0.66420053,0.91341174,0.93113505
48317,0,USTexasMartin,Texas,Martin,2020-07-15 02:58:32.657550,2020-06-04 00:00:00.000000,3.55636452,81.80607454,86.56884046,205,4721,4995,197,4709,4987,3.42605878,81.60679049,86.42452443,0.65541411,0.90281554,0.92756852
48317,0,USTexasMartin,Texas,Martin,2020-07-15 02:58:32.657550,2020-06-05 00:00:00.000000,3.42110277,81.60630384,86.42428344,197,4709,4987,190,4698,4979,3.29575305,81.40750645,86.28020839,0.64762001,0.89020981,0.92947189
48317,0,USTexasMartin,Texas,Martin,2020-07-15 02:58:32.657550,2020-06-06 00:00:00.000000,3.29098553,81.40702099,86.27996781,189,4697,4979,182,4686,4970,3.17040332,81.20870906,86.13613335,0.64120943,0.87654596,0.93795473
48317,0,USTexasMartin,Texas,Martin,2020-07-15 02:58:32.657550,2020-06-07 00:00:00.000000,3.16581713,81.20822478,86.13589316,182,4686,4970,176,4675,4962,3.04982111,81.01039713,85.99229890,0.63634390,0.86246077,0.94945289
48317,0,USTexasMartin,Texas,Martin,2020-07-15 02:58:32.657550,2020-06-08 00:00:00.000000,3.04540935,81.00991403,85.99205911,175,4675,4962,169,4663,4954,2.93382509,80.81256948,85.84870463,0.63299682,0.84946744,0.95589923
48317,0,USTexasMartin,Texas,Martin,2020-07-15 02:58:32.657550,2020-06-09 00:00:00.000000,2.92958113,80.81208756,85.84846524,169,4663,4954,162,4652,4946,2.82224083,80.61522493,85.70535014,0.63110410,0.83901313,0.95619549
48317,0,USTexasMartin,Texas,Martin,2020-07-15 02:58:32.657550,2020-06-10 00:00:00.000000,2.81815828,80.61474419,85.70511116,162,4652,4946,156,4640,4937,2.71490054,80.41836229,85.56223504,0.63064155,0.83082952,0.95316323
48317,0,USTexasMartin,Texas,Martin,2020-07-15 02:58:32.657550,2020-06-11 00:00:00.000000,2.71097326,80.41788272,85.56199646,156,4640,4937,150,4629,4929,2.61164279,80.22198039,85.41935893,0.63148439,0.82353819,0.94631457
48317,0,USTexasMartin,Texas,Martin,2020-07-15 02:58:32.657550,2020-06-12 00:00:00.000000,2.60786488,80.22150200,85.41912074,150,4629,4929,144,4618,4921,2.51231232,80.02607806,85.27672140,0.63315811,0.81350398,0.92979048
48317,0,USTexasMartin,Texas,Martin,2020-07-15 02:58:32.657550,2020-06-13 00:00:00.000000,2.50867810,80.02560083,85.27648361,144,4618,4921,139,4607,4913,2.41675975,79.83065412,85.13432206,0.63507753,0.79494448,0.89244275
48317,0,USTexasMartin,Texas,Martin,2020-07-15 02:58:32.657550,2020-06-14 00:00:00.000000,2.41326376,79.83017806,85.13408466,139,4606,4913,134,4595,4904,2.32484141,79.63570740,84.99216050,0.63719608,0.77592455,0.83323275
48317,0,USTexasMartin,Texas,Martin,2020-07-15 02:58:32.657550,2020-06-15 00:00:00.000000,2.32147838,79.63523251,84.99192351,133,4595,4904,129,4584,4896,2.23641906,79.44123675,84.85023634,0.64019054,0.76723201,0.77724940
48317,0,USTexasMartin,Texas,Martin,2020-07-15 02:58:32.657550,2020-06-16 00:00:00.000000,2.23318394,79.44076301,84.84999974,128,4584,4896,124,4573,4888,2.15135974,79.24724100,84.70854918,0.64534550,0.71113028,0.77151599
48317,0,USTexasMartin,Texas,Martin,2020-07-15 02:58:32.657550,2020-06-17 00:00:00.000000,2.14824766,79.24676842,84.70831297,123,4573,4888,119,4562,4880,2.06953554,79.05371898,84.56709861,0.65457157,0.67133398,0.77172808
48317,0,USTexasMartin,Texas,Martin,2020-07-15 02:58:32.657550,2020-06-18 00:00:00.000000,2.06654183,79.05324755,84.56686280,119,4562,4880,114,4551,4872,1.99082342,78.86066955,84.42588426,0.65961490,0.67019473,0.77358071
48317,0,USTexasMartin,Texas,Martin,2020-07-15 02:58:32.657550,2020-06-19 00:00:00.000000,1.98794357,78.86019927,84.42564884,114,4551,4872,110,4539,4864,1.91510501,78.66809154,84.28490571,0.66697624,0.69365406,0.77734475
48317,0,USTexasMartin,Texas,Martin,2020-07-15 02:58:32.657550,2020-06-20 00:00:00.000000,1.91233469,78.66762241,84.28467068,110,4539,4864,106,4528,4855,1.84226646,78.47598381,84.14416258,0.68074514,0.72306599,0.78413652
48317,0,USTexasMartin,Texas,Martin,2020-07-15 02:58:32.657550,2020-06-21 00:00:00.000000,1.83960151,78.47551582,84.14392794,106,4528,4855,102,4517,4847,1.77219823,78.28434520,84.00365447,0.69575129,0.75260237,0.79375843
48317,0,USTexasMartin,Texas,Martin,2020-07-15 02:58:32.657550,2020-06-22 00:00:00.000000,1.76963463,78.28387836,84.00342023,102,4517,4847,98,4506,4839,1.70479495,78.09317458,83.86338099,0.70808871,0.77637641,0.80406648
48317,0,USTexasMartin,Texas,Martin,2020-07-15 02:58:32.657550,2020-06-23 00:00:00.000000,1.70232886,78.09270888,83.86314714,98,4506,4839,94,4495,4831,1.63995527,77.90247080,83.72334175,0.71649814,0.79246729,0.81321757
48317,0,USTexasMartin,Texas,Martin,2020-07-15 02:58:32.657550,2020-06-24 00:00:00.000000,1.63758297,77.90200623,83.72310830,94,4495,4831,91,4484,4823,1.57758168,77.71223271,83.58353637,0.72181478,0.80258181,0.81996141
48317,0,USTexasMartin,Texas,Martin,2020-07-15 02:58:32.657550,2020-06-25 00:00:00.000000,1.57529961,77.71176929,83.58330330,90,4484,4823,87,4473,4815,1.51758039,77.52245919,83.44396444,0.72567889,0.81013386,0.82425156
48317,0,USTexasMartin,Texas,Martin,2020-07-15 02:58:32.657550,2020-06-26 00:00:00.000000,1.51538512,77.52199690,83.44373176,87,4473,4815,84,4462,4807,1.45986118,77.33314910,83.30462557,0.72763262,0.82038406,0.82692768
48317,0,USTexasMartin,Texas,Martin,2020-07-15 02:58:32.657550,2020-06-27 00:00:00.000000,1.45774939,77.33268793,83.30439328,84,4462,4807,81,4451,4799,1.40433724,77.14430130,83.16551939,0.73676078,0.83395951,0.84307925
48317,0,USTexasMartin,Texas,Martin,2020-07-15 02:58:32.657550,2020-06-28 00:00:00.000000,1.40230577,77.14384126,83.16528749,80,4451,4799,77,4441,4791,1.35092508,76.95591467,83.02664550,0.79456247,0.89036684,0.92733453
48317,0,USTexasMartin,Texas,Martin,2020-07-15 02:58:32.657550,2020-06-29 00:00:00.000000,1.34897088,76.95545575,83.02641398,77,4441,4791,74,4430,4783,1.29954438,76.76798808,82.88800350,0.87264481,0.95305368,1.02085671
48317,0,USTexasMartin,Texas,Martin,2020-07-15 02:58:32.657550,2020-06-30 00:00:00.000000,1.29766451,76.76753028,82.88777238,74,4430,4783,72,4419,4775,1.25011788,76.58052040,82.74959303,0.92191802,0.99820472,1.03114398
48317,0,USTexasMartin,Texas,Martin,2020-07-15 02:58:32.657550,2020-07-01 00:00:00.000000,1.24830951,76.58006373,82.74936229,72,4419,4775,69,4408,4767,1.20257126,76.39351053,82.61141368,0.92728527,1.01788706,1.02858295
48317,0,USTexasMartin,Texas,Martin,2020-07-15 02:58:32.657550,2020-07-02 00:00:00.000000,1.20083166,76.39305497,82.61118332,69,4408,4767,66,4397,4759,1.15683301,76.20695733,82.47346507,0.92624744,1.02206550,1.02337438
48317,0,USTexasMartin,Texas,Martin,2020-07-15 02:58:32.657550,2020-07-03 00:00:00.000000,1.15515958,76.20650288,82.47323510,66,4397,4759,64,4387,4751,1.11283436,76.02085970,82.33574683,0.92172640,1.00452784,1.02205915
48317,0,USTexasMartin,Texas,Martin,2020-07-15 02:58:32.657550,2020-07-04 00:00:00.000000,1.11122457,76.02040636,82.33551724,64,4387,4751,61,4376,4743,1.07050913,75.83521651,82.19825855,0.91191547,0.96958695,1.01604419
48317,0,USTexasMartin,Texas,Martin,2020-07-15 02:58:32.657550,2020-07-05 00:00:00.000000,1.06896057,75.83476428,82.19802935,61,4376,4743,59,4365,4735,1.02979370,75.65002667,82.06099986,0.89529568,0.91894963,1.00622046
48317,0,USTexasMartin,Texas,Martin,2020-07-15 02:58:32.657550,2020-07-06 00:00:00.000000,1.02830403,75.64957554,82.06077104,59,4365,4735,57,4355,4727,0.99062682,75.46528906,81.92397038,0.84777457,0.90543544,0.99527142
48317,0,USTexasMartin,Texas,Martin,2020-07-15 02:58:32.657550,2020-07-07 00:00:00.000000,0.98919381,75.46483904,81.92374194,57,4355,4727,54,4344,4719,0.95294960,75.28100259,81.78716972,0.80274135,0.92062305,0.98662335
48317,0,USTexasMartin,Texas,Martin,2020-07-15 02:58:32.657550,2020-07-08 00:00:00.000000,0.95157110,75.28055366,81.78694166,54,4344,4719,52,4333,4712,0.91670539,75.09716614,81.65059750,0.77617932,0.93001897,0.98142129
48317,0,USTexasMartin,Texas,Martin,2020-07-15 02:58:32.657550,2020-07-09 00:00:00.000000,0.91537932,75.09671830,81.65036982,52,4333,4712,50,4323,4704,0.88183968,74.91377862,81.51425334,0.76329826,0.93484395,0.97878468
48317,0,USTexasMartin,Texas,Martin,2020-07-15 02:58:32.657550,2020-07-10 00:00:00.000000,0.88056405,74.91333188,81.51402604,50,4323,4704,48,4312,4696,0.84830005,74.73083893,81.37813686,0.75763986,0.93708601,0.97756368
48317,0,USTexasMartin,Texas,Martin,2020-07-15 02:58:32.657550,2020-07-11 00:00:00.000000,0.84707293,74.73039328,81.37790994,48,4312,4696,47,4302,4688,0.81603605,74.54834598,81.24224767,0.75526257,0.93807934,0.97702192
48317,0,USTexasMartin,Texas,Martin,2020-07-15 02:58:32.657550,2020-07-12 00:00:00.000000,0.81485560,74.54790142,81.24202113,47,4302,4688,45,4291,4680,0.78499917,74.36629868,81.10658541,0.75428254,0.93851010,0.97678613
48317,0,USTexasMartin,Texas,Martin,2020-07-15 02:58:32.657550,2020-07-13 00:00:00.000000,0.78386361,74.36585521,81.10635924,45,4291,4680,43,4281,4672,0.75514273,74.18469594,80.97114968,0.75388168,0.93869517,0.97668436
48317,0,USTexasMartin,Texas,Martin,2020-07-15 02:58:32.657550,2020-07-14 00:00:00.000000,0.75405037,74.18425355,80.97092389,43,4281,4672,41,4270,4665,0.72642185,74.00353667,80.83594011,0.75371825,0.93877437,0.97664059
48317,0,USTexasMartin,Texas,Martin,2020-07-15 02:58:32.657550,2020-07-15 00:00:00.000000,0.72537104,74.00309536,80.83571470,41,4270,4665,40,4260,4657,0.69879333,73.82281980,80.70095633,0.75365170,0.93880819,0.97662180
48317,0,USTexasMartin,Texas,Martin,2020-07-15 02:58:32.657550,2020-07-16 00:00:00.000000,0.69778248,73.82237957,80.70073130,40,4260,4657,38,4249,4649,0.67221563,73.64254424,80.56619795,0.75362462,0.93882263,0.97661374
48317,0,USTexasMartin,Texas,Martin,2020-07-15 02:58:32.657550,2020-07-17 00:00:00.000000,0.67124322,73.64210508,80.56597330,38,4249,4649,37,4239,4641,0.64664877,73.46270891,80.43166460,0.75361360,0.93882880,0.97661028
48317,0,USTexasMartin,Texas,Martin,2020-07-15 02:58:32.657550,2020-07-18 00:00:00.000000,0.64571335,73.46227082,80.43144032,37,4239,4641,35,4229,4633,0.62205432,73.28331274,80.29735591,0.75360912,0.93883142,0.97660880
48317,0,USTexasMartin,Texas,Martin,2020-07-15 02:58:32.657550,2020-07-19 00:00:00.000000,0.62115448,73.28287572,80.29713200,35,4229,4633,34,4218,4626,0.59839528,73.10435465,80.16327149,0.75360730,0.93883255,0.97660816
48317,0,USTexasMartin,Texas,Martin,2020-07-15 02:58:32.657550,2020-07-20 00:00:00.000000,0.59752967,73.10391870,80.16304796,34,4218,4626,33,4208,4618,0.57563609,72.92583359,80.02941098,0.75360655,0.93883303,0.97660789
48317,0,USTexasMartin,Texas,Martin,2020-07-15 02:58:32.657550,2020-07-21 00:00:00.000000,0.57480339,72.92539870,80.02918783,33,4208,4618,31,4198,4610,0.55374251,72.74774847,79.89577400,0.75360625,0.93883323,0.97660777
48317,0,USTexasMartin,Texas,Martin,2020-07-15 02:58:32.657550,2020-07-22 00:00:00.000000,0.55294149,72.74731464,79.89555122,31,4198,4610,30,4188,4603,0.53268163,72.57009823,79.76236018,0.75360613,0.93883332,0.97660772
48317,0,USTexasMartin,Texas,Martin,2020-07-15 02:58:32.657550,2020-07-23 00:00:00.000000,0.53191107,72.56966547,79.76213777,30,4187,4603,29,4177,4595,0.51242177,72.39288182,79.62916914,0.75360608,0.93883335,0.97660770
48317,0,USTexasMartin,Texas,Martin,2020-07-15 02:58:32.657550,2020-07-24 00:00:00.000000,0.51168052,72.39245011,79.62894710,29,4177,4595,28,4167,4587,0.49293246,72.21609817,79.49620052,0.75360606,0.93883337,0.97660769
48317,0,USTexasMartin,Texas,Martin,2020-07-15 02:58:32.657550,2020-07-25 00:00:00.000000,0.49221941,72.21566752,79.49597884,28,4167,4587,27,4157,4580,0.47418441,72.03974623,79.36345393,0.75360605,0.93883338,0.97660769
48317,0,USTexasMartin,Texas,Martin,2020-07-15 02:58:32.657550,2020-07-26 00:00:00.000000,0.47349848,72.03931662,79.36323263,27,4157,4580,26,4147,4572,0.45614942,71.86382493,79.23092902,0.75360605,0.93883338,0.97660769
48317,0,USTexasMartin,Texas,Martin,2020-07-15 02:58:32.657550,2020-07-27 00:00:00.000000,0.45548957,71.86339638,79.23070809,26,4147,4572,25,4137,4564,0.43880036,71.68833324,79.09862540,0.75360605,0.93883338,0.97660769
