FIPS,HR_UID,nameid,province,region,analysisTime,dates,pointprevalence_025,pointprevalence_50,pointprevalence_975,pointinfections_025,pointinfections_50,pointinfections_975,pointinfectious_025,pointinfectious_50,pointinfectious_975,pointinfectiousprevalence_05,pointinfectiousprevalence_50,pointinfectiousprevalence_95,infectrate_025,infectrate_50,infectrate_975
48297,0,USTexasLiveOak,Texas,Live Oak,2020-07-18 01:27:08.510269,2020-03-09 00:00:00.000000,0.00043462,0.03626850,241.69358111,0,4,29503,0,0,17297,0.00009046,0.00781500,141.70177313,0.46392097,0.73681228,1.10818856
48297,0,USTexasLiveOak,Texas,Live Oak,2020-07-18 01:27:08.510269,2020-03-10 00:00:00.000000,0.00008761,0.00695817,242.66067732,0,0,29621,0,0,11994,0.00002799,0.00253498,98.26208925,0.46392243,0.73683807,1.10818861
48297,0,USTexasLiveOak,Texas,Live Oak,2020-07-18 01:27:08.510269,2020-03-11 00:00:00.000000,0.00003931,0.00496813,112.20089425,0,0,13696,0,0,13251,0.00001030,0.00119640,108.55893257,0.46392769,0.73692870,1.10818882
48297,0,USTexasLiveOak,Texas,Live Oak,2020-07-18 01:27:08.510269,2020-03-12 00:00:00.000000,0.00001265,0.00139612,108.69421971,0,0,13268,0,0,11994,0.00000355,0.00043393,98.26208925,0.46394674,0.73724667,1.10818972
48297,0,USTexasLiveOak,Texas,Live Oak,2020-07-18 01:27:08.510269,2020-03-13 00:00:00.000000,0.00000458,0.00073461,98.23074238,0,0,11991,0,0,11790,0.00000125,0.00018860,96.58472088,0.46401556,0.73835475,1.10819329
48297,0,USTexasLiveOak,Texas,Live Oak,2020-07-18 01:27:08.510269,2020-03-14 00:00:00.000000,0.00000158,0.00024892,96.55545459,0,0,11786,0,0,11587,0.00000043,0.00007242,94.92908509,0.46426407,0.74212845,1.10820725
48297,0,USTexasLiveOak,Texas,Live Oak,2020-07-18 01:27:08.510269,2020-03-15 00:00:00.000000,0.00000054,0.00011476,94.90078437,0,0,11584,0,0,11389,0.00000015,0.00003030,93.30223042,0.46515843,0.75403538,1.10826099
48297,0,USTexasLiveOak,Texas,Live Oak,2020-07-18 01:27:08.510269,2020-03-16 00:00:00.000000,0.00000018,0.00004383,93.27463923,0,0,11386,0,0,11194,0.00000005,0.00001220,91.70338698,0.46833910,0.78407707,1.10846588
48297,0,USTexasLiveOak,Texas,Live Oak,2020-07-18 01:27:08.510269,2020-03-17 00:00:00.000000,0.00000005,0.00001967,91.67636918,0,0,11190,0,0,11002,0.00000001,0.00000512,90.13199945,0.47918872,0.83047138,1.10923452
48297,0,USTexasLiveOak,Texas,Live Oak,2020-07-18 01:27:08.510269,2020-03-18 00:00:00.000000,0.00000001,0.00000826,90.10549135,0,0,10999,0,0,10813,0.00000000,0.00000213,88.58756552,0.51148308,0.86666071,1.11198630
48297,0,USTexasLiveOak,Texas,Live Oak,2020-07-18 01:27:08.510269,2020-03-19 00:00:00.000000,0.00000000,0.00000332,88.56153366,0,0,10810,0,0,10628,0.00000000,0.00000072,87.06960854,0.57829147,0.88262433,1.12044776
48297,0,USTexasLiveOak,Texas,Live Oak,2020-07-18 01:27:08.510269,2020-03-20 00:00:00.000000,0.00000000,0.00000116,87.04403334,0,0,10625,0,0,10446,0.00000000,0.00000015,85.57766799,0.65043724,0.88788283,1.13777660
48297,0,USTexasLiveOak,Texas,Live Oak,2020-07-18 01:27:08.510269,2020-03-21 00:00:00.000000,0.00000000,0.00000020,85.55253626,0,0,10443,0,0,10267,0.00000000,0.00000008,84.11129488,0.68961348,0.88943782,1.15526504
48297,0,USTexasLiveOak,Texas,Live Oak,2020-07-18 01:27:08.510269,2020-03-22 00:00:00.000000,0.00000000,0.00000001,84.08659644,0,0,10264,0,0,10091,0.00000000,0.00000001,82.67004961,0.70347526,0.88999621,1.16375451
48297,0,USTexasLiveOak,Texas,Live Oak,2020-07-18 01:27:08.510269,2020-03-23 00:00:00.000000,0.00000000,0.00000015,82.64577571,0,0,10088,0,0,9918,0.00000000,0.00000007,81.25350082,0.70761248,0.89009350,1.16607613
48297,0,USTexasLiveOak,Texas,Live Oak,2020-07-18 01:27:08.510269,2020-03-24 00:00:00.000000,0.00000000,0.00000001,81.22964351,0,0,9915,0,0,9748,0.00000000,0.00000000,79.86122494,0.70878705,0.89003158,1.16573096
48297,0,USTexasLiveOak,Texas,Live Oak,2020-07-18 01:27:08.510269,2020-03-25 00:00:00.000000,0.00000000,0.00000013,79.83777676,0,0,9745,0,0,9581,0.00000000,0.00000006,78.49280585,0.70913591,0.88968672,1.16363908
48297,0,USTexasLiveOak,Texas,Live Oak,2020-07-18 01:27:08.510269,2020-03-26 00:00:00.000000,0.00000000,0.00000001,78.46975963,0,0,9578,0,0,9417,0.00000000,0.00000000,77.14783468,0.70932422,0.88848685,1.15942532
48297,0,USTexasLiveOak,Texas,Live Oak,2020-07-18 01:27:08.510269,2020-03-27 00:00:00.000000,0.00000000,0.00000011,77.12518344,0,0,9414,0,0,9256,0.00000000,0.00000005,75.82590960,0.70975603,0.88533000,1.15259411
48297,0,USTexasLiveOak,Texas,Live Oak,2020-07-18 01:27:08.510269,2020-03-28 00:00:00.000000,0.00000000,0.00000001,75.80364653,0,0,9253,0,0,9097,0.00000000,0.00000000,74.52663568,0.71141944,0.88102677,1.14382733
48297,0,USTexasLiveOak,Texas,Live Oak,2020-07-18 01:27:08.510269,2020-03-29 00:00:00.000000,0.00000000,0.00000009,74.50475411,0,0,9094,0,0,8941,0.00000000,0.00000004,73.24962479,0.71771400,0.87749172,1.13538229
48297,0,USTexasLiveOak,Texas,Live Oak,2020-07-18 01:27:08.510269,2020-03-30 00:00:00.000000,0.00000000,0.00000001,73.22811818,0,0,8938,0,0,8788,0.00000000,0.00000000,71.99449544,0.73649838,0.87316050,1.13759908
48297,0,USTexasLiveOak,Texas,Live Oak,2020-07-18 01:27:08.510269,2020-03-31 00:00:00.000000,0.00000000,0.00000008,71.97335735,0,0,8785,0,0,8637,0.00000000,0.00000004,70.76087270,0.76743219,0.86556617,1.14201194
48297,0,USTexasLiveOak,Texas,Live Oak,2020-07-18 01:27:08.510269,2020-04-01 00:00:00.000000,0.00000000,0.00000001,70.74009681,0,0,8635,0,0,8489,0.00000000,0.00000001,69.54838804,0.78963789,0.85253036,1.13983638
48297,0,USTexasLiveOak,Texas,Live Oak,2020-07-18 01:27:08.510269,2020-04-02 00:00:00.000000,0.00000000,0.00000008,69.52796814,0,0,8487,0,0,8344,0.00000000,0.00000004,68.35667926,0.80234890,0.83371757,1.13552765
48297,0,USTexasLiveOak,Texas,Live Oak,2020-07-18 01:27:08.510269,2020-04-03 00:00:00.000000,0.00000000,0.00000002,68.33660926,0,0,8341,0,0,8201,0.00000000,0.00000001,67.18539037,0.81260067,0.83371138,1.14913060
48297,0,USTexasLiveOak,Texas,Live Oak,2020-07-18 01:27:08.510269,2020-04-04 00:00:00.000000,0.00000000,0.00000007,67.16566427,0,0,8198,0,0,8060,0.00000000,0.00000003,66.03417147,0.79501736,0.87244389,1.16819966
48297,0,USTexasLiveOak,Texas,Live Oak,2020-07-18 01:27:08.510269,2020-04-05 00:00:00.000000,0.00000000,0.00000002,66.01478338,0,0,8058,0,0,7922,0.00000000,0.00000001,64.90267867,0.78347782,0.88136575,1.18648255
48297,0,USTexasLiveOak,Texas,Live Oak,2020-07-18 01:27:08.510269,2020-04-06 00:00:00.000000,0.00000000,0.00000007,64.88362279,0,0,7920,0,0,7786,0.00000000,0.00000003,63.79057396,0.77705677,0.88236247,1.19882836
48297,0,USTexasLiveOak,Texas,Live Oak,2020-07-18 01:27:08.510269,2020-04-07 00:00:00.000000,0.00000000,0.00000002,63.77184460,0,0,7784,0,0,7653,0.00000000,0.00000001,62.69752512,0.77378268,0.88246665,1.20385379
48297,0,USTexasLiveOak,Texas,Live Oak,2020-07-18 01:27:08.510269,2020-04-08 00:00:00.000000,0.00000000,0.00000007,62.67911669,0,0,7651,0,0,7522,0.00000000,0.00000003,61.62320563,0.77212291,0.88247841,1.19890155
48297,0,USTexasLiveOak,Texas,Live Oak,2020-07-18 01:27:08.510269,2020-04-09 00:00:00.000000,0.00000000,0.00000002,61.60511263,0,0,7520,0,0,7393,0.00000000,0.00000001,60.56729457,0.77112695,0.88248127,1.17704618
48297,0,USTexasLiveOak,Texas,Live Oak,2020-07-18 01:27:08.510269,2020-04-10 00:00:00.000000,0.00000000,0.00000007,60.54951160,0,0,7391,0,0,7266,0.00000000,0.00000003,59.52947651,0.77014169,0.88248629,1.14229946
48297,0,USTexasLiveOak,Texas,Live Oak,2020-07-18 01:27:08.510269,2020-04-11 00:00:00.000000,0.00000000,0.00000002,59.51199824,0,0,7264,0,0,7142,0.00000000,0.00000001,58.50944142,0.76851731,0.88250210,1.12368651
48297,0,USTexasLiveOak,Texas,Live Oak,2020-07-18 01:27:08.510269,2020-04-12 00:00:00.000000,0.00000000,0.00000007,58.49226264,0,0,7140,0,0,7019,0.00000000,0.00000003,57.50688460,0.76553791,0.88255361,1.11692539
48297,0,USTexasLiveOak,Texas,Live Oak,2020-07-18 01:27:08.510269,2020-04-13 00:00:00.000000,0.00000000,0.00000003,57.49000018,0,0,7017,0,0,6899,0.00000000,0.00000001,56.52150655,0.76102402,0.88271941,1.11246227
48297,0,USTexasLiveOak,Texas,Live Oak,2020-07-18 01:27:08.510269,2020-04-14 00:00:00.000000,0.00000000,0.00000006,56.50491144,0,0,6897,0,0,6781,0.00000000,0.00000003,55.55301291,0.75617533,0.88322817,1.10645669
48297,0,USTexasLiveOak,Texas,Live Oak,2020-07-18 01:27:08.510269,2020-04-15 00:00:00.000000,0.00000000,0.00000003,55.53670217,0,0,6779,0,0,6665,0.00000000,0.00000001,54.60111438,0.75247647,0.88463106,1.09682033
48297,0,USTexasLiveOak,Texas,Live Oak,2020-07-18 01:27:08.510269,2020-04-16 00:00:00.000000,0.00000000,0.00000006,54.58508312,0,0,6663,0,0,6550,0.00000000,0.00000003,53.66552660,0.74998297,0.88809943,1.08182199
48297,0,USTexasLiveOak,Texas,Live Oak,2020-07-18 01:27:08.510269,2020-04-17 00:00:00.000000,0.00000000,0.00000003,53.64977003,0,0,6549,0,0,6438,0.00000000,0.00000002,52.74597008,0.74767961,0.89687066,1.06054129
48297,0,USTexasLiveOak,Texas,Live Oak,2020-07-18 01:27:08.510269,2020-04-18 00:00:00.000000,0.00000000,0.00000006,52.73048350,0,0,6436,0,0,6328,0.00000000,0.00000003,51.84217013,0.74413406,0.91667581,1.03380871
48297,0,USTexasLiveOak,Texas,Live Oak,2020-07-18 01:27:08.510269,2020-04-19 00:00:00.000000,0.00000000,0.00000003,51.82694891,0,0,6326,0,0,6219,0.00000000,0.00000002,50.95385675,0.73744631,0.94246331,1.00499855
48297,0,USTexasLiveOak,Texas,Live Oak,2020-07-18 01:27:08.510269,2020-04-20 00:00:00.000000,0.00000000,0.00000006,50.93889635,0,0,6218,0,0,6113,0.00000000,0.00000003,50.08076459,0.72553151,0.95844913,0.97736700
48297,0,USTexasLiveOak,Texas,Live Oak,2020-07-18 01:27:08.510269,2020-04-21 00:00:00.000000,0.00000000,0.00000004,50.06606054,0,0,6111,0,0,6008,0.00000000,0.00000002,49.22263283,0.70815645,0.94488255,0.96434267
48297,0,USTexasLiveOak,Texas,Live Oak,2020-07-18 01:27:08.510269,2020-04-22 00:00:00.000000,0.00000000,0.00000007,49.20818073,0,0,6006,0,0,5905,0.00000000,0.00000003,48.37920513,0.68933265,0.90837433,0.96602600
48297,0,USTexasLiveOak,Texas,Live Oak,2020-07-18 01:27:08.510269,2020-04-23 00:00:00.000000,0.00000000,0.00000004,48.36500067,0,0,5903,0,0,5804,0.00000000,0.00000002,47.55022953,0.67456762,0.87165062,0.96638771
48297,0,USTexasLiveOak,Texas,Live Oak,2020-07-18 01:27:08.510269,2020-04-24 00:00:00.000000,0.00000000,0.00000007,47.53626846,0,0,5802,0,0,5704,0.00000000,0.00000003,46.73545840,0.66585024,0.85127537,0.96599282
48297,0,USTexasLiveOak,Texas,Live Oak,2020-07-18 01:27:08.510269,2020-04-25 00:00:00.000000,0.00000000,0.00000004,46.72173655,0,0,5703,0,0,5607,0.00000000,0.00000002,45.93464834,0.66256482,0.84383329,0.96338927
48297,0,USTexasLiveOak,Texas,Live Oak,2020-07-18 01:27:08.510269,2020-04-26 00:00:00.000000,0.00000000,0.00000007,45.92116161,0,0,5605,0,0,5511,0.00000000,0.00000003,45.14756013,0.66470574,0.84118667,0.95108593
48297,0,USTexasLiveOak,Texas,Live Oak,2020-07-18 01:27:08.510269,2020-04-27 00:00:00.000000,0.00000000,0.00000004,45.13430449,0,0,5509,0,0,5416,0.00000000,0.00000002,44.37395864,0.66982621,0.84004496,0.91066324
48297,0,USTexasLiveOak,Texas,Live Oak,2020-07-18 01:27:08.510269,2020-04-28 00:00:00.000000,0.00000000,0.00000007,44.36093015,0,0,5415,0,0,5323,0.00000000,0.00000003,43.61361279,0.67286106,0.83936823,0.85504948
48297,0,USTexasLiveOak,Texas,Live Oak,2020-07-18 01:27:08.510269,2020-04-29 00:00:00.000000,0.00000000,0.00000004,43.60080754,0,0,5322,0,0,5232,0.00000000,0.00000002,42.86629544,0.67490812,0.82828837,0.84050644
48297,0,USTexasLiveOak,Texas,Live Oak,2020-07-18 01:27:08.510269,2020-04-30 00:00:00.000000,0.00000000,0.00000007,42.85370960,0,0,5231,0,0,5143,0.00000000,0.00000003,42.13178333,0.67796755,0.81958793,0.83923211
48297,0,USTexasLiveOak,Texas,Live Oak,2020-07-18 01:27:08.510269,2020-05-01 00:00:00.000000,0.00000000,0.00000003,42.11941316,0,0,5141,0,0,5054,0.00000000,0.00000002,41.40985707,0.67926248,0.81144828,0.83627538
48297,0,USTexasLiveOak,Texas,Live Oak,2020-07-18 01:27:08.510269,2020-05-02 00:00:00.000000,0.00000000,0.00000006,41.39769885,0,0,5053,0,0,4968,0.00000000,0.00000003,40.70030099,0.66992771,0.79861154,0.83007895
48297,0,USTexasLiveOak,Texas,Live Oak,2020-07-18 01:27:08.510269,2020-05-03 00:00:00.000000,0.00000000,0.00000003,40.68835110,0,0,4966,0,0,4883,0.00000000,0.00000001,40.00290312,0.66370333,0.78828545,0.81918859
48297,0,USTexasLiveOak,Texas,Live Oak,2020-07-18 01:27:08.510269,2020-05-04 00:00:00.000000,0.00000000,0.00000006,39.99115799,0,0,4881,0,0,4799,0.00000000,0.00000003,39.31745513,0.66143613,0.78444660,0.80603458
48297,0,USTexasLiveOak,Texas,Live Oak,2020-07-18 01:27:08.510269,2020-05-05 00:00:00.000000,0.00000000,0.00000003,39.30591126,0,0,4798,0,0,4717,0.00000000,0.00000001,38.64375228,0.66078604,0.78428622,0.79579787
48297,0,USTexasLiveOak,Texas,Live Oak,2020-07-18 01:27:08.510269,2020-05-06 00:00:00.000000,0.00000000,0.00000005,38.63240621,0,0,4715,0,0,4636,0.00000000,0.00000003,37.98159329,0.66060403,0.78647652,0.78989525
48297,0,USTexasLiveOak,Texas,Live Oak,2020-07-18 01:27:08.510269,2020-05-07 00:00:00.000000,0.00000000,0.00000003,37.97044164,0,0,4635,0,0,4556,0.00000000,0.00000001,37.33078037,0.66061880,0.78276740,0.79212280
48297,0,USTexasLiveOak,Texas,Live Oak,2020-07-18 01:27:08.510269,2020-05-08 00:00:00.000000,0.00000000,0.00000005,37.31981980,0,0,4555,0,0,4478,0.00000000,0.00000002,36.69111911,0.66363918,0.76908801,0.80453817
48297,0,USTexasLiveOak,Texas,Live Oak,2020-07-18 01:27:08.510269,2020-05-09 00:00:00.000000,0.00000000,0.00000002,36.68034635,0,0,4477,0,0,4402,0.00000000,0.00000001,36.06241842,0.67548057,0.73367099,0.82919713
48297,0,USTexasLiveOak,Texas,Live Oak,2020-07-18 01:27:08.510269,2020-05-10 00:00:00.000000,0.00000000,0.00000005,36.05183025,0,0,4400,0,0,4326,0.00000000,0.00000002,35.44449049,0.67663300,0.71553753,0.87009987
48297,0,USTexasLiveOak,Texas,Live Oak,2020-07-18 01:27:08.510269,2020-05-11 00:00:00.000000,0.00000000,0.00000002,35.43408374,0,0,4325,0,0,4252,0.00000000,0.00000001,34.83715073,0.67665541,0.72243836,0.92121071
48297,0,USTexasLiveOak,Texas,Live Oak,2020-07-18 01:27:08.510269,2020-05-12 00:00:00.000000,0.00000000,0.00000005,34.82692230,0,0,4251,0,0,4179,0.00000000,0.00000002,34.24021771,0.67346047,0.73767821,0.96636489
48297,0,USTexasLiveOak,Texas,Live Oak,2020-07-18 01:27:08.510269,2020-05-13 00:00:00.000000,0.00000000,0.00000002,34.23016455,0,0,4178,0,0,4108,0.00000000,0.00000001,33.65351312,0.64967898,0.76843024,0.99530046
48297,0,USTexasLiveOak,Texas,Live Oak,2020-07-18 01:27:08.510269,2020-05-14 00:00:00.000000,0.00000000,0.00000005,33.64363222,0,0,4106,0,0,4037,0.00000000,0.00000002,33.07686168,0.62968041,0.81623761,1.01043422
48297,0,USTexasLiveOak,Texas,Live Oak,2020-07-18 01:27:08.510269,2020-05-15 00:00:00.000000,0.00000000,0.00000002,33.06715009,0,0,4036,0,0,3968,0.00000000,0.00000001,32.51009115,0.61889150,0.86651354,1.02018325
48297,0,USTexasLiveOak,Texas,Live Oak,2020-07-18 01:27:08.510269,2020-05-16 00:00:00.000000,0.00000000,0.00000005,32.50054597,0,0,3967,0,0,3900,0.00000000,0.00000002,31.95303221,0.61444085,0.90165268,1.03189694
48297,0,USTexasLiveOak,Texas,Live Oak,2020-07-18 01:27:08.510269,2020-05-17 00:00:00.000000,0.00000000,0.00000002,31.94365058,0,0,3899,0,0,3833,0.00000000,0.00000001,31.40551845,0.61292121,0.91980947,1.03496610
48297,0,USTexasLiveOak,Texas,Live Oak,2020-07-18 01:27:08.510269,2020-05-18 00:00:00.000000,0.00000000,0.00000006,31.39629757,0,0,3832,0,0,3767,0.00000000,0.00000003,30.86738631,0.61271615,0.92771698,1.00261111
48297,0,USTexasLiveOak,Texas,Live Oak,2020-07-18 01:27:08.510269,2020-05-19 00:00:00.000000,0.00000000,0.00000002,30.85832344,0,0,3766,0,0,3703,0.00000000,0.00000001,30.33847505,0.61384806,0.93077807,0.94298440
48297,0,USTexasLiveOak,Texas,Live Oak,2020-07-18 01:27:08.510269,2020-05-20 00:00:00.000000,0.00000000,0.00000006,30.32956747,0,0,3702,0,0,3639,0.00000000,0.00000003,29.81862666,0.61852126,0.88809308,0.93170135
48297,0,USTexasLiveOak,Texas,Live Oak,2020-07-18 01:27:08.510269,2020-05-21 00:00:00.000000,0.00000000,0.00000002,29.80987171,0,0,3638,0,0,3577,0.00000000,0.00000001,29.30768586,0.63302802,0.85256211,0.92977918
48297,0,USTexasLiveOak,Texas,Live Oak,2020-07-18 01:27:08.510269,2020-05-22 00:00:00.000000,0.00000000,0.00000006,29.29908092,0,0,3576,0,0,3516,0.00000000,0.00000003,28.80550000,0.66257193,0.83353667,0.92090297
48297,0,USTexasLiveOak,Texas,Live Oak,2020-07-18 01:27:08.510269,2020-05-23 00:00:00.000000,0.00000000,0.00000002,28.79704251,0,0,3515,0,0,3456,0.00000000,0.00000001,28.31191908,0.69153453,0.82427703,0.88982184
48297,0,USTexasLiveOak,Texas,Live Oak,2020-07-18 01:27:08.510269,2020-05-24 00:00:00.000000,0.00000000,0.00000005,28.30360651,0,0,3455,0,0,3396,0.00000000,0.00000002,27.82679565,0.70539955,0.80842382,0.84626833
48297,0,USTexasLiveOak,Texas,Live Oak,2020-07-18 01:27:08.510269,2020-05-25 00:00:00.000000,0.00000000,0.00000003,27.81862551,0,0,3395,0,0,3338,0.00000000,0.00000001,27.34998478,0.69238723,0.71287840,0.81784716
48297,0,USTexasLiveOak,Texas,Live Oak,2020-07-18 01:27:08.510269,2020-05-26 00:00:00.000000,0.00000000,0.00000005,27.34195464,0,0,3337,0,0,3281,0.00000000,0.00000002,26.88134406,0.61782537,0.71396293,0.81644978
48297,0,USTexasLiveOak,Texas,Live Oak,2020-07-18 01:27:08.510269,2020-05-27 00:00:00.000000,0.00000000,0.00000003,26.87345151,0,0,3280,0,0,3225,0.00000000,0.00000001,26.42073347,0.59067679,0.71425486,0.81427039
48297,0,USTexasLiveOak,Texas,Live Oak,2020-07-18 01:27:08.510269,2020-05-28 00:00:00.000000,0.00000000,0.00000005,26.41297616,0,0,3224,0,0,3169,0.00000000,0.00000002,25.96801542,0.58292428,0.71402138,0.80820865
48297,0,USTexasLiveOak,Texas,Live Oak,2020-07-18 01:27:08.510269,2020-05-29 00:00:00.000000,0.00000000,0.00000002,25.96039104,0,0,3168,0,0,3115,0.00000000,0.00000001,25.52305469,0.58090922,0.71391932,0.79101236
48297,0,USTexasLiveOak,Texas,Live Oak,2020-07-18 01:27:08.510269,2020-05-30 00:00:00.000000,0.00000000,0.00000005,25.51556094,0,0,3114,0,0,3062,0.00000000,0.00000002,25.08571833,0.58112422,0.72104103,0.75505798
48297,0,USTexasLiveOak,Texas,Live Oak,2020-07-18 01:27:08.510269,2020-05-31 00:00:00.000000,0.00000000,0.00000002,25.07835299,0,0,3061,0,0,3009,0.00000000,0.00000001,24.65587572,0.58783487,0.71340732,0.73993062
48297,0,USTexasLiveOak,Texas,Live Oak,2020-07-18 01:27:08.510269,2020-06-01 00:00:00.000000,0.00000000,0.00000004,24.64863659,0,0,3008,0,0,2958,0.00000000,0.00000002,24.23339844,0.59289727,0.68854807,0.76303521
48297,0,USTexasLiveOak,Texas,Live Oak,2020-07-18 01:27:08.510269,2020-06-02 00:00:00.000000,0.00000000,0.00000002,24.22628335,0,0,2957,0,0,2907,0.00000000,0.00000001,23.81816029,0.59335961,0.67905134,0.78631153
48297,0,USTexasLiveOak,Texas,Live Oak,2020-07-18 01:27:08.510269,2020-06-03 00:00:00.000000,0.00000000,0.00000003,23.81116712,0,0,2906,0,0,2857,0.00000000,0.00000002,23.41003723,0.59360934,0.67605171,0.79758074
48297,0,USTexasLiveOak,Texas,Live Oak,2020-07-18 01:27:08.510269,2020-06-04 00:00:00.000000,0.00000000,0.00000002,23.40316388,0,0,2856,0,0,2808,0.00000000,0.00000001,23.00890734,0.59432459,0.67515148,0.79331629
48297,0,USTexasLiveOak,Texas,Live Oak,2020-07-18 01:27:08.510269,2020-06-05 00:00:00.000000,0.00000000,0.00000003,23.00215177,0,0,2807,0,0,2760,0.00000000,0.00000001,22.61465080,0.59645379,0.67475874,0.77853931
48297,0,USTexasLiveOak,Texas,Live Oak,2020-07-18 01:27:08.510269,2020-06-06 00:00:00.000000,0.00000000,0.00000002,22.60801098,0,0,2759,0,0,2713,0.00000000,0.00000001,22.22714982,0.60230314,0.67345943,0.75898164
48297,0,USTexasLiveOak,Texas,Live Oak,2020-07-18 01:27:08.510269,2020-06-07 00:00:00.000000,0.00000000,0.00000002,22.22062378,0,0,2712,0,0,2666,0.00000000,0.00000001,21.84628866,0.61535406,0.66369138,0.73957065
48297,0,USTexasLiveOak,Texas,Live Oak,2020-07-18 01:27:08.510269,2020-06-08 00:00:00.000000,0.00000000,0.00000002,21.83987444,0,0,2665,0,0,2621,0.00000000,0.00000001,21.47195354,0.62542505,0.63470698,0.72171844
48297,0,USTexasLiveOak,Texas,Live Oak,2020-07-18 01:27:08.510269,2020-06-09 00:00:00.000000,0.00000000,0.00000002,21.46564923,0,0,2620,0,0,2576,0.00000000,0.00000001,21.10403263,0.59583256,0.65087773,0.70325568
48297,0,USTexasLiveOak,Texas,Live Oak,2020-07-18 01:27:08.510269,2020-06-10 00:00:00.000000,0.00000000,0.00000002,21.09783635,0,0,2575,0,0,2532,0.00000000,0.00000001,20.74241604,0.59070399,0.65954473,0.68463409
48297,0,USTexasLiveOak,Texas,Live Oak,2020-07-18 01:27:08.510269,2020-06-11 00:00:00.000000,0.00000000,0.00000002,20.73632593,0,0,2531,0,0,2488,0.00000000,0.00000001,20.38699573,0.59300875,0.63498254,0.68472710
48297,0,USTexasLiveOak,Texas,Live Oak,2020-07-18 01:27:08.510269,2020-06-12 00:00:00.000000,0.00000000,0.00000002,20.38100997,0,0,2487,0,0,2445,0.00000000,0.00000001,20.03766553,0.61150376,0.61720438,0.68486713
48297,0,USTexasLiveOak,Texas,Live Oak,2020-07-18 01:27:08.510269,2020-06-13 00:00:00.000000,0.00000000,0.00000001,20.03178234,0,0,2445,0,0,2404,0.00000000,0.00000001,19.69432109,0.60927344,0.68174260,0.68673162
48297,0,USTexasLiveOak,Texas,Live Oak,2020-07-18 01:27:08.510269,2020-06-14 00:00:00.000000,0.00000000,0.00000001,19.68853871,0,0,2403,0,0,2362,0.00000000,0.00000001,19.35685984,0.60694849,0.71172608,0.78085315
48297,0,USTexasLiveOak,Texas,Live Oak,2020-07-18 01:27:08.510269,2020-06-15 00:00:00.000000,0.00000000,0.00000001,19.35117654,0,0,2362,0,0,2322,0.00000000,0.00000001,19.02518098,0.60566566,0.76540176,0.81186215
48297,0,USTexasLiveOak,Texas,Live Oak,2020-07-18 01:27:08.510269,2020-06-16 00:00:00.000000,0.00000000,0.00000001,19.01959506,0,0,2321,0,0,2282,0.00000000,0.00000001,18.69918542,0.60495794,0.81719004,0.82059884
48297,0,USTexasLiveOak,Texas,Live Oak,2020-07-18 01:27:08.510269,2020-06-17 00:00:00.000000,0.00000000,0.00000001,18.69369521,0,0,2281,0,0,2243,0.00000000,0.00000000,18.37877578,0.60483672,0.81814952,0.85414308
48297,0,USTexasLiveOak,Texas,Live Oak,2020-07-18 01:27:08.510269,2020-06-18 00:00:00.000000,0.00000000,0.00000001,18.37337965,0,0,2242,0,0,2205,0.00000000,0.00000001,18.06385634,0.60583618,0.81857821,0.86956920
48297,0,USTexasLiveOak,Texas,Live Oak,2020-07-18 01:27:08.510269,2020-06-19 00:00:00.000000,0.00000000,0.00000001,18.05855267,0,0,2204,0,0,2167,0.00000000,0.00000000,17.75433304,0.60897264,0.81915775,0.87593632
48297,0,USTexasLiveOak,Texas,Live Oak,2020-07-18 01:27:08.510269,2020-06-20 00:00:00.000000,0.00000000,0.00000001,17.74912025,0,0,2166,0,0,2130,0.00000000,0.00000001,17.45011340,0.61340773,0.82011860,0.87848465
48297,0,USTexasLiveOak,Texas,Live Oak,2020-07-18 01:27:08.510269,2020-06-21 00:00:00.000000,0.00000000,0.00000001,17.44498993,0,0,2129,0,0,2093,0.00000000,0.00000000,17.15110656,0.61743346,0.82166413,0.87950246
48297,0,USTexasLiveOak,Texas,Live Oak,2020-07-18 01:27:08.510269,2020-06-22 00:00:00.000000,0.00000000,0.00000001,17.14607088,0,0,2093,0,0,2057,0.00000000,0.00000001,16.85722318,0.62521723,0.82369964,0.87991019
48297,0,USTexasLiveOak,Texas,Live Oak,2020-07-18 01:27:08.510269,2020-06-23 00:00:00.000000,0.00000000,0.00000001,16.85227379,0,0,2057,0,0,2022,0.00000000,0.00000000,16.56837548,0.64174215,0.82603934,0.88006020
48297,0,USTexasLiveOak,Texas,Live Oak,2020-07-18 01:27:08.510269,2020-06-24 00:00:00.000000,0.00000000,0.00000001,16.56351090,0,0,2021,0,0,1987,0.00000000,0.00000001,16.28447718,0.66017972,0.82826211,0.88002284
48297,0,USTexasLiveOak,Texas,Live Oak,2020-07-18 01:27:08.510269,2020-06-25 00:00:00.000000,0.00000000,0.00000001,16.27969595,0,0,1987,0,0,1953,0.00000000,0.00000000,16.00544346,0.66970102,0.83014616,0.87939264
48297,0,USTexasLiveOak,Texas,Live Oak,2020-07-18 01:27:08.510269,2020-06-26 00:00:00.000000,0.00000000,0.00000002,16.00074416,0,0,1953,0,0,1920,0.00000000,0.00000001,15.73119097,0.67255861,0.83241665,0.87534102
48297,0,USTexasLiveOak,Texas,Live Oak,2020-07-18 01:27:08.510269,2020-06-27 00:00:00.000000,0.00000000,0.00000001,15.72657219,0,0,1919,0,0,1887,0.00000000,0.00000000,15.46163779,0.67289838,0.83964256,0.85280797
48297,0,USTexasLiveOak,Texas,Live Oak,2020-07-18 01:27:08.510269,2020-06-28 00:00:00.000000,0.00000000,0.00000002,15.45709815,0,0,1886,0,0,1855,0.00000000,0.00000001,15.19670339,0.67222553,0.77731733,0.87053783
48297,0,USTexasLiveOak,Texas,Live Oak,2020-07-18 01:27:08.510269,2020-06-29 00:00:00.000000,0.00000000,0.00000001,15.19224153,0,0,1854,0,0,1823,0.00000000,0.00000000,14.93630863,0.67075811,0.69966491,0.96187060
48297,0,USTexasLiveOak,Texas,Live Oak,2020-07-18 01:27:08.510269,2020-06-30 00:00:00.000000,0.00000000,0.00000002,14.93192323,0,0,1822,0,0,1792,0.00000000,0.00000001,14.68037572,0.66821957,0.67466604,1.06788427
48297,0,USTexasLiveOak,Texas,Live Oak,2020-07-18 01:27:08.510269,2020-07-01 00:00:00.000000,0.00000000,0.00000001,14.67606546,0,0,1791,0,0,1761,0.00000000,0.00000000,14.42882820,0.66411263,0.66824314,1.10477982
48297,0,USTexasLiveOak,Texas,Live Oak,2020-07-18 01:27:08.510269,2020-07-02 00:00:00.000000,0.00000000,0.00000002,14.42459181,0,0,1760,0,0,1731,0.00000000,0.00000001,14.18159095,0.65791647,0.66332286,1.09693227
48297,0,USTexasLiveOak,Texas,Live Oak,2020-07-18 01:27:08.510269,2020-07-03 00:00:00.000000,0.00000000,0.00000001,14.17742714,0,0,1730,0,0,1701,0.00000000,0.00000000,13.93859009,0.64941154,0.65624147,1.06771267
48297,0,USTexasLiveOak,Texas,Live Oak,2020-07-18 01:27:08.510269,2020-07-04 00:00:00.000000,0.00000000,0.00000001,13.93449763,0,0,1700,0,0,1672,0.00000000,0.00000001,13.69975305,0.63916941,0.64798616,1.02284657
48297,0,USTexasLiveOak,Texas,Live Oak,2020-07-18 01:27:08.510269,2020-07-05 00:00:00.000000,0.00000000,0.00000001,13.69573071,0,0,1671,0,0,1643,0.00000000,0.00000000,13.46500846,0.62845976,0.64136915,0.96796198
48297,0,USTexasLiveOak,Texas,Live Oak,2020-07-18 01:27:08.510269,2020-07-06 00:00:00.000000,0.00000000,0.00000001,13.46105505,0,0,1643,0,0,1615,0.00000000,0.00000001,13.23428622,0.61886564,0.63750548,0.91338887
48297,0,USTexasLiveOak,Texas,Live Oak,2020-07-18 01:27:08.510269,2020-07-07 00:00:00.000000,0.00000000,0.00000001,13.23040054,0,0,1615,0,0,1587,0.00000000,0.00000000,13.00751739,0.61128853,0.63565142,0.86894761
48297,0,USTexasLiveOak,Texas,Live Oak,2020-07-18 01:27:08.510269,2020-07-08 00:00:00.000000,0.00000000,0.00000002,13.00369829,0,0,1587,0,0,1560,0.00000000,0.00000001,12.78463423,0.60602403,0.63484690,0.83824853
48297,0,USTexasLiveOak,Texas,Live Oak,2020-07-18 01:27:08.510269,2020-07-09 00:00:00.000000,0.00000000,0.00000001,12.78088058,0,0,1560,0,0,1533,0.00000000,0.00000000,12.56557016,0.60267839,0.63451312,0.81936411
48297,0,USTexasLiveOak,Texas,Live Oak,2020-07-18 01:27:08.510269,2020-07-10 00:00:00.000000,0.00000000,0.00000002,12.56188083,0,0,1533,0,0,1507,0.00000000,0.00000001,12.35025975,0.60063261,0.63437724,0.80856087
48297,0,USTexasLiveOak,Texas,Live Oak,2020-07-18 01:27:08.510269,2020-07-11 00:00:00.000000,0.00000000,0.00000001,12.34663363,0,0,1507,0,0,1481,0.00000000,0.00000000,12.13863868,0.59942040,0.63432235,0.80263503
48297,0,USTexasLiveOak,Texas,Live Oak,2020-07-18 01:27:08.510269,2020-07-12 00:00:00.000000,0.00000000,0.00000002,12.13507469,0,0,1481,0,0,1456,0.00000000,0.00000001,11.93064372,0.59871664,0.63430024,0.79945917
48297,0,USTexasLiveOak,Texas,Live Oak,2020-07-18 01:27:08.510269,2020-07-13 00:00:00.000000,0.00000000,0.00000001,11.92714080,0,0,1455,0,0,1431,0.00000000,0.00000000,11.72621274,0.59831436,0.63429135,0.79777826
48297,0,USTexasLiveOak,Texas,Live Oak,2020-07-18 01:27:08.510269,2020-07-14 00:00:00.000000,0.00000000,0.00000002,11.72276985,0,0,1430,0,0,1406,0.00000000,0.00000001,11.52528468,0.59808467,0.63428778,0.79692967
48297,0,USTexasLiveOak,Texas,Live Oak,2020-07-18 01:27:08.510269,2020-07-15 00:00:00.000000,0.00000000,0.00000001,11.52190078,0,0,1406,0,0,1382,0.00000000,0.00000000,11.32779951,0.59795400,0.63428634,0.79693248
48297,0,USTexasLiveOak,Texas,Live Oak,2020-07-18 01:27:08.510269,2020-07-16 00:00:00.000000,0.00000000,0.00000002,11.32447360,0,0,1382,0,0,1359,0.00000000,0.00000001,11.13369825,0.59787980,0.63428576,0.79693349
48297,0,USTexasLiveOak,Texas,Live Oak,2020-07-18 01:27:08.510269,2020-07-17 00:00:00.000000,0.00000000,0.00000001,11.13042932,0,0,1358,0,0,1335,0.00000000,0.00000000,10.94292290,0.59783773,0.63428553,0.79693385
48297,0,USTexasLiveOak,Texas,Live Oak,2020-07-18 01:27:08.510269,2020-07-18 00:00:00.000000,0.00000000,0.00000002,10.93970998,0,0,1335,0,0,1312,0.00000000,0.00000001,10.75541647,0.59781388,0.63428544,0.79693398
48297,0,USTexasLiveOak,Texas,Live Oak,2020-07-18 01:27:08.510269,2020-07-19 00:00:00.000000,0.00000000,0.00000001,10.75225861,0,0,1312,0,0,1290,0.00000000,0.00000000,10.57112296,0.59780037,0.63428540,0.79693402
48297,0,USTexasLiveOak,Texas,Live Oak,2020-07-18 01:27:08.510269,2020-07-20 00:00:00.000000,0.00000000,0.00000002,10.56801921,0,0,1290,0,0,1268,0.00000000,0.00000001,10.38998731,0.59779272,0.63428538,0.79693403
48297,0,USTexasLiveOak,Texas,Live Oak,2020-07-18 01:27:08.510269,2020-07-21 00:00:00.000000,0.00000000,0.00000001,10.38693674,0,0,1267,0,0,1246,0.00000000,0.00000000,10.21195541,0.59778838,0.63428538,0.79693403
48297,0,USTexasLiveOak,Texas,Live Oak,2020-07-18 01:27:08.510269,2020-07-22 00:00:00.000000,0.00000000,0.00000002,10.20895712,0,0,1246,0,0,1225,0.00000000,0.00000001,10.03697408,0.59778593,0.63428538,0.79693403
48297,0,USTexasLiveOak,Texas,Live Oak,2020-07-18 01:27:08.510269,2020-07-23 00:00:00.000000,0.00000000,0.00000001,10.03402716,0,0,1224,0,0,1204,0.00000000,0.00000000,9.86499105,0.59778454,0.63428538,0.79693403
48297,0,USTexasLiveOak,Texas,Live Oak,2020-07-18 01:27:08.510269,2020-07-24 00:00:00.000000,0.00000000,0.00000002,9.86209463,0,0,1203,0,0,1183,0.00000000,0.00000001,9.69595494,0.59778375,0.63428537,0.79693403
48297,0,USTexasLiveOak,Texas,Live Oak,2020-07-18 01:27:08.510269,2020-07-25 00:00:00.000000,0.00000000,0.00000001,9.69310814,0,0,1183,0,0,1163,0.00000000,0.00000000,9.52981526,0.59778331,0.63428537,0.79693403
48297,0,USTexasLiveOak,Texas,Live Oak,2020-07-18 01:27:08.510269,2020-07-26 00:00:00.000000,0.00000000,0.00000002,9.52701724,0,0,1162,0,0,1143,0.00000000,0.00000001,9.36652237,0.59778306,0.63428537,0.79693403
48297,0,USTexasLiveOak,Texas,Live Oak,2020-07-18 01:27:08.510269,2020-07-27 00:00:00.000000,0.00000000,0.00000001,9.36377229,0,0,1143,0,0,1123,0.00000000,0.00000000,9.20602749,0.59778291,0.63428537,0.79693403
48297,0,USTexasLiveOak,Texas,Live Oak,2020-07-18 01:27:08.510269,2020-07-28 00:00:00.000000,0.00000000,0.00000001,9.20332454,0,0,1123,0,0,1104,0.00000000,0.00000001,9.04828269,0.59778283,0.63428537,0.79693403
48297,0,USTexasLiveOak,Texas,Live Oak,2020-07-18 01:27:08.510269,2020-07-29 00:00:00.000000,0.00000000,0.00000000,9.04562606,0,0,1104,0,0,1085,0.00000000,0.00000000,8.89324084,0.59778279,0.63428537,0.79693403
