FIPS,HR_UID,nameid,province,region,analysisTime,dates,pointprevalence_025,pointprevalence_50,pointprevalence_975,pointinfections_025,pointinfections_50,pointinfections_975,pointinfectious_025,pointinfectious_50,pointinfectious_975,pointinfectiousprevalence_05,pointinfectiousprevalence_50,pointinfectiousprevalence_95,infectrate_025,infectrate_50,infectrate_975
54033,0,USWestVirginiaHarrison,West Virginia,Harrison,2020-07-14 21:27:14.873858,2020-03-09 00:00:00.000000,0.00547458,0.01603386,0.04855769,3,10,32,0,5,9,0.00138675,0.00777501,0.01377306,0.49196915,0.76603042,0.88405550
54033,0,USWestVirginiaHarrison,West Virginia,Harrison,2020-07-14 21:27:14.873858,2020-03-10 00:00:00.000000,0.00516968,0.01762599,0.04848889,3,11,32,1,6,9,0.00264275,0.00912207,0.01399500,0.49197565,0.76602435,0.88405533
54033,0,USWestVirginiaHarrison,West Virginia,Harrison,2020-07-14 21:27:14.873858,2020-03-11 00:00:00.000000,0.00561311,0.01791894,0.04815998,3,12,32,1,5,10,0.00269945,0.00891748,0.01616349,0.49198654,0.76600998,0.88405497
54033,0,USWestVirginiaHarrison,West Virginia,Harrison,2020-07-14 21:27:14.873858,2020-03-12 00:00:00.000000,0.00601712,0.01897747,0.04815378,4,12,32,2,6,10,0.00303446,0.00914000,0.01546812,0.49200489,0.76597592,0.88405424
54033,0,USWestVirginiaHarrison,West Virginia,Harrison,2020-07-14 21:27:14.873858,2020-03-13 00:00:00.000000,0.00647140,0.01938777,0.04894601,4,13,32,1,6,11,0.00293109,0.00942089,0.01726752,0.49203603,0.76589521,0.88405273
54033,0,USWestVirginiaHarrison,West Virginia,Harrison,2020-07-14 21:27:14.873858,2020-03-14 00:00:00.000000,0.00683679,0.02018881,0.05053886,4,13,33,2,6,11,0.00312322,0.00969490,0.01702645,0.49208922,0.76570464,0.88404963
54033,0,USWestVirginiaHarrison,West Virginia,Harrison,2020-07-14 21:27:14.873858,2020-03-15 00:00:00.000000,0.00727745,0.02067265,0.05111886,4,13,34,2,7,12,0.00310242,0.01045583,0.01844682,0.49218067,0.76525859,0.88404337
54033,0,USWestVirginiaHarrison,West Virginia,Harrison,2020-07-14 21:27:14.873858,2020-03-16 00:00:00.000000,0.00771828,0.02147904,0.05161620,5,14,34,2,7,12,0.00338029,0.01054251,0.01813237,0.49233798,0.76423603,0.88403099
54033,0,USWestVirginiaHarrison,West Virginia,Harrison,2020-07-14 21:27:14.873858,2020-03-17 00:00:00.000000,0.00803800,0.02212221,0.05255470,5,14,35,2,7,13,0.00332171,0.01086655,0.01975373,0.49260500,0.76171488,0.88400736
54033,0,USWestVirginiaHarrison,West Virginia,Harrison,2020-07-14 21:27:14.873858,2020-03-18 00:00:00.000000,0.00883170,0.02280498,0.05406646,5,15,36,2,7,12,0.00367128,0.01151993,0.01923512,0.49303875,0.76467842,0.88396510
54033,0,USWestVirginiaHarrison,West Virginia,Harrison,2020-07-14 21:27:14.873858,2020-03-19 00:00:00.000000,0.00869783,0.02345175,0.05577228,5,15,37,2,7,14,0.00354655,0.01179262,0.02111969,0.49309161,0.75121640,0.88389884
54033,0,USWestVirginiaHarrison,West Virginia,Harrison,2020-07-14 21:27:14.873858,2020-03-20 00:00:00.000000,0.00978837,0.02422030,0.05754166,6,16,38,2,8,13,0.00390603,0.01201033,0.02034965,0.48434255,0.73895825,0.88382237
54033,0,USWestVirginiaHarrison,West Virginia,Harrison,2020-07-14 21:27:14.873858,2020-03-21 00:00:00.000000,0.00942077,0.02487835,0.05936909,6,16,39,2,8,15,0.00375701,0.01202544,0.02275317,0.48128469,0.72553798,0.88378725
54033,0,USWestVirginiaHarrison,West Virginia,Harrison,2020-07-14 21:27:14.873858,2020-03-22 00:00:00.000000,0.01082124,0.02576128,0.06123866,7,17,41,2,8,14,0.00403523,0.01201123,0.02156682,0.46168420,0.71450396,0.88253143
54033,0,USWestVirginiaHarrison,West Virginia,Harrison,2020-07-14 21:27:14.873858,2020-03-23 00:00:00.000000,0.01021355,0.02653614,0.06311744,6,17,42,2,8,16,0.00394870,0.01216059,0.02439181,0.44811253,0.69688072,0.87598860
54033,0,USWestVirginiaHarrison,West Virginia,Harrison,2020-07-14 21:27:14.873858,2020-03-24 00:00:00.000000,0.01183163,0.02765918,0.06495572,7,18,43,2,8,15,0.00413717,0.01247818,0.02244254,0.43575390,0.68492622,0.86845700
54033,0,USWestVirginiaHarrison,West Virginia,Harrison,2020-07-14 21:27:14.873858,2020-03-25 00:00:00.000000,0.01106936,0.02873299,0.06627888,7,19,44,2,8,16,0.00413349,0.01280455,0.02509738,0.43230321,0.66418424,0.85780242
54033,0,USWestVirginiaHarrison,West Virginia,Harrison,2020-07-14 21:27:14.873858,2020-03-26 00:00:00.000000,0.01211322,0.02974069,0.06650874,8,20,44,2,8,15,0.00422583,0.01282121,0.02265643,0.43142337,0.65716343,0.83995933
54033,0,USWestVirginiaHarrison,West Virginia,Harrison,2020-07-14 21:27:14.873858,2020-03-27 00:00:00.000000,0.01198104,0.03088787,0.06658762,8,20,44,2,8,17,0.00431871,0.01309785,0.02537676,0.43143025,0.65294767,0.83425631
54033,0,USWestVirginiaHarrison,West Virginia,Harrison,2020-07-14 21:27:14.873858,2020-03-28 00:00:00.000000,0.01243744,0.03193821,0.06644640,8,21,44,2,8,15,0.00441209,0.01324561,0.02250704,0.37264651,0.64290586,0.82842899
54033,0,USWestVirginiaHarrison,West Virginia,Harrison,2020-07-14 21:27:14.873858,2020-03-29 00:00:00.000000,0.01228608,0.03267163,0.06605869,8,21,44,3,8,16,0.00450477,0.01333641,0.02517243,0.34972502,0.61685690,0.82190826
54033,0,USWestVirginiaHarrison,West Virginia,Harrison,2020-07-14 21:27:14.873858,2020-03-30 00:00:00.000000,0.01326391,0.03345248,0.06547574,8,22,44,3,8,15,0.00459129,0.01310310,0.02237869,0.34238986,0.58659261,0.81439088
54033,0,USWestVirginiaHarrison,West Virginia,Harrison,2020-07-14 21:27:14.873858,2020-03-31 00:00:00.000000,0.01264001,0.03391548,0.06460925,8,22,43,3,8,16,0.00465716,0.01311470,0.02491214,0.32817391,0.57191049,0.80465628
54033,0,USWestVirginiaHarrison,West Virginia,Harrison,2020-07-14 21:27:14.873858,2020-04-01 00:00:00.000000,0.01402600,0.03385294,0.06300687,9,22,42,3,8,15,0.00460374,0.01294586,0.02279970,0.32567945,0.54571678,0.78712271
54033,0,USWestVirginiaHarrison,West Virginia,Harrison,2020-07-14 21:27:14.873858,2020-04-02 00:00:00.000000,0.01324439,0.03365385,0.06112006,8,22,41,3,8,16,0.00450337,0.01304304,0.02465600,0.32406953,0.53752495,0.73034107
54033,0,USWestVirginiaHarrison,West Virginia,Harrison,2020-07-14 21:27:14.873858,2020-04-03 00:00:00.000000,0.01468955,0.03323013,0.06015314,9,22,40,2,8,15,0.00440460,0.01303896,0.02264947,0.31955000,0.53337037,0.68796079
54033,0,USWestVirginiaHarrison,West Virginia,Harrison,2020-07-14 21:27:14.873858,2020-04-04 00:00:00.000000,0.01384892,0.03155525,0.05945052,9,21,39,2,8,15,0.00431614,0.01300364,0.02335890,0.31737684,0.52649709,0.66133358
54033,0,USWestVirginiaHarrison,West Virginia,Harrison,2020-07-14 21:27:14.873858,2020-04-05 00:00:00.000000,0.01471145,0.03005860,0.05880652,9,20,39,2,8,14,0.00424532,0.01279940,0.02132184,0.31428171,0.51822939,0.62046808
54033,0,USWestVirginiaHarrison,West Virginia,Harrison,2020-07-14 21:27:14.873858,2020-04-06 00:00:00.000000,0.01385350,0.02830466,0.05821236,9,19,39,2,8,14,0.00419614,0.01266435,0.02153712,0.30855167,0.52148597,0.59526091
54033,0,USWestVirginiaHarrison,West Virginia,Harrison,2020-07-14 21:27:14.873858,2020-04-07 00:00:00.000000,0.01413716,0.02679841,0.05703489,9,18,38,2,8,12,0.00416927,0.01233796,0.01909162,0.30400118,0.51456609,0.58223518
54033,0,USWestVirginiaHarrison,West Virginia,Harrison,2020-07-14 21:27:14.873858,2020-04-08 00:00:00.000000,0.01318316,0.02549056,0.05587621,8,17,37,2,8,13,0.00416326,0.01210725,0.02051215,0.28867653,0.50664585,0.57641854
54033,0,USWestVirginiaHarrison,West Virginia,Harrison,2020-07-14 21:27:14.873858,2020-04-09 00:00:00.000000,0.01341621,0.02375005,0.05512492,9,15,37,2,7,12,0.00417169,0.01177825,0.01823759,0.29004575,0.49034134,0.57758145
54033,0,USWestVirginiaHarrison,West Virginia,Harrison,2020-07-14 21:27:14.873858,2020-04-10 00:00:00.000000,0.01208881,0.02214902,0.05460323,8,14,36,2,7,13,0.00417816,0.01108733,0.01999930,0.28102331,0.48957384,0.58434479
54033,0,USWestVirginiaHarrison,West Virginia,Harrison,2020-07-14 21:27:14.873858,2020-04-11 00:00:00.000000,0.01181392,0.02070320,0.05400107,7,13,36,2,6,12,0.00419742,0.01027466,0.01826411,0.25507661,0.48395901,0.58682716
54033,0,USWestVirginiaHarrison,West Virginia,Harrison,2020-07-14 21:27:14.873858,2020-04-12 00:00:00.000000,0.01059376,0.01924874,0.05323821,7,12,35,2,6,12,0.00422563,0.00989409,0.01891828,0.25469558,0.48168799,0.59083148
54033,0,USWestVirginiaHarrison,West Virginia,Harrison,2020-07-14 21:27:14.873858,2020-04-13 00:00:00.000000,0.01087998,0.01820520,0.05226257,7,12,35,2,6,11,0.00425276,0.00941389,0.01768294,0.25292819,0.47935238,0.59106365
54033,0,USWestVirginiaHarrison,West Virginia,Harrison,2020-07-14 21:27:14.873858,2020-04-14 00:00:00.000000,0.00986159,0.01727644,0.05117031,6,11,34,2,6,12,0.00425605,0.00901371,0.01846023,0.25334533,0.47788282,0.59014804
54033,0,USWestVirginiaHarrison,West Virginia,Harrison,2020-07-14 21:27:14.873858,2020-04-15 00:00:00.000000,0.01018243,0.01696913,0.05033273,6,11,33,2,5,10,0.00406993,0.00848238,0.01634247,0.25523751,0.46339769,0.58814567
54033,0,USWestVirginiaHarrison,West Virginia,Harrison,2020-07-14 21:27:14.873858,2020-04-16 00:00:00.000000,0.00891558,0.01623347,0.04961124,5,10,33,2,5,12,0.00388790,0.00794401,0.01795162,0.25238486,0.46119603,0.58490472
54033,0,USWestVirginiaHarrison,West Virginia,Harrison,2020-07-14 21:27:14.873858,2020-04-17 00:00:00.000000,0.00918853,0.01598045,0.04894307,6,10,32,2,5,10,0.00371591,0.00745181,0.01497851,0.25059091,0.46419937,0.58018539
54033,0,USWestVirginiaHarrison,West Virginia,Harrison,2020-07-14 21:27:14.873858,2020-04-18 00:00:00.000000,0.00813773,0.01471406,0.04831927,5,9,32,2,4,11,0.00358776,0.00699739,0.01719502,0.25374243,0.47042525,0.57631712
54033,0,USWestVirginiaHarrison,West Virginia,Harrison,2020-07-14 21:27:14.873858,2020-04-19 00:00:00.000000,0.00835372,0.01466424,0.04794046,5,9,32,2,4,9,0.00353934,0.00662363,0.01401299,0.25491380,0.46749084,0.57757646
54033,0,USWestVirginiaHarrison,West Virginia,Harrison,2020-07-14 21:27:14.873858,2020-04-20 00:00:00.000000,0.00749791,0.01371594,0.04776128,5,9,32,2,4,11,0.00343868,0.00630637,0.01650795,0.25779437,0.46543007,0.57719200
54033,0,USWestVirginiaHarrison,West Virginia,Harrison,2020-07-14 21:27:14.873858,2020-04-21 00:00:00.000000,0.00763335,0.01369947,0.04760529,5,9,32,2,3,8,0.00338011,0.00591810,0.01305416,0.26285720,0.45840190,0.57878617
54033,0,USWestVirginiaHarrison,West Virginia,Harrison,2020-07-14 21:27:14.873858,2020-04-22 00:00:00.000000,0.00693256,0.01294769,0.04748132,4,8,31,2,3,10,0.00328436,0.00557414,0.01590714,0.27207247,0.46371540,0.57911352
54033,0,USWestVirginiaHarrison,West Virginia,Harrison,2020-07-14 21:27:14.873858,2020-04-23 00:00:00.000000,0.00685710,0.01246616,0.04738156,4,8,31,2,3,8,0.00321799,0.00524829,0.01235084,0.27814539,0.45827982,0.57922888
54033,0,USWestVirginiaHarrison,West Virginia,Harrison,2020-07-14 21:27:14.873858,2020-04-24 00:00:00.000000,0.00627825,0.01184524,0.04728801,4,7,31,2,3,10,0.00313003,0.00494864,0.01541226,0.27681989,0.47322583,0.57924197
54033,0,USWestVirginiaHarrison,West Virginia,Harrison,2020-07-14 21:27:14.873858,2020-04-25 00:00:00.000000,0.00612598,0.01133332,0.04716232,4,7,31,2,3,8,0.00304482,0.00474315,0.01212522,0.27603886,0.48483800,0.57944758
54033,0,USWestVirginiaHarrison,West Virginia,Harrison,2020-07-14 21:27:14.873858,2020-04-26 00:00:00.000000,0.00558825,0.01078481,0.04692038,3,7,31,1,3,10,0.00292901,0.00452296,0.01490374,0.27567510,0.49247206,0.57982537
54033,0,USWestVirginiaHarrison,West Virginia,Harrison,2020-07-14 21:27:14.873858,2020-04-27 00:00:00.000000,0.00548464,0.01040122,0.04644789,3,6,31,1,2,8,0.00279292,0.00432784,0.01232435,0.27602192,0.48626240,0.58060854
54033,0,USWestVirginiaHarrison,West Virginia,Harrison,2020-07-14 21:27:14.873858,2020-04-28 00:00:00.000000,0.00491914,0.00973343,0.04573405,3,6,30,1,2,9,0.00265332,0.00417068,0.01442243,0.27889413,0.47895302,0.58240300
54033,0,USWestVirginiaHarrison,West Virginia,Harrison,2020-07-14 21:27:14.873858,2020-04-29 00:00:00.000000,0.00482137,0.00975698,0.04488010,3,6,30,1,2,8,0.00252015,0.00410301,0.01252094,0.28477877,0.48125516,0.58407068
54033,0,USWestVirginiaHarrison,West Virginia,Harrison,2020-07-14 21:27:14.873858,2020-04-30 00:00:00.000000,0.00429807,0.00905193,0.04396692,2,6,29,1,2,9,0.00239252,0.00392817,0.01395345,0.28634970,0.49088877,0.58780489
54033,0,USWestVirginiaHarrison,West Virginia,Harrison,2020-07-14 21:27:14.873858,2020-05-01 00:00:00.000000,0.00423301,0.00898450,0.04303154,2,6,28,1,2,8,0.00227981,0.00372220,0.01254492,0.28479186,0.49118587,0.59335594
54033,0,USWestVirginiaHarrison,West Virginia,Harrison,2020-07-14 21:27:14.873858,2020-05-02 00:00:00.000000,0.00379983,0.00836144,0.04209047,2,5,28,1,2,9,0.00219482,0.00354424,0.01351542,0.28845553,0.48482175,0.61595415
54033,0,USWestVirginiaHarrison,West Virginia,Harrison,2020-07-14 21:27:14.873858,2020-05-03 00:00:00.000000,0.00377058,0.00834025,0.04115349,2,5,27,1,2,8,0.00208331,0.00342000,0.01243118,0.30964025,0.47905085,0.64315647
54033,0,USWestVirginiaHarrison,West Virginia,Harrison,2020-07-14 21:27:14.873858,2020-05-04 00:00:00.000000,0.00341118,0.00785689,0.04022592,2,5,27,1,2,8,0.00199226,0.00322176,0.01319165,0.31517228,0.48306252,0.65151853
54033,0,USWestVirginiaHarrison,West Virginia,Harrison,2020-07-14 21:27:14.873858,2020-05-05 00:00:00.000000,0.00340420,0.00784529,0.03945270,2,5,26,1,2,8,0.00191922,0.00309820,0.01230721,0.32317926,0.50306095,0.65435800
54033,0,USWestVirginiaHarrison,West Virginia,Harrison,2020-07-14 21:27:14.873858,2020-05-06 00:00:00.000000,0.00309576,0.00717855,0.03890381,2,4,26,1,2,8,0.00184897,0.00299717,0.01294955,0.33046665,0.50039438,0.65685475
54033,0,USWestVirginiaHarrison,West Virginia,Harrison,2020-07-14 21:27:14.873858,2020-05-07 00:00:00.000000,0.00310343,0.00749354,0.03886917,2,5,26,1,1,8,0.00177799,0.00291043,0.01218362,0.32804853,0.50830327,0.66287832
54033,0,USWestVirginiaHarrison,West Virginia,Harrison,2020-07-14 21:27:14.873858,2020-05-08 00:00:00.000000,0.00291571,0.00678346,0.03883727,1,4,26,1,1,8,0.00166322,0.00283414,0.01252110,0.32627040,0.50392853,0.68247219
54033,0,USWestVirginiaHarrison,West Virginia,Harrison,2020-07-14 21:27:14.873858,2020-05-09 00:00:00.000000,0.00285621,0.00728439,0.03878719,1,4,26,1,1,8,0.00155183,0.00278443,0.01216265,0.32724363,0.50740956,0.71951336
54033,0,USWestVirginiaHarrison,West Virginia,Harrison,2020-07-14 21:27:14.873858,2020-05-10 00:00:00.000000,0.00274841,0.00674429,0.03872063,1,4,26,0,1,8,0.00146615,0.00276975,0.01252885,0.33840434,0.51309590,0.72986628
54033,0,USWestVirginiaHarrison,West Virginia,Harrison,2020-07-14 21:27:14.873858,2020-05-11 00:00:00.000000,0.00264724,0.00716159,0.03864261,1,4,25,0,1,8,0.00138825,0.00271904,0.01194505,0.34887063,0.53754501,0.73325181
54033,0,USWestVirginiaHarrison,West Virginia,Harrison,2020-07-14 21:27:14.873858,2020-05-12 00:00:00.000000,0.00255162,0.00672868,0.03887797,1,4,26,0,1,8,0.00131672,0.00269375,0.01264238,0.35415606,0.53742601,0.73410167
54033,0,USWestVirginiaHarrison,West Virginia,Harrison,2020-07-14 21:27:14.873858,2020-05-13 00:00:00.000000,0.00246293,0.00720283,0.03922921,1,4,26,0,1,8,0.00125058,0.00269629,0.01235950,0.34924721,0.53929107,0.73437631
54033,0,USWestVirginiaHarrison,West Virginia,Harrison,2020-07-14 21:27:14.873858,2020-05-14 00:00:00.000000,0.00238296,0.00670092,0.03958968,1,4,26,0,1,9,0.00118973,0.00267597,0.01349041,0.34681344,0.54341672,0.73477121
54033,0,USWestVirginiaHarrison,West Virginia,Harrison,2020-07-14 21:27:14.873858,2020-05-15 00:00:00.000000,0.00232826,0.00718582,0.03996306,1,4,26,0,1,8,0.00113571,0.00262886,0.01297364,0.34610362,0.54797867,0.73614978
54033,0,USWestVirginiaHarrison,West Virginia,Harrison,2020-07-14 21:27:14.873858,2020-05-16 00:00:00.000000,0.00231567,0.00668422,0.04035258,1,4,27,0,1,9,0.00109247,0.00258409,0.01436582,0.34475199,0.57703260,0.74176779
54033,0,USWestVirginiaHarrison,West Virginia,Harrison,2020-07-14 21:27:14.873858,2020-05-17 00:00:00.000000,0.00234201,0.00709178,0.04046333,1,4,27,0,1,9,0.00106295,0.00258548,0.01341394,0.34120702,0.58746248,0.76824948
54033,0,USWestVirginiaHarrison,West Virginia,Harrison,2020-07-14 21:27:14.873858,2020-05-18 00:00:00.000000,0.00238904,0.00664136,0.04072390,1,4,27,0,1,10,0.00104347,0.00260223,0.01520819,0.34008464,0.59788350,0.78702953
54033,0,USWestVirginiaHarrison,West Virginia,Harrison,2020-07-14 21:27:14.873858,2020-05-19 00:00:00.000000,0.00244302,0.00701916,0.04140450,1,4,27,0,1,9,0.00102637,0.00259626,0.01380642,0.34055260,0.60380760,0.79447273
54033,0,USWestVirginiaHarrison,West Virginia,Harrison,2020-07-14 21:27:14.873858,2020-05-20 00:00:00.000000,0.00249649,0.00637381,0.04212710,1,4,28,0,1,10,0.00099377,0.00258917,0.01619181,0.34396736,0.60714345,0.79882929
54033,0,USWestVirginiaHarrison,West Virginia,Harrison,2020-07-14 21:27:14.873858,2020-05-21 00:00:00.000000,0.00255464,0.00696344,0.04284960,1,4,28,0,1,9,0.00096314,0.00259768,0.01424173,0.35641190,0.61716465,0.80564188
54033,0,USWestVirginiaHarrison,West Virginia,Harrison,2020-07-14 21:27:14.873858,2020-05-22 00:00:00.000000,0.00256918,0.00623231,0.04337283,1,4,29,0,1,11,0.00093406,0.00260941,0.01729096,0.37171515,0.63710193,0.82120913
54033,0,USWestVirginiaHarrison,West Virginia,Harrison,2020-07-14 21:27:14.873858,2020-05-23 00:00:00.000000,0.00253610,0.00688524,0.04379319,1,4,29,0,1,9,0.00090911,0.00260230,0.01470050,0.36693571,0.65267395,0.92003699
54033,0,USWestVirginiaHarrison,West Virginia,Harrison,2020-07-14 21:27:14.873858,2020-05-24 00:00:00.000000,0.00251808,0.00656570,0.04423046,1,4,29,0,1,12,0.00088356,0.00268759,0.01840692,0.37295504,0.66173022,0.96967641
54033,0,USWestVirginiaHarrison,West Virginia,Harrison,2020-07-14 21:27:14.873858,2020-05-25 00:00:00.000000,0.00254097,0.00708889,0.04473292,1,4,30,0,1,10,0.00096422,0.00285557,0.01512861,0.37675396,0.66641208,0.98501925
54033,0,USWestVirginiaHarrison,West Virginia,Harrison,2020-07-14 21:27:14.873858,2020-05-26 00:00:00.000000,0.00252503,0.00721232,0.04541956,1,4,30,0,1,12,0.00084528,0.00296768,0.01921263,0.37727807,0.66713625,0.98985330
54033,0,USWestVirginiaHarrison,West Virginia,Harrison,2020-07-14 21:27:14.873858,2020-05-27 00:00:00.000000,0.00247121,0.00734388,0.04628281,1,4,31,0,2,10,0.00101119,0.00303592,0.01556186,0.37796152,0.67223048,0.98860805
54033,0,USWestVirginiaHarrison,West Virginia,Harrison,2020-07-14 21:27:14.873858,2020-05-28 00:00:00.000000,0.00241939,0.00748131,0.04727839,1,5,31,0,2,13,0.00081208,0.00311281,0.01972984,0.38078955,0.70120488,0.98306584
54033,0,USWestVirginiaHarrison,West Virginia,Harrison,2020-07-14 21:27:14.873858,2020-05-29 00:00:00.000000,0.00237176,0.00765547,0.04840076,1,5,32,0,2,10,0.00102498,0.00322148,0.01629759,0.40303336,0.71071758,0.99164443
54033,0,USWestVirginiaHarrison,West Virginia,Harrison,2020-07-14 21:27:14.873858,2020-05-30 00:00:00.000000,0.00234630,0.00802819,0.04964170,1,5,33,0,2,13,0.00078949,0.00333227,0.02022789,0.42729028,0.74171147,1.00449919
54033,0,USWestVirginiaHarrison,West Virginia,Harrison,2020-07-14 21:27:14.873858,2020-05-31 00:00:00.000000,0.00234145,0.00829016,0.05101824,1,5,34,0,2,11,0.00105300,0.00353044,0.01744260,0.43649087,0.77372760,1.05452900
54033,0,USWestVirginiaHarrison,West Virginia,Harrison,2020-07-14 21:27:14.873858,2020-06-01 00:00:00.000000,0.00236031,0.00844787,0.05263682,1,5,35,0,2,14,0.00086263,0.00371875,0.02114568,0.44215728,0.80071991,1.08383874
54033,0,USWestVirginiaHarrison,West Virginia,Harrison,2020-07-14 21:27:14.873858,2020-06-02 00:00:00.000000,0.00241709,0.00862756,0.05439900,1,5,36,0,2,12,0.00108433,0.00384544,0.01905024,0.45232546,0.76858810,1.08331025
54033,0,USWestVirginiaHarrison,West Virginia,Harrison,2020-07-14 21:27:14.873858,2020-06-03 00:00:00.000000,0.00251818,0.00884075,0.05628729,1,5,37,0,2,15,0.00106041,0.00392251,0.02243032,0.48080486,0.74537386,1.08384087
54033,0,USWestVirginiaHarrison,West Virginia,Harrison,2020-07-14 21:27:14.873858,2020-06-04 00:00:00.000000,0.00266105,0.00925497,0.05830730,1,6,39,0,2,14,0.00114092,0.00399984,0.02103118,0.50683784,0.74233942,1.12662913
54033,0,USWestVirginiaHarrison,West Virginia,Harrison,2020-07-14 21:27:14.873858,2020-06-05 00:00:00.000000,0.00284153,0.00975073,0.06047538,1,6,40,0,2,16,0.00119077,0.00408576,0.02420226,0.51691551,0.74110363,1.16494999
54033,0,USWestVirginiaHarrison,West Virginia,Harrison,2020-07-14 21:27:14.873858,2020-06-06 00:00:00.000000,0.00305433,0.01041559,0.06447885,2,7,43,0,2,15,0.00126124,0.00418694,0.02246268,0.51200500,0.74272495,1.21844877
54033,0,USWestVirginiaHarrison,West Virginia,Harrison,2020-07-14 21:27:14.873858,2020-06-07 00:00:00.000000,0.00329611,0.01127454,0.06967811,2,7,46,0,2,16,0.00135089,0.00432373,0.02497030,0.50571730,0.74749334,1.29499682
54033,0,USWestVirginiaHarrison,West Virginia,Harrison,2020-07-14 21:27:14.873858,2020-06-08 00:00:00.000000,0.00356989,0.01221967,0.07549405,2,8,50,0,3,15,0.00145658,0.00451132,0.02335140,0.50017166,0.76429782,1.37023447
54033,0,USWestVirginiaHarrison,West Virginia,Harrison,2020-07-14 21:27:14.873858,2020-06-09 00:00:00.000000,0.00388723,0.01324459,0.08186890,2,8,55,1,3,17,0.00157419,0.00479986,0.02585794,0.49593738,0.81262813,1.41227054
54033,0,USWestVirginiaHarrison,West Virginia,Harrison,2020-07-14 21:27:14.873858,2020-06-10 00:00:00.000000,0.00426073,0.01413349,0.08881615,2,9,59,1,3,16,0.00169633,0.00511602,0.02428065,0.49407306,0.90091978,1.47035774
54033,0,USWestVirginiaHarrison,West Virginia,Harrison,2020-07-14 21:27:14.873858,2020-06-11 00:00:00.000000,0.00469322,0.01487977,0.09286269,3,10,62,1,3,18,0.00183257,0.00546786,0.02687696,0.49651763,0.97901272,1.51727095
54033,0,USWestVirginiaHarrison,West Virginia,Harrison,2020-07-14 21:27:14.873858,2020-06-12 00:00:00.000000,0.00518445,0.01579903,0.09597746,3,10,64,1,3,16,0.00198638,0.00589589,0.02525825,0.50547914,1.05415464,1.58656995
54033,0,USWestVirginiaHarrison,West Virginia,Harrison,2020-07-14 21:27:14.873858,2020-06-13 00:00:00.000000,0.00573746,0.01736543,0.10025124,3,11,67,1,4,18,0.00216286,0.00638175,0.02786553,0.52507819,1.12910978,1.64782894
54033,0,USWestVirginiaHarrison,West Virginia,Harrison,2020-07-14 21:27:14.873858,2020-06-14 00:00:00.000000,0.00635906,0.01915735,0.10744012,4,12,72,1,4,17,0.00236555,0.00701185,0.02623245,0.55256352,1.16438017,1.68790154
54033,0,USWestVirginiaHarrison,West Virginia,Harrison,2020-07-14 21:27:14.873858,2020-06-15 00:00:00.000000,0.00706590,0.02117780,0.11733261,4,14,78,1,5,19,0.00259517,0.00835416,0.02884245,0.57463990,1.20921472,1.69941779
54033,0,USWestVirginiaHarrison,West Virginia,Harrison,2020-07-14 21:27:14.873858,2020-06-16 00:00:00.000000,0.00790926,0.02299027,0.12895171,5,15,86,1,6,18,0.00285218,0.00970650,0.02727825,0.59398255,1.26619549,1.70598187
54033,0,USWestVirginiaHarrison,West Virginia,Harrison,2020-07-14 21:27:14.873858,2020-06-17 00:00:00.000000,0.00908383,0.02521000,0.14143894,6,16,95,2,7,20,0.00313832,0.01119064,0.03066768,0.61092904,1.26032937,1.76154080
54033,0,USWestVirginiaHarrison,West Virginia,Harrison,2020-07-14 21:27:14.873858,2020-06-18 00:00:00.000000,0.01041190,0.02865957,0.15479129,7,19,104,2,8,19,0.00345753,0.01306423,0.02936733,0.62504104,1.23415726,1.99747407
54033,0,USWestVirginiaHarrison,West Virginia,Harrison,2020-07-14 21:27:14.873858,2020-06-19 00:00:00.000000,0.01180038,0.03329224,0.16869216,7,22,113,2,10,23,0.00382219,0.01512367,0.03446209,0.62513542,1.18306497,2.09260917
54033,0,USWestVirginiaHarrison,West Virginia,Harrison,2020-07-14 21:27:14.873858,2020-06-20 00:00:00.000000,0.01305417,0.03833908,0.18136448,8,25,121,2,11,22,0.00426592,0.01748357,0.03398760,0.62520861,1.14588344,2.14952874
54033,0,USWestVirginiaHarrison,West Virginia,Harrison,2020-07-14 21:27:14.873858,2020-06-21 00:00:00.000000,0.01419588,0.04389841,0.19306466,9,29,129,3,13,28,0.00491156,0.01960329,0.04168258,0.62533453,1.11875061,2.18548989
54033,0,USWestVirginiaHarrison,West Virginia,Harrison,2020-07-14 21:27:14.873858,2020-06-22 00:00:00.000000,0.01555577,0.05031972,0.20563533,10,33,138,3,14,27,0.00580803,0.02190239,0.04143056,0.62586643,1.10903642,2.21427090
54033,0,USWestVirginiaHarrison,West Virginia,Harrison,2020-07-14 21:27:14.873858,2020-06-23 00:00:00.000000,0.01721186,0.05789728,0.22847102,11,38,153,4,16,34,0.00687507,0.02401415,0.05081003,0.62873071,1.10774189,2.23674893
54033,0,USWestVirginiaHarrison,West Virginia,Harrison,2020-07-14 21:27:14.873858,2020-06-24 00:00:00.000000,0.01916182,0.06606129,0.25806252,12,44,173,5,17,34,0.00797832,0.02652097,0.05066477,0.64324682,1.11306697,2.25890353
54033,0,USWestVirginiaHarrison,West Virginia,Harrison,2020-07-14 21:27:14.873858,2020-06-25 00:00:00.000000,0.02140523,0.07549642,0.29312935,14,50,197,6,19,41,0.00925398,0.02930547,0.06161509,0.67181309,1.12704026,2.30875376
54033,0,USWestVirginiaHarrison,West Virginia,Harrison,2020-07-14 21:27:14.873858,2020-06-26 00:00:00.000000,0.02413385,0.08562369,0.31577363,16,57,212,7,21,41,0.01111356,0.03231138,0.06218574,0.69336623,1.15499625,2.34044188
54033,0,USWestVirginiaHarrison,West Virginia,Harrison,2020-07-14 21:27:14.873858,2020-06-27 00:00:00.000000,0.02776274,0.09816805,0.38166231,18,66,256,8,24,50,0.01227391,0.03660273,0.07519444,0.70083925,1.18618993,2.39199845
54033,0,USWestVirginiaHarrison,West Virginia,Harrison,2020-07-14 21:27:14.873858,2020-06-28 00:00:00.000000,0.03300747,0.11529341,0.40555474,22,77,272,10,28,53,0.01535299,0.04169950,0.07896658,0.70380639,1.21827235,2.48085081
54033,0,USWestVirginiaHarrison,West Virginia,Harrison,2020-07-14 21:27:14.873858,2020-06-29 00:00:00.000000,0.03934031,0.13281952,0.49121038,26,89,330,10,33,62,0.01620722,0.04936628,0.09299006,0.67856708,1.24167206,2.56209112
54033,0,USWestVirginiaHarrison,West Virginia,Harrison,2020-07-14 21:27:14.873858,2020-06-30 00:00:00.000000,0.04617789,0.15528795,0.53038249,31,104,356,14,36,67,0.02165994,0.05466757,0.10056650,0.65486519,1.24344040,2.63771724
54033,0,USWestVirginiaHarrison,West Virginia,Harrison,2020-07-14 21:27:14.873858,2020-07-01 00:00:00.000000,0.05427886,0.18049285,0.63320227,36,121,425,15,43,78,0.02272093,0.06530564,0.11616829,0.64980879,1.23491219,2.72719002
54033,0,USWestVirginiaHarrison,West Virginia,Harrison,2020-07-14 21:27:14.873858,2020-07-02 00:00:00.000000,0.06361222,0.21404095,0.67443448,42,143,453,20,48,91,0.03007418,0.07198695,0.13620831,0.64904955,1.24168729,2.82315128
54033,0,USWestVirginiaHarrison,West Virginia,Harrison,2020-07-14 21:27:14.873858,2020-07-03 00:00:00.000000,0.07427067,0.24531434,0.84012134,49,164,565,21,56,107,0.03184339,0.08400719,0.15976472,0.64913876,1.24589089,2.82792000
54033,0,USWestVirginiaHarrison,West Virginia,Harrison,2020-07-14 21:27:14.873858,2020-07-04 00:00:00.000000,0.08735865,0.28521913,0.86120636,58,191,579,26,62,125,0.04012492,0.09273187,0.18687126,0.65738727,1.23698737,2.80469009
54033,0,USWestVirginiaHarrison,West Virginia,Harrison,2020-07-14 21:27:14.873858,2020-07-05 00:00:00.000000,0.10312323,0.33026394,1.14304161,69,222,768,30,73,146,0.04487135,0.10940138,0.21810478,0.70766876,1.23499422,2.78618409
54033,0,USWestVirginiaHarrison,West Virginia,Harrison,2020-07-14 21:27:14.873858,2020-07-06 00:00:00.000000,0.12241783,0.38856579,1.14034717,82,261,766,36,84,171,0.05367411,0.12582276,0.25474049,0.71902654,1.23542856,2.81506173
54033,0,USWestVirginiaHarrison,West Virginia,Harrison,2020-07-14 21:27:14.873858,2020-07-07 00:00:00.000000,0.14431632,0.45348290,1.48814297,97,304,1000,42,97,202,0.06254160,0.14479375,0.30065418,0.71905282,1.23485431,2.84246737
54033,0,USWestVirginiaHarrison,West Virginia,Harrison,2020-07-14 21:27:14.873858,2020-07-08 00:00:00.000000,0.16734529,0.53177578,1.53764496,112,357,1034,50,109,237,0.07445296,0.16309812,0.35375026,0.71465067,1.23460423,2.85731439
54033,0,USWestVirginiaHarrison,West Virginia,Harrison,2020-07-14 21:27:14.873858,2020-07-09 00:00:00.000000,0.20155761,0.61049074,1.91001796,135,410,1284,58,129,277,0.08733632,0.19183591,0.41269217,0.71460412,1.23449576,2.86353554
54033,0,USWestVirginiaHarrison,West Virginia,Harrison,2020-07-14 21:27:14.873858,2020-07-10 00:00:00.000000,0.23084371,0.70960159,1.89428017,155,477,1274,65,148,323,0.09731839,0.22079033,0.48149834,0.71460415,1.23444879,2.86592479
54033,0,USWestVirginiaHarrison,West Virginia,Harrison,2020-07-14 21:27:14.873858,2020-07-11 00:00:00.000000,0.25145644,0.82595935,2.45065132,169,555,1648,71,171,381,0.10664949,0.25519555,0.56668204,0.71460417,1.23442848,2.86684152
54033,0,USWestVirginiaHarrison,West Virginia,Harrison,2020-07-14 21:27:14.873858,2020-07-12 00:00:00.000000,0.29078544,0.95183224,2.34357932,195,640,1576,74,199,448,0.11116350,0.29598150,0.66717969,0.71460418,1.23441969,2.86721050
54033,0,USWestVirginiaHarrison,West Virginia,Harrison,2020-07-14 21:27:14.873858,2020-07-13 00:00:00.000000,0.29633566,1.12668100,2.89095179,199,757,1944,86,226,529,0.12799296,0.33667766,0.78673148,0.71460418,1.23441590,2.86737159
54033,0,USWestVirginiaHarrison,West Virginia,Harrison,2020-07-14 21:27:14.873858,2020-07-14 00:00:00.000000,0.36608902,1.30495548,2.97171226,246,877,1998,84,261,621,0.12610653,0.38903830,0.92452678,0.71460419,1.23441426,2.86744934
54033,0,USWestVirginiaHarrison,West Virginia,Harrison,2020-07-14 21:27:14.873858,2020-07-15 00:00:00.000000,0.38439130,1.52271478,3.52433018,258,1024,2370,103,298,714,0.15349888,0.44423951,1.06190849,0.71460419,1.23441355,2.86749079
54033,0,USWestVirginiaHarrison,West Virginia,Harrison,2020-07-14 21:27:14.873858,2020-07-16 00:00:00.000000,0.46024951,1.77349393,3.96626975,309,1192,2667,101,344,831,0.15131204,0.51209668,1.23701316,0.71460420,1.23441324,2.86751477
54033,0,USWestVirginiaHarrison,West Virginia,Harrison,2020-07-14 21:27:14.873858,2020-07-17 00:00:00.000000,0.49815499,2.07147683,4.63436859,335,1393,3116,123,397,968,0.18395692,0.59167487,1.43937860,0.71460420,1.23441311,2.86752945
54033,0,USWestVirginiaHarrison,West Virginia,Harrison,2020-07-14 21:27:14.873858,2020-07-18 00:00:00.000000,0.57811487,2.39246947,5.40625612,388,1609,3636,122,461,1125,0.18143258,0.68550581,1.67340910,0.71460420,1.23441305,2.86753876
54033,0,USWestVirginiaHarrison,West Virginia,Harrison,2020-07-14 21:27:14.873858,2020-07-19 00:00:00.000000,0.64524973,2.77693815,6.34270904,433,1867,4265,148,533,1364,0.22028097,0.79379444,2.02874127,0.71460420,1.23441303,2.86754480
54033,0,USWestVirginiaHarrison,West Virginia,Harrison,2020-07-14 21:27:14.873858,2020-07-20 00:00:00.000000,0.73369943,3.16626154,7.45398469,493,2129,5013,146,624,1616,0.21737573,0.92893555,2.40294593,0.71460420,1.23441302,2.86754876
54033,0,USWestVirginiaHarrison,West Virginia,Harrison,2020-07-14 21:27:14.873858,2020-07-21 00:00:00.000000,0.81215315,3.70423989,8.72402524,546,2491,5867,177,747,1879,0.26352490,1.11136321,2.79443577,0.71460420,1.23441302,2.86755138
54033,0,USWestVirginiaHarrison,West Virginia,Harrison,2020-07-14 21:27:14.873858,2020-07-22 00:00:00.000000,0.93838186,4.17252624,10.15877259,631,2806,6832,174,869,2173,0.26019158,1.29317978,3.23195752,0.71460420,1.23441301,2.86755312
54033,0,USWestVirginiaHarrison,West Virginia,Harrison,2020-07-14 21:27:14.873858,2020-07-23 00:00:00.000000,1.01687097,4.83407825,11.75658998,683,3251,7907,211,998,2498,0.31435078,1.48533365,3.71424933,0.71460420,1.23441301,2.86755427
54033,0,USWestVirginiaHarrison,West Virginia,Harrison,2020-07-14 21:27:14.873858,2020-07-24 00:00:00.000000,1.18957644,5.45022441,13.50507081,800,3665,9082,209,1172,2849,0.31108501,1.74353967,4.23717733,0.71460420,1.23441301,2.86755505
54033,0,USWestVirginiaHarrison,West Virginia,Harrison,2020-07-14 21:27:14.873858,2020-07-25 00:00:00.000000,1.27079744,6.10587802,15.37776302,854,4106,10342,250,1369,3243,0.37282038,2.03558801,4.82259387,0.71460420,1.23441301,2.86755556
54033,0,USWestVirginiaHarrison,West Virginia,Harrison,2020-07-14 21:27:14.873858,2020-07-26 00:00:00.000000,1.43715015,6.78833282,17.70209156,966,4565,11905,249,1579,3692,0.37142358,2.34920211,5.48954799,0.71460420,1.23441301,2.86755590
54033,0,USWestVirginiaHarrison,West Virginia,Harrison,2020-07-14 21:27:14.873858,2020-07-27 00:00:00.000000,1.58440285,7.50690625,20.14523275,1065,5048,13548,296,1827,4136,0.44144574,2.71787202,6.15028578,0.71460420,1.23441301,2.86755612
