FIPS,HR_UID,nameid,province,region,analysisTime,dates,pointprevalence_025,pointprevalence_50,pointprevalence_975,pointinfections_025,pointinfections_50,pointinfections_975,pointinfectious_025,pointinfectious_50,pointinfectious_975,pointinfectiousprevalence_05,pointinfectiousprevalence_50,pointinfectiousprevalence_95,infectrate_025,infectrate_50,infectrate_975
26115,0,USMichiganMonroe,Michigan,Monroe,2020-07-18 12:24:20.986374,2020-03-09 00:00:00.000000,0.00511505,0.01322385,0.04783273,7,19,71,3,10,31,0.00223065,0.00672066,0.02072212,0.65545586,0.86272834,1.14092414
26115,0,USMichiganMonroe,Michigan,Monroe,2020-07-18 12:24:20.986374,2020-03-10 00:00:00.000000,0.00639848,0.01485593,0.05264826,9,22,79,4,10,35,0.00316560,0.00728988,0.02334779,0.65548174,0.86320308,1.14092236
26115,0,USMichiganMonroe,Michigan,Monroe,2020-07-18 12:24:20.986374,2020-03-11 00:00:00.000000,0.00749627,0.01715404,0.05867668,11,25,88,5,12,38,0.00373373,0.00856525,0.02585784,0.65564581,0.86314557,1.14091936
26115,0,USMichiganMonroe,Michigan,Monroe,2020-07-18 12:24:20.986374,2020-03-12 00:00:00.000000,0.00853530,0.01923394,0.06533236,12,28,98,6,14,42,0.00452733,0.00967918,0.02822327,0.65668822,0.86311030,1.14091420
26115,0,USMichiganMonroe,Michigan,Monroe,2020-07-18 12:24:20.986374,2020-03-13 00:00:00.000000,0.00979209,0.02216235,0.07110629,14,33,107,7,16,45,0.00500879,0.01124137,0.03050579,0.66322017,0.86319392,1.14090488
26115,0,USMichiganMonroe,Michigan,Monroe,2020-07-18 12:24:20.986374,2020-03-14 00:00:00.000000,0.01119228,0.02504187,0.07724937,16,37,116,9,19,49,0.00633905,0.01272228,0.03288797,0.66475850,0.86372630,1.14088639
26115,0,USMichiganMonroe,Michigan,Monroe,2020-07-18 12:24:20.986374,2020-03-15 00:00:00.000000,0.01285000,0.02760575,0.08394595,19,41,126,10,21,54,0.00709086,0.01448121,0.03602653,0.66526226,0.86528359,1.14084439
26115,0,USMichiganMonroe,Michigan,Monroe,2020-07-18 12:24:20.986374,2020-03-16 00:00:00.000000,0.01479893,0.03084061,0.09124393,22,46,137,12,24,59,0.00837204,0.01644686,0.03954033,0.66665044,0.86643720,1.14073304
26115,0,USMichiganMonroe,Michigan,Monroe,2020-07-18 12:24:20.986374,2020-03-17 00:00:00.000000,0.01719230,0.03462760,0.09838702,25,52,148,14,27,65,0.00985582,0.01823409,0.04326764,0.66998512,0.87852530,1.13704213
26115,0,USMichiganMonroe,Michigan,Monroe,2020-07-18 12:24:20.986374,2020-03-18 00:00:00.000000,0.02034632,0.03939679,0.10629407,30,59,159,17,30,73,0.01153479,0.02047531,0.04897002,0.68798864,0.87592294,1.12520807
26115,0,USMichiganMonroe,Michigan,Monroe,2020-07-18 12:24:20.986374,2020-03-19 00:00:00.000000,0.02433422,0.04517030,0.11544273,36,67,173,20,34,82,0.01338026,0.02322525,0.05473236,0.69096211,0.87595725,1.12826145
26115,0,USMichiganMonroe,Michigan,Monroe,2020-07-18 12:24:20.986374,2020-03-20 00:00:00.000000,0.02872541,0.05164163,0.12824095,43,77,193,23,40,94,0.01553145,0.02664745,0.06258290,0.68524241,0.88611065,1.12733847
26115,0,USMichiganMonroe,Michigan,Monroe,2020-07-18 12:24:20.986374,2020-03-21 00:00:00.000000,0.03213633,0.05873362,0.14260934,48,88,214,26,46,107,0.01792635,0.03071280,0.07115019,0.69527422,0.89576838,1.15664474
26115,0,USMichiganMonroe,Michigan,Monroe,2020-07-18 12:24:20.986374,2020-03-22 00:00:00.000000,0.03636870,0.06728567,0.16058783,54,101,241,31,52,117,0.02081566,0.03473108,0.07806145,0.69166299,0.90907173,1.20500833
26115,0,USMichiganMonroe,Michigan,Monroe,2020-07-18 12:24:20.986374,2020-03-23 00:00:00.000000,0.04316855,0.07557059,0.18315036,64,113,275,36,60,128,0.02422245,0.04034362,0.08536221,0.68779245,0.90104420,1.21223187
26115,0,USMichiganMonroe,Michigan,Monroe,2020-07-18 12:24:20.986374,2020-03-24 00:00:00.000000,0.04946877,0.08683637,0.20720434,74,130,311,40,68,140,0.02692255,0.04572285,0.09365176,0.68481433,0.89760758,1.21124750
26115,0,USMichiganMonroe,Michigan,Monroe,2020-07-18 12:24:20.986374,2020-03-25 00:00:00.000000,0.05810363,0.09769510,0.23348125,87,147,351,44,77,161,0.02973952,0.05119396,0.10720995,0.67707539,0.88933335,1.20279980
26115,0,USMichiganMonroe,Michigan,Monroe,2020-07-18 12:24:20.986374,2020-03-26 00:00:00.000000,0.06681178,0.10990953,0.26072896,100,165,392,49,89,185,0.03293806,0.05921451,0.12329094,0.66798798,0.88138658,1.18912657
26115,0,USMichiganMonroe,Michigan,Monroe,2020-07-18 12:24:20.986374,2020-03-27 00:00:00.000000,0.07641723,0.12378816,0.28947566,115,186,435,58,103,213,0.03874366,0.06845335,0.14193999,0.66437048,0.86076969,1.23186350
26115,0,USMichiganMonroe,Michigan,Monroe,2020-07-18 12:24:20.986374,2020-03-28 00:00:00.000000,0.08513204,0.13859238,0.31504288,128,208,474,64,116,244,0.04262946,0.07766638,0.16220128,0.66224621,0.83055468,1.23967681
26115,0,USMichiganMonroe,Michigan,Monroe,2020-07-18 12:24:20.986374,2020-03-29 00:00:00.000000,0.09333873,0.15619623,0.34541251,140,235,519,69,132,268,0.04614698,0.08791366,0.17845204,0.64364055,0.78977635,1.18989757
26115,0,USMichiganMonroe,Michigan,Monroe,2020-07-18 12:24:20.986374,2020-03-30 00:00:00.000000,0.10219800,0.17282256,0.37645264,153,260,566,74,142,282,0.04956058,0.09465463,0.18743683,0.61928409,0.76400411,1.07644767
26115,0,USMichiganMonroe,Michigan,Monroe,2020-07-18 12:24:20.986374,2020-03-31 00:00:00.000000,0.11170216,0.18739055,0.40443814,168,282,608,79,159,311,0.05313720,0.10578453,0.20730588,0.60205175,0.73834635,1.02518858
26115,0,USMichiganMonroe,Michigan,Monroe,2020-07-18 12:24:20.986374,2020-04-01 00:00:00.000000,0.12163806,0.20341503,0.42720854,183,306,642,86,170,344,0.05760218,0.11300910,0.22909155,0.55114790,0.71620118,1.01974565
26115,0,USMichiganMonroe,Michigan,Monroe,2020-07-18 12:24:20.986374,2020-04-02 00:00:00.000000,0.13003954,0.21422042,0.46003047,195,322,692,92,184,379,0.06177079,0.12237657,0.25238216,0.52035025,0.68162433,1.01329732
26115,0,USMichiganMonroe,Michigan,Monroe,2020-07-18 12:24:20.986374,2020-04-03 00:00:00.000000,0.14017017,0.22655547,0.49899280,210,340,750,99,193,413,0.06602082,0.12829074,0.27469347,0.48730818,0.65029899,0.99903987
26115,0,USMichiganMonroe,Michigan,Monroe,2020-07-18 12:24:20.986374,2020-04-04 00:00:00.000000,0.14763124,0.23717827,0.52315704,222,356,787,106,202,432,0.07107354,0.13452601,0.28708937,0.46703876,0.61946262,0.92859072
26115,0,USMichiganMonroe,Michigan,Monroe,2020-07-18 12:24:20.986374,2020-04-05 00:00:00.000000,0.15448127,0.24022382,0.53682102,232,361,807,114,216,445,0.07588123,0.14397492,0.29630924,0.41146225,0.58064770,0.85054654
26115,0,USMichiganMonroe,Michigan,Monroe,2020-07-18 12:24:20.986374,2020-04-06 00:00:00.000000,0.15581270,0.24945141,0.54817713,234,375,825,116,222,458,0.07753718,0.14796980,0.30444013,0.39410843,0.54671686,0.78464377
26115,0,USMichiganMonroe,Michigan,Monroe,2020-07-18 12:24:20.986374,2020-04-07 00:00:00.000000,0.15930799,0.25577292,0.56161246,239,384,845,119,227,470,0.07927526,0.15144910,0.31248082,0.37541474,0.52492586,0.69595591
26115,0,USMichiganMonroe,Michigan,Monroe,2020-07-18 12:24:20.986374,2020-04-08 00:00:00.000000,0.16057302,0.25416014,0.57824001,241,382,870,123,228,480,0.08235974,0.15205706,0.31935109,0.36361747,0.50590889,0.68789246
26115,0,USMichiganMonroe,Michigan,Monroe,2020-07-18 12:24:20.986374,2020-04-09 00:00:00.000000,0.15574496,0.25021180,0.59126211,234,376,889,126,226,488,0.08422010,0.15061268,0.32472417,0.35492770,0.49293527,0.68357735
26115,0,USMichiganMonroe,Michigan,Monroe,2020-07-18 12:24:20.986374,2020-04-10 00:00:00.000000,0.15235326,0.25080279,0.58927076,229,377,886,123,226,489,0.08223896,0.15027977,0.32548619,0.34285121,0.47503174,0.66419788
26115,0,USMichiganMonroe,Michigan,Monroe,2020-07-18 12:24:20.986374,2020-04-11 00:00:00.000000,0.14867719,0.24330431,0.58241064,223,366,876,121,219,492,0.08082244,0.14580026,0.32749772,0.33880472,0.46218562,0.64590960
26115,0,USMichiganMonroe,Michigan,Monroe,2020-07-18 12:24:20.986374,2020-04-12 00:00:00.000000,0.14454787,0.23950265,0.58078051,217,360,874,119,211,489,0.07917977,0.14021799,0.32532912,0.33552625,0.45251889,0.64266542
26115,0,USMichiganMonroe,Michigan,Monroe,2020-07-18 12:24:20.986374,2020-04-13 00:00:00.000000,0.14167454,0.23511817,0.57826076,213,353,870,119,204,481,0.07914322,0.13594415,0.32012169,0.33485122,0.44906054,0.64214403
26115,0,USMichiganMonroe,Michigan,Monroe,2020-07-18 12:24:20.986374,2020-04-14 00:00:00.000000,0.14084219,0.23102494,0.57459967,211,347,864,115,199,468,0.07688338,0.13253583,0.31109022,0.34204828,0.45130365,0.64256590
26115,0,USMichiganMonroe,Michigan,Monroe,2020-07-18 12:24:20.986374,2020-04-15 00:00:00.000000,0.14053947,0.22553216,0.56932213,211,339,856,112,195,454,0.07458656,0.13010148,0.30180244,0.33718165,0.45196866,0.64221980
26115,0,USMichiganMonroe,Michigan,Monroe,2020-07-18 12:24:20.986374,2020-04-16 00:00:00.000000,0.14025613,0.22088597,0.55671384,211,332,837,108,190,440,0.07223185,0.12676823,0.29248584,0.33581479,0.45777720,0.63842634
26115,0,USMichiganMonroe,Michigan,Monroe,2020-07-18 12:24:20.986374,2020-04-17 00:00:00.000000,0.14092888,0.21779387,0.54275491,212,327,816,105,191,432,0.07040899,0.12705099,0.28710237,0.33294063,0.46198355,0.62837146
26115,0,USMichiganMonroe,Michigan,Monroe,2020-07-18 12:24:20.986374,2020-04-18 00:00:00.000000,0.14128568,0.21291557,0.52797132,212,320,794,102,192,428,0.06837557,0.12778877,0.28456238,0.33200245,0.47053420,0.64171413
26115,0,USMichiganMonroe,Michigan,Monroe,2020-07-18 12:24:20.986374,2020-04-19 00:00:00.000000,0.13598369,0.20933014,0.51287553,204,315,771,99,187,424,0.06626381,0.12481433,0.28231877,0.33143178,0.47207624,0.67247615
26115,0,USMichiganMonroe,Michigan,Monroe,2020-07-18 12:24:20.986374,2020-04-20 00:00:00.000000,0.13540409,0.20961518,0.49776607,203,315,749,98,184,423,0.06558870,0.12248493,0.28140709,0.33096919,0.47216202,0.69103706
26115,0,USMichiganMonroe,Michigan,Monroe,2020-07-18 12:24:20.986374,2020-04-21 00:00:00.000000,0.13072000,0.20564928,0.48084157,196,309,723,99,182,422,0.06619710,0.12154013,0.28064824,0.33198501,0.47242637,0.70250735
26115,0,USMichiganMonroe,Michigan,Monroe,2020-07-18 12:24:20.986374,2020-04-22 00:00:00.000000,0.13116510,0.20409405,0.46826592,197,307,704,101,182,419,0.06720453,0.12096272,0.27877118,0.33284979,0.48081476,0.71580976
26115,0,USMichiganMonroe,Michigan,Monroe,2020-07-18 12:24:20.986374,2020-04-23 00:00:00.000000,0.13393205,0.20422890,0.46416465,201,307,698,102,181,414,0.06840964,0.12041940,0.27538014,0.33493977,0.48471886,0.72127015
26115,0,USMichiganMonroe,Michigan,Monroe,2020-07-18 12:24:20.986374,2020-04-24 00:00:00.000000,0.13174474,0.20683414,0.46127878,198,311,694,104,181,415,0.06976105,0.12064326,0.27576210,0.33766392,0.50023007,0.72378103
26115,0,USMichiganMonroe,Michigan,Monroe,2020-07-18 12:24:20.986374,2020-04-25 00:00:00.000000,0.13165458,0.20670873,0.45996870,198,311,692,107,178,409,0.07127051,0.11874715,0.27197485,0.33440419,0.50396055,0.72968204
26115,0,USMichiganMonroe,Michigan,Monroe,2020-07-18 12:24:20.986374,2020-04-26 00:00:00.000000,0.13423822,0.20972233,0.46175869,202,315,694,109,178,413,0.07280179,0.11883977,0.27462563,0.35413897,0.51108467,0.74827865
26115,0,USMichiganMonroe,Michigan,Monroe,2020-07-18 12:24:20.986374,2020-04-27 00:00:00.000000,0.13627449,0.20990322,0.46581290,205,315,701,112,176,419,0.07460890,0.11758022,0.27845828,0.37112800,0.51728463,0.77132736
26115,0,USMichiganMonroe,Michigan,Monroe,2020-07-18 12:24:20.986374,2020-04-28 00:00:00.000000,0.13681950,0.20991605,0.47111717,205,315,709,113,181,425,0.07522914,0.12035329,0.28254922,0.38247913,0.52330658,0.78628370
26115,0,USMichiganMonroe,Michigan,Monroe,2020-07-18 12:24:20.986374,2020-04-29 00:00:00.000000,0.13865609,0.21200563,0.47698223,208,319,717,112,182,426,0.07474002,0.12140006,0.28358060,0.39405574,0.52584979,0.79396318
26115,0,USMichiganMonroe,Michigan,Monroe,2020-07-18 12:24:20.986374,2020-04-30 00:00:00.000000,0.14151637,0.21371834,0.48285185,212,321,726,111,185,426,0.07419715,0.12324555,0.28370845,0.39420794,0.52033926,0.79168300
26115,0,USMichiganMonroe,Michigan,Monroe,2020-07-18 12:24:20.986374,2020-05-01 00:00:00.000000,0.14460841,0.21489971,0.48809288,217,323,734,110,187,426,0.07356481,0.12443404,0.28328675,0.38158346,0.51376476,0.77519215
26115,0,USMichiganMonroe,Michigan,Monroe,2020-07-18 12:24:20.986374,2020-05-02 00:00:00.000000,0.14756651,0.21842544,0.49242956,222,328,741,109,189,425,0.07277036,0.12604076,0.28283643,0.37767201,0.50963758,0.75541446
26115,0,USMichiganMonroe,Michigan,Monroe,2020-07-18 12:24:20.986374,2020-05-03 00:00:00.000000,0.15187457,0.21887107,0.49466493,228,329,744,108,192,424,0.07195351,0.12758258,0.28196025,0.37627924,0.50314249,0.74747823
26115,0,USMichiganMonroe,Michigan,Monroe,2020-07-18 12:24:20.986374,2020-05-04 00:00:00.000000,0.15221636,0.22030871,0.49119460,229,331,739,109,191,422,0.07244442,0.12744941,0.28055956,0.37738216,0.50143065,0.74440922
26115,0,USMichiganMonroe,Michigan,Monroe,2020-07-18 12:24:20.986374,2020-05-05 00:00:00.000000,0.14787230,0.21973437,0.48683234,222,330,732,107,193,419,0.07118986,0.12863277,0.27847045,0.36580243,0.49028721,0.74173211
26115,0,USMichiganMonroe,Michigan,Monroe,2020-07-18 12:24:20.986374,2020-05-06 00:00:00.000000,0.14215285,0.21717507,0.47895755,213,326,720,104,189,416,0.06953356,0.12582207,0.27667119,0.34820463,0.48171157,0.71337123
26115,0,USMichiganMonroe,Michigan,Monroe,2020-07-18 12:24:20.986374,2020-05-07 00:00:00.000000,0.13594230,0.21223499,0.45939738,204,319,691,101,188,413,0.06755615,0.12543346,0.27479900,0.33974448,0.46039544,0.69011684
26115,0,USMichiganMonroe,Michigan,Monroe,2020-07-18 12:24:20.986374,2020-05-08 00:00:00.000000,0.13016566,0.20838949,0.44044173,195,313,662,98,186,402,0.06536505,0.12409696,0.26769584,0.33676877,0.45609608,0.68204182
26115,0,USMichiganMonroe,Michigan,Monroe,2020-07-18 12:24:20.986374,2020-05-09 00:00:00.000000,0.12537981,0.20745218,0.42253027,188,312,635,94,185,391,0.06302772,0.12343952,0.25988983,0.32550113,0.44746587,0.67892840
26115,0,USMichiganMonroe,Michigan,Monroe,2020-07-18 12:24:20.986374,2020-05-10 00:00:00.000000,0.12272223,0.19892701,0.40680730,184,299,612,91,183,380,0.06058620,0.12163193,0.25256117,0.31631062,0.43471848,0.66792401
26115,0,USMichiganMonroe,Michigan,Monroe,2020-07-18 12:24:20.986374,2020-05-11 00:00:00.000000,0.12058022,0.19385804,0.39246253,181,291,590,88,180,368,0.05897399,0.11974275,0.24483469,0.29729112,0.42067456,0.65173349
26115,0,USMichiganMonroe,Michigan,Monroe,2020-07-18 12:24:20.986374,2020-05-12 00:00:00.000000,0.11649075,0.18957534,0.37848730,175,285,569,88,174,357,0.05847436,0.11572598,0.23747474,0.27761803,0.41706440,0.63438890
26115,0,USMichiganMonroe,Michigan,Monroe,2020-07-18 12:24:20.986374,2020-05-13 00:00:00.000000,0.11220034,0.18169161,0.36854338,168,273,554,85,168,346,0.05664312,0.11183242,0.23020725,0.27078930,0.39878984,0.62155022
26115,0,USMichiganMonroe,Michigan,Monroe,2020-07-18 12:24:20.986374,2020-05-14 00:00:00.000000,0.10766797,0.17408735,0.35758499,162,262,538,81,162,335,0.05413508,0.10820847,0.22307832,0.26804614,0.39842711,0.59715788
26115,0,USMichiganMonroe,Michigan,Monroe,2020-07-18 12:24:20.986374,2020-05-15 00:00:00.000000,0.10282641,0.16644105,0.34586125,154,250,520,77,156,325,0.05126091,0.10369984,0.21608626,0.26470355,0.39422843,0.56508728
26115,0,USMichiganMonroe,Michigan,Monroe,2020-07-18 12:24:20.986374,2020-05-16 00:00:00.000000,0.09774809,0.15801809,0.33465605,147,237,503,72,149,314,0.04807524,0.09903468,0.20919137,0.26072416,0.39371852,0.55947112
26115,0,USMichiganMonroe,Michigan,Monroe,2020-07-18 12:24:20.986374,2020-05-17 00:00:00.000000,0.09246001,0.14970534,0.32307458,139,225,486,68,140,304,0.04537751,0.09322944,0.20229648,0.24883910,0.39497241,0.55441313
26115,0,USMichiganMonroe,Michigan,Monroe,2020-07-18 12:24:20.986374,2020-05-18 00:00:00.000000,0.08683017,0.14355967,0.31134167,130,216,468,65,132,293,0.04374659,0.08819013,0.19520407,0.24422102,0.38802686,0.54787274
26115,0,USMichiganMonroe,Michigan,Monroe,2020-07-18 12:24:20.986374,2020-05-19 00:00:00.000000,0.08080876,0.13506744,0.29964258,121,203,450,61,128,282,0.04112572,0.08533669,0.18765836,0.24419163,0.38044492,0.53902402
26115,0,USMichiganMonroe,Michigan,Monroe,2020-07-18 12:24:20.986374,2020-05-20 00:00:00.000000,0.07397557,0.12542272,0.28811046,111,188,433,57,120,271,0.03828520,0.08029344,0.18046861,0.24403894,0.37548313,0.52829233
26115,0,USMichiganMonroe,Michigan,Monroe,2020-07-18 12:24:20.986374,2020-05-21 00:00:00.000000,0.06960115,0.11927290,0.27682837,104,179,416,53,112,261,0.03555528,0.07502889,0.17379145,0.24297005,0.36766689,0.52548685
26115,0,USMichiganMonroe,Michigan,Monroe,2020-07-18 12:24:20.986374,2020-05-22 00:00:00.000000,0.06541586,0.11434556,0.26583591,98,172,400,49,106,251,0.03309166,0.07055529,0.16724566,0.23609670,0.35487702,0.52367606
26115,0,USMichiganMonroe,Michigan,Monroe,2020-07-18 12:24:20.986374,2020-05-23 00:00:00.000000,0.06147900,0.10719416,0.25513596,92,161,383,46,99,242,0.03060869,0.06597206,0.16088967,0.22263810,0.35362830,0.52100457
26115,0,USMichiganMonroe,Michigan,Monroe,2020-07-18 12:24:20.986374,2020-05-24 00:00:00.000000,0.05725358,0.10046318,0.24470557,86,151,368,42,93,232,0.02824231,0.06238394,0.15477145,0.21688822,0.35299877,0.51968824
26115,0,USMichiganMonroe,Michigan,Monroe,2020-07-18 12:24:20.986374,2020-05-25 00:00:00.000000,0.05283303,0.09461011,0.23192403,79,142,349,38,88,224,0.02584332,0.05909316,0.14885528,0.21283145,0.35186899,0.51839563
26115,0,USMichiganMonroe,Michigan,Monroe,2020-07-18 12:24:20.986374,2020-05-26 00:00:00.000000,0.04879782,0.08822568,0.21816107,73,132,328,35,83,215,0.02372645,0.05528140,0.14301469,0.20962822,0.35197237,0.51589028
26115,0,USMichiganMonroe,Michigan,Monroe,2020-07-18 12:24:20.986374,2020-05-27 00:00:00.000000,0.04496646,0.08268997,0.20767552,67,124,312,33,78,206,0.02195596,0.05217717,0.13722058,0.20767192,0.35132855,0.51244012
26115,0,USMichiganMonroe,Michigan,Monroe,2020-07-18 12:24:20.986374,2020-05-28 00:00:00.000000,0.04137288,0.07853360,0.19800333,62,118,297,31,73,197,0.02064862,0.04872039,0.13152237,0.21150622,0.35301067,0.50969459
26115,0,USMichiganMonroe,Michigan,Monroe,2020-07-18 12:24:20.986374,2020-05-29 00:00:00.000000,0.03868318,0.07366437,0.18874330,58,110,284,29,68,189,0.01936580,0.04577997,0.12597055,0.21202582,0.35577472,0.50681480
26115,0,USMichiganMonroe,Michigan,Monroe,2020-07-18 12:24:20.986374,2020-05-30 00:00:00.000000,0.03616554,0.06881672,0.18022970,54,103,271,27,65,182,0.01819259,0.04325845,0.12111079,0.21310170,0.35915448,0.53098985
26115,0,USMichiganMonroe,Michigan,Monroe,2020-07-18 12:24:20.986374,2020-05-31 00:00:00.000000,0.03421005,0.06432436,0.17273418,51,96,259,25,61,175,0.01718488,0.04082626,0.11645240,0.21603490,0.35997038,0.53433084
26115,0,USMichiganMonroe,Michigan,Monroe,2020-07-18 12:24:20.986374,2020-06-01 00:00:00.000000,0.03265967,0.06069088,0.16555450,49,91,249,24,57,167,0.01640287,0.03810528,0.11135493,0.21857343,0.36266632,0.53495911
26115,0,USMichiganMonroe,Michigan,Monroe,2020-07-18 12:24:20.986374,2020-06-02 00:00:00.000000,0.03124203,0.05740687,0.16123900,47,86,242,23,53,158,0.01570803,0.03540427,0.10513621,0.22470918,0.36747625,0.53515259
26115,0,USMichiganMonroe,Michigan,Monroe,2020-07-18 12:24:20.986374,2020-06-03 00:00:00.000000,0.02963556,0.05431825,0.15429109,44,81,232,22,49,150,0.01467082,0.03297601,0.09995628,0.23220542,0.36882155,0.54510940
26115,0,USMichiganMonroe,Michigan,Monroe,2020-07-18 12:24:20.986374,2020-06-04 00:00:00.000000,0.02717207,0.05141553,0.14686126,40,77,221,19,46,142,0.01322161,0.03092293,0.09459088,0.23798386,0.36955459,0.56479356
26115,0,USMichiganMonroe,Michigan,Monroe,2020-07-18 12:24:20.986374,2020-06-05 00:00:00.000000,0.02505218,0.04930942,0.13947369,37,74,209,18,44,134,0.01205984,0.02945618,0.08909414,0.24488802,0.37635996,0.59906784
26115,0,USMichiganMonroe,Michigan,Monroe,2020-07-18 12:24:20.986374,2020-06-06 00:00:00.000000,0.02359741,0.04821486,0.13281133,35,72,199,16,42,126,0.01119839,0.02855467,0.08394484,0.24915152,0.38343328,0.62614130
26115,0,USMichiganMonroe,Michigan,Monroe,2020-07-18 12:24:20.986374,2020-06-07 00:00:00.000000,0.02290927,0.04690738,0.12815749,34,70,192,15,40,119,0.01049503,0.02721750,0.07916594,0.25274807,0.39804921,0.63343470
26115,0,USMichiganMonroe,Michigan,Monroe,2020-07-18 12:24:20.986374,2020-06-08 00:00:00.000000,0.02241116,0.04457019,0.12433499,33,67,187,14,40,112,0.00989751,0.02666032,0.07478969,0.27291371,0.41689339,0.63835414
26115,0,USMichiganMonroe,Michigan,Monroe,2020-07-18 12:24:20.986374,2020-06-09 00:00:00.000000,0.02198851,0.04401446,0.12041492,33,66,181,14,39,108,0.00941286,0.02645317,0.07181236,0.29402973,0.43121593,0.64930630
26115,0,USMichiganMonroe,Michigan,Monroe,2020-07-18 12:24:20.986374,2020-06-10 00:00:00.000000,0.02144836,0.04322247,0.11684971,32,65,175,13,38,105,0.00924097,0.02537913,0.06998416,0.30313309,0.44787209,0.65990141
26115,0,USMichiganMonroe,Michigan,Monroe,2020-07-18 12:24:20.986374,2020-06-11 00:00:00.000000,0.02091729,0.04182410,0.11364876,31,62,171,13,37,101,0.00911210,0.02481879,0.06760706,0.32025151,0.47574936,0.66150322
26115,0,USMichiganMonroe,Michigan,Monroe,2020-07-18 12:24:20.986374,2020-06-12 00:00:00.000000,0.02050623,0.04217616,0.11178993,30,63,168,13,36,98,0.00901977,0.02428530,0.06529389,0.33118358,0.48558035,0.73710559
26115,0,USMichiganMonroe,Michigan,Monroe,2020-07-18 12:24:20.986374,2020-06-13 00:00:00.000000,0.02025761,0.04268859,0.11115065,30,64,167,13,35,95,0.00896558,0.02384602,0.06313345,0.33703997,0.50257615,0.79345040
26115,0,USMichiganMonroe,Michigan,Monroe,2020-07-18 12:24:20.986374,2020-06-14 00:00:00.000000,0.02024121,0.04324261,0.11105597,30,65,167,13,36,92,0.00895184,0.02408976,0.06126848,0.34696554,0.52880596,0.80824789
26115,0,USMichiganMonroe,Michigan,Monroe,2020-07-18 12:24:20.986374,2020-06-15 00:00:00.000000,0.02056272,0.04404158,0.11110084,30,66,167,13,36,91,0.00897493,0.02432541,0.06053509,0.35884868,0.55059844,0.87415972
26115,0,USMichiganMonroe,Michigan,Monroe,2020-07-18 12:24:20.986374,2020-06-16 00:00:00.000000,0.02133380,0.04504241,0.11091902,32,67,166,13,36,90,0.00912816,0.02443587,0.05998677,0.38109512,0.56930746,0.90387340
26115,0,USMichiganMonroe,Michigan,Monroe,2020-07-18 12:24:20.986374,2020-06-17 00:00:00.000000,0.02252124,0.04575611,0.11108576,33,68,167,14,38,90,0.00947219,0.02551767,0.06024723,0.38659016,0.57905920,0.91397149
26115,0,USMichiganMonroe,Michigan,Monroe,2020-07-18 12:24:20.986374,2020-06-18 00:00:00.000000,0.02248513,0.04790287,0.11187140,33,72,168,14,40,93,0.00990714,0.02662952,0.06220770,0.39055825,0.59541982,0.94383345
26115,0,USMichiganMonroe,Michigan,Monroe,2020-07-18 12:24:20.986374,2020-06-19 00:00:00.000000,0.02354557,0.04959504,0.11576229,35,74,174,15,41,100,0.01060875,0.02786388,0.06652381,0.41631466,0.61223878,0.93844469
26115,0,USMichiganMonroe,Michigan,Monroe,2020-07-18 12:24:20.986374,2020-06-20 00:00:00.000000,0.02562572,0.05120505,0.11825212,38,77,177,17,43,104,0.01157782,0.02899676,0.06953861,0.44311623,0.63494130,0.92004062
26115,0,USMichiganMonroe,Michigan,Monroe,2020-07-18 12:24:20.986374,2020-06-21 00:00:00.000000,0.02695668,0.05341164,0.12129679,40,80,182,18,45,108,0.01259233,0.03018432,0.07212554,0.44343113,0.66049113,0.93956547
26115,0,USMichiganMonroe,Michigan,Monroe,2020-07-18 12:24:20.986374,2020-06-22 00:00:00.000000,0.02820157,0.05610135,0.12479531,42,84,187,20,47,110,0.01357372,0.03186214,0.07345299,0.46352674,0.67154585,0.94983202
26115,0,USMichiganMonroe,Michigan,Monroe,2020-07-18 12:24:20.986374,2020-06-23 00:00:00.000000,0.02956432,0.05895774,0.13295831,44,88,200,22,50,112,0.01521949,0.03322902,0.07486969,0.47473520,0.67262132,0.95270088
26115,0,USMichiganMonroe,Michigan,Monroe,2020-07-18 12:24:20.986374,2020-06-24 00:00:00.000000,0.03245651,0.06171087,0.13714962,48,92,206,25,53,115,0.01709956,0.03579947,0.07660677,0.48456923,0.67583049,0.95593805
26115,0,USMichiganMonroe,Michigan,Monroe,2020-07-18 12:24:20.986374,2020-06-25 00:00:00.000000,0.03513543,0.06456590,0.14423556,52,97,217,28,56,118,0.01868249,0.03735488,0.07857341,0.49905064,0.67630164,0.95937125
26115,0,USMichiganMonroe,Michigan,Monroe,2020-07-18 12:24:20.986374,2020-06-26 00:00:00.000000,0.03749605,0.06792303,0.15261250,56,102,229,30,60,121,0.02021069,0.03993882,0.08100003,0.50796156,0.67542997,0.95457064
26115,0,USMichiganMonroe,Michigan,Monroe,2020-07-18 12:24:20.986374,2020-06-27 00:00:00.000000,0.04049542,0.07187287,0.16205604,60,108,243,32,63,125,0.02155228,0.04216310,0.08338538,0.50601095,0.67226331,0.96096713
26115,0,USMichiganMonroe,Michigan,Monroe,2020-07-18 12:24:20.986374,2020-06-28 00:00:00.000000,0.04362176,0.07502816,0.17255418,65,112,259,34,66,131,0.02315699,0.04423298,0.08757972,0.50715400,0.66271047,0.98630098
26115,0,USMichiganMonroe,Michigan,Monroe,2020-07-18 12:24:20.986374,2020-06-29 00:00:00.000000,0.04758073,0.08005384,0.18404682,71,120,276,37,69,139,0.02512462,0.04642374,0.09294777,0.51104623,0.66687887,0.98339964
26115,0,USMichiganMonroe,Michigan,Monroe,2020-07-18 12:24:20.986374,2020-06-30 00:00:00.000000,0.05022307,0.08419857,0.19648427,75,126,295,40,74,148,0.02695532,0.04948819,0.09892887,0.50766814,0.66735221,0.98407233
26115,0,USMichiganMonroe,Michigan,Monroe,2020-07-18 12:24:20.986374,2020-07-01 00:00:00.000000,0.05374861,0.09018044,0.20989237,80,135,315,43,79,158,0.02857865,0.05281741,0.10554247,0.50828730,0.67199992,0.94513372
26115,0,USMichiganMonroe,Michigan,Monroe,2020-07-18 12:24:20.986374,2020-07-02 00:00:00.000000,0.05774043,0.09581065,0.22462665,86,144,338,45,83,169,0.03044781,0.05574425,0.11269318,0.50899210,0.67250860,0.99339576
26115,0,USMichiganMonroe,Michigan,Monroe,2020-07-18 12:24:20.986374,2020-07-03 00:00:00.000000,0.06201156,0.10137072,0.23786106,93,152,357,47,87,181,0.03142144,0.05806100,0.12055404,0.51679501,0.67768473,0.99568142
26115,0,USMichiganMonroe,Michigan,Monroe,2020-07-18 12:24:20.986374,2020-07-04 00:00:00.000000,0.06656325,0.10967103,0.25481031,100,165,383,49,93,195,0.03263587,0.06221932,0.13013449,0.52279786,0.68109593,1.00317783
26115,0,USMichiganMonroe,Michigan,Monroe,2020-07-18 12:24:20.986374,2020-07-05 00:00:00.000000,0.07182130,0.11793772,0.27376232,108,177,412,54,100,216,0.03617842,0.06675802,0.14392235,0.52088802,0.69364316,1.01935350
26115,0,USMichiganMonroe,Michigan,Monroe,2020-07-18 12:24:20.986374,2020-07-06 00:00:00.000000,0.07795123,0.12630835,0.29377202,117,190,442,59,106,229,0.03976064,0.07082983,0.15277206,0.52587634,0.70163161,1.02365351
26115,0,USMichiganMonroe,Michigan,Monroe,2020-07-18 12:24:20.986374,2020-07-07 00:00:00.000000,0.08432823,0.13771281,0.31489168,126,207,473,64,115,242,0.04285421,0.07663973,0.16100632,0.52927635,0.71740163,1.02463707
26115,0,USMichiganMonroe,Michigan,Monroe,2020-07-18 12:24:20.986374,2020-07-08 00:00:00.000000,0.08699509,0.14893161,0.33723481,130,224,507,69,124,255,0.04597912,0.08239225,0.16996458,0.52999101,0.71583850,1.02490046
26115,0,USMichiganMonroe,Michigan,Monroe,2020-07-18 12:24:20.986374,2020-07-09 00:00:00.000000,0.09172956,0.16323767,0.36094316,138,245,543,73,132,273,0.04898446,0.08832847,0.18150938,0.53001471,0.72075331,1.02498489
26115,0,USMichiganMonroe,Michigan,Monroe,2020-07-18 12:24:20.986374,2020-07-10 00:00:00.000000,0.09732674,0.17422391,0.38616161,146,262,581,77,143,291,0.05116574,0.09557537,0.19374833,0.52997184,0.72078027,1.02501553
26115,0,USMichiganMonroe,Michigan,Monroe,2020-07-18 12:24:20.986374,2020-07-11 00:00:00.000000,0.10162721,0.18492075,0.41302886,152,278,621,77,151,311,0.05160589,0.10095099,0.20671438,0.52995278,0.72078395,1.02502759
26115,0,USMichiganMonroe,Michigan,Monroe,2020-07-18 12:24:20.986374,2020-07-12 00:00:00.000000,0.10569872,0.19569965,0.44167756,159,294,664,80,162,331,0.05378495,0.10792060,0.22047581,0.52994455,0.72078446,1.02503263
26115,0,USMichiganMonroe,Michigan,Monroe,2020-07-18 12:24:20.986374,2020-07-13 00:00:00.000000,0.10984490,0.20817080,0.46880979,165,313,705,87,174,353,0.05790612,0.11623136,0.23509930,0.52994105,0.72078453,1.02503486
26115,0,USMichiganMonroe,Michigan,Monroe,2020-07-18 12:24:20.986374,2020-07-14 00:00:00.000000,0.11414511,0.22317297,0.49413502,171,335,743,91,185,377,0.06063213,0.12332323,0.25065003,0.52993958,0.72078454,1.02503590
26115,0,USMichiganMonroe,Michigan,Monroe,2020-07-18 12:24:20.986374,2020-07-15 00:00:00.000000,0.11860567,0.24047443,0.52813953,178,361,794,94,199,402,0.06295654,0.13262420,0.26760540,0.52993896,0.72078454,1.02503642
26115,0,USMichiganMonroe,Michigan,Monroe,2020-07-18 12:24:20.986374,2020-07-16 00:00:00.000000,0.12323232,0.25888399,0.56220118,185,389,846,99,214,432,0.06637119,0.14232214,0.28718647,0.52993871,0.72078454,1.02503668
26115,0,USMichiganMonroe,Michigan,Monroe,2020-07-18 12:24:20.986374,2020-07-17 00:00:00.000000,0.12808072,0.27836619,0.60116477,192,418,904,106,229,465,0.07049555,0.15249545,0.30921083,0.52993860,0.72078454,1.02503682
26115,0,USMichiganMonroe,Michigan,Monroe,2020-07-18 12:24:20.986374,2020-07-18 00:00:00.000000,0.13335945,0.30238506,0.64877974,200,455,976,111,251,512,0.07412938,0.16731136,0.34069395,0.52993856,0.72078454,1.02503690
26115,0,USMichiganMonroe,Michigan,Monroe,2020-07-18 12:24:20.986374,2020-07-19 00:00:00.000000,0.13815577,0.32632286,0.70335031,207,491,1058,116,268,574,0.07734678,0.17872907,0.38143724,0.52993854,0.72078454,1.02503695
26115,0,USMichiganMonroe,Michigan,Monroe,2020-07-18 12:24:20.986374,2020-07-20 00:00:00.000000,0.14351413,0.35212002,0.77882797,215,529,1172,120,288,642,0.08022059,0.19192624,0.42701305,0.52993854,0.72078454,1.02503697
26115,0,USMichiganMonroe,Michigan,Monroe,2020-07-18 12:24:20.986374,2020-07-21 00:00:00.000000,0.14905779,0.37991499,0.86012730,224,571,1294,125,307,720,0.08313072,0.20427337,0.47874814,0.52993853,0.72078454,1.02503699
26115,0,USMichiganMonroe,Michigan,Monroe,2020-07-18 12:24:20.986374,2020-07-22 00:00:00.000000,0.15452393,0.40799059,0.93131027,232,614,1401,128,330,797,0.08553497,0.21957244,0.52989647,0.52993853,0.72078454,1.02503700
26115,0,USMichiganMonroe,Michigan,Monroe,2020-07-18 12:24:20.986374,2020-07-23 00:00:00.000000,0.16012498,0.44156963,1.00814740,240,664,1517,131,353,867,0.08750625,0.23515887,0.57650650,0.52993853,0.72078454,1.02503700
26115,0,USMichiganMonroe,Michigan,Monroe,2020-07-18 12:24:20.986374,2020-07-24 00:00:00.000000,0.16592043,0.47465910,1.09458389,249,714,1647,134,381,943,0.08952228,0.25377520,0.62703696,0.52993853,0.72078454,1.02503700
26115,0,USMichiganMonroe,Michigan,Monroe,2020-07-18 12:24:20.986374,2020-07-25 00:00:00.000000,0.17143139,0.50653572,1.18973959,258,762,1790,137,416,1026,0.09130523,0.27683757,0.68178133,0.52993853,0.72078454,1.02503701
26115,0,USMichiganMonroe,Michigan,Monroe,2020-07-18 12:24:20.986374,2020-07-26 00:00:00.000000,0.17442662,0.54037106,1.29266951,262,813,1945,140,450,1115,0.09305606,0.29958179,0.74104811,0.52993853,0.72078454,1.02503701
26115,0,USMichiganMonroe,Michigan,Monroe,2020-07-18 12:24:20.986374,2020-07-27 00:00:00.000000,0.17746916,0.57942136,1.40391036,267,872,2112,143,489,1211,0.09567699,0.32505474,0.80515966,0.52993853,0.72078454,1.02503701
26115,0,USMichiganMonroe,Michigan,Monroe,2020-07-18 12:24:20.986374,2020-07-28 00:00:00.000000,0.18017040,0.61952661,1.52464770,271,932,2294,148,526,1316,0.09876837,0.34987604,0.87445143,0.52993853,0.72078454,1.02503701
26115,0,USMichiganMonroe,Michigan,Monroe,2020-07-18 12:24:20.986374,2020-07-29 00:00:00.000000,0.18286712,0.66226695,1.68346665,275,996,2533,151,566,1428,0.10065503,0.37646554,0.94926997,0.52993853,0.72078454,1.02503701
26115,0,USMichiganMonroe,Michigan,Monroe,2020-07-18 12:24:20.986374,2020-07-30 00:00:00.000000,0.18558873,0.70779499,1.86177293,279,1065,2801,154,609,1557,0.10238953,0.40492858,1.03490157,0.52993853,0.72078454,1.02503701
