FIPS,HR_UID,nameid,province,region,analysisTime,dates,pointprevalence_025,pointprevalence_50,pointprevalence_975,pointinfections_025,pointinfections_50,pointinfections_975,pointinfectious_025,pointinfectious_50,pointinfectious_975,pointinfectiousprevalence_05,pointinfectiousprevalence_50,pointinfectiousprevalence_95,infectrate_025,infectrate_50,infectrate_975
21185,0,USKentuckyOldham,Kentucky,Oldham,2020-07-18 14:30:31.905963,2020-03-09 00:00:00.000000,0.00223838,0.03054211,0.17788676,1,20,118,0,4,24,0.00000000,0.00663933,0.03664873,0.54929428,0.73612930,0.96835194
21185,0,USKentuckyOldham,Kentucky,Oldham,2020-07-18 14:30:31.905963,2020-03-10 00:00:00.000000,0.00262433,0.04554328,0.41679253,1,30,278,0,5,25,0.00100706,0.00850687,0.03797711,0.54928249,0.73612933,0.96839465
21185,0,USKentuckyOldham,Kentucky,Oldham,2020-07-18 14:30:31.905963,2020-03-11 00:00:00.000000,0.00306422,0.03600084,0.18953667,2,24,126,0,4,21,0.00086317,0.00728303,0.03240559,0.54926351,0.73612945,0.96849974
21185,0,USKentuckyOldham,Kentucky,Oldham,2020-07-18 14:30:31.905963,2020-03-12 00:00:00.000000,0.00357237,0.04962589,0.58140463,2,33,388,0,5,26,0.00135446,0.00887276,0.04014522,0.54923156,0.73612990,0.96875784
21185,0,USKentuckyOldham,Kentucky,Oldham,2020-07-18 14:30:31.905963,2020-03-13 00:00:00.000000,0.00416119,0.04203996,0.20903585,2,28,139,0,5,21,0.00139974,0.00785813,0.03184959,0.54794481,0.73613166,0.96938815
21185,0,USKentuckyOldham,Kentucky,Oldham,2020-07-18 14:30:31.905963,2020-03-14 00:00:00.000000,0.00484403,0.05339285,0.57584530,3,35,384,1,6,28,0.00180567,0.00959919,0.04243917,0.52123402,0.73536880,0.97090608
21185,0,USKentuckyOldham,Kentucky,Oldham,2020-07-18 14:30:31.905963,2020-03-15 00:00:00.000000,0.00563597,0.04733850,0.22553223,3,31,150,1,5,22,0.00171012,0.00828785,0.03353209,0.45558359,0.73539850,0.97419354
21185,0,USKentuckyOldham,Kentucky,Oldham,2020-07-18 14:30:31.905963,2020-03-16 00:00:00.000000,0.00655399,0.05930053,0.59244667,4,39,395,1,6,27,0.00246814,0.01046620,0.04174332,0.37778206,0.73551383,0.98083130
21185,0,USKentuckyOldham,Kentucky,Oldham,2020-07-18 14:30:31.905963,2020-03-17 00:00:00.000000,0.00760291,0.05292166,0.23974153,5,35,160,1,6,23,0.00228200,0.00909023,0.03518196,0.34842407,0.73588225,0.99325270
21185,0,USKentuckyOldham,Kentucky,Oldham,2020-07-18 14:30:31.905963,2020-03-18 00:00:00.000000,0.00822687,0.06440318,0.60777910,5,43,405,2,7,29,0.00321025,0.01142585,0.04438627,0.34095450,0.73376813,1.01096413
21185,0,USKentuckyOldham,Kentucky,Oldham,2020-07-18 14:30:31.905963,2020-03-19 00:00:00.000000,0.00889413,0.05843028,0.25486040,5,39,170,1,6,25,0.00268550,0.00981907,0.03879292,0.33924816,0.73189952,1.02827399
21185,0,USKentuckyOldham,Kentucky,Oldham,2020-07-18 14:30:31.905963,2020-03-20 00:00:00.000000,0.00960835,0.06907307,0.63146879,6,46,421,2,8,33,0.00343914,0.01247544,0.05038687,0.33886856,0.72370351,1.03635971
21185,0,USKentuckyOldham,Kentucky,Oldham,2020-07-18 14:30:31.905963,2020-03-21 00:00:00.000000,0.01093654,0.06400788,0.27179052,7,42,181,1,7,27,0.00281710,0.01073923,0.04171110,0.33878471,0.70611047,0.99771506
21185,0,USKentuckyOldham,Kentucky,Oldham,2020-07-18 14:30:31.905963,2020-03-22 00:00:00.000000,0.01247242,0.07323930,0.66743678,8,48,445,2,9,38,0.00359031,0.01364706,0.05752989,0.33876676,0.70821629,0.99417491
21185,0,USKentuckyOldham,Kentucky,Oldham,2020-07-18 14:30:31.905963,2020-03-23 00:00:00.000000,0.01405229,0.06933406,0.29157297,9,46,194,1,7,29,0.00297152,0.01159756,0.04358763,0.33876508,0.68931006,1.01635700
21185,0,USKentuckyOldham,Kentucky,Oldham,2020-07-18 14:30:31.905963,2020-03-24 00:00:00.000000,0.01561756,0.08034554,0.70081814,10,53,468,2,9,43,0.00373754,0.01495308,0.06581105,0.33877363,0.67993827,1.04390076
21185,0,USKentuckyOldham,Kentucky,Oldham,2020-07-18 14:30:31.905963,2020-03-25 00:00:00.000000,0.01715174,0.07371402,0.31294533,11,49,209,2,8,32,0.00315335,0.01278859,0.04886414,0.33881012,0.67400089,1.01802508
21185,0,USKentuckyOldham,Kentucky,Oldham,2020-07-18 14:30:31.905963,2020-03-26 00:00:00.000000,0.01856646,0.08867595,0.72731510,12,59,485,2,10,49,0.00390084,0.01609899,0.07342726,0.33895203,0.65808040,1.00277622
21185,0,USKentuckyOldham,Kentucky,Oldham,2020-07-18 14:30:31.905963,2020-03-27 00:00:00.000000,0.02030321,0.07865981,0.33806553,13,52,225,2,9,36,0.00336435,0.01488145,0.05474144,0.33949759,0.64683519,1.00972849
21185,0,USKentuckyOldham,Kentucky,Oldham,2020-07-18 14:30:31.905963,2020-03-28 00:00:00.000000,0.02180173,0.09673458,0.75104937,14,64,501,2,11,51,0.00407963,0.01787858,0.07779148,0.33367431,0.63233933,1.01704584
21185,0,USKentuckyOldham,Kentucky,Oldham,2020-07-18 14:30:31.905963,2020-03-29 00:00:00.000000,0.02303701,0.08225472,0.36093897,15,54,241,2,10,40,0.00372647,0.01609216,0.06111404,0.33832404,0.63284027,1.03542893
21185,0,USKentuckyOldham,Kentucky,Oldham,2020-07-18 14:30:31.905963,2020-03-30 00:00:00.000000,0.02505287,0.10474205,0.76889639,16,69,513,2,13,54,0.00428128,0.02041388,0.08214297,0.35330275,0.64050874,1.02634146
21185,0,USKentuckyOldham,Kentucky,Oldham,2020-07-18 14:30:31.905963,2020-03-31 00:00:00.000000,0.02667902,0.08826347,0.38990547,17,58,260,2,11,44,0.00418735,0.01765778,0.06667252,0.35055163,0.62699352,1.02800898
21185,0,USKentuckyOldham,Kentucky,Oldham,2020-07-18 14:30:31.905963,2020-04-01 00:00:00.000000,0.02892192,0.11129975,0.78482203,19,74,524,3,14,58,0.00455336,0.02207979,0.08754387,0.34280679,0.62304812,1.03772746
21185,0,USKentuckyOldham,Kentucky,Oldham,2020-07-18 14:30:31.905963,2020-04-02 00:00:00.000000,0.02894058,0.09363869,0.41955356,19,62,280,2,12,48,0.00440292,0.01942047,0.07264960,0.33273416,0.61138906,1.02651066
21185,0,USKentuckyOldham,Kentucky,Oldham,2020-07-18 14:30:31.905963,2020-04-03 00:00:00.000000,0.03326533,0.11769354,0.80214422,22,78,535,3,15,62,0.00513713,0.02371596,0.09303274,0.31699026,0.59923860,1.02640547
21185,0,USKentuckyOldham,Kentucky,Oldham,2020-07-18 14:30:31.905963,2020-04-04 00:00:00.000000,0.03205434,0.10237743,0.44654298,21,68,298,3,13,53,0.00463209,0.02063172,0.08014228,0.31681311,0.59695837,1.02824103
21185,0,USKentuckyOldham,Kentucky,Oldham,2020-07-18 14:30:31.905963,2020-04-05 00:00:00.000000,0.03523436,0.12417366,0.82378312,23,82,550,3,16,65,0.00569920,0.02543060,0.09856287,0.30669568,0.57639192,1.04607206
21185,0,USKentuckyOldham,Kentucky,Oldham,2020-07-18 14:30:31.905963,2020-04-06 00:00:00.000000,0.03483583,0.11035656,0.47078137,23,73,314,3,14,60,0.00487947,0.02230750,0.09028798,0.30289879,0.56373381,1.07948203
21185,0,USKentuckyOldham,Kentucky,Oldham,2020-07-18 14:30:31.905963,2020-04-07 00:00:00.000000,0.03711182,0.12934638,0.84809806,24,86,566,3,17,69,0.00597544,0.02680499,0.10462398,0.30014945,0.57001994,1.08943734
21185,0,USKentuckyOldham,Kentucky,Oldham,2020-07-18 14:30:31.905963,2020-04-08 00:00:00.000000,0.03779358,0.11791759,0.49480487,25,78,330,3,15,67,0.00527149,0.02387149,0.10101538,0.29989912,0.57189378,1.09140167
21185,0,USKentuckyOldham,Kentucky,Oldham,2020-07-18 14:30:31.905963,2020-04-09 00:00:00.000000,0.03952878,0.13597904,0.87008664,26,90,581,4,18,74,0.00626657,0.02818437,0.11138869,0.28937065,0.56081443,1.08920895
21185,0,USKentuckyOldham,Kentucky,Oldham,2020-07-18 14:30:31.905963,2020-04-10 00:00:00.000000,0.04035178,0.12495005,0.51938123,26,83,346,3,17,74,0.00555698,0.02585445,0.11104562,0.27244082,0.55063400,1.03815542
21185,0,USKentuckyOldham,Kentucky,Oldham,2020-07-18 14:30:31.905963,2020-04-11 00:00:00.000000,0.04317556,0.14436446,0.88912254,28,96,593,4,19,79,0.00663324,0.02973606,0.11868728,0.26581807,0.54217294,1.01709044
21185,0,USKentuckyOldham,Kentucky,Oldham,2020-07-18 14:30:31.905963,2020-04-12 00:00:00.000000,0.04357752,0.13070183,0.55824750,29,87,372,3,18,78,0.00595152,0.02791115,0.11779192,0.26441201,0.54065494,1.02950181
21185,0,USKentuckyOldham,Kentucky,Oldham,2020-07-18 14:30:31.905963,2020-04-13 00:00:00.000000,0.04625121,0.15510326,0.90683934,30,103,605,4,21,83,0.00714080,0.03177402,0.12527819,0.26402900,0.53519075,1.03082790
21185,0,USKentuckyOldham,Kentucky,Oldham,2020-07-18 14:30:31.905963,2020-04-14 00:00:00.000000,0.04706925,0.13845537,0.60136227,31,92,401,4,19,82,0.00647315,0.02870185,0.12408393,0.26371042,0.53728059,1.02932670
21185,0,USKentuckyOldham,Kentucky,Oldham,2020-07-18 14:30:31.905963,2020-04-15 00:00:00.000000,0.04959809,0.16073472,0.92405902,33,107,617,5,22,90,0.00772895,0.03330441,0.13530576,0.26042994,0.53607903,1.02292451
21185,0,USKentuckyOldham,Kentucky,Oldham,2020-07-18 14:30:31.905963,2020-04-16 00:00:00.000000,0.04975864,0.14153956,0.65452532,33,94,437,4,20,86,0.00699373,0.03065702,0.12957962,0.26106761,0.54139895,1.00337675
21185,0,USKentuckyOldham,Kentucky,Oldham,2020-07-18 14:30:31.905963,2020-04-17 00:00:00.000000,0.05389194,0.16693378,0.95510202,35,111,637,5,23,94,0.00826686,0.03490333,0.14186896,0.25978449,0.52722129,1.00261213
21185,0,USKentuckyOldham,Kentucky,Oldham,2020-07-18 14:30:31.905963,2020-04-18 00:00:00.000000,0.05449089,0.14662203,0.72087805,36,97,481,5,22,90,0.00756712,0.03303944,0.13483030,0.25405085,0.53245045,1.00261941
21185,0,USKentuckyOldham,Kentucky,Oldham,2020-07-18 14:30:31.905963,2020-04-19 00:00:00.000000,0.05849872,0.17317523,1.02847097,39,115,687,5,24,101,0.00877826,0.03721945,0.15144493,0.25692655,0.52070436,1.03256027
21185,0,USKentuckyOldham,Kentucky,Oldham,2020-07-18 14:30:31.905963,2020-04-20 00:00:00.000000,0.05528490,0.15323205,0.76124721,36,102,508,5,23,93,0.00819357,0.03475270,0.14022368,0.25373537,0.51515772,1.03881084
21185,0,USKentuckyOldham,Kentucky,Oldham,2020-07-18 14:30:31.905963,2020-04-21 00:00:00.000000,0.06345365,0.18349106,1.04973194,42,122,701,6,26,105,0.00932001,0.03962952,0.15724964,0.24277248,0.51716403,1.03692662
21185,0,USKentuckyOldham,Kentucky,Oldham,2020-07-18 14:30:31.905963,2020-04-22 00:00:00.000000,0.05957951,0.16207819,0.80708776,39,108,539,5,24,98,0.00885522,0.03643600,0.14714793,0.24402523,0.51442548,1.03686557
21185,0,USKentuckyOldham,Kentucky,Oldham,2020-07-18 14:30:31.905963,2020-04-23 00:00:00.000000,0.06863228,0.19509228,1.06970346,45,130,714,6,28,108,0.00989415,0.04225946,0.16223035,0.24693244,0.51780725,1.02279308
21185,0,USKentuckyOldham,Kentucky,Oldham,2020-07-18 14:30:31.905963,2020-04-24 00:00:00.000000,0.06512570,0.17203122,0.87397121,43,114,583,6,25,102,0.00955707,0.03795969,0.15347360,0.24063364,0.51499780,1.01164877
21185,0,USKentuckyOldham,Kentucky,Oldham,2020-07-18 14:30:31.905963,2020-04-25 00:00:00.000000,0.07392858,0.20412243,1.09011380,49,136,728,7,30,114,0.01050187,0.04535547,0.17066360,0.21139578,0.50953557,1.01347272
21185,0,USKentuckyOldham,Kentucky,Oldham,2020-07-18 14:30:31.905963,2020-04-26 00:00:00.000000,0.07076442,0.17969351,0.93644854,47,120,625,6,26,109,0.01031784,0.04020743,0.16400376,0.20227896,0.49335131,1.01450627
21185,0,USKentuckyOldham,Kentucky,Oldham,2020-07-18 14:30:31.905963,2020-04-27 00:00:00.000000,0.07969373,0.21623168,1.11097484,53,144,742,7,32,123,0.01098273,0.04830362,0.18550234,0.19791693,0.48931969,1.01188811
21185,0,USKentuckyOldham,Kentucky,Oldham,2020-07-18 14:30:31.905963,2020-04-28 00:00:00.000000,0.07478084,0.18687030,0.96860311,49,124,647,7,28,117,0.01113493,0.04241366,0.17642569,0.19754669,0.47856970,1.02585856
21185,0,USKentuckyOldham,Kentucky,Oldham,2020-07-18 14:30:31.905963,2020-04-29 00:00:00.000000,0.08712996,0.22691073,1.13228562,58,151,756,7,33,133,0.01159327,0.05061128,0.19991579,0.19951579,0.45839568,1.07561064
21185,0,USKentuckyOldham,Kentucky,Oldham,2020-07-18 14:30:31.905963,2020-04-30 00:00:00.000000,0.07758272,0.19969653,1.00083743,51,133,668,7,29,127,0.01175669,0.04484158,0.19153173,0.20410066,0.43360530,1.07837114
21185,0,USKentuckyOldham,Kentucky,Oldham,2020-07-18 14:30:31.905963,2020-05-01 00:00:00.000000,0.09336948,0.23920700,1.16837826,62,159,780,8,36,143,0.01247845,0.05428021,0.21465840,0.21158912,0.42620881,1.03423096
21185,0,USKentuckyOldham,Kentucky,Oldham,2020-07-18 14:30:31.905963,2020-05-02 00:00:00.000000,0.07981263,0.20812461,1.04128068,53,139,695,8,31,138,0.01273508,0.04761744,0.20716766,0.21129111,0.43137172,1.03214098
21185,0,USKentuckyOldham,Kentucky,Oldham,2020-07-18 14:30:31.905963,2020-05-03 00:00:00.000000,0.09833451,0.24334429,1.21707175,65,162,812,8,38,153,0.01320453,0.05752944,0.22953085,0.21152941,0.42076642,1.02218554
21185,0,USKentuckyOldham,Kentucky,Oldham,2020-07-18 14:30:31.905963,2020-05-04 00:00:00.000000,0.08008258,0.21663236,1.08968367,53,144,727,9,33,149,0.01357124,0.04958923,0.22327656,0.21185730,0.41654664,1.00334208
21185,0,USKentuckyOldham,Kentucky,Oldham,2020-07-18 14:30:31.905963,2020-05-05 00:00:00.000000,0.10436214,0.24723483,1.27205246,69,165,849,9,39,163,0.01409315,0.05914483,0.24424451,0.20877218,0.41527981,0.98597081
21185,0,USKentuckyOldham,Kentucky,Oldham,2020-07-18 14:30:31.905963,2020-05-06 00:00:00.000000,0.08039408,0.23072286,1.13877995,53,154,760,9,34,159,0.01436851,0.05090978,0.23947180,0.21269561,0.40981016,0.98434267
21185,0,USKentuckyOldham,Kentucky,Oldham,2020-07-18 14:30:31.905963,2020-05-07 00:00:00.000000,0.11066956,0.25410610,1.32199842,73,169,883,10,40,173,0.01498163,0.06066179,0.25910509,0.20927114,0.40731162,0.97725927
21185,0,USKentuckyOldham,Kentucky,Oldham,2020-07-18 14:30:31.905963,2020-05-08 00:00:00.000000,0.08252505,0.24061509,1.18831611,55,160,793,9,35,170,0.01493305,0.05299709,0.25552269,0.20044535,0.40328134,0.97297483
21185,0,USKentuckyOldham,Kentucky,Oldham,2020-07-18 14:30:31.905963,2020-05-09 00:00:00.000000,0.11272657,0.25923783,1.35742496,75,173,906,10,41,183,0.01577690,0.06224006,0.27431599,0.18415826,0.39721870,0.96388052
21185,0,USKentuckyOldham,Kentucky,Oldham,2020-07-18 14:30:31.905963,2020-05-10 00:00:00.000000,0.08736617,0.24771506,1.24722049,58,165,833,10,36,181,0.01524517,0.05497925,0.27170106,0.18619668,0.39463704,0.96283613
21185,0,USKentuckyOldham,Kentucky,Oldham,2020-07-18 14:30:31.905963,2020-05-11 00:00:00.000000,0.11372559,0.26539150,1.38361890,75,177,924,11,43,193,0.01667189,0.06464165,0.28968958,0.18520997,0.38999950,0.96227494
21185,0,USKentuckyOldham,Kentucky,Oldham,2020-07-18 14:30:31.905963,2020-05-12 00:00:00.000000,0.09068796,0.25897440,1.29861018,60,172,867,10,38,192,0.01547093,0.05707132,0.28810121,0.18490267,0.38587031,0.96237717
21185,0,USKentuckyOldham,Kentucky,Oldham,2020-07-18 14:30:31.905963,2020-05-13 00:00:00.000000,0.11480479,0.27263930,1.47402471,76,182,984,11,43,203,0.01710131,0.06545957,0.30509925,0.18650701,0.38257765,0.96340713
21185,0,USKentuckyOldham,Kentucky,Oldham,2020-07-18 14:30:31.905963,2020-05-14 00:00:00.000000,0.09030069,0.26569264,1.34748508,60,177,900,10,39,204,0.01563940,0.05944967,0.30592319,0.18604059,0.38033481,0.99092144
21185,0,USKentuckyOldham,Kentucky,Oldham,2020-07-18 14:30:31.905963,2020-05-15 00:00:00.000000,0.11679204,0.28140629,1.57684751,78,187,1053,11,44,212,0.01751187,0.06710659,0.31813576,0.18500921,0.37646289,1.00035398
21185,0,USKentuckyOldham,Kentucky,Oldham,2020-07-18 14:30:31.905963,2020-05-16 00:00:00.000000,0.09057103,0.26759490,1.39740888,60,178,933,10,41,216,0.01583878,0.06227218,0.32463357,0.18876699,0.37301951,1.01157486
21185,0,USKentuckyOldham,Kentucky,Oldham,2020-07-18 14:30:31.905963,2020-05-17 00:00:00.000000,0.11991683,0.28799047,1.62697376,80,192,1086,12,45,221,0.01797321,0.06884091,0.33123870,0.18728250,0.36333246,1.01968292
21185,0,USKentuckyOldham,Kentucky,Oldham,2020-07-18 14:30:31.905963,2020-05-18 00:00:00.000000,0.09100998,0.27493922,1.44851528,60,183,967,10,43,225,0.01613617,0.06476098,0.33827236,0.18685765,0.35373978,1.02576991
21185,0,USKentuckyOldham,Kentucky,Oldham,2020-07-18 14:30:31.905963,2020-05-19 00:00:00.000000,0.12380703,0.29368397,1.71984149,82,196,1148,12,47,231,0.01850751,0.07070190,0.34667254,0.19036989,0.34175130,1.02643388
21185,0,USKentuckyOldham,Kentucky,Oldham,2020-07-18 14:30:31.905963,2020-05-20 00:00:00.000000,0.09085443,0.28755292,1.47427183,60,192,984,11,45,237,0.01661045,0.06754932,0.35510729,0.18664108,0.33137685,1.03521559
21185,0,USKentuckyOldham,Kentucky,Oldham,2020-07-18 14:30:31.905963,2020-05-21 00:00:00.000000,0.12771040,0.30421590,1.78675984,85,203,1193,12,49,242,0.01908585,0.07356684,0.36358638,0.18660680,0.32687734,1.03773988
21185,0,USKentuckyOldham,Kentucky,Oldham,2020-07-18 14:30:31.905963,2020-05-22 00:00:00.000000,0.08862718,0.29295065,1.54248171,59,195,1030,11,46,248,0.01676310,0.06993590,0.37213084,0.18732163,0.32864037,1.03929142
21185,0,USKentuckyOldham,Kentucky,Oldham,2020-07-18 14:30:31.905963,2020-05-23 00:00:00.000000,0.12775254,0.31640715,1.77512684,85,211,1185,12,52,254,0.01940853,0.07823396,0.38076824,0.18808172,0.33081935,1.04099055
21185,0,USKentuckyOldham,Kentucky,Oldham,2020-07-18 14:30:31.905963,2020-05-24 00:00:00.000000,0.09053693,0.30104612,1.61747274,60,201,1080,11,48,260,0.01707749,0.07209426,0.38947628,0.18933441,0.31998122,1.04381496
21185,0,USKentuckyOldham,Kentucky,Oldham,2020-07-18 14:30:31.905963,2020-05-25 00:00:00.000000,0.12389591,0.32136870,1.79403228,82,214,1198,13,53,266,0.01962419,0.08049339,0.39828223,0.18954097,0.32053830,1.01178713
21185,0,USKentuckyOldham,Kentucky,Oldham,2020-07-18 14:30:31.905963,2020-05-26 00:00:00.000000,0.09296871,0.31057713,1.68600605,62,207,1126,11,49,271,0.01726450,0.07464247,0.40718438,0.18562321,0.31487891,0.94996101
21185,0,USKentuckyOldham,Kentucky,Oldham,2020-07-18 14:30:31.905963,2020-05-27 00:00:00.000000,0.12034894,0.32323223,1.84750031,80,215,1234,13,54,278,0.01983732,0.08144874,0.41619681,0.18363151,0.31236778,0.94548031
21185,0,USKentuckyOldham,Kentucky,Oldham,2020-07-18 14:30:31.905963,2020-05-28 00:00:00.000000,0.09563220,0.31218139,1.75334883,63,208,1171,11,51,282,0.01728775,0.07688200,0.42331564,0.18475572,0.32250314,0.94296924
21185,0,USKentuckyOldham,Kentucky,Oldham,2020-07-18 14:30:31.905963,2020-05-29 00:00:00.000000,0.11764473,0.33410179,1.90390804,78,223,1271,13,55,290,0.02002331,0.08303134,0.43456838,0.18643919,0.32581036,0.93253592
21185,0,USKentuckyOldham,Kentucky,Oldham,2020-07-18 14:30:31.905963,2020-05-30 00:00:00.000000,0.09841171,0.32026152,1.82232996,65,213,1217,11,52,287,0.01719862,0.07917472,0.43111865,0.17844546,0.33133885,0.91361600
21185,0,USKentuckyOldham,Kentucky,Oldham,2020-07-18 14:30:31.905963,2020-05-31 00:00:00.000000,0.12057377,0.34191289,1.95034181,80,228,1302,13,57,302,0.02040333,0.08559024,0.45344674,0.17481465,0.33673795,0.95145244
21185,0,USKentuckyOldham,Kentucky,Oldham,2020-07-18 14:30:31.905963,2020-06-01 00:00:00.000000,0.10384767,0.32947144,1.89249349,69,220,1264,11,54,296,0.01711042,0.08145366,0.44399617,0.17329651,0.34199151,0.92937710
21185,0,USKentuckyOldham,Kentucky,Oldham,2020-07-18 14:30:31.905963,2020-06-02 00:00:00.000000,0.11914848,0.35372004,1.99340879,79,236,1331,13,57,315,0.02081697,0.08654614,0.47296902,0.17269582,0.34098410,0.91496048
21185,0,USKentuckyOldham,Kentucky,Oldham,2020-07-18 14:30:31.905963,2020-06-03 00:00:00.000000,0.11019688,0.33943388,1.98595242,73,226,1326,11,55,308,0.01710164,0.08310076,0.46161456,0.17248661,0.33919151,0.92472907
21185,0,USKentuckyOldham,Kentucky,Oldham,2020-07-18 14:30:31.905963,2020-06-04 00:00:00.000000,0.12074890,0.36558668,2.05242539,80,244,1370,14,58,329,0.02126008,0.08733720,0.49369436,0.17253969,0.35106462,0.94764628
21185,0,USKentuckyOldham,Kentucky,Oldham,2020-07-18 14:30:31.905963,2020-06-05 00:00:00.000000,0.11642429,0.34895915,2.07578710,77,233,1386,11,55,321,0.01713415,0.08365891,0.48110656,0.17283082,0.36077157,0.96431342
21185,0,USKentuckyOldham,Kentucky,Oldham,2020-07-18 14:30:31.905963,2020-06-06 00:00:00.000000,0.11873924,0.37840161,2.16967944,79,252,1449,14,58,344,0.02173711,0.08727534,0.51585786,0.17350393,0.35921583,0.97748793
21185,0,USKentuckyOldham,Kentucky,Oldham,2020-07-18 14:30:31.905963,2020-06-07 00:00:00.000000,0.11874500,0.35765824,2.16758773,79,238,1447,11,55,335,0.01721540,0.08326502,0.50271698,0.17485754,0.36120232,0.95409072
21185,0,USKentuckyOldham,Kentucky,Oldham,2020-07-18 14:30:31.905963,2020-06-08 00:00:00.000000,0.11748358,0.38755000,2.30164561,78,258,1537,14,58,360,0.02241051,0.08687646,0.53940078,0.17726109,0.36374094,0.94412999
21185,0,USKentuckyOldham,Kentucky,Oldham,2020-07-18 14:30:31.905963,2020-06-09 00:00:00.000000,0.11370271,0.36443531,2.27318490,75,243,1518,11,56,351,0.01752321,0.08494510,0.52631492,0.18105744,0.35793770,0.94036115
21185,0,USKentuckyOldham,Kentucky,Oldham,2020-07-18 14:30:31.905963,2020-06-10 00:00:00.000000,0.11169677,0.40419598,2.45348426,74,269,1638,15,59,373,0.02339407,0.08945964,0.55964985,0.18450436,0.35921974,0.96928343
21185,0,USKentuckyOldham,Kentucky,Oldham,2020-07-18 14:30:31.905963,2020-06-11 00:00:00.000000,0.10977424,0.37237110,2.38599335,73,248,1593,12,58,364,0.01807295,0.08735921,0.54580482,0.18966144,0.36137860,0.97066690
21185,0,USKentuckyOldham,Kentucky,Oldham,2020-07-18 14:30:31.905963,2020-06-12 00:00:00.000000,0.10949557,0.42290159,2.60125889,73,282,1737,16,61,383,0.02453501,0.09171812,0.57462137,0.19922561,0.36193710,1.01185683
21185,0,USKentuckyOldham,Kentucky,Oldham,2020-07-18 14:30:31.905963,2020-06-13 00:00:00.000000,0.10917786,0.38355815,2.51021018,72,256,1676,12,59,374,0.01876015,0.08967023,0.56066140,0.19987460,0.36675549,1.05087265
21185,0,USKentuckyOldham,Kentucky,Oldham,2020-07-18 14:30:31.905963,2020-06-14 00:00:00.000000,0.11038008,0.43724543,2.75177709,73,292,1838,17,64,400,0.02590980,0.09609627,0.59915142,0.20212944,0.37530267,1.06331351
21185,0,USKentuckyOldham,Kentucky,Oldham,2020-07-18 14:30:31.905963,2020-06-15 00:00:00.000000,0.11117965,0.39847170,2.65175300,74,266,1771,13,61,386,0.01954596,0.09200940,0.57828565,0.20496430,0.37332960,1.06921927
21185,0,USKentuckyOldham,Kentucky,Oldham,2020-07-18 14:30:31.905963,2020-06-16 00:00:00.000000,0.11337863,0.45807181,2.85684783,75,305,1908,18,67,421,0.02767490,0.10100363,0.63032484,0.20418126,0.38456651,1.13435988
21185,0,USKentuckyOldham,Kentucky,Oldham,2020-07-18 14:30:31.905963,2020-06-17 00:00:00.000000,0.11435642,0.41301330,2.80738855,76,275,1875,13,64,398,0.02040593,0.09583210,0.59728881,0.20304374,0.38938891,1.15169883
21185,0,USKentuckyOldham,Kentucky,Oldham,2020-07-18 14:30:31.905963,2020-06-18 00:00:00.000000,0.11754006,0.48430094,2.94738371,78,323,1968,19,70,436,0.02966394,0.10628861,0.65374960,0.19962813,0.39036837,1.15057069
21185,0,USKentuckyOldham,Kentucky,Oldham,2020-07-18 14:30:31.905963,2020-06-19 00:00:00.000000,0.11871027,0.42719672,2.97140502,79,285,1984,14,67,412,0.02132936,0.10146764,0.61734841,0.19571596,0.39211966,1.14723496
21185,0,USKentuckyOldham,Kentucky,Oldham,2020-07-18 14:30:31.905963,2020-06-20 00:00:00.000000,0.12220970,0.51230876,3.05532544,81,342,2040,21,75,452,0.03187218,0.11231984,0.67697591,0.19369264,0.39877218,1.11310884
21185,0,USKentuckyOldham,Kentucky,Oldham,2020-07-18 14:30:31.905963,2020-06-21 00:00:00.000000,0.12462032,0.44611299,3.14688060,83,297,2102,14,72,427,0.02233019,0.10856089,0.63956902,0.19215614,0.40708478,1.09446423
21185,0,USKentuckyOldham,Kentucky,Oldham,2020-07-18 14:30:31.905963,2020-06-22 00:00:00.000000,0.13341397,0.53352331,3.34370458,89,356,2233,22,78,467,0.03438197,0.11800823,0.69964049,0.19099826,0.41393104,1.13840499
21185,0,USKentuckyOldham,Kentucky,Oldham,2020-07-18 14:30:31.905963,2020-06-23 00:00:00.000000,0.12976661,0.46561532,3.38580493,86,311,2261,15,76,444,0.02349436,0.11498340,0.66604894,0.19032444,0.42425736,1.15418537
21185,0,USKentuckyOldham,Kentucky,Oldham,2020-07-18 14:30:31.905963,2020-06-24 00:00:00.000000,0.13665014,0.55393751,3.53131860,91,370,2358,24,83,482,0.03674969,0.12493363,0.72263296,0.19025540,0.42820557,1.16577555
21185,0,USKentuckyOldham,Kentucky,Oldham,2020-07-18 14:30:31.905963,2020-06-25 00:00:00.000000,0.13630910,0.50378221,3.60565605,91,336,2408,17,80,464,0.02622940,0.12115889,0.69593252,0.19100460,0.43280382,1.15798188
21185,0,USKentuckyOldham,Kentucky,Oldham,2020-07-18 14:30:31.905963,2020-06-26 00:00:00.000000,0.14257901,0.57578748,3.81378511,95,384,2547,25,87,502,0.03826754,0.13156263,0.75235704,0.19277739,0.45612840,1.15975595
21185,0,USKentuckyOldham,Kentucky,Oldham,2020-07-18 14:30:31.905963,2020-06-27 00:00:00.000000,0.14776005,0.55068973,3.80275857,98,367,2540,19,83,485,0.02899292,0.12444452,0.72751358,0.19406199,0.46421100,1.15912627
21185,0,USKentuckyOldham,Kentucky,Oldham,2020-07-18 14:30:31.905963,2020-06-28 00:00:00.000000,0.15554873,0.62127445,3.92695675,103,415,2623,26,91,516,0.03979067,0.13676230,0.77357393,0.19404812,0.47339186,1.16136743
21185,0,USKentuckyOldham,Kentucky,Oldham,2020-07-18 14:30:31.905963,2020-06-29 00:00:00.000000,0.16364171,0.59027165,4.00423569,109,394,2674,21,85,506,0.03178993,0.12800757,0.75782724,0.19405496,0.49676001,1.24059487
21185,0,USKentuckyOldham,Kentucky,Oldham,2020-07-18 14:30:31.905963,2020-06-30 00:00:00.000000,0.17393672,0.66695486,4.10849937,116,445,2744,27,96,530,0.04166421,0.14489307,0.79476144,0.19409883,0.49810472,1.25945860
21185,0,USKentuckyOldham,Kentucky,Oldham,2020-07-18 14:30:31.905963,2020-07-01 00:00:00.000000,0.18485083,0.62462106,4.21506355,123,417,2815,23,89,525,0.03466360,0.13452010,0.78671085,0.19439732,0.50345736,1.29043659
21185,0,USKentuckyOldham,Kentucky,Oldham,2020-07-18 14:30:31.905963,2020-07-02 00:00:00.000000,0.19875165,0.71705552,4.32181507,132,478,2886,30,101,545,0.04495630,0.15189729,0.81640800,0.19450370,0.52624515,1.33513301
21185,0,USKentuckyOldham,Kentucky,Oldham,2020-07-18 14:30:31.905963,2020-07-03 00:00:00.000000,0.21316418,0.67928007,4.43052817,142,453,2959,25,97,543,0.03764440,0.14549008,0.81374948,0.18958787,0.52686656,1.38127411
21185,0,USKentuckyOldham,Kentucky,Oldham,2020-07-18 14:30:31.905963,2020-07-04 00:00:00.000000,0.23234150,0.77410892,4.54231084,155,517,3034,33,106,562,0.05015132,0.15888627,0.84134957,0.18570610,0.51911428,1.43917948
21185,0,USKentuckyOldham,Kentucky,Oldham,2020-07-18 14:30:31.905963,2020-07-05 00:00:00.000000,0.24830966,0.74986148,4.65869864,165,500,3111,27,104,560,0.04074541,0.15625141,0.83949139,0.18562088,0.51639358,1.52817260
21185,0,USKentuckyOldham,Kentucky,Oldham,2020-07-18 14:30:31.905963,2020-07-06 00:00:00.000000,0.26900453,0.84571027,4.73743413,179,564,3164,38,112,579,0.05738941,0.16809587,0.86749478,0.18596163,0.51751346,1.61304259
21185,0,USKentuckyOldham,Kentucky,Oldham,2020-07-18 14:30:31.905963,2020-07-07 00:00:00.000000,0.25912989,0.80523934,4.79486804,173,537,3202,29,113,577,0.04394211,0.16969076,0.86486767,0.18640360,0.51839229,1.65874005
21185,0,USKentuckyOldham,Kentucky,Oldham,2020-07-18 14:30:31.905963,2020-07-08 00:00:00.000000,0.31328280,0.89958921,4.85269745,209,600,3241,40,122,598,0.06045485,0.18347703,0.89523754,0.18469746,0.51850247,1.67517335
21185,0,USKentuckyOldham,Kentucky,Oldham,2020-07-18 14:30:31.905963,2020-07-09 00:00:00.000000,0.27954400,0.88791591,4.91136970,186,593,3280,31,127,594,0.04714229,0.19020671,0.89037973,0.18601951,0.51633593,1.71058041
21185,0,USKentuckyOldham,Kentucky,Oldham,2020-07-18 14:30:31.905963,2020-07-10 00:00:00.000000,0.33823387,0.98405982,4.97118801,225,657,3320,42,138,626,0.06349816,0.20690058,0.93806354,0.18589898,0.51644874,1.73516122
21185,0,USKentuckyOldham,Kentucky,Oldham,2020-07-18 14:30:31.905963,2020-07-11 00:00:00.000000,0.29366195,0.94343492,5.03234063,196,630,3361,33,141,622,0.04973097,0.21247235,0.93242122,0.18586347,0.51652775,1.73914763
21185,0,USKentuckyOldham,Kentucky,Oldham,2020-07-18 14:30:31.905963,2020-07-12 00:00:00.000000,0.37554468,1.04094173,5.09493500,250,695,3403,43,150,683,0.06586449,0.22514805,1.02264417,0.18585329,0.51658120,1.74012570
21185,0,USKentuckyOldham,Kentucky,Oldham,2020-07-18 14:30:31.905963,2020-07-13 00:00:00.000000,0.30796957,1.01350079,5.15902574,205,677,3446,34,152,646,0.05187274,0.22877017,0.96761949,0.18585040,0.51661723,1.74050046
21185,0,USKentuckyOldham,Kentucky,Oldham,2020-07-18 14:30:31.905963,2020-07-14 00:00:00.000000,0.40745888,1.12277463,5.22463455,272,750,3490,45,162,744,0.06829809,0.24383592,1.11420011,0.18584958,0.51664175,1.74067526
21185,0,USKentuckyOldham,Kentucky,Oldham,2020-07-18 14:30:31.905963,2020-07-15 00:00:00.000000,0.30830929,1.12652319,5.29176333,205,752,3534,36,163,670,0.05404037,0.24486607,1.00301452,0.18584935,0.51665864,1.74076101
21185,0,USKentuckyOldham,Kentucky,Oldham,2020-07-18 14:30:31.905963,2020-07-16 00:00:00.000000,0.43800547,1.25149355,5.36040251,292,835,3580,47,177,771,0.07080801,0.26548456,1.15468470,0.18584929,0.51667044,1.74080351
21185,0,USKentuckyOldham,Kentucky,Oldham,2020-07-18 14:30:31.905963,2020-07-17 00:00:00.000000,0.31548685,1.19873372,5.51149948,210,800,3681,36,177,707,0.05480894,0.26558879,1.05956928,0.18584927,0.51667876,1.74082464
21185,0,USKentuckyOldham,Kentucky,Oldham,2020-07-18 14:30:31.905963,2020-07-18 00:00:00.000000,0.45393243,1.38782839,5.67307955,303,927,3789,49,191,792,0.07336299,0.28672316,1.18629793,0.18584926,0.51668468,1.74083518
21185,0,USKentuckyOldham,Kentucky,Oldham,2020-07-18 14:30:31.905963,2020-07-19 00:00:00.000000,0.34878712,1.28012562,5.83898800,232,855,3900,36,193,751,0.05503581,0.28995889,1.12431411,0.18584926,0.51668891,1.74084046
21185,0,USKentuckyOldham,Kentucky,Oldham,2020-07-18 14:30:31.905963,2020-07-20 00:00:00.000000,0.47059158,1.51352697,6.13290203,314,1011,4096,50,213,814,0.07589584,0.31893760,1.21859576,0.18584926,0.51669196,1.74084313
21185,0,USKentuckyOldham,Kentucky,Oldham,2020-07-18 14:30:31.905963,2020-07-21 00:00:00.000000,0.36968208,1.36388255,6.31202634,246,911,4216,36,210,796,0.05525879,0.31465799,1.19245338,0.18584926,0.51669416,1.74084448
21185,0,USKentuckyOldham,Kentucky,Oldham,2020-07-18 14:30:31.905963,2020-07-22 00:00:00.000000,0.48778332,1.68656282,6.98723350,325,1126,4667,52,227,836,0.07850854,0.34028419,1.25157072,0.18584926,0.51669574,1.74084517
21185,0,USKentuckyOldham,Kentucky,Oldham,2020-07-18 14:30:31.905963,2020-07-23 00:00:00.000000,0.38358358,1.44008164,7.17991190,256,961,4796,37,228,877,0.05547976,0.34217846,1.31387607,0.18584926,0.51669689,1.74084553
21185,0,USKentuckyOldham,Kentucky,Oldham,2020-07-18 14:30:31.905963,2020-07-24 00:00:00.000000,0.50552120,1.81111324,7.34064268,337,1209,4903,54,256,975,0.08120317,0.38393311,1.46034803,0.18584926,0.51669772,1.74084572
21185,0,USKentuckyOldham,Kentucky,Oldham,2020-07-18 14:30:31.905963,2020-07-25 00:00:00.000000,0.39881291,1.50821602,7.50480949,266,1007,5013,37,259,1096,0.05570034,0.38801251,1.64081501,0.18584926,0.51669832,1.74084582
21185,0,USKentuckyOldham,Kentucky,Oldham,2020-07-18 14:30:31.905963,2020-07-26 00:00:00.000000,0.52381875,1.90918098,7.67246134,349,1275,5125,56,284,1235,0.08456596,0.42526834,1.84966854,0.18584926,0.51669876,1.74084588
21185,0,USKentuckyOldham,Kentucky,Oldham,2020-07-18 14:30:31.905963,2020-07-27 00:00:00.000000,0.41463360,1.63743876,8.09388663,276,1093,5406,37,288,1153,0.05592189,0.43222474,1.72629236,0.18584926,0.51669908,1.74084591
21185,0,USKentuckyOldham,Kentucky,Oldham,2020-07-18 14:30:31.905963,2020-07-28 00:00:00.000000,0.53646475,1.97477184,8.55179052,358,1319,5712,58,316,1352,0.08786822,0.47453848,2.02481934,0.18584926,0.51669931,1.74084592
21185,0,USKentuckyOldham,Kentucky,Oldham,2020-07-18 14:30:31.905963,2020-07-29 00:00:00.000000,0.44342919,1.74662256,9.03117228,296,1166,6032,38,312,1196,0.05688835,0.46846780,1.79130498,0.18584926,0.51669947,1.74084593
21185,0,USKentuckyOldham,Kentucky,Oldham,2020-07-18 14:30:31.905963,2020-07-30 00:00:00.000000,0.55686397,2.05487764,9.41064709,371,1372,6286,60,355,1418,0.09089974,0.53203511,2.12370594,0.18584926,0.51669959,1.74084594
