FIPS,HR_UID,nameid,province,region,analysisTime,dates,pointprevalence_025,pointprevalence_50,pointprevalence_975,pointinfections_025,pointinfections_50,pointinfections_975,pointinfectious_025,pointinfectious_50,pointinfectious_975,pointinfectiousprevalence_05,pointinfectiousprevalence_50,pointinfectiousprevalence_95,infectrate_025,infectrate_50,infectrate_975
39015,0,USOhioBrown,Ohio,Brown,2020-07-15 18:52:56.865992,2020-03-09 00:00:00.000000,0.01328224,0.04747759,0.38372461,5,20,166,0,3,15,0.00000000,0.00769991,0.03533143,0.62593229,0.82617898,1.01937458
39015,0,USOhioBrown,Ohio,Brown,2020-07-15 18:52:56.865992,2020-03-10 00:00:00.000000,0.02424581,0.05857188,0.39274182,10,25,170,1,4,12,0.00289958,0.00936259,0.02921267,0.62598837,0.82617185,1.01937436
39015,0,USOhioBrown,Ohio,Brown,2020-07-15 18:52:56.865992,2020-03-11 00:00:00.000000,0.01782577,0.05345248,0.40153404,7,23,174,0,2,12,0.00000000,0.00657350,0.02803383,0.62625233,0.82616027,1.01937409
39015,0,USOhioBrown,Ohio,Brown,2020-07-15 18:52:56.865992,2020-03-12 00:00:00.000000,0.02869277,0.06679857,0.41021172,12,29,178,1,3,12,0.00290728,0.00840054,0.02923531,0.63561498,0.82614146,1.01937444
39015,0,USOhioBrown,Ohio,Brown,2020-07-15 18:52:56.865992,2020-03-13 00:00:00.000000,0.02198357,0.05933873,0.41886071,9,25,181,0,2,12,0.00000000,0.00641934,0.02962904,0.64151535,0.82611088,1.01937936
39015,0,USOhioBrown,Ohio,Brown,2020-07-15 18:52:56.865992,2020-03-14 00:00:00.000000,0.03176958,0.07304531,0.42754833,13,31,185,1,3,12,0.00317365,0.00856404,0.02990697,0.64026650,0.82610681,1.01940897
39015,0,USOhioBrown,Ohio,Brown,2020-07-15 18:52:56.865992,2020-03-15 00:00:00.000000,0.02630615,0.06179966,0.43632831,11,26,189,0,2,12,0.00000000,0.00668908,0.02872566,0.63653899,0.83635977,1.01955983
39015,0,USOhioBrown,Ohio,Brown,2020-07-15 18:52:56.865992,2020-03-16 00:00:00.000000,0.03363928,0.07929771,0.44524496,14,34,193,1,3,12,0.00324337,0.00858811,0.02927600,0.62373477,0.83638723,1.02028345
39015,0,USOhioBrown,Ohio,Brown,2020-07-15 18:52:56.865992,2020-03-17 00:00:00.000000,0.02986517,0.06953393,0.45433699,12,30,197,0,3,13,0.00000000,0.00709778,0.03101280,0.60608119,0.82612111,1.02364054
39015,0,USOhioBrown,Ohio,Brown,2020-07-15 18:52:56.865992,2020-03-18 00:00:00.000000,0.03598030,0.08521689,0.46359959,15,37,201,1,3,14,0.00333436,0.00882863,0.03225067,0.58741877,0.82496035,1.03842495
39015,0,USOhioBrown,Ohio,Brown,2020-07-15 18:52:56.865992,2020-03-19 00:00:00.000000,0.03412274,0.07507720,0.47289229,14,32,205,0,3,14,0.00000000,0.00798668,0.03405633,0.57820901,0.83067183,1.05395678
39015,0,USOhioBrown,Ohio,Brown,2020-07-15 18:52:56.865992,2020-03-20 00:00:00.000000,0.03847184,0.09106630,0.48242322,16,39,209,1,4,15,0.00349254,0.00956469,0.03597141,0.57404080,0.83832556,1.04005953
39015,0,USOhioBrown,Ohio,Brown,2020-07-15 18:52:56.865992,2020-03-21 00:00:00.000000,0.03836025,0.08140364,0.49220880,16,35,213,0,3,16,0.00018750,0.00837441,0.03787507,0.55401818,0.84598390,1.10580215
39015,0,USOhioBrown,Ohio,Brown,2020-07-15 18:52:56.865992,2020-03-22 00:00:00.000000,0.04090156,0.09764915,0.50225899,17,42,218,1,4,17,0.00366774,0.01040409,0.03977377,0.53753283,0.84733815,1.12566486
39015,0,USOhioBrown,Ohio,Brown,2020-07-15 18:52:56.865992,2020-03-23 00:00:00.000000,0.04218313,0.08639809,0.51257315,18,37,222,0,3,17,0.00045303,0.00897948,0.03962329,0.52779329,0.84992827,1.13430412
39015,0,USOhioBrown,Ohio,Brown,2020-07-15 18:52:56.865992,2020-03-24 00:00:00.000000,0.04469820,0.10658035,0.52314397,19,46,227,1,4,17,0.00385361,0.01134188,0.03963014,0.52324333,0.85036826,1.15136962
39015,0,USOhioBrown,Ohio,Brown,2020-07-15 18:52:56.865992,2020-03-25 00:00:00.000000,0.04511289,0.09236778,0.53396896,19,40,231,0,4,18,0.00078492,0.00976457,0.04178607,0.51621174,0.84815593,1.15600881
39015,0,USOhioBrown,Ohio,Brown,2020-07-15 18:52:56.865992,2020-03-26 00:00:00.000000,0.04747436,0.11439398,0.55122884,20,49,239,1,5,19,0.00405485,0.01231830,0.04406668,0.50856238,0.84077829,1.16567927
39015,0,USOhioBrown,Ohio,Brown,2020-07-15 18:52:56.865992,2020-03-27 00:00:00.000000,0.04843928,0.10106959,0.57054787,21,43,247,0,4,20,0.00117655,0.01052731,0.04646514,0.50448259,0.83370963,1.17583076
39015,0,USOhioBrown,Ohio,Brown,2020-07-15 18:52:56.865992,2020-03-28 00:00:00.000000,0.05096770,0.12139508,0.58996407,22,52,256,1,5,21,0.00425758,0.01314104,0.04896817,0.50771334,0.83056397,1.12462682
39015,0,USOhioBrown,Ohio,Brown,2020-07-15 18:52:56.865992,2020-03-29 00:00:00.000000,0.05222792,0.11008740,0.60969813,22,47,264,0,4,22,0.00160732,0.01122369,0.05157750,0.50788998,0.82716043,1.13536875
39015,0,USOhioBrown,Ohio,Brown,2020-07-15 18:52:56.865992,2020-03-30 00:00:00.000000,0.05481095,0.13204302,0.62986859,23,57,273,1,6,23,0.00445617,0.01428244,0.05355635,0.48922034,0.82227409,1.15409900
39015,0,USOhioBrown,Ohio,Brown,2020-07-15 18:52:56.865992,2020-03-31 00:00:00.000000,0.05633938,0.11915697,0.65056937,24,51,282,0,5,24,0.00205598,0.01229944,0.05538061,0.45025659,0.80704830,1.15586234
39015,0,USOhioBrown,Ohio,Brown,2020-07-15 18:52:56.865992,2020-04-01 00:00:00.000000,0.05902275,0.14367779,0.67174207,25,62,291,2,6,24,0.00468982,0.01529632,0.05714373,0.43183163,0.79703873,1.15329789
39015,0,USOhioBrown,Ohio,Brown,2020-07-15 18:52:56.865992,2020-04-02 00:00:00.000000,0.06068245,0.12831580,0.69333658,26,55,301,1,5,25,0.00251153,0.01312729,0.05889060,0.42189508,0.78663977,1.14793223
39015,0,USOhioBrown,Ohio,Brown,2020-07-15 18:52:56.865992,2020-04-03 00:00:00.000000,0.06318321,0.15308501,0.71532008,27,66,310,2,7,26,0.00493764,0.01642313,0.06065011,0.41329098,0.78133969,1.14039197
39015,0,USOhioBrown,Ohio,Brown,2020-07-15 18:52:56.865992,2020-04-04 00:00:00.000000,0.06501573,0.13572772,0.73764235,28,58,320,1,6,27,0.00297246,0.01414410,0.06242680,0.40581288,0.77619053,1.13313113
39015,0,USOhioBrown,Ohio,Brown,2020-07-15 18:52:56.865992,2020-04-05 00:00:00.000000,0.06721212,0.16113760,0.76021900,29,69,330,2,7,27,0.00518466,0.01772219,0.06422576,0.40299851,0.77554785,1.11435282
39015,0,USOhioBrown,Ohio,Brown,2020-07-15 18:52:56.865992,2020-04-06 00:00:00.000000,0.06843631,0.14342094,0.78305601,29,62,340,1,6,28,0.00343098,0.01506225,0.06605200,0.41339974,0.79593914,1.08653707
39015,0,USOhioBrown,Ohio,Brown,2020-07-15 18:52:56.865992,2020-04-07 00:00:00.000000,0.07103269,0.16899226,0.80628133,30,73,350,2,8,29,0.00544967,0.01899568,0.06790961,0.41810125,0.79098805,1.05124125
39015,0,USOhioBrown,Ohio,Brown,2020-07-15 18:52:56.865992,2020-04-08 00:00:00.000000,0.07298953,0.14993781,0.83001581,31,65,360,1,6,30,0.00386868,0.01597245,0.06980196,0.41993310,0.79632578,1.01025020
39015,0,USOhioBrown,Ohio,Brown,2020-07-15 18:52:56.865992,2020-04-09 00:00:00.000000,0.07499611,0.17735003,0.85439367,32,77,371,2,8,31,0.00573521,0.02016334,0.07173178,0.42084588,0.77572646,1.00670548
39015,0,USOhioBrown,Ohio,Brown,2020-07-15 18:52:56.865992,2020-04-10 00:00:00.000000,0.07706107,0.15666995,0.87956156,33,68,382,1,7,32,0.00424023,0.01699954,0.07370147,0.40511095,0.73222136,1.01415135
39015,0,USOhioBrown,Ohio,Brown,2020-07-15 18:52:56.865992,2020-04-11 00:00:00.000000,0.07921013,0.18582094,0.90559863,34,80,393,2,9,32,0.00602117,0.02163410,0.07571322,0.38743030,0.68215452,1.04552782
39015,0,USOhioBrown,Ohio,Brown,2020-07-15 18:52:56.865992,2020-04-12 00:00:00.000000,0.08059524,0.16966156,0.93248021,35,73,404,1,8,33,0.00458053,0.01849481,0.07776923,0.37874357,0.67427813,1.05713311
39015,0,USOhioBrown,Ohio,Brown,2020-07-15 18:52:56.865992,2020-04-13 00:00:00.000000,0.08187852,0.19384150,0.96017554,35,84,417,2,10,34,0.00632885,0.02393763,0.07987154,0.37378996,0.67244876,1.05047016
39015,0,USOhioBrown,Ohio,Brown,2020-07-15 18:52:56.865992,2020-04-14 00:00:00.000000,0.08316134,0.18218794,0.98868517,36,79,429,2,8,35,0.00494924,0.01986785,0.08202210,0.36919773,0.66893311,1.03167223
39015,0,USOhioBrown,Ohio,Brown,2020-07-15 18:52:56.865992,2020-04-15 00:00:00.000000,0.08439330,0.20213154,1.01802625,36,87,442,2,11,37,0.00663965,0.02576382,0.08605225,0.36353378,0.65786968,1.02220841
39015,0,USOhioBrown,Ohio,Brown,2020-07-15 18:52:56.865992,2020-04-16 00:00:00.000000,0.08544769,0.19545810,1.04821999,37,84,455,2,9,39,0.00533843,0.02135281,0.09066845,0.35682215,0.65185531,0.99072818
39015,0,USOhioBrown,Ohio,Brown,2020-07-15 18:52:56.865992,2020-04-17 00:00:00.000000,0.08622215,0.21035423,1.07928280,37,91,468,3,11,41,0.00695359,0.02646467,0.09551529,0.35020082,0.65865695,0.96185938
39015,0,USOhioBrown,Ohio,Brown,2020-07-15 18:52:56.865992,2020-04-18 00:00:00.000000,0.08680710,0.20485394,1.11120612,37,88,482,2,9,43,0.00574789,0.02295248,0.10060670,0.34438250,0.67431935,0.94949923
39015,0,USOhioBrown,Ohio,Brown,2020-07-15 18:52:56.865992,2020-04-19 00:00:00.000000,0.08732757,0.21869510,1.15271009,37,94,500,3,12,46,0.00724876,0.02854598,0.10595696,0.33841805,0.67378685,0.94498461
39015,0,USOhioBrown,Ohio,Brown,2020-07-15 18:52:56.865992,2020-04-20 00:00:00.000000,0.08784090,0.20921610,1.19636680,38,90,519,2,10,48,0.00617694,0.02467094,0.11158153,0.32955076,0.66870158,0.93596292
39015,0,USOhioBrown,Ohio,Brown,2020-07-15 18:52:56.865992,2020-04-21 00:00:00.000000,0.08837144,0.22755413,1.24104846,38,98,539,3,13,51,0.00752193,0.02998461,0.11749483,0.31477058,0.64637127,0.93596965
39015,0,USOhioBrown,Ohio,Brown,2020-07-15 18:52:56.865992,2020-04-22 00:00:00.000000,0.08898031,0.21595101,1.28626443,38,93,558,2,11,53,0.00660826,0.02651449,0.12268617,0.29581026,0.63441721,0.93327181
39015,0,USOhioBrown,Ohio,Brown,2020-07-15 18:52:56.865992,2020-04-23 00:00:00.000000,0.08963296,0.23610681,1.33146725,38,102,578,3,13,55,0.00774540,0.03188282,0.12717161,0.28048131,0.62933208,0.91099323
39015,0,USOhioBrown,Ohio,Brown,2020-07-15 18:52:56.865992,2020-04-24 00:00:00.000000,0.09034620,0.22759903,1.37619149,39,98,597,3,12,57,0.00694371,0.02933653,0.13183434,0.27456903,0.61172492,0.91145311
39015,0,USOhioBrown,Ohio,Brown,2020-07-15 18:52:56.865992,2020-04-25 00:00:00.000000,0.09112243,0.24210843,1.41986909,39,105,616,3,14,59,0.00795837,0.03362743,0.13667537,0.27362385,0.59963891,0.91856733
39015,0,USOhioBrown,Ohio,Brown,2020-07-15 18:52:56.865992,2020-04-26 00:00:00.000000,0.09194643,0.23948046,1.46241481,39,104,635,3,13,61,0.00726137,0.03182226,0.14167101,0.27845340,0.59175008,0.91096435
39015,0,USOhioBrown,Ohio,Brown,2020-07-15 18:52:56.865992,2020-04-27 00:00:00.000000,0.09280028,0.25596497,1.50493443,40,111,653,3,15,63,0.00807879,0.03530557,0.14652879,0.28103093,0.58918391,0.91069327
39015,0,USOhioBrown,Ohio,Brown,2020-07-15 18:52:56.865992,2020-04-28 00:00:00.000000,0.09397489,0.25165867,1.54813158,40,109,672,3,14,65,0.00760712,0.03412167,0.15141592,0.28232422,0.58808429,0.90809328
39015,0,USOhioBrown,Ohio,Brown,2020-07-15 18:52:56.865992,2020-04-29 00:00:00.000000,0.09524568,0.26601763,1.59240008,41,115,691,3,16,67,0.00820303,0.03706576,0.15639798,0.28295531,0.59173794,0.86611963
39015,0,USOhioBrown,Ohio,Brown,2020-07-15 18:52:56.865992,2020-04-30 00:00:00.000000,0.09657484,0.26447555,1.63772716,41,114,711,3,15,70,0.00782879,0.03556527,0.16149491,0.28325155,0.58867037,0.86580146
39015,0,USOhioBrown,Ohio,Brown,2020-07-15 18:52:56.865992,2020-05-01 00:00:00.000000,0.09806951,0.28253785,1.68304863,42,122,730,3,16,72,0.00833005,0.03887305,0.16673112,0.28335429,0.58854634,0.86374045
39015,0,USOhioBrown,Ohio,Brown,2020-07-15 18:52:56.865992,2020-05-02 00:00:00.000000,0.09983793,0.27830636,1.72630912,43,120,749,3,16,74,0.00832716,0.03799215,0.17212963,0.28327931,0.59358024,0.85486714
39015,0,USOhioBrown,Ohio,Brown,2020-07-15 18:52:56.865992,2020-05-03 00:00:00.000000,0.10178536,0.29522526,1.76812692,44,128,767,3,17,77,0.00846802,0.04052895,0.17771414,0.28291844,0.60307012,0.84097938
39015,0,USOhioBrown,Ohio,Brown,2020-07-15 18:52:56.865992,2020-05-04 00:00:00.000000,0.10380790,0.29424156,1.81058086,45,127,786,3,17,79,0.00849000,0.03999564,0.18350456,0.28357947,0.62450168,0.82054306
39015,0,USOhioBrown,Ohio,Brown,2020-07-15 18:52:56.865992,2020-05-05 00:00:00.000000,0.10587089,0.30706979,1.85473349,45,133,805,3,18,82,0.00862542,0.04267270,0.18950877,0.29449275,0.63194832,0.81408781
39015,0,USOhioBrown,Ohio,Brown,2020-07-15 18:52:56.865992,2020-05-06 00:00:00.000000,0.10795946,0.31237580,1.90109801,46,135,825,3,18,85,0.00866898,0.04185023,0.19572837,0.29939329,0.62759970,0.82764943
39015,0,USOhioBrown,Ohio,Brown,2020-07-15 18:52:56.865992,2020-05-07 00:00:00.000000,0.11019595,0.32199164,1.94973539,47,139,846,3,19,87,0.00878900,0.04465149,0.20216111,0.28555837,0.62918709,0.95321084
39015,0,USOhioBrown,Ohio,Brown,2020-07-15 18:52:56.865992,2020-05-08 00:00:00.000000,0.11245333,0.32790796,2.00032154,48,142,868,3,19,90,0.00884232,0.04437711,0.20880055,0.28630648,0.62539384,0.96618469
39015,0,USOhioBrown,Ohio,Brown,2020-07-15 18:52:56.865992,2020-05-09 00:00:00.000000,0.11466086,0.34223871,2.05248969,49,148,891,3,20,93,0.00894889,0.04674488,0.21563567,0.29456804,0.62367664,0.95749095
39015,0,USOhioBrown,Ohio,Brown,2020-07-15 18:52:56.865992,2020-05-10 00:00:00.000000,0.11603347,0.34048858,2.10597462,50,147,914,3,20,96,0.00900875,0.04670870,0.22265198,0.28537526,0.61934232,0.93859421
39015,0,USOhioBrown,Ohio,Brown,2020-07-15 18:52:56.865992,2020-05-11 00:00:00.000000,0.11770740,0.36397275,2.16052730,51,158,938,3,21,99,0.00910419,0.04927388,0.22983452,0.26881754,0.61852994,0.92553622
39015,0,USOhioBrown,Ohio,Brown,2020-07-15 18:52:56.865992,2020-05-12 00:00:00.000000,0.12089275,0.35374210,2.21578472,52,153,962,3,21,103,0.00917503,0.04885398,0.23717155,0.26805687,0.62108909,0.91695450
39015,0,USOhioBrown,Ohio,Brown,2020-07-15 18:52:56.865992,2020-05-13 00:00:00.000000,0.12452290,0.38671965,2.27132625,54,167,986,4,22,106,0.00926416,0.05217858,0.24465649,0.26801625,0.61928425,0.89724700
39015,0,USOhioBrown,Ohio,Brown,2020-07-15 18:52:56.865992,2020-05-14 00:00:00.000000,0.12759946,0.37593667,2.32703973,55,163,1010,4,22,109,0.00935245,0.05074643,0.25228785,0.27110109,0.61129085,0.93331249
39015,0,USOhioBrown,Ohio,Brown,2020-07-15 18:52:56.865992,2020-05-15 00:00:00.000000,0.13048012,0.40793243,2.38327765,56,177,1035,4,24,112,0.00953933,0.05532080,0.26006794,0.28606027,0.59511505,0.91954756
39015,0,USOhioBrown,Ohio,Brown,2020-07-15 18:52:56.865992,2020-05-16 00:00:00.000000,0.13342608,0.39942196,2.44051485,57,173,1059,4,22,116,0.00954901,0.05245442,0.26800148,0.29529794,0.59686543,0.88510783
39015,0,USOhioBrown,Ohio,Brown,2020-07-15 18:52:56.865992,2020-05-17 00:00:00.000000,0.13595975,0.42737257,2.49908376,59,185,1085,4,25,119,0.00987692,0.05786806,0.27609469,0.29462747,0.58766393,0.88583944
39015,0,USOhioBrown,Ohio,Brown,2020-07-15 18:52:56.865992,2020-05-18 00:00:00.000000,0.13758840,0.41182478,2.55846874,59,178,1111,4,23,123,0.00976267,0.05508970,0.28435486,0.28496369,0.58466783,0.90551483
39015,0,USOhioBrown,Ohio,Brown,2020-07-15 18:52:56.865992,2020-05-19 00:00:00.000000,0.13919092,0.44737753,2.61780240,60,194,1136,4,26,127,0.01018503,0.06009477,0.29278997,0.27986783,0.58583666,0.89111456
39015,0,USOhioBrown,Ohio,Brown,2020-07-15 18:52:56.865992,2020-05-20 00:00:00.000000,0.14036142,0.43113637,2.67840832,60,187,1163,4,25,130,0.00998646,0.05815192,0.30140849,0.28002653,0.59619743,0.88450351
39015,0,USOhioBrown,Ohio,Brown,2020-07-15 18:52:56.865992,2020-05-21 00:00:00.000000,0.14171924,0.47107779,2.74040804,61,204,1190,4,27,134,0.01044325,0.06225791,0.31021946,0.28364806,0.61453883,0.88502506
39015,0,USOhioBrown,Ohio,Brown,2020-07-15 18:52:56.865992,2020-05-22 00:00:00.000000,0.14284005,0.44859731,2.80393722,62,194,1217,4,26,138,0.01021461,0.06137512,0.31923335,0.29169461,0.62261843,0.85919662
39015,0,USOhioBrown,Ohio,Brown,2020-07-15 18:52:56.865992,2020-05-23 00:00:00.000000,0.14422995,0.49712821,2.86905937,62,215,1246,4,28,142,0.01069947,0.06452143,0.32846289,0.30579387,0.61298602,0.85732377
39015,0,USOhioBrown,Ohio,Brown,2020-07-15 18:52:56.865992,2020-05-24 00:00:00.000000,0.14552623,0.46881900,2.93558696,63,203,1274,4,28,146,0.01043593,0.06477186,0.33792105,0.31193357,0.60305686,0.83914969
39015,0,USOhioBrown,Ohio,Brown,2020-07-15 18:52:56.865992,2020-05-25 00:00:00.000000,0.14718691,0.51995434,3.00191509,63,225,1303,4,29,150,0.01093329,0.06694067,0.34761815,0.31018262,0.58776416,0.85495911
39015,0,USOhioBrown,Ohio,Brown,2020-07-15 18:52:56.865992,2020-05-26 00:00:00.000000,0.14891438,0.49379075,3.06387773,64,214,1330,4,29,155,0.01064386,0.06761128,0.35756263,0.30862375,0.57567954,0.87625445
39015,0,USOhioBrown,Ohio,Brown,2020-07-15 18:52:56.865992,2020-05-27 00:00:00.000000,0.15112320,0.54581171,3.12303938,65,237,1356,4,30,159,0.01114229,0.06968455,0.36776236,0.30085690,0.57133928,0.89412452
39015,0,USOhioBrown,Ohio,Brown,2020-07-15 18:52:56.865992,2020-05-28 00:00:00.000000,0.15356614,0.51944419,3.18141811,66,225,1381,4,30,164,0.01084501,0.06983309,0.37822532,0.30218340,0.56379465,0.88567424
39015,0,USOhioBrown,Ohio,Brown,2020-07-15 18:52:56.865992,2020-05-29 00:00:00.000000,0.15658801,0.56632252,3.23560337,68,245,1405,4,31,168,0.01134225,0.07275744,0.38896265,0.29015303,0.56281244,0.90665451
39015,0,USOhioBrown,Ohio,Brown,2020-07-15 18:52:56.865992,2020-05-30 00:00:00.000000,0.15857722,0.54423924,3.32473370,68,236,1443,4,31,173,0.01108787,0.07208248,0.39998930,0.28865391,0.55822632,0.88685607
39015,0,USOhioBrown,Ohio,Brown,2020-07-15 18:52:56.865992,2020-05-31 00:00:00.000000,0.16052104,0.58637899,3.42492206,69,254,1487,5,32,178,0.01155469,0.07598043,0.41131006,0.27579322,0.56017259,0.88454148
39015,0,USOhioBrown,Ohio,Brown,2020-07-15 18:52:56.865992,2020-06-01 00:00:00.000000,0.16279095,0.57622566,3.52828007,70,250,1532,5,33,183,0.01161015,0.07604265,0.42291900,0.27276393,0.53834984,0.88810677
39015,0,USOhioBrown,Ohio,Brown,2020-07-15 18:52:56.865992,2020-06-02 00:00:00.000000,0.16534022,0.60681216,3.63501176,71,263,1578,5,34,188,0.01181759,0.07953165,0.43479652,0.27220312,0.53515074,0.86844677
39015,0,USOhioBrown,Ohio,Brown,2020-07-15 18:52:56.865992,2020-06-03 00:00:00.000000,0.16815610,0.60092483,3.74518394,73,260,1626,5,34,194,0.01197499,0.07862422,0.44690260,0.27211401,0.52502768,0.89066989
39015,0,USOhioBrown,Ohio,Brown,2020-07-15 18:52:56.865992,2020-06-04 00:00:00.000000,0.17126618,0.63034216,3.85872219,74,273,1675,5,36,199,0.01215132,0.08340593,0.45918064,0.27212148,0.51799342,0.89356109
39015,0,USOhioBrown,Ohio,Brown,2020-07-15 18:52:56.865992,2020-06-05 00:00:00.000000,0.17468503,0.62548764,3.97526279,75,271,1726,5,35,204,0.01234884,0.08186237,0.47159090,0.27325969,0.51335302,0.90721026
39015,0,USOhioBrown,Ohio,Brown,2020-07-15 18:52:56.865992,2020-06-06 00:00:00.000000,0.17838160,0.65633366,4.09409523,77,285,1778,5,37,210,0.01256934,0.08637499,0.48412225,0.28769172,0.51172016,0.93245061
39015,0,USOhioBrown,Ohio,Brown,2020-07-15 18:52:56.865992,2020-06-07 00:00:00.000000,0.18229567,0.64413825,4.15954536,79,279,1806,5,37,216,0.01281277,0.08562880,0.49736567,0.28523156,0.51058991,0.94674687
39015,0,USOhioBrown,Ohio,Brown,2020-07-15 18:52:56.865992,2020-06-08 00:00:00.000000,0.18636989,0.68255803,4.22284707,80,296,1834,5,38,223,0.01308136,0.08964717,0.51555557,0.27606818,0.51615054,0.95220438
39015,0,USOhioBrown,Ohio,Brown,2020-07-15 18:52:56.865992,2020-06-09 00:00:00.000000,0.19056536,0.66229950,4.28747238,82,287,1862,5,38,232,0.01336988,0.08882721,0.53429206,0.27222070,0.51445176,0.95593811
39015,0,USOhioBrown,Ohio,Brown,2020-07-15 18:52:56.865992,2020-06-10 00:00:00.000000,0.19486143,0.70914447,4.35368789,84,307,1890,5,40,240,0.01367495,0.09288288,0.55358041,0.27221423,0.51170019,0.96023152
39015,0,USOhioBrown,Ohio,Brown,2020-07-15 18:52:56.865992,2020-06-11 00:00:00.000000,0.19925118,0.69022386,4.42167555,86,299,1920,6,39,249,0.01399446,0.09067887,0.57344829,0.27412386,0.51447115,0.96282706
39015,0,USOhioBrown,Ohio,Brown,2020-07-15 18:52:56.865992,2020-06-12 00:00:00.000000,0.20373958,0.73405256,4.49159791,88,318,1950,6,41,257,0.01432667,0.09607009,0.59392065,0.27843754,0.50758748,0.96460923
39015,0,USOhioBrown,Ohio,Brown,2020-07-15 18:52:56.865992,2020-06-13 00:00:00.000000,0.20834445,0.73136644,4.56353972,90,317,1982,6,40,267,0.01466971,0.09297240,0.61501735,0.29060976,0.50839083,0.96387036
39015,0,USOhioBrown,Ohio,Brown,2020-07-15 18:52:56.865992,2020-06-14 00:00:00.000000,0.21308789,0.75208167,4.63703206,92,326,2013,6,43,276,0.01502129,0.09908305,0.63674070,0.30277823,0.51738038,0.96851258
39015,0,USOhioBrown,Ohio,Brown,2020-07-15 18:52:56.865992,2020-06-15 00:00:00.000000,0.21797226,0.75356615,4.71056403,94,327,2045,6,41,286,0.01537915,0.09598648,0.65903065,0.29867174,0.51013237,0.97396511
39015,0,USOhioBrown,Ohio,Brown,2020-07-15 18:52:56.865992,2020-06-16 00:00:00.000000,0.22298354,0.77804784,4.78510855,96,337,2078,6,44,296,0.01574253,0.10183885,0.68170536,0.28894125,0.51648036,0.97717961
39015,0,USOhioBrown,Ohio,Brown,2020-07-15 18:52:56.865992,2020-06-17 00:00:00.000000,0.22811397,0.77275983,4.86371912,99,335,2112,6,42,306,0.01611216,0.09892227,0.70457817,0.28150875,0.51560435,0.97891435
39015,0,USOhioBrown,Ohio,Brown,2020-07-15 18:52:56.865992,2020-06-18 00:00:00.000000,0.23336820,0.79644587,4.94937860,101,345,2149,7,45,316,0.01648910,0.10442418,0.72759258,0.27604201,0.51046570,0.98053938
39015,0,USOhioBrown,Ohio,Brown,2020-07-15 18:52:56.865992,2020-06-19 00:00:00.000000,0.23591436,0.79420777,5.04162579,102,344,2189,7,44,326,0.01687407,0.10174762,0.75071737,0.27221451,0.50356651,0.98321132
39015,0,USOhioBrown,Ohio,Brown,2020-07-15 18:52:56.865992,2020-06-20 00:00:00.000000,0.23875505,0.82657139,5.13721409,103,358,2231,7,46,336,0.01726744,0.10708284,0.77379681,0.27439456,0.51802888,0.98526870
39015,0,USOhioBrown,Ohio,Brown,2020-07-15 18:52:56.865992,2020-06-21 00:00:00.000000,0.24190380,0.82249115,5.23314596,105,357,2272,7,45,345,0.01766922,0.10571066,0.79655191,0.26888812,0.51246971,0.97031371
39015,0,USOhioBrown,Ohio,Brown,2020-07-15 18:52:56.865992,2020-06-22 00:00:00.000000,0.24536967,0.87123594,5.32576483,106,378,2313,7,47,355,0.01807911,0.11011106,0.81883017,0.26415216,0.50495126,0.96635803
39015,0,USOhioBrown,Ohio,Brown,2020-07-15 18:52:56.865992,2020-06-23 00:00:00.000000,0.24890522,0.85650396,5.41106008,108,371,2350,8,47,365,0.01849684,0.10925642,0.84066731,0.26136255,0.50493897,0.96279824
39015,0,USOhioBrown,Ohio,Brown,2020-07-15 18:52:56.865992,2020-06-24 00:00:00.000000,0.25373658,0.89523272,5.48797008,110,388,2383,8,50,373,0.01893916,0.11528238,0.85886091,0.26024712,0.50198219,0.96406950
39015,0,USOhioBrown,Ohio,Brown,2020-07-15 18:52:56.865992,2020-06-25 00:00:00.000000,0.26003080,0.90406297,5.55886244,112,392,2414,8,49,380,0.01942540,0.11372889,0.87588107,0.25967749,0.49735401,0.96878910
39015,0,USOhioBrown,Ohio,Brown,2020-07-15 18:52:56.865992,2020-06-26 00:00:00.000000,0.26667267,0.93696774,5.62621503,115,406,2443,8,52,387,0.01992430,0.12140725,0.89327991,0.25965682,0.49800420,0.96820355
39015,0,USOhioBrown,Ohio,Brown,2020-07-15 18:52:56.865992,2020-06-27 00:00:00.000000,0.27369511,0.93186039,5.69118272,118,404,2471,8,51,395,0.02043848,0.11883066,0.91109947,0.26172222,0.50286137,0.97519936
39015,0,USOhioBrown,Ohio,Brown,2020-07-15 18:52:56.865992,2020-06-28 00:00:00.000000,0.28118460,0.96352545,5.75401786,122,418,2499,9,54,403,0.02097075,0.12433433,0.92938713,0.26765870,0.49870182,0.98326297
39015,0,USOhioBrown,Ohio,Brown,2020-07-15 18:52:56.865992,2020-06-29 00:00:00.000000,0.28918407,0.95648124,5.81451655,125,415,2525,9,53,411,0.02152344,0.12208411,0.94818986,0.26267856,0.49596364,0.99061993
39015,0,USOhioBrown,Ohio,Brown,2020-07-15 18:52:56.865992,2020-06-30 00:00:00.000000,0.29751322,1.02972914,5.87200954,129,447,2550,9,55,420,0.02209781,0.12732049,0.96754787,0.25352104,0.50688349,1.00937276
39015,0,USOhioBrown,Ohio,Brown,2020-07-15 18:52:56.865992,2020-07-01 00:00:00.000000,0.30615313,0.98108813,6.21212911,132,426,2698,9,54,428,0.02223117,0.12519403,0.98748446,0.23643483,0.52080077,1.00980282
39015,0,USOhioBrown,Ohio,Brown,2020-07-15 18:52:56.865992,2020-07-02 00:00:00.000000,0.31659857,1.07356239,6.56683241,137,466,2852,10,56,437,0.02331116,0.13032626,1.00798451,0.21640397,0.52798224,1.01385177
39015,0,USOhioBrown,Ohio,Brown,2020-07-15 18:52:56.865992,2020-07-03 00:00:00.000000,0.32709957,1.00490730,6.93167193,142,436,3010,10,56,446,0.02326163,0.13065380,1.02893876,0.20404293,0.54392809,1.01525871
39015,0,USOhioBrown,Ohio,Brown,2020-07-15 18:52:56.865992,2020-07-04 00:00:00.000000,0.33777964,1.09306719,7.30596602,146,474,3173,10,57,456,0.02460650,0.13326292,1.05006171,0.19935178,0.52409568,1.06064265
39015,0,USOhioBrown,Ohio,Brown,2020-07-15 18:52:56.865992,2020-07-05 00:00:00.000000,0.34142479,1.06553418,7.67890570,148,462,3335,10,58,465,0.02416315,0.13463871,1.07075234,0.19787030,0.52287587,1.04843304
39015,0,USOhioBrown,Ohio,Brown,2020-07-15 18:52:56.865992,2020-07-06 00:00:00.000000,0.35836442,1.13877833,8.04809380,155,494,3495,11,59,477,0.02597923,0.13593247,1.09866789,0.19743008,0.52348726,1.03042563
39015,0,USOhioBrown,Ohio,Brown,2020-07-15 18:52:56.865992,2020-07-07 00:00:00.000000,0.36003935,1.11129308,8.42679335,156,482,3659,10,59,491,0.02464117,0.13715225,1.13176422,0.19730149,0.51847008,1.03232383
39015,0,USOhioBrown,Ohio,Brown,2020-07-15 18:52:56.865992,2020-07-08 00:00:00.000000,0.37478210,1.17957330,8.81949944,162,512,3830,11,60,506,0.02742505,0.13831100,1.16550753,0.19726401,0.51962582,1.03284688
39015,0,USOhioBrown,Ohio,Brown,2020-07-15 18:52:56.865992,2020-07-09 00:00:00.000000,0.37316558,1.16545317,9.22736582,162,506,4007,10,60,521,0.02521179,0.13942101,1.19991668,0.19725303,0.51856837,1.03301171
39015,0,USOhioBrown,Ohio,Brown,2020-07-15 18:52:56.865992,2020-07-10 00:00:00.000000,0.39072263,1.22024209,9.65096312,169,529,4191,12,61,536,0.02894781,0.14049254,1.23501544,0.19724977,0.51863925,1.03306412
39015,0,USOhioBrown,Ohio,Brown,2020-07-15 18:52:56.865992,2020-07-11 00:00:00.000000,0.39258246,1.20506463,10.09072921,170,523,4382,11,61,551,0.02636048,0.14153398,1.27083053,0.19724878,0.51865330,1.03308189
39015,0,USOhioBrown,Ohio,Brown,2020-07-15 18:52:56.865992,2020-07-12 00:00:00.000000,0.40619451,1.25641232,10.54704641,176,545,4580,13,62,564,0.03055371,0.14484770,1.30010299,0.19724846,0.51924209,1.03469446
39015,0,USOhioBrown,Ohio,Brown,2020-07-15 18:52:56.865992,2020-07-13 00:00:00.000000,0.40728527,1.26975155,11.02025783,176,551,4786,11,62,576,0.02755473,0.14355212,1.32724796,0.19724835,0.51943544,1.03549249
39015,0,USOhioBrown,Ohio,Brown,2020-07-15 18:52:56.865992,2020-07-14 00:00:00.000000,0.41378476,1.32321065,11.50729936,179,574,4997,14,64,588,0.03224759,0.14956365,1.35463661,0.19724830,0.51943508,1.03587841
39015,0,USOhioBrown,Ohio,Brown,2020-07-15 18:52:56.865992,2020-07-15 00:00:00.000000,0.42194380,1.30949159,11.93601699,183,568,5184,12,63,605,0.02879836,0.14551494,1.39416451,0.19724828,0.51943493,1.03606468
39015,0,USOhioBrown,Ohio,Brown,2020-07-15 18:52:56.865992,2020-07-16 00:00:00.000000,0.43290107,1.35789500,12.12574803,188,589,5266,14,67,631,0.03403413,0.15579652,1.45444070,0.19724827,0.51943486,1.03615450
39015,0,USOhioBrown,Ohio,Brown,2020-07-15 18:52:56.865992,2020-07-17 00:00:00.000000,0.43854870,1.34692376,12.31869340,190,584,5350,13,65,646,0.03009461,0.15060157,1.48815670,0.19724826,0.51943483,1.03619780
39015,0,USOhioBrown,Ohio,Brown,2020-07-15 18:52:56.865992,2020-07-18 00:00:00.000000,0.45455304,1.39341731,12.51492839,197,605,5435,15,71,660,0.03591816,0.16469898,1.52144769,0.19724826,0.51943481,1.03621867
39015,0,USOhioBrown,Ohio,Brown,2020-07-15 18:52:56.865992,2020-07-19 00:00:00.000000,0.43397561,1.38535746,12.71443097,188,601,5522,13,67,675,0.03144643,0.15651244,1.55529031,0.19724826,0.51943481,1.03622872
39015,0,USOhioBrown,Ohio,Brown,2020-07-15 18:52:56.865992,2020-07-20 00:00:00.000000,0.47732781,1.43987755,12.91717752,207,625,5610,16,75,690,0.03767092,0.17348077,1.58971078,0.19724825,0.51943480,1.03623356
39015,0,USOhioBrown,Ohio,Brown,2020-07-15 18:52:56.865992,2020-07-21 00:00:00.000000,0.42957880,1.42481002,13.12314316,186,618,5699,14,70,705,0.03285665,0.16130952,1.62473242,0.19724825,0.51943480,1.03623590
39015,0,USOhioBrown,Ohio,Brown,2020-07-15 18:52:56.865992,2020-07-22 00:00:00.000000,0.50128217,1.50196335,13.33230173,217,652,5790,16,79,721,0.03840632,0.18369673,1.66037602,0.19724825,0.51943480,1.03623702
39015,0,USOhioBrown,Ohio,Brown,2020-07-15 18:52:56.865992,2020-07-23 00:00:00.000000,0.42671127,1.48598859,13.54462585,185,645,5882,14,71,736,0.03432803,0.16563912,1.69666027,0.19724825,0.51943480,1.03623757
39015,0,USOhioBrown,Ohio,Brown,2020-07-15 18:52:56.865992,2020-07-24 00:00:00.000000,0.50632229,1.58875828,13.76008674,219,690,5976,17,84,765,0.03999705,0.19463678,1.76278959,0.19724825,0.51943480,1.03623783
39015,0,USOhioBrown,Ohio,Brown,2020-07-15 18:52:56.865992,2020-07-25 00:00:00.000000,0.42999447,1.52743918,13.97865423,186,663,6071,15,75,795,0.03586333,0.17423798,1.83138616,0.19724825,0.51943480,1.03623795
39015,0,USOhioBrown,Ohio,Brown,2020-07-15 18:52:56.865992,2020-07-26 00:00:00.000000,0.50636969,1.65569955,14.20029664,219,719,6167,18,88,826,0.04199496,0.20296752,1.90216760,0.19724825,0.51943480,1.03623801
39015,0,USOhioBrown,Ohio,Brown,2020-07-15 18:52:56.865992,2020-07-27 00:00:00.000000,0.43339023,1.58304894,14.42498067,188,687,6265,16,79,857,0.03746534,0.18281906,1.97516326,0.19724825,0.51943480,1.03623804
