FIPS,HR_UID,nameid,province,region,analysisTime,dates,pointprevalence_025,pointprevalence_50,pointprevalence_975,pointinfections_025,pointinfections_50,pointinfections_975,pointinfectious_025,pointinfectious_50,pointinfectious_975,pointinfectiousprevalence_05,pointinfectiousprevalence_50,pointinfectiousprevalence_95,infectrate_025,infectrate_50,infectrate_975
21067,0,USKentuckyFayette,Kentucky,Fayette,2020-07-18 15:20:09.775582,2020-03-09 00:00:00.000000,0.00462891,0.01451601,0.16332441,14,46,527,1,12,176,0.00051562,0.00397632,0.05462713,0.57943969,0.74309105,1.06989364
21067,0,USKentuckyFayette,Kentucky,Fayette,2020-07-18 15:20:09.775582,2020-03-10 00:00:00.000000,0.00554743,0.01620296,0.15387498,17,52,497,3,14,139,0.00112682,0.00436824,0.04331845,0.57943966,0.74308391,1.06989363
21067,0,USKentuckyFayette,Kentucky,Fayette,2020-07-18 15:20:09.775582,2020-03-11 00:00:00.000000,0.00587381,0.01758068,0.13973009,18,56,451,3,14,137,0.00120929,0.00458911,0.04253615,0.57943959,0.74305750,1.06989360
21067,0,USKentuckyFayette,Kentucky,Fayette,2020-07-18 15:20:09.775582,2020-03-12 00:00:00.000000,0.00638123,0.01912796,0.16276788,20,61,525,4,15,138,0.00151103,0.00478867,0.04282323,0.57943943,0.74296555,1.06989351
21067,0,USKentuckyFayette,Kentucky,Fayette,2020-07-18 15:20:09.775582,2020-03-13 00:00:00.000000,0.00660461,0.02103567,0.16778951,21,67,542,4,17,141,0.00148642,0.00530724,0.04392970,0.57943905,0.74265522,1.06989322
21067,0,USKentuckyFayette,Kentucky,Fayette,2020-07-18 15:20:09.775582,2020-03-14 00:00:00.000000,0.00718702,0.02288525,0.20804210,23,73,672,5,18,147,0.00177324,0.00577694,0.04575386,0.57943818,0.74164860,1.06989219
21067,0,USKentuckyFayette,Kentucky,Fayette,2020-07-18 15:20:09.775582,2020-03-15 00:00:00.000000,0.00761813,0.02422827,0.19307192,24,78,623,6,20,155,0.00191495,0.00632417,0.04822578,0.57943617,0.74543225,1.06988832
21067,0,USKentuckyFayette,Kentucky,Fayette,2020-07-18 15:20:09.775582,2020-03-16 00:00:00.000000,0.00832397,0.02619230,0.21747051,26,84,702,6,21,165,0.00214674,0.00664006,0.05129669,0.57943154,0.73873889,1.06987359
21067,0,USKentuckyFayette,Kentucky,Fayette,2020-07-18 15:20:09.775582,2020-03-17 00:00:00.000000,0.00856138,0.02789179,0.23438973,27,90,757,7,23,177,0.00233477,0.00718858,0.05492055,0.57213831,0.73669243,1.06981685
21067,0,USKentuckyFayette,Kentucky,Fayette,2020-07-18 15:20:09.775582,2020-03-18 00:00:00.000000,0.00961085,0.03024219,0.25133632,31,97,812,8,25,190,0.00253234,0.00778422,0.05906704,0.54186411,0.73457541,1.06958967
21067,0,USKentuckyFayette,Kentucky,Fayette,2020-07-18 15:20:09.775582,2020-03-19 00:00:00.000000,0.00994752,0.03199808,0.26472228,32,103,855,8,27,200,0.00273998,0.00852589,0.06213300,0.51157596,0.72312812,1.05791853
21067,0,USKentuckyFayette,Kentucky,Fayette,2020-07-18 15:20:09.775582,2020-03-20 00:00:00.000000,0.01118929,0.03436947,0.27972122,36,111,903,9,30,209,0.00295871,0.00930182,0.06477446,0.47285032,0.72482380,1.06537013
21067,0,USKentuckyFayette,Kentucky,Fayette,2020-07-18 15:20:09.775582,2020-03-21 00:00:00.000000,0.01171140,0.03628361,0.29633500,37,117,957,10,32,218,0.00318993,0.01018491,0.06755344,0.46896328,0.71691746,1.05467777
21067,0,USKentuckyFayette,Kentucky,Fayette,2020-07-18 15:20:09.775582,2020-03-22 00:00:00.000000,0.01283772,0.03957313,0.31452409,41,127,1016,11,35,227,0.00343539,0.01104677,0.07045945,0.46964200,0.71624096,1.06896431
21067,0,USKentuckyFayette,Kentucky,Fayette,2020-07-18 15:20:09.775582,2020-03-23 00:00:00.000000,0.01382157,0.04152977,0.33422157,44,134,1080,11,37,237,0.00368694,0.01169834,0.07353438,0.44188584,0.70781687,1.07370116
21067,0,USKentuckyFayette,Kentucky,Fayette,2020-07-18 15:20:09.775582,2020-03-24 00:00:00.000000,0.01494133,0.04550263,0.35541566,48,147,1148,12,41,249,0.00397841,0.01279759,0.07710684,0.42242076,0.69768026,1.07463681
21067,0,USKentuckyFayette,Kentucky,Fayette,2020-07-18 15:20:09.775582,2020-03-25 00:00:00.000000,0.01559209,0.04773779,0.38282856,50,154,1237,13,43,265,0.00428671,0.01354611,0.08204988,0.39326448,0.69883710,1.07471525
21067,0,USKentuckyFayette,Kentucky,Fayette,2020-07-18 15:20:09.775582,2020-03-26 00:00:00.000000,0.01728803,0.05352538,0.41093241,55,172,1327,14,47,282,0.00462713,0.01470145,0.08743206,0.38361898,0.68994878,1.07477872
21067,0,USKentuckyFayette,Kentucky,Fayette,2020-07-18 15:20:09.775582,2020-03-27 00:00:00.000000,0.01697570,0.05474357,0.43798965,54,176,1415,16,50,301,0.00500132,0.01555323,0.09321788,0.37200389,0.68161563,1.07484340
21067,0,USKentuckyFayette,Kentucky,Fayette,2020-07-18 15:20:09.775582,2020-03-28 00:00:00.000000,0.02013192,0.05933608,0.46445634,65,191,1500,16,53,321,0.00514123,0.01658848,0.09939858,0.35847374,0.67371143,1.05040553
21067,0,USKentuckyFayette,Kentucky,Fayette,2020-07-18 15:20:09.775582,2020-03-29 00:00:00.000000,0.01864926,0.06263201,0.49208315,60,202,1590,17,57,342,0.00528857,0.01768229,0.10598608,0.34551761,0.67192631,1.04867911
21067,0,USKentuckyFayette,Kentucky,Fayette,2020-07-18 15:20:09.775582,2020-03-30 00:00:00.000000,0.02200224,0.06806849,0.52151113,71,219,1685,17,61,365,0.00546229,0.01897094,0.11300093,0.33613798,0.66003413,1.02333921
21067,0,USKentuckyFayette,Kentucky,Fayette,2020-07-18 15:20:09.775582,2020-03-31 00:00:00.000000,0.02081890,0.07091015,0.55279109,67,229,1786,18,65,389,0.00567295,0.02033326,0.12047526,0.33297530,0.64935527,1.01378511
21067,0,USKentuckyFayette,Kentucky,Fayette,2020-07-18 15:20:09.775582,2020-04-01 00:00:00.000000,0.02385494,0.07583748,0.58571746,77,245,1892,19,69,415,0.00592825,0.02147745,0.12844938,0.33883234,0.64807667,1.01020671
21067,0,USKentuckyFayette,Kentucky,Fayette,2020-07-18 15:20:09.775582,2020-04-02 00:00:00.000000,0.02401608,0.07945487,0.61584200,77,256,1990,20,73,442,0.00622750,0.02272957,0.13688860,0.35289483,0.64470776,1.01400044
21067,0,USKentuckyFayette,Kentucky,Fayette,2020-07-18 15:20:09.775582,2020-04-03 00:00:00.000000,0.02625771,0.08573670,0.63510539,84,277,2052,21,77,471,0.00656994,0.02395869,0.14587623,0.34367713,0.63607694,1.02221212
21067,0,USKentuckyFayette,Kentucky,Fayette,2020-07-18 15:20:09.775582,2020-04-04 00:00:00.000000,0.02731042,0.08883561,0.65450800,88,287,2115,22,84,502,0.00706840,0.02599751,0.15544220,0.34522216,0.62339204,1.03859525
21067,0,USKentuckyFayette,Kentucky,Fayette,2020-07-18 15:20:09.775582,2020-04-05 00:00:00.000000,0.02952974,0.09718926,0.67405244,95,314,2178,23,85,535,0.00737537,0.02633867,0.16561365,0.34036528,0.62111852,1.03556147
21067,0,USKentuckyFayette,Kentucky,Fayette,2020-07-18 15:20:09.775582,2020-04-06 00:00:00.000000,0.03307671,0.10046083,0.69386127,106,324,2242,25,91,570,0.00788330,0.02846749,0.17642603,0.32414804,0.62165124,1.03274790
21067,0,USKentuckyFayette,Kentucky,Fayette,2020-07-18 15:20:09.775582,2020-04-07 00:00:00.000000,0.03368434,0.10820475,0.71411735,108,349,2307,26,93,607,0.00834780,0.02901506,0.18792191,0.32382983,0.61015261,1.06017642
21067,0,USKentuckyFayette,Kentucky,Fayette,2020-07-18 15:20:09.775582,2020-04-08 00:00:00.000000,0.03748354,0.11274125,0.73503212,121,364,2375,29,98,646,0.00904221,0.03060934,0.20014669,0.32321667,0.60157401,1.07384078
21067,0,USKentuckyFayette,Kentucky,Fayette,2020-07-18 15:20:09.775582,2020-04-09 00:00:00.000000,0.03841222,0.12137454,0.75851878,124,392,2451,30,101,688,0.00946885,0.03150830,0.21314495,0.32218896,0.59961960,1.06236383
21067,0,USKentuckyFayette,Kentucky,Fayette,2020-07-18 15:20:09.775582,2020-04-10 00:00:00.000000,0.04234815,0.12625799,0.78831645,136,408,2547,33,110,733,0.01027598,0.03419002,0.22695712,0.31653376,0.59850527,1.06552651
21067,0,USKentuckyFayette,Kentucky,Fayette,2020-07-18 15:20:09.775582,2020-04-11 00:00:00.000000,0.04369667,0.13641409,0.81562633,141,440,2635,35,114,773,0.01093789,0.03527985,0.23940249,0.30434276,0.59887135,1.08216336
21067,0,USKentuckyFayette,Kentucky,Fayette,2020-07-18 15:20:09.775582,2020-04-12 00:00:00.000000,0.04740645,0.13691957,0.84124200,153,442,2718,38,121,801,0.01196210,0.03767488,0.24804173,0.29132794,0.58407323,1.08911272
21067,0,USKentuckyFayette,Kentucky,Fayette,2020-07-18 15:20:09.775582,2020-04-13 00:00:00.000000,0.04961750,0.15163250,0.89285317,160,490,2885,41,128,830,0.01275815,0.03988068,0.25703396,0.28419551,0.57627884,1.09134504
21067,0,USKentuckyFayette,Kentucky,Fayette,2020-07-18 15:20:09.775582,2020-04-14 00:00:00.000000,0.05249631,0.15074690,0.95682470,169,487,3091,44,137,860,0.01381593,0.04256073,0.26630312,0.28392654,0.58324780,1.09181245
21067,0,USKentuckyFayette,Kentucky,Fayette,2020-07-18 15:20:09.775582,2020-04-15 00:00:00.000000,0.05524870,0.16972189,1.01451052,178,548,3278,47,141,890,0.01459171,0.04381410,0.27569885,0.28427748,0.58763584,1.09144044
21067,0,USKentuckyFayette,Kentucky,Fayette,2020-07-18 15:20:09.775582,2020-04-16 00:00:00.000000,0.05996006,0.17146341,1.04890075,193,554,3389,50,149,920,0.01571661,0.04626421,0.28498824,0.27796583,0.57946318,1.09444664
21067,0,USKentuckyFayette,Kentucky,Fayette,2020-07-18 15:20:09.775582,2020-04-17 00:00:00.000000,0.06101656,0.18410099,1.08497234,197,594,3506,53,154,949,0.01654668,0.04778769,0.29391383,0.27453932,0.57929844,1.09153130
21067,0,USKentuckyFayette,Kentucky,Fayette,2020-07-18 15:20:09.775582,2020-04-18 00:00:00.000000,0.06780235,0.18886034,1.12288446,219,610,3628,59,162,976,0.01838823,0.05024400,0.30233095,0.26517030,0.58309147,1.10500960
21067,0,USKentuckyFayette,Kentucky,Fayette,2020-07-18 15:20:09.775582,2020-04-19 00:00:00.000000,0.06729770,0.20556505,1.16279200,217,664,3757,59,168,1002,0.01841934,0.05208807,0.31030756,0.26198197,0.57098636,1.08675486
21067,0,USKentuckyFayette,Kentucky,Fayette,2020-07-18 15:20:09.775582,2020-04-20 00:00:00.000000,0.07281433,0.21102414,1.20483342,235,681,3893,68,176,1027,0.02116598,0.05468296,0.31790625,0.25912751,0.56598541,1.08923878
21067,0,USKentuckyFayette,Kentucky,Fayette,2020-07-18 15:20:09.775582,2020-04-21 00:00:00.000000,0.07730884,0.22886328,1.24688427,249,739,4029,66,186,1075,0.02066659,0.05761035,0.33296837,0.24873348,0.56499407,1.05894419
21067,0,USKentuckyFayette,Kentucky,Fayette,2020-07-18 15:20:09.775582,2020-04-22 00:00:00.000000,0.08124730,0.23948255,1.29063397,262,773,4170,76,198,1166,0.02368203,0.06128564,0.36105998,0.24703366,0.56904858,1.05435401
21067,0,USKentuckyFayette,Kentucky,Fayette,2020-07-18 15:20:09.775582,2020-04-23 00:00:00.000000,0.08603214,0.26122999,1.33654118,278,844,4319,75,209,1257,0.02328845,0.06477139,0.38901142,0.24570317,0.57416186,1.05126441
21067,0,USKentuckyFayette,Kentucky,Fayette,2020-07-18 15:20:09.775582,2020-04-24 00:00:00.000000,0.09153201,0.26842161,1.38466597,295,867,4474,84,221,1348,0.02607873,0.06848230,0.41720360,0.24490454,0.57461394,1.04324853
21067,0,USKentuckyFayette,Kentucky,Fayette,2020-07-18 15:20:09.775582,2020-04-25 00:00:00.000000,0.09698918,0.29234646,1.43496292,313,944,4637,84,233,1443,0.02623695,0.07232843,0.44683602,0.24287910,0.57004846,1.04159674
21067,0,USKentuckyFayette,Kentucky,Fayette,2020-07-18 15:20:09.775582,2020-04-26 00:00:00.000000,0.10303409,0.29877954,1.49392155,332,965,4827,94,245,1546,0.02910520,0.07589658,0.47845796,0.24326929,0.56555993,1.03054544
21067,0,USKentuckyFayette,Kentucky,Fayette,2020-07-18 15:20:09.775582,2020-04-27 00:00:00.000000,0.10699727,0.31982083,1.55671028,345,1033,5030,95,258,1647,0.02947356,0.08013967,0.50994610,0.24266211,0.56331908,1.02602773
21067,0,USKentuckyFayette,Kentucky,Fayette,2020-07-18 15:20:09.775582,2020-04-28 00:00:00.000000,0.11370126,0.32727325,1.62205440,367,1057,5241,105,272,1709,0.03268127,0.08443886,0.52900243,0.24369158,0.55598962,1.02931172
21067,0,USKentuckyFayette,Kentucky,Fayette,2020-07-18 15:20:09.775582,2020-04-29 00:00:00.000000,0.11514630,0.35347208,1.68950345,372,1142,5459,106,289,1773,0.03303465,0.08965807,0.54882025,0.24140388,0.55086393,1.03613496
21067,0,USKentuckyFayette,Kentucky,Fayette,2020-07-18 15:20:09.775582,2020-04-30 00:00:00.000000,0.12568518,0.36445078,1.75675488,406,1177,5676,118,298,1838,0.03677399,0.09252589,0.56894766,0.24013883,0.54185157,1.04426178
21067,0,USKentuckyFayette,Kentucky,Fayette,2020-07-18 15:20:09.775582,2020-05-01 00:00:00.000000,0.12602540,0.39497231,1.81747566,407,1276,5873,119,321,1906,0.03708167,0.09940658,0.58981554,0.23839029,0.53560969,1.03769977
21067,0,USKentuckyFayette,Kentucky,Fayette,2020-07-18 15:20:09.775582,2020-05-02 00:00:00.000000,0.13726682,0.39616930,1.86549877,443,1280,6028,132,332,1975,0.04095032,0.10274547,0.61129328,0.23710567,0.51893200,1.02058221
21067,0,USKentuckyFayette,Kentucky,Fayette,2020-07-18 15:20:09.775582,2020-05-03 00:00:00.000000,0.14069300,0.43063417,1.90465449,454,1391,6154,135,357,2045,0.04184610,0.11053239,0.63296438,0.22930790,0.51037052,1.00626868
21067,0,USKentuckyFayette,Kentucky,Fayette,2020-07-18 15:20:09.775582,2020-05-04 00:00:00.000000,0.15078413,0.43198465,1.94117659,487,1395,6272,145,364,2114,0.04490495,0.11266440,0.65438214,0.22997909,0.50751500,0.97190523
21067,0,USKentuckyFayette,Kentucky,Fayette,2020-07-18 15:20:09.775582,2020-05-05 00:00:00.000000,0.14977629,0.46795578,1.97786628,484,1512,6391,152,383,2182,0.04724921,0.11867327,0.67545362,0.23208920,0.50312307,0.94475049
21067,0,USKentuckyFayette,Kentucky,Fayette,2020-07-18 15:20:09.775582,2020-05-06 00:00:00.000000,0.16962357,0.46145454,2.01567867,548,1491,6513,162,397,2249,0.05023072,0.12308023,0.69625113,0.23269943,0.49511105,0.92985968
21067,0,USKentuckyFayette,Kentucky,Fayette,2020-07-18 15:20:09.775582,2020-05-07 00:00:00.000000,0.15796331,0.49211017,2.05799852,510,1590,6650,168,422,2316,0.05207880,0.13081797,0.71686823,0.23386948,0.48662315,0.94846720
21067,0,USKentuckyFayette,Kentucky,Fayette,2020-07-18 15:20:09.775582,2020-05-08 00:00:00.000000,0.18408476,0.49230490,2.13526033,594,1590,6900,176,434,2382,0.05454581,0.13460251,0.73738358,0.22890721,0.47952717,0.92211001
21067,0,USKentuckyFayette,Kentucky,Fayette,2020-07-18 15:20:09.775582,2020-05-09 00:00:00.000000,0.16845981,0.52210091,2.21529813,544,1687,7158,181,463,2449,0.05609320,0.14337454,0.75785907,0.23332162,0.46387501,0.90998931
21067,0,USKentuckyFayette,Kentucky,Fayette,2020-07-18 15:20:09.775582,2020-05-10 00:00:00.000000,0.19941676,0.52940314,2.29813812,644,1710,7426,186,477,2515,0.05772214,0.14773114,0.77835967,0.23328414,0.46095896,0.90576489
21067,0,USKentuckyFayette,Kentucky,Fayette,2020-07-18 15:20:09.775582,2020-05-11 00:00:00.000000,0.18694649,0.56518291,2.38313791,604,1826,7701,191,503,2581,0.05940884,0.15569896,0.79897093,0.22262887,0.45668677,0.90317746
21067,0,USKentuckyFayette,Kentucky,Fayette,2020-07-18 15:20:09.775582,2020-05-12 00:00:00.000000,0.21422673,0.55280689,2.46327039,692,1786,7960,198,515,2648,0.06154566,0.15960310,0.81972909,0.21634108,0.45502492,0.88739084
21067,0,USKentuckyFayette,Kentucky,Fayette,2020-07-18 15:20:09.775582,2020-05-13 00:00:00.000000,0.21015945,0.60179144,2.50712474,679,1944,8101,203,540,2716,0.06304622,0.16722292,0.84052990,0.21178330,0.45192364,0.83566482
21067,0,USKentuckyFayette,Kentucky,Fayette,2020-07-18 15:20:09.775582,2020-05-14 00:00:00.000000,0.22928206,0.59103888,2.54287825,740,1909,8217,210,550,2782,0.06526548,0.17024178,0.86119854,0.20337441,0.44405045,0.80057343
21067,0,USKentuckyFayette,Kentucky,Fayette,2020-07-18 15:20:09.775582,2020-05-15 00:00:00.000000,0.23518617,0.63635095,2.57619256,760,2056,8325,217,586,2848,0.06721105,0.18151775,0.88160361,0.19857615,0.42795082,0.76436942
21067,0,USKentuckyFayette,Kentucky,Fayette,2020-07-18 15:20:09.775582,2020-05-16 00:00:00.000000,0.24444897,0.62287927,2.61033704,789,2012,8435,229,600,2913,0.07099968,0.18589958,0.90169242,0.19504774,0.42364337,0.72949223
21067,0,USKentuckyFayette,Kentucky,Fayette,2020-07-18 15:20:09.775582,2020-05-17 00:00:00.000000,0.25145418,0.66597581,2.64657384,812,2152,8552,239,629,2977,0.07397008,0.19489321,0.92147413,0.19012559,0.40755378,0.73172326
21067,0,USKentuckyFayette,Kentucky,Fayette,2020-07-18 15:20:09.775582,2020-05-18 00:00:00.000000,0.25847334,0.64584993,2.68519942,835,2087,8677,249,641,3040,0.07714533,0.19856972,0.94099310,0.18397334,0.39708286,0.73834126
21067,0,USKentuckyFayette,Kentucky,Fayette,2020-07-18 15:20:09.775582,2020-05-19 00:00:00.000000,0.26400534,0.67949157,2.72609961,853,2195,8809,253,663,3103,0.07832169,0.20539907,0.96030893,0.18697401,0.39096622,0.74497121
21067,0,USKentuckyFayette,Kentucky,Fayette,2020-07-18 15:20:09.775582,2020-05-20 00:00:00.000000,0.26935950,0.68210664,2.76880173,870,2204,8947,271,669,3165,0.08397629,0.20719955,0.97948456,0.18259644,0.39138317,0.74407142
21067,0,USKentuckyFayette,Kentucky,Fayette,2020-07-18 15:20:09.775582,2020-05-21 00:00:00.000000,0.27225032,0.70415522,2.81202751,879,2275,9087,266,691,3226,0.08251113,0.21398047,0.99857994,0.17438933,0.38760862,0.72793761
21067,0,USKentuckyFayette,Kentucky,Fayette,2020-07-18 15:20:09.775582,2020-05-22 00:00:00.000000,0.29209362,0.71041763,2.85283623,943,2295,9218,292,702,3288,0.09047514,0.21729531,1.01764732,0.16342714,0.38199437,0.72126039
21067,0,USKentuckyFayette,Kentucky,Fayette,2020-07-18 15:20:09.775582,2020-05-23 00:00:00.000000,0.27549283,0.73656178,2.88746914,890,2380,9330,280,716,3350,0.08669121,0.22173236,1.03671924,0.16484112,0.37564054,0.68834632
21067,0,USKentuckyFayette,Kentucky,Fayette,2020-07-18 15:20:09.775582,2020-05-24 00:00:00.000000,0.31270189,0.73909563,2.91636774,1010,2388,9424,310,730,3411,0.09593374,0.22611099,1.05575703,0.16535078,0.37007915,0.70459752
21067,0,USKentuckyFayette,Kentucky,Fayette,2020-07-18 15:20:09.775582,2020-05-25 00:00:00.000000,0.28302954,0.77621055,2.95566811,914,2508,9551,301,758,3472,0.09322150,0.23473788,1.07452960,0.15922580,0.35558081,0.70753733
21067,0,USKentuckyFayette,Kentucky,Fayette,2020-07-18 15:20:09.775582,2020-05-26 00:00:00.000000,0.32318871,0.77297691,3.02454049,1044,2497,9773,317,775,3531,0.09812493,0.24012606,1.09274141,0.15892081,0.34536405,0.70621663
21067,0,USKentuckyFayette,Kentucky,Fayette,2020-07-18 15:20:09.775582,2020-05-27 00:00:00.000000,0.30863012,0.82787322,3.16046983,997,2675,10213,314,798,3588,0.09721339,0.24708172,1.11033333,0.15442612,0.35074972,0.70190964
21067,0,USKentuckyFayette,Kentucky,Fayette,2020-07-18 15:20:09.775582,2020-05-28 00:00:00.000000,0.33438346,0.80532649,3.30287468,1080,2602,10673,344,809,3643,0.10651030,0.25038875,1.12737837,0.14874805,0.34668315,0.70254786
21067,0,USKentuckyFayette,Kentucky,Fayette,2020-07-18 15:20:09.775582,2020-05-29 00:00:00.000000,0.33076065,0.87968225,3.45191482,1068,2842,11154,335,837,3696,0.10387852,0.25908371,1.14397092,0.14652384,0.34944693,0.67519959
21067,0,USKentuckyFayette,Kentucky,Fayette,2020-07-18 15:20:09.775582,2020-05-30 00:00:00.000000,0.34771590,0.84471125,3.60770501,1123,2729,11658,356,854,3749,0.11032128,0.26428118,1.16019832,0.14859326,0.35351412,0.66822508
21067,0,USKentuckyFayette,Kentucky,Fayette,2020-07-18 15:20:09.775582,2020-05-31 00:00:00.000000,0.33983636,0.89100380,3.77033992,1098,2879,12183,355,882,3848,0.10994380,0.27313003,1.19088943,0.15061937,0.34660893,0.65077339
21067,0,USKentuckyFayette,Kentucky,Fayette,2020-07-18 15:20:09.775582,2020-06-01 00:00:00.000000,0.36023039,0.88884574,3.93989379,1164,2872,12731,369,907,3957,0.11428457,0.28067423,1.22480916,0.15071791,0.34371880,0.62850257
21067,0,USKentuckyFayette,Kentucky,Fayette,2020-07-18 15:20:09.775582,2020-06-02 00:00:00.000000,0.34116916,0.92332539,4.07242049,1102,2983,13160,367,932,4058,0.11361823,0.28859269,1.25581563,0.14978953,0.34540640,0.60427589
21067,0,USKentuckyFayette,Kentucky,Fayette,2020-07-18 15:20:09.775582,2020-06-03 00:00:00.000000,0.37323562,0.92896341,4.25028841,1206,3001,13734,383,945,4152,0.11852483,0.29262898,1.28502981,0.14914811,0.34294307,0.60904816
21067,0,USKentuckyFayette,Kentucky,Fayette,2020-07-18 15:20:09.775582,2020-06-04 00:00:00.000000,0.33655604,0.98070987,4.43353039,1087,3169,14327,370,973,4244,0.11459158,0.30125021,1.31348260,0.14816006,0.34100953,0.62227656
21067,0,USKentuckyFayette,Kentucky,Fayette,2020-07-18 15:20:09.775582,2020-06-05 00:00:00.000000,0.38671374,0.96253642,4.61660976,1249,3110,14918,391,983,4335,0.12130354,0.30448599,1.34169269,0.14745991,0.33369230,0.63639974
21067,0,USKentuckyFayette,Kentucky,Fayette,2020-07-18 15:20:09.775582,2020-06-06 00:00:00.000000,0.34740246,1.02195836,4.79073878,1122,3302,15481,384,1003,4426,0.11887330,0.31044070,1.36969042,0.14851351,0.33048350,0.64604862
21067,0,USKentuckyFayette,Kentucky,Fayette,2020-07-18 15:20:09.775582,2020-06-07 00:00:00.000000,0.40100881,1.00378736,4.95672576,1295,3243,16017,391,1022,4515,0.12113223,0.31648738,1.39721833,0.14795304,0.32618779,0.65019744
21067,0,USKentuckyFayette,Kentucky,Fayette,2020-07-18 15:20:09.775582,2020-06-08 00:00:00.000000,0.36981018,1.03826384,5.12283537,1195,3355,16554,398,1035,4602,0.12323581,0.32056074,1.42410545,0.14430427,0.32571465,0.65239092
21067,0,USKentuckyFayette,Kentucky,Fayette,2020-07-18 15:20:09.775582,2020-06-09 00:00:00.000000,0.41287184,1.03483484,5.25446388,1334,3344,16979,394,1055,4687,0.12211050,0.32671748,1.45050998,0.14276868,0.32200075,0.65374942
21067,0,USKentuckyFayette,Kentucky,Fayette,2020-07-18 15:20:09.775582,2020-06-10 00:00:00.000000,0.37270295,1.08056268,5.21140110,1204,3491,16840,412,1072,4772,0.12775684,0.33185905,1.47685999,0.14109519,0.31886058,0.65000785
21067,0,USKentuckyFayette,Kentucky,Fayette,2020-07-18 15:20:09.775582,2020-06-11 00:00:00.000000,0.41451655,1.07459977,5.17542474,1339,3472,16724,413,1097,4859,0.12792974,0.33947013,1.50381628,0.13896075,0.31435261,0.63221342
21067,0,USKentuckyFayette,Kentucky,Fayette,2020-07-18 15:20:09.775582,2020-06-12 00:00:00.000000,0.37126385,1.15122275,5.14628062,1199,3720,16630,428,1108,4952,0.13263206,0.34301638,1.53243553,0.15175917,0.31612717,0.62751089
21067,0,USKentuckyFayette,Kentucky,Fayette,2020-07-18 15:20:09.775582,2020-06-13 00:00:00.000000,0.41614908,1.10476995,5.23103422,1344,3570,16904,432,1131,5053,0.13383023,0.35020777,1.56368633,0.15147809,0.31314065,0.63832020
21067,0,USKentuckyFayette,Kentucky,Fayette,2020-07-18 15:20:09.775582,2020-06-14 00:00:00.000000,0.37117072,1.17908318,5.37292145,1199,3810,17362,440,1153,5162,0.13628556,0.35698374,1.59750152,0.15234816,0.31773163,0.64022692
21067,0,USKentuckyFayette,Kentucky,Fayette,2020-07-18 15:20:09.775582,2020-06-15 00:00:00.000000,0.42451245,1.16311196,5.54848761,1371,3758,17930,441,1170,5295,0.13653816,0.36207830,1.63854884,0.15453796,0.31257444,0.62466742
21067,0,USKentuckyFayette,Kentucky,Fayette,2020-07-18 15:20:09.775582,2020-06-16 00:00:00.000000,0.37513338,1.21681300,5.75494906,1212,3932,18597,441,1194,5436,0.13658038,0.36979383,1.68233909,0.15577554,0.31808092,0.61819216
21067,0,USKentuckyFayette,Kentucky,Fayette,2020-07-18 15:20:09.775582,2020-06-17 00:00:00.000000,0.43608000,1.21458310,5.97944709,1409,3924,19322,443,1217,5575,0.13736223,0.37679878,1.72539180,0.15700698,0.32595398,0.64254317
21067,0,USKentuckyFayette,Kentucky,Fayette,2020-07-18 15:20:09.775582,2020-06-18 00:00:00.000000,0.38538916,1.25373308,6.21080716,1245,4051,20070,447,1253,5714,0.13838329,0.38796281,1.76846250,0.16075956,0.32613038,0.64227690
21067,0,USKentuckyFayette,Kentucky,Fayette,2020-07-18 15:20:09.775582,2020-06-19 00:00:00.000000,0.44614164,1.26089838,6.44304991,1441,4074,20820,452,1267,5854,0.14009777,0.39233671,1.81168010,0.16000905,0.32051231,0.63651735
21067,0,USKentuckyFayette,Kentucky,Fayette,2020-07-18 15:20:09.775582,2020-06-20 00:00:00.000000,0.40159605,1.32577689,6.67304743,1297,4284,21564,459,1314,5994,0.14229473,0.40683556,1.85514480,0.15971462,0.32055886,0.66034982
21067,0,USKentuckyFayette,Kentucky,Fayette,2020-07-18 15:20:09.775582,2020-06-21 00:00:00.000000,0.45453345,1.30792258,6.89817135,1468,4226,22291,468,1332,6136,0.14500567,0.41238014,1.89891825,0.15737754,0.32296736,0.71186724
21067,0,USKentuckyFayette,Kentucky,Fayette,2020-07-18 15:20:09.775582,2020-06-22 00:00:00.000000,0.42130180,1.35613253,7.11435319,1361,4382,22990,474,1365,6278,0.14687683,0.42253944,1.94298739,0.15619211,0.31399973,0.77017523
21067,0,USKentuckyFayette,Kentucky,Fayette,2020-07-18 15:20:09.775582,2020-06-23 00:00:00.000000,0.46446103,1.35180734,7.31526924,1500,4368,23639,479,1392,6421,0.14828262,0.43092572,1.98718389,0.15013569,0.31284239,0.77366847
21067,0,USKentuckyFayette,Kentucky,Fayette,2020-07-18 15:20:09.775582,2020-06-24 00:00:00.000000,0.44273986,1.39151990,7.49384370,1430,4496,24216,484,1421,6563,0.14980240,0.44001644,2.03115302,0.14800570,0.31344401,0.77413449
21067,0,USKentuckyFayette,Kentucky,Fayette,2020-07-18 15:20:09.775582,2020-06-25 00:00:00.000000,0.47874666,1.39684737,7.64637619,1547,4513,24709,489,1451,6704,0.15152047,0.44922529,2.07458807,0.15105851,0.32233998,0.77420172
21067,0,USKentuckyFayette,Kentucky,Fayette,2020-07-18 15:20:09.775582,2020-06-26 00:00:00.000000,0.46289843,1.42337684,7.77608002,1495,4599,25128,496,1482,6842,0.15351327,0.45861953,2.11745588,0.14736192,0.32858232,0.77414438
21067,0,USKentuckyFayette,Kentucky,Fayette,2020-07-18 15:20:09.775582,2020-06-27 00:00:00.000000,0.49806318,1.41921728,7.89161592,1609,4586,25501,505,1512,6979,0.15652630,0.46810385,2.15991321,0.14405538,0.33367711,0.77899720
21067,0,USKentuckyFayette,Kentucky,Fayette,2020-07-18 15:20:09.775582,2020-06-28 00:00:00.000000,0.49193330,1.46811285,8.00221509,1589,4744,25859,521,1550,7116,0.16142178,0.47995748,2.20215351,0.13710265,0.33256227,0.77925156
21067,0,USKentuckyFayette,Kentucky,Fayette,2020-07-18 15:20:09.775582,2020-06-29 00:00:00.000000,0.53742511,1.47490563,8.11459752,1736,4766,26222,538,1573,7193,0.16666173,0.48695405,2.22602005,0.13093655,0.33790570,0.73600095
21067,0,USKentuckyFayette,Kentucky,Fayette,2020-07-18 15:20:09.775582,2020-06-30 00:00:00.000000,0.52580170,1.52075835,8.23263759,1699,4914,26603,556,1633,7210,0.17214819,0.50540175,2.23131197,0.12654206,0.34089360,0.74212975
21067,0,USKentuckyFayette,Kentucky,Fayette,2020-07-18 15:20:09.775582,2020-07-01 00:00:00.000000,0.59500152,1.52985141,8.35802215,1922,4943,27009,570,1650,7324,0.17660229,0.51090178,2.26672811,0.12396839,0.33727623,0.73871284
21067,0,USKentuckyFayette,Kentucky,Fayette,2020-07-18 15:20:09.775582,2020-07-02 00:00:00.000000,0.55623528,1.59038577,8.49124437,1797,5139,27439,583,1693,7472,0.18057321,0.52391109,2.31250439,0.12297983,0.33382576,0.73627198
21067,0,USKentuckyFayette,Kentucky,Fayette,2020-07-18 15:20:09.775582,2020-07-03 00:00:00.000000,0.60764472,1.59761929,8.63239207,1963,5162,27895,598,1697,7687,0.18513613,0.52533850,2.37888002,0.12216291,0.33722129,0.73465362
21067,0,USKentuckyFayette,Kentucky,Fayette,2020-07-18 15:20:09.775582,2020-07-04 00:00:00.000000,0.59535975,1.67136795,8.78136538,1923,5401,28377,613,1752,7909,0.18974092,0.54239930,2.44762607,0.12098986,0.33597715,0.75862546
21067,0,USKentuckyFayette,Kentucky,Fayette,2020-07-18 15:20:09.775582,2020-07-05 00:00:00.000000,0.62281016,1.67547822,8.94016483,2012,5414,28890,629,1767,8077,0.19467812,0.54690640,2.49952892,0.12035802,0.33202734,0.75786257
21067,0,USKentuckyFayette,Kentucky,Fayette,2020-07-18 15:20:09.775582,2020-07-06 00:00:00.000000,0.62784296,1.78291181,9.11143263,2028,5761,29443,647,1834,8210,0.20038755,0.56782058,2.54085432,0.12200200,0.32253550,0.74399385
21067,0,USKentuckyFayette,Kentucky,Fayette,2020-07-18 15:20:09.775582,2020-07-07 00:00:00.000000,0.63877079,1.76585445,9.29903788,2064,5706,30050,666,1834,8352,0.20618182,0.56781270,2.58474171,0.12390491,0.31795068,0.73860711
21067,0,USKentuckyFayette,Kentucky,Fayette,2020-07-18 15:20:09.775582,2020-07-08 00:00:00.000000,0.63681038,1.87393190,9.50687617,2057,6055,30721,672,1915,8543,0.20797243,0.59278650,2.64395157,0.12424758,0.31837920,0.75614225
21067,0,USKentuckyFayette,Kentucky,Fayette,2020-07-18 15:20:09.775582,2020-07-09 00:00:00.000000,0.65543075,1.87452655,9.73643035,2118,6057,31463,678,1915,8739,0.20995070,0.59269672,2.70457760,0.12424217,0.31567535,0.75691395
21067,0,USKentuckyFayette,Kentucky,Fayette,2020-07-18 15:20:09.775582,2020-07-10 00:00:00.000000,0.67010446,1.96737844,9.98481687,2165,6357,32266,682,1972,8940,0.21132094,0.61048282,2.76663865,0.12423777,0.31583696,0.75756533
21067,0,USKentuckyFayette,Kentucky,Fayette,2020-07-18 15:20:09.775582,2020-07-11 00:00:00.000000,0.68785985,1.97780963,10.24550029,2222,6391,33108,713,1974,9145,0.22084397,0.61107258,2.83015448,0.12423501,0.31595729,0.75802481
21067,0,USKentuckyFayette,Kentucky,Fayette,2020-07-18 15:20:09.775582,2020-07-12 00:00:00.000000,0.69000995,2.04508753,10.51107992,2229,6608,33966,694,2060,9355,0.21476119,0.63762253,2.89514563,0.12423344,0.31603932,0.75821717
21067,0,USKentuckyFayette,Kentucky,Fayette,2020-07-18 15:20:09.775582,2020-07-13 00:00:00.000000,0.71171269,2.03270526,10.60109825,2299,6568,34257,730,2045,9570,0.22591049,0.63307754,2.96163337,0.12423259,0.31609287,0.75821815
21067,0,USKentuckyFayette,Kentucky,Fayette,2020-07-18 15:20:09.775582,2020-07-14 00:00:00.000000,0.70748063,2.11752525,10.61810032,2286,6842,34312,724,2178,9790,0.22417366,0.67400529,3.02963963,0.12423214,0.31612701,0.75821845
21067,0,USKentuckyFayette,Kentucky,Fayette,2020-07-18 15:20:09.775582,2020-07-15 00:00:00.000000,0.70399871,2.09587076,10.63663528,2274,6772,34372,745,2090,10015,0.23065803,0.64685223,3.09918692,0.12423191,0.31614848,0.75821855
21067,0,USKentuckyFayette,Kentucky,Fayette,2020-07-18 15:20:09.775582,2020-07-16 00:00:00.000000,0.68722807,2.20004395,10.69929266,2220,7109,34574,731,2292,10244,0.22649029,0.70945838,3.17029837,0.12423179,0.31616187,0.75821858
21067,0,USKentuckyFayette,Kentucky,Fayette,2020-07-18 15:20:09.775582,2020-07-17 00:00:00.000000,0.69663279,2.18088953,10.99148872,2251,7047,35519,746,2137,10479,0.23091757,0.66158629,3.24299759,0.12423173,0.31617019,0.75821858
21067,0,USKentuckyFayette,Kentucky,Fayette,2020-07-18 15:20:09.775582,2020-07-18 00:00:00.000000,0.69239445,2.25121254,11.29072833,2237,7274,36486,726,2389,10719,0.22476637,0.73958798,3.31730873,0.12423170,0.31617534,0.75821858
21067,0,USKentuckyFayette,Kentucky,Fayette,2020-07-18 15:20:09.775582,2020-07-19 00:00:00.000000,0.69538157,2.24126309,11.43380446,2247,7242,36948,773,2236,10965,0.23942700,0.69194929,3.39325636,0.12423168,0.31617852,0.75821858
21067,0,USKentuckyFayette,Kentucky,Fayette,2020-07-18 15:20:09.775582,2020-07-20 00:00:00.000000,0.68625083,2.33667580,11.57149652,2217,7551,37393,746,2483,11216,0.23101582,0.76852491,3.47086548,0.12423168,0.31618049,0.75821858
21067,0,USKentuckyFayette,Kentucky,Fayette,2020-07-18 15:20:09.775582,2020-07-21 00:00:00.000000,0.70398418,2.32689900,11.71062642,2274,7519,37843,788,2302,11472,0.24410516,0.71236349,3.55016147,0.12423167,0.31618170,0.75821858
21067,0,USKentuckyFayette,Kentucky,Fayette,2020-07-18 15:20:09.775582,2020-07-22 00:00:00.000000,0.70300036,2.42112517,11.85031837,2271,7823,38294,798,2589,11734,0.24714222,0.80145351,3.63117008,0.12423167,0.31618245,0.75821858
21067,0,USKentuckyFayette,Kentucky,Fayette,2020-07-18 15:20:09.775582,2020-07-23 00:00:00.000000,0.75650682,2.41253649,11.98830868,2444,7796,38740,807,2460,12001,0.24999702,0.76129617,3.71391736,0.12423167,0.31618291,0.75821858
21067,0,USKentuckyFayette,Kentucky,Fayette,2020-07-18 15:20:09.775582,2020-07-24 00:00:00.000000,0.70838419,2.57008077,12.12557791,2289,8305,39184,842,2622,12333,0.26064062,0.81164547,3.81647870,0.12423167,0.31618319,0.75821858
21067,0,USKentuckyFayette,Kentucky,Fayette,2020-07-18 15:20:09.775582,2020-07-25 00:00:00.000000,0.76140827,2.54046889,12.26276588,2460,8209,39627,840,2598,12947,0.26002635,0.80419145,4.00647819,0.12423167,0.31618337,0.75821858
21067,0,USKentuckyFayette,Kentucky,Fayette,2020-07-18 15:20:09.775582,2020-07-26 00:00:00.000000,0.72537679,2.68844000,12.40101569,2344,8687,40074,844,2700,13581,0.26127522,0.83578829,4.20281062,0.12423167,0.31618348,0.75821858
21067,0,USKentuckyFayette,Kentucky,Fayette,2020-07-18 15:20:09.775582,2020-07-27 00:00:00.000000,0.73712583,2.66503772,12.67966632,2382,8612,40974,831,2688,14236,0.25737539,0.83188696,4.40536273,0.12423167,0.31618354,0.75821858
21067,0,USKentuckyFayette,Kentucky,Fayette,2020-07-18 15:20:09.775582,2020-07-28 00:00:00.000000,0.72498100,2.78882189,13.06089491,2342,9012,42206,851,2771,14910,0.26334846,0.85756060,4.61397799,0.12423167,0.31618358,0.75821858
21067,0,USKentuckyFayette,Kentucky,Fayette,2020-07-18 15:20:09.775582,2020-07-29 00:00:00.000000,0.72062441,2.74464586,13.12249251,2328,8869,42405,844,2773,15603,0.26137647,0.85812936,4.82845330,0.12423167,0.31618361,0.75821858
21067,0,USKentuckyFayette,Kentucky,Fayette,2020-07-18 15:20:09.775582,2020-07-30 00:00:00.000000,0.72305923,2.88850855,13.17365561,2336,9334,42570,857,2924,16254,0.26540408,0.90501569,5.02984638,0.12423167,0.31618363,0.75821858
