FIPS,HR_UID,nameid,province,region,analysisTime,dates,pointprevalence_025,pointprevalence_50,pointprevalence_975,pointinfections_025,pointinfections_50,pointinfections_975,pointinfectious_025,pointinfectious_50,pointinfectious_975,pointinfectiousprevalence_05,pointinfectiousprevalence_50,pointinfectiousprevalence_95,infectrate_025,infectrate_50,infectrate_975
15009,0,USHawaiiMaui,Hawaii,Maui,2020-07-15 19:29:11.333259,2020-03-09 00:00:00.000000,0.00342309,0.00579768,0.00817226,5,9,13,3,6,9,0.00234668,0.00408663,0.00582659,0.95796469,0.97836919,0.99877370
15009,0,USHawaiiMaui,Hawaii,Maui,2020-07-15 19:29:11.333259,2020-03-10 00:00:00.000000,0.00344851,0.00596640,0.00848429,5,9,14,2,3,5,0.00127610,0.00225474,0.00323338,0.95796299,0.97836878,0.99877456
15009,0,USHawaiiMaui,Hawaii,Maui,2020-07-15 19:29:11.333259,2020-03-11 00:00:00.000000,0.00346046,0.00598507,0.00850968,5,10,14,4,7,10,0.00267883,0.00461184,0.00654484,0.95795937,0.97836854,0.99877771
15009,0,USHawaiiMaui,Hawaii,Maui,2020-07-15 19:29:11.333259,2020-03-12 00:00:00.000000,0.00413311,0.00693589,0.00973867,6,11,16,2,4,6,0.00153008,0.00260835,0.00368661,0.95795167,0.97836972,0.99878778
15009,0,USHawaiiMaui,Hawaii,Maui,2020-07-15 19:29:11.333259,2020-03-13 00:00:00.000000,0.00404364,0.00683555,0.00962746,6,11,16,5,8,12,0.00310751,0.00525467,0.00740184,0.95793533,0.97837670,0.99881807
15009,0,USHawaiiMaui,Hawaii,Maui,2020-07-15 19:29:11.333259,2020-03-14 00:00:00.000000,0.00483611,0.00793689,0.01103767,8,13,18,3,5,7,0.00182340,0.00300897,0.00419453,0.95790080,0.97840329,0.99890579
15009,0,USHawaiiMaui,Hawaii,Maui,2020-07-15 19:29:11.333259,2020-03-15 00:00:00.000000,0.00474668,0.00783044,0.01091419,7,13,18,6,10,14,0.00360784,0.00598994,0.00837204,0.95782826,0.97849101,0.99915376
15009,0,USHawaiiMaui,Hawaii,Maui,2020-07-15 19:29:11.333259,2020-03-16 00:00:00.000000,0.00565777,0.00908105,0.01250434,9,15,20,3,5,7,0.00217118,0.00347137,0.00477157,0.95767729,0.97875939,0.99984148
15009,0,USHawaiiMaui,Hawaii,Maui,2020-07-15 19:29:11.333259,2020-03-17 00:00:00.000000,0.00557752,0.00897398,0.01237044,9,15,20,7,11,15,0.00419252,0.00683011,0.00946770,0.95736839,0.97953878,1.00170918
15009,0,USHawaiiMaui,Hawaii,Maui,2020-07-15 19:29:11.333259,2020-03-18 00:00:00.000000,0.00663904,0.01039852,0.01415800,11,17,23,4,6,9,0.00258677,0.00400637,0.00542598,0.95675719,0.98168134,1.00660549
15009,0,USHawaiiMaui,Hawaii,Maui,2020-07-15 19:29:11.333259,2020-03-19 00:00:00.000000,0.00659478,0.01030124,0.01400770,11,17,23,8,13,17,0.00489417,0.00779649,0.01069881,0.95563863,0.98707025,1.01850187
15009,0,USHawaiiMaui,Hawaii,Maui,2020-07-15 19:29:11.333259,2020-03-20 00:00:00.000000,0.00792026,0.01196082,0.01600139,13,20,26,5,7,10,0.00310785,0.00463505,0.00616225,0.95403827,0.99850489,1.04297150
15009,0,USHawaiiMaui,Hawaii,Maui,2020-07-15 19:29:11.333259,2020-03-21 00:00:00.000000,0.00802075,0.01192366,0.01582657,13,19,26,9,14,20,0.00584591,0.00895389,0.01206188,0.95422259,1.01699300,1.07976341
15009,0,USHawaiiMaui,Hawaii,Maui,2020-07-15 19:29:11.333259,2020-03-22 00:00:00.000000,0.00983301,0.01399368,0.01815434,16,23,30,6,9,11,0.00386121,0.00542418,0.00698715,0.96728978,1.04124780,1.11520582
15009,0,USHawaiiMaui,Hawaii,Maui,2020-07-15 19:29:11.333259,2020-03-23 00:00:00.000000,0.01018379,0.01416348,0.01814317,17,23,30,12,17,22,0.00730375,0.01050906,0.01371437,0.99741965,1.06700428,1.13658890
15009,0,USHawaiiMaui,Hawaii,Maui,2020-07-15 19:29:11.333259,2020-03-24 00:00:00.000000,0.01254064,0.01681709,0.02109353,20,28,35,8,10,13,0.00496691,0.00654553,0.00812416,1.00205295,1.07312415,1.14419535
15009,0,USHawaiiMaui,Hawaii,Maui,2020-07-15 19:29:11.333259,2020-03-25 00:00:00.000000,0.01308599,0.01711503,0.02114407,21,28,35,15,21,26,0.00929860,0.01263837,0.01597813,0.98160149,1.06312650,1.14465151
15009,0,USHawaiiMaui,Hawaii,Maui,2020-07-15 19:29:11.333259,2020-03-26 00:00:00.000000,0.01604155,0.02009685,0.02415216,26,33,40,10,13,15,0.00643016,0.00793190,0.00943365,0.96072591,1.05190532,1.14308472
15009,0,USHawaiiMaui,Hawaii,Maui,2020-07-15 19:29:11.333259,2020-03-27 00:00:00.000000,0.01677109,0.02036451,0.02395793,28,34,40,19,25,30,0.01182967,0.01494959,0.01806951,0.94706371,1.04431306,1.14156242
15009,0,USHawaiiMaui,Hawaii,Maui,2020-07-15 19:29:11.333259,2020-03-28 00:00:00.000000,0.02049424,0.02382749,0.02716073,34,39,45,13,15,18,0.00831107,0.00954592,0.01078076,0.93958213,1.04005865,1.14053517
15009,0,USHawaiiMaui,Hawaii,Maui,2020-07-15 19:29:11.333259,2020-03-29 00:00:00.000000,0.02147207,0.02418861,0.02690514,35,40,45,25,29,33,0.01503269,0.01756766,0.02010264,0.93581852,1.03786973,1.13992093
15009,0,USHawaiiMaui,Hawaii,Maui,2020-07-15 19:29:11.333259,2020-03-30 00:00:00.000000,0.02617432,0.02825746,0.03034059,43,47,50,17,19,20,0.01073220,0.01149155,0.01225090,0.93399385,1.03676113,1.13952840
15009,0,USHawaiiMaui,Hawaii,Maui,2020-07-15 19:29:11.333259,2020-03-31 00:00:00.000000,0.02748817,0.02880029,0.03011240,46,48,50,31,34,37,0.01910401,0.02068885,0.02227369,0.93309520,1.03608369,1.13907218
15009,0,USHawaiiMaui,Hawaii,Maui,2020-07-15 19:29:11.333259,2020-04-01 00:00:00.000000,0.03341793,0.03363199,0.03384604,55,56,56,23,23,23,0.01385198,0.01387104,0.01389011,0.93253405,1.03513410,1.13773415
15009,0,USHawaiiMaui,Hawaii,Maui,2020-07-15 19:29:11.333259,2020-04-02 00:00:00.000000,0.03366586,0.03439873,0.03513161,56,57,58,40,40,41,0.02426764,0.02446617,0.02466470,0.93174651,1.03202175,1.13229699
15009,0,USHawaiiMaui,Hawaii,Maui,2020-07-15 19:29:11.333259,2020-04-03 00:00:00.000000,0.03770973,0.03998269,0.04225565,63,66,70,26,28,29,0.01572005,0.01676735,0.01781465,0.92973524,1.02049752,1.11125980
15009,0,USHawaiiMaui,Hawaii,Maui,2020-07-15 19:29:11.333259,2020-04-04 00:00:00.000000,0.03753554,0.04062973,0.04372393,62,68,73,45,48,50,0.02727639,0.02881919,0.03036199,0.92569027,0.98972671,1.05376315
15009,0,USHawaiiMaui,Hawaii,Maui,2020-07-15 19:29:11.333259,2020-04-05 00:00:00.000000,0.04181778,0.04600086,0.05018394,70,77,84,29,33,36,0.01770515,0.01982790,0.02195066,0.92168345,0.95141035,0.98113725
15009,0,USHawaiiMaui,Hawaii,Maui,2020-07-15 19:29:11.333259,2020-04-06 00:00:00.000000,0.04160689,0.04584319,0.05007948,69,76,83,50,54,58,0.03000359,0.03249291,0.03498223,0.91982421,0.93193808,0.94405195
15009,0,USHawaiiMaui,Hawaii,Maui,2020-07-15 19:29:11.333259,2020-04-07 00:00:00.000000,0.04620810,0.05138634,0.05656458,77,86,94,33,37,42,0.01982242,0.02253097,0.02523952,0.91927011,0.92624461,0.93321911
15009,0,USHawaiiMaui,Hawaii,Maui,2020-07-15 19:29:11.333259,2020-04-08 00:00:00.000000,0.04603553,0.05112813,0.05622073,77,85,94,55,60,65,0.03294846,0.03593702,0.03892558,0.91910358,0.92478150,0.93045942
15009,0,USHawaiiMaui,Hawaii,Maui,2020-07-15 19:29:11.333259,2020-04-09 00:00:00.000000,0.05101435,0.05709615,0.06317795,85,95,105,37,42,47,0.02213673,0.02537448,0.02861223,0.91889492,0.92366939,0.92844385
15009,0,USHawaiiMaui,Hawaii,Maui,2020-07-15 19:29:11.333259,2020-04-10 00:00:00.000000,0.05088059,0.05680308,0.06272557,85,95,105,60,66,72,0.03618071,0.03969652,0.04321232,0.91667712,0.91717982,0.91768251
15009,0,USHawaiiMaui,Hawaii,Maui,2020-07-15 19:29:11.333259,2020-04-11 00:00:00.000000,0.05608761,0.06220988,0.06833214,93,104,114,41,47,53,0.02465919,0.02837846,0.03209772,0.84557030,0.87763226,0.90969423
15009,0,USHawaiiMaui,Hawaii,Maui,2020-07-15 19:29:11.333259,2020-04-12 00:00:00.000000,0.05533818,0.05963060,0.06392303,92,99,107,66,70,75,0.03947186,0.04240112,0.04533039,0.70693804,0.78794717,0.86895630
15009,0,USHawaiiMaui,Hawaii,Maui,2020-07-15 19:29:11.333259,2020-04-13 00:00:00.000000,0.05748626,0.06068595,0.06388564,96,101,106,44,48,53,0.02669274,0.02917937,0.03166601,0.63545499,0.69561543,0.75577587
15009,0,USHawaiiMaui,Hawaii,Maui,2020-07-15 19:29:11.333259,2020-04-14 00:00:00.000000,0.05289391,0.05447743,0.05606095,88,91,93,64,65,66,0.03833198,0.03916826,0.04000454,0.57324099,0.62101070,0.66878040
15009,0,USHawaiiMaui,Hawaii,Maui,2020-07-15 19:29:11.333259,2020-04-15 00:00:00.000000,0.05197023,0.05244209,0.05291396,87,87,88,41,44,46,0.02504173,0.02638303,0.02772434,0.51454128,0.57641121,0.63828115
15009,0,USHawaiiMaui,Hawaii,Maui,2020-07-15 19:29:11.333259,2020-04-16 00:00:00.000000,0.04442133,0.04554076,0.04666018,74,76,78,53,54,56,0.03175639,0.03268197,0.03360754,0.48886009,0.55838350,0.62790690
15009,0,USHawaiiMaui,Hawaii,Maui,2020-07-15 19:29:11.333259,2020-04-17 00:00:00.000000,0.04121831,0.04335476,0.04549121,69,72,76,37,37,37,0.02219396,0.02228053,0.02236710,0.48186082,0.55336608,0.62487133
15009,0,USHawaiiMaui,Hawaii,Maui,2020-07-15 19:29:11.333259,2020-04-18 00:00:00.000000,0.03451565,0.03762652,0.04073739,57,62,68,41,44,48,0.02449776,0.02686267,0.02922759,0.48022698,0.55215038,0.62407377
15009,0,USHawaiiMaui,Hawaii,Maui,2020-07-15 19:29:11.333259,2020-04-19 00:00:00.000000,0.03206410,0.03595066,0.03983722,53,60,66,29,31,33,0.01753574,0.01867001,0.01980428,0.47986104,0.55186538,0.62386972
15009,0,USHawaiiMaui,Hawaii,Maui,2020-07-15 19:29:11.333259,2020-04-20 00:00:00.000000,0.02696338,0.03132936,0.03569535,45,52,59,31,37,42,0.01889643,0.02216634,0.02543625,0.47978146,0.55179112,0.62380079
15009,0,USHawaiiMaui,Hawaii,Maui,2020-07-15 19:29:11.333259,2020-04-21 00:00:00.000000,0.02492964,0.02990324,0.03487683,41,50,58,23,26,29,0.01382820,0.01567113,0.01751407,0.47975678,0.55155851,0.62336024
15009,0,USHawaiiMaui,Hawaii,Maui,2020-07-15 19:29:11.333259,2020-04-22 00:00:00.000000,0.02107341,0.02614686,0.03122031,35,43,52,24,30,37,0.01459668,0.01836828,0.02213987,0.47949378,0.54641658,0.61333939
15009,0,USHawaiiMaui,Hawaii,Maui,2020-07-15 19:29:11.333259,2020-04-23 00:00:00.000000,0.01935532,0.02419869,0.02904207,32,40,48,18,21,25,0.01089012,0.01312430,0.01535848,0.47661561,0.49377464,0.51093366
15009,0,USHawaiiMaui,Hawaii,Maui,2020-07-15 19:29:11.333259,2020-04-24 00:00:00.000000,0.01637991,0.02020749,0.02403506,27,33,40,18,23,29,0.01124090,0.01431586,0.01739082,0.43791683,0.45579348,0.47367014
15009,0,USHawaiiMaui,Hawaii,Maui,2020-07-15 19:29:11.333259,2020-04-25 00:00:00.000000,0.01494002,0.01808328,0.02122654,25,30,35,14,16,19,0.00850906,0.01000046,0.01149186,0.43296003,0.45317114,0.47338226
15009,0,USHawaiiMaui,Hawaii,Maui,2020-07-15 19:29:11.333259,2020-04-26 00:00:00.000000,0.01268778,0.01504459,0.01740140,21,25,29,14,17,21,0.00862498,0.01059487,0.01256475,0.43277289,0.45310830,0.47344371
15009,0,USHawaiiMaui,Hawaii,Maui,2020-07-15 19:29:11.333259,2020-04-27 00:00:00.000000,0.01153530,0.01352414,0.01551298,19,22,25,11,12,14,0.00663843,0.00757615,0.00851387,0.43287535,0.45322432,0.47357329
15009,0,USHawaiiMaui,Hawaii,Maui,2020-07-15 19:29:11.333259,2020-04-28 00:00:00.000000,0.00983490,0.01128810,0.01274130,16,18,21,11,13,15,0.00662523,0.00785757,0.00908991,0.43359847,0.45370398,0.47380948
15009,0,USHawaiiMaui,Hawaii,Maui,2020-07-15 19:29:11.333259,2020-04-29 00:00:00.000000,0.00891296,0.01013083,0.01134870,14,16,18,8,9,10,0.00517604,0.00573936,0.00630268,0.43827470,0.45628025,0.47428580
15009,0,USHawaiiMaui,Hawaii,Maui,2020-07-15 19:29:11.333259,2020-04-30 00:00:00.000000,0.00763084,0.00854534,0.00945984,12,14,15,8,9,11,0.00509710,0.00585808,0.00661905,0.46220709,0.46873651,0.47526592
15009,0,USHawaiiMaui,Hawaii,Maui,2020-07-15 19:29:11.333259,2020-05-01 00:00:00.000000,0.00689573,0.00779863,0.00870152,11,13,14,6,7,8,0.00403858,0.00441199,0.00478540,0.47393631,0.49347860,0.51302089
15009,0,USHawaiiMaui,Hawaii,Maui,2020-07-15 19:29:11.333259,2020-05-02 00:00:00.000000,0.00585699,0.00672995,0.00760290,9,11,12,6,7,8,0.00392615,0.00456221,0.00519827,0.44291248,0.49111872,0.53932496
15009,0,USHawaiiMaui,Hawaii,Maui,2020-07-15 19:29:11.333259,2020-05-03 00:00:00.000000,0.00507494,0.00608058,0.00708622,8,10,11,5,5,6,0.00306282,0.00348520,0.00390758,0.39014622,0.46705970,0.54397318
15009,0,USHawaiiMaui,Hawaii,Maui,2020-07-15 19:29:11.333259,2020-05-04 00:00:00.000000,0.00414679,0.00518867,0.00623055,6,8,10,4,5,7,0.00278948,0.00350340,0.00421731,0.38308879,0.46442503,0.54576128
15009,0,USHawaiiMaui,Hawaii,Maui,2020-07-15 19:29:11.333259,2020-05-05 00:00:00.000000,0.00357341,0.00468184,0.00579027,5,7,9,3,4,5,0.00217819,0.00269545,0.00321272,0.38850707,0.46845649,0.54840591
15009,0,USHawaiiMaui,Hawaii,Maui,2020-07-15 19:29:11.333259,2020-05-06 00:00:00.000000,0.00296798,0.00404370,0.00511942,4,6,8,3,4,5,0.00197593,0.00270683,0.00343774,0.39794158,0.47568744,0.55343331
15009,0,USHawaiiMaui,Hawaii,Maui,2020-07-15 19:29:11.333259,2020-05-07 00:00:00.000000,0.00258124,0.00368003,0.00477881,4,6,8,2,3,4,0.00157206,0.00211553,0.00265901,0.41112343,0.48671295,0.56230247
15009,0,USHawaiiMaui,Hawaii,Maui,2020-07-15 19:29:11.333259,2020-05-08 00:00:00.000000,0.00218363,0.00322839,0.00427316,3,5,7,2,3,4,0.00143443,0.00213708,0.00283974,0.42754117,0.50142153,0.57530189
15009,0,USHawaiiMaui,Hawaii,Maui,2020-07-15 19:29:11.333259,2020-05-09 00:00:00.000000,0.00192792,0.00298047,0.00403303,3,4,6,1,2,3,0.00116873,0.00170578,0.00224283,0.44546198,0.51767356,0.58988513
15009,0,USHawaiiMaui,Hawaii,Maui,2020-07-15 19:29:11.333259,2020-05-10 00:00:00.000000,0.00166516,0.00266198,0.00365880,2,4,6,1,2,4,0.00107926,0.00174286,0.00240647,0.46259243,0.53234191,0.60209138
15009,0,USHawaiiMaui,Hawaii,Maui,2020-07-15 19:29:11.333259,2020-05-11 00:00:00.000000,0.00149052,0.00248492,0.00347931,2,4,5,1,2,3,0.00089956,0.00141811,0.00193667,0.47748362,0.54383888,0.61019414
15009,0,USHawaiiMaui,Hawaii,Maui,2020-07-15 19:29:11.333259,2020-05-12 00:00:00.000000,0.00130792,0.00224451,0.00318109,2,3,5,1,2,3,0.00083881,0.00145826,0.00207772,0.49041913,0.55279502,0.61517090
15009,0,USHawaiiMaui,Hawaii,Maui,2020-07-15 19:29:11.333259,2020-05-13 00:00:00.000000,0.00118278,0.00210697,0.00303115,1,3,5,1,2,2,0.00071126,0.00120138,0.00169150,0.50344679,0.56123230,0.61901781
15009,0,USHawaiiMaui,Hawaii,Maui,2020-07-15 19:29:11.333259,2020-05-14 00:00:00.000000,0.00105337,0.00191893,0.00278448,1,3,4,1,2,3,0.00066854,0.00123836,0.00180818,0.52012216,0.57210785,0.62409353
15009,0,USHawaiiMaui,Hawaii,Maui,2020-07-15 19:29:11.333259,2020-05-15 00:00:00.000000,0.00096858,0.00181694,0.00266530,1,3,4,0,1,2,0.00057778,0.00103294,0.00148809,0.54491212,0.58909530,0.63327848
15009,0,USHawaiiMaui,Hawaii,Maui,2020-07-15 19:29:11.333259,2020-05-16 00:00:00.000000,0.00088638,0.00168032,0.00247427,1,2,4,0,1,2,0.00055307,0.00107292,0.00159277,0.58089840,0.61474326,0.64858813
15009,0,USHawaiiMaui,Hawaii,Maui,2020-07-15 19:29:11.333259,2020-05-17 00:00:00.000000,0.00084249,0.00162111,0.00239974,1,2,4,0,1,2,0.00049446,0.00091476,0.00133506,0.62539042,0.64623301,0.66707561
15009,0,USHawaiiMaui,Hawaii,Maui,2020-07-15 19:29:11.333259,2020-05-18 00:00:00.000000,0.00080127,0.00153185,0.00226243,1,2,3,0,1,2,0.00048981,0.00096651,0.00144321,0.66917553,0.67557063,0.68196573
15009,0,USHawaiiMaui,Hawaii,Maui,2020-07-15 19:29:11.333259,2020-05-19 00:00:00.000000,0.00078618,0.00150007,0.00221396,1,2,3,0,1,2,0.00045490,0.00084266,0.00123043,0.69081141,0.69823817,0.70566493
15009,0,USHawaiiMaui,Hawaii,Maui,2020-07-15 19:29:11.333259,2020-05-20 00:00:00.000000,0.00077082,0.00143657,0.00210231,1,2,3,0,1,2,0.00046268,0.00089808,0.00133348,0.69743336,0.72229236,0.74715135
15009,0,USHawaiiMaui,Hawaii,Maui,2020-07-15 19:29:11.333259,2020-05-21 00:00:00.000000,0.00078616,0.00142972,0.00207328,1,2,3,0,1,1,0.00044419,0.00079593,0.00114768,0.71663445,0.76857098,0.82050752
15009,0,USHawaiiMaui,Hawaii,Maui,2020-07-15 19:29:11.333259,2020-05-22 00:00:00.000000,0.00080787,0.00141535,0.00202283,1,2,3,0,1,2,0.00047470,0.00086557,0.00125644,0.77707719,0.82431923,0.87156128
15009,0,USHawaiiMaui,Hawaii,Maui,2020-07-15 19:29:11.333259,2020-05-23 00:00:00.000000,0.00084749,0.00146433,0.00208117,1,2,3,0,1,1,0.00047482,0.00080532,0.00113582,0.82149947,0.85344639,0.88539331
15009,0,USHawaiiMaui,Hawaii,Maui,2020-07-15 19:29:11.333259,2020-05-24 00:00:00.000000,0.00087731,0.00148307,0.00208883,1,2,3,0,1,2,0.00051293,0.00089925,0.00128556,0.82996774,0.85917227,0.88837681
15009,0,USHawaiiMaui,Hawaii,Maui,2020-07-15 19:29:11.333259,2020-05-25 00:00:00.000000,0.00091924,0.00153551,0.00215178,1,2,3,0,1,1,0.00051537,0.00084443,0.00117349,0.83077186,0.85948618,0.88820051
15009,0,USHawaiiMaui,Hawaii,Maui,2020-07-15 19:29:11.333259,2020-05-26 00:00:00.000000,0.00095075,0.00155412,0.00215749,1,2,3,0,1,2,0.00055576,0.00094099,0.00132623,0.82959042,0.85702832,0.88446621
15009,0,USHawaiiMaui,Hawaii,Maui,2020-07-15 19:29:11.333259,2020-05-27 00:00:00.000000,0.00099075,0.00160346,0.00221618,1,2,3,0,1,2,0.00055815,0.00088528,0.00121241,0.82379701,0.84779191,0.87178680
15009,0,USHawaiiMaui,Hawaii,Maui,2020-07-15 19:29:11.333259,2020-05-28 00:00:00.000000,0.00101059,0.00160847,0.00220636,1,2,3,0,1,2,0.00059588,0.00097870,0.00136153,0.80618643,0.82283986,0.83949328
15009,0,USHawaiiMaui,Hawaii,Maui,2020-07-15 19:29:11.333259,2020-05-29 00:00:00.000000,0.00102290,0.00162778,0.00223266,1,2,3,0,1,2,0.00058675,0.00090951,0.00123227,0.78416968,0.78585533,0.78754098
15009,0,USHawaiiMaui,Hawaii,Maui,2020-07-15 19:29:11.333259,2020-05-30 00:00:00.000000,0.00100672,0.00159997,0.00219323,1,2,3,1,1,2,0.00060276,0.00098017,0.00135758,0.74367840,0.75870427,0.77373013
15009,0,USHawaiiMaui,Hawaii,Maui,2020-07-15 19:29:11.333259,2020-05-31 00:00:00.000000,0.00099147,0.00159874,0.00220601,1,2,3,0,1,2,0.00057533,0.00089879,0.00122225,0.72268303,0.74636857,0.77005412
15009,0,USHawaiiMaui,Hawaii,Maui,2020-07-15 19:29:11.333259,2020-06-01 00:00:00.000000,0.00096432,0.00156381,0.00216330,1,2,3,0,1,2,0.00057990,0.00095941,0.00133893,0.71551050,0.74145903,0.76740755
15009,0,USHawaiiMaui,Hawaii,Maui,2020-07-15 19:29:11.333259,2020-06-02 00:00:00.000000,0.00094719,0.00155894,0.00217069,1,2,3,0,1,2,0.00055113,0.00087875,0.00120638,0.71381228,0.73857352,0.76333477
15009,0,USHawaiiMaui,Hawaii,Maui,2020-07-15 19:29:11.333259,2020-06-03 00:00:00.000000,0.00092137,0.00152101,0.00212064,1,2,3,0,1,2,0.00055369,0.00093373,0.00131377,0.71445579,0.73525875,0.75606170
15009,0,USHawaiiMaui,Hawaii,Maui,2020-07-15 19:29:11.333259,2020-06-04 00:00:00.000000,0.00090563,0.00150843,0.00211124,1,2,3,0,1,1,0.00052719,0.00085380,0.00118040,0.71661413,0.73024159,0.74386905
15009,0,USHawaiiMaui,Hawaii,Maui,2020-07-15 19:29:11.333259,2020-06-05 00:00:00.000000,0.00088260,0.00146119,0.00203977,1,2,3,0,1,2,0.00052946,0.00089947,0.00126948,0.71958631,0.72288170,0.72617710
15009,0,USHawaiiMaui,Hawaii,Maui,2020-07-15 19:29:11.333259,2020-06-06 00:00:00.000000,0.00086871,0.00143353,0.00199834,1,2,3,0,1,1,0.00050580,0.00081700,0.00112821,0.70536916,0.71380265,0.72223615
15009,0,USHawaiiMaui,Hawaii,Maui,2020-07-15 19:29:11.333259,2020-06-07 00:00:00.000000,0.00084795,0.00137342,0.00189889,1,2,3,0,1,1,0.00050788,0.00084833,0.00118878,0.68634971,0.70523071,0.72411171
15009,0,USHawaiiMaui,Hawaii,Maui,2020-07-15 19:29:11.333259,2020-06-08 00:00:00.000000,0.00083513,0.00133443,0.00183373,1,2,3,0,1,1,0.00048644,0.00076502,0.00104361,0.67308438,0.69949524,0.72590611
15009,0,USHawaiiMaui,Hawaii,Maui,2020-07-15 19:29:11.333259,2020-06-09 00:00:00.000000,0.00081662,0.00127178,0.00172695,1,2,2,0,1,1,0.00048814,0.00078555,0.00108297,0.66697065,0.69803696,0.72910327
15009,0,USHawaiiMaui,Hawaii,Maui,2020-07-15 19:29:11.333259,2020-06-10 00:00:00.000000,0.00080703,0.00123549,0.00166395,1,2,2,0,1,1,0.00046934,0.00070922,0.00094910,0.66898813,0.70271836,0.73644859
15009,0,USHawaiiMaui,Hawaii,Maui,2020-07-15 19:29:11.333259,2020-06-11 00:00:00.000000,0.00079624,0.00118617,0.00157610,1,1,2,0,1,1,0.00047281,0.00072770,0.00098259,0.68276990,0.71813535,0.75350079
15009,0,USHawaiiMaui,Hawaii,Maui,2020-07-15 19:29:11.333259,2020-06-12 00:00:00.000000,0.00080201,0.00117407,0.00154614,1,1,2,0,1,1,0.00046108,0.00066733,0.00087358,0.71565350,0.75284238,0.79003126
15009,0,USHawaiiMaui,Hawaii,Maui,2020-07-15 19:29:11.333259,2020-06-13 00:00:00.000000,0.00082060,0.00116799,0.00151538,1,1,2,0,1,1,0.00047644,0.00070106,0.00092568,0.77200363,0.81380311,0.85560260
15009,0,USHawaiiMaui,Hawaii,Maui,2020-07-15 19:29:11.333259,2020-06-14 00:00:00.000000,0.00087208,0.00121557,0.00155906,1,2,2,0,1,1,0.00048726,0.00067437,0.00086148,0.83853102,0.89063740,0.94274379
15009,0,USHawaiiMaui,Hawaii,Maui,2020-07-15 19:29:11.333259,2020-06-15 00:00:00.000000,0.00094578,0.00127370,0.00160163,1,2,2,0,1,1,0.00053393,0.00074614,0.00095835,0.89088886,0.95628001,1.02167116
15009,0,USHawaiiMaui,Hawaii,Maui,2020-07-15 19:29:11.333259,2020-06-16 00:00:00.000000,0.00105015,0.00137452,0.00169889,1,2,2,0,1,1,0.00057587,0.00075176,0.00092766,0.92108911,0.99651916,1.07194921
15009,0,USHawaiiMaui,Hawaii,Maui,2020-07-15 19:29:11.333259,2020-06-17 00:00:00.000000,0.00116779,0.00147312,0.00177844,1,2,2,1,1,1,0.00065177,0.00085298,0.00105419,0.94184858,1.01949478,1.09714098
15009,0,USHawaiiMaui,Hawaii,Maui,2020-07-15 19:29:11.333259,2020-06-18 00:00:00.000000,0.00130961,0.00161997,0.00193033,2,2,3,1,1,1,0.00071534,0.00087580,0.00103625,0.99691738,1.05066456,1.10441175
15009,0,USHawaiiMaui,Hawaii,Maui,2020-07-15 19:29:11.333259,2020-06-19 00:00:00.000000,0.00144445,0.00176960,0.00209475,2,2,3,1,1,2,0.00081377,0.00101720,0.00122063,1.05396048,1.05779513,1.06162979
15009,0,USHawaiiMaui,Hawaii,Maui,2020-07-15 19:29:11.333259,2020-06-20 00:00:00.000000,0.00158055,0.00195710,0.00233364,2,3,3,1,1,2,0.00087336,0.00105976,0.00124616,1.02247894,1.04278792,1.06309691
15009,0,USHawaiiMaui,Hawaii,Maui,2020-07-15 19:29:11.333259,2020-06-21 00:00:00.000000,0.00171377,0.00213039,0.00254701,2,3,4,1,2,2,0.00096839,0.00122414,0.00147989,1.01979167,1.04200386,1.06421605
15009,0,USHawaiiMaui,Hawaii,Maui,2020-07-15 19:29:11.333259,2020-06-22 00:00:00.000000,0.00187284,0.00235224,0.00283165,3,3,4,1,2,2,0.00103654,0.00127425,0.00151196,1.02044742,1.04247279,1.06449816
15009,0,USHawaiiMaui,Hawaii,Maui,2020-07-15 19:29:11.333259,2020-06-23 00:00:00.000000,0.00203552,0.00256336,0.00309121,3,4,5,1,2,3,0.00114931,0.00147260,0.00179589,1.02172059,1.04319669,1.06467279
15009,0,USHawaiiMaui,Hawaii,Maui,2020-07-15 19:29:11.333259,2020-06-24 00:00:00.000000,0.00222642,0.00283163,0.00343684,3,4,5,2,2,3,0.00123177,0.00153341,0.00183504,1.02412377,1.04449237,1.06486097
15009,0,USHawaiiMaui,Hawaii,Maui,2020-07-15 19:29:11.333259,2020-06-25 00:00:00.000000,0.00242508,0.00308869,0.00375230,4,5,6,2,2,3,0.00136709,0.00177345,0.00217980,1.02856247,1.04682697,1.06509147
15009,0,USHawaiiMaui,Hawaii,Maui,2020-07-15 19:29:11.333259,2020-06-26 00:00:00.000000,0.00266171,0.00341700,0.00417229,4,5,6,2,3,3,0.00146989,0.00184877,0.00222765,1.03583047,1.05057705,1.06532364
15009,0,USHawaiiMaui,Hawaii,Maui,2020-07-15 19:29:11.333259,2020-06-27 00:00:00.000000,0.00291453,0.00373503,0.00455553,4,6,7,2,3,4,0.00163779,0.00214208,0.00264636,1.04550537,1.05544983,1.06539429
15009,0,USHawaiiMaui,Hawaii,Maui,2020-07-15 19:29:11.333259,2020-06-28 00:00:00.000000,0.00321820,0.00414138,0.00506456,5,6,8,2,3,4,0.00177226,0.00223838,0.00270450,1.05525598,1.06011150,1.06496702
15009,0,USHawaiiMaui,Hawaii,Maui,2020-07-15 19:29:11.333259,2020-06-29 00:00:00.000000,0.00354340,0.00453497,0.00552655,5,7,9,3,4,5,0.00198573,0.00259868,0.00321164,1.06243175,1.06297705,1.06352235
15009,0,USHawaiiMaui,Hawaii,Maui,2020-07-15 19:29:11.333259,2020-06-30 00:00:00.000000,0.00392592,0.00503040,0.00613488,6,8,10,3,4,5,0.00215953,0.00271941,0.00327930,1.06029488,1.06316958,1.06604429
15009,0,USHawaiiMaui,Hawaii,Maui,2020-07-15 19:29:11.333259,2020-07-01 00:00:00.000000,0.00432867,0.00550212,0.00667556,7,9,11,4,5,6,0.00242411,0.00315500,0.00388588,1.05405665,1.06025486,1.06645307
15009,0,USHawaiiMaui,Hawaii,Maui,2020-07-15 19:29:11.333259,2020-07-02 00:00:00.000000,0.00479250,0.00608101,0.00736952,8,10,12,4,5,6,0.00263839,0.00329555,0.00395272,1.04282490,1.05349360,1.06416230
15009,0,USHawaiiMaui,Hawaii,Maui,2020-07-15 19:29:11.333259,2020-07-03 00:00:00.000000,0.00527267,0.00660907,0.00794548,8,11,13,4,6,7,0.00295598,0.00380282,0.00464965,1.02374431,1.04152858,1.05931284
15009,0,USHawaiiMaui,Hawaii,Maui,2020-07-15 19:29:11.333259,2020-07-04 00:00:00.000000,0.00581399,0.00722349,0.00863298,9,12,14,5,6,7,0.00320913,0.00394155,0.00467397,0.99368566,1.02274149,1.05179733
15009,0,USHawaiiMaui,Hawaii,Maui,2020-07-15 19:29:11.333259,2020-07-05 00:00:00.000000,0.00636093,0.00772783,0.00909474,10,12,15,5,7,9,0.00357619,0.00448230,0.00538841,0.95127799,0.99646360,1.04164920
15009,0,USHawaiiMaui,Hawaii,Maui,2020-07-15 19:29:11.333259,2020-07-06 00:00:00.000000,0.00696233,0.00826471,0.00956710,11,13,16,6,7,8,0.00385948,0.00456476,0.00527005,0.89983725,0.96465290,1.02946855
15009,0,USHawaiiMaui,Hawaii,Maui,2020-07-15 19:29:11.333259,2020-07-07 00:00:00.000000,0.00755564,0.00863618,0.00971672,12,14,16,7,8,9,0.00426410,0.00505947,0.00585484,0.84774778,0.93214798,1.01654818
15009,0,USHawaiiMaui,Hawaii,Maui,2020-07-15 19:29:11.333259,2020-07-08 00:00:00.000000,0.00820146,0.00902945,0.00985744,13,15,16,7,8,9,0.00456679,0.00504562,0.00552446,0.80380600,0.90412968,1.00445336
15009,0,USHawaiiMaui,Hawaii,Maui,2020-07-15 19:29:11.333259,2020-07-09 00:00:00.000000,0.00883714,0.00927718,0.00971722,14,15,16,8,9,9,0.00500227,0.00546357,0.00592487,0.77208214,0.88321768,0.99435322
15009,0,USHawaiiMaui,Hawaii,Maui,2020-07-15 19:29:11.333259,2020-07-10 00:00:00.000000,0.00953776,0.00959834,0.00965891,15,16,16,8,9,9,0.00532737,0.00539765,0.00546794,0.75164913,0.86916373,0.98667833
15009,0,USHawaiiMaui,Hawaii,Maui,2020-07-15 19:29:11.333259,2020-07-11 00:00:00.000000,0.00939813,0.00981751,0.01023688,15,16,17,9,9,9,0.00575601,0.00577944,0.00580288,0.73943267,0.86034138,0.98125009
15009,0,USHawaiiMaui,Hawaii,Maui,2020-07-15 19:29:11.333259,2020-07-12 00:00:00.000000,0.00927633,0.01014748,0.01101864,15,16,18,8,9,10,0.00527547,0.00572011,0.00616475,0.73244904,0.85502552,0.97760201
15009,0,USHawaiiMaui,Hawaii,Maui,2020-07-15 19:29:11.333259,2020-07-13 00:00:00.000000,0.00899247,0.01040049,0.01180850,15,17,19,9,10,11,0.00550978,0.00610294,0.00669609,0.72855799,0.85189580,0.97523360
15009,0,USHawaiiMaui,Hawaii,Maui,2020-07-15 19:29:11.333259,2020-07-14 00:00:00.000000,0.00885917,0.01077834,0.01269752,14,18,21,8,10,11,0.00504964,0.00607979,0.00710994,0.72642065,0.85007547,0.97373028
15009,0,USHawaiiMaui,Hawaii,Maui,2020-07-15 19:29:11.333259,2020-07-15 00:00:00.000000,0.00858470,0.01109365,0.01360261,14,18,22,8,10,12,0.00525408,0.00648319,0.00771230,0.72525561,0.84902261,0.97278961
15009,0,USHawaiiMaui,Hawaii,Maui,2020-07-15 19:29:11.333259,2020-07-16 00:00:00.000000,0.00845534,0.01153887,0.01462240,14,19,24,8,10,13,0.00482643,0.00650896,0.00819149,0.72462311,0.84841467,0.97220623
15009,0,USHawaiiMaui,Hawaii,Maui,2020-07-15 19:29:11.333259,2020-07-17 00:00:00.000000,0.00819921,0.01193233,0.01566545,13,19,26,8,11,14,0.00500997,0.00694450,0.00887903,0.72428041,0.84806339,0.97184638
15009,0,USHawaiiMaui,Hawaii,Maui,2020-07-15 19:29:11.333259,2020-07-18 00:00:00.000000,0.00807841,0.01245881,0.01683922,13,20,28,7,11,15,0.00461650,0.00702635,0.00943620,0.72409489,0.84786001,0.97162513
15009,0,USHawaiiMaui,Hawaii,Maui,2020-07-15 19:29:11.333259,2020-07-19 00:00:00.000000,0.00784273,0.01294318,0.01804364,13,21,30,8,12,17,0.00478334,0.00750333,0.01022332,0.72399448,0.84774192,0.97148937
15009,0,USHawaiiMaui,Hawaii,Maui,2020-07-15 19:29:11.333259,2020-07-20 00:00:00.000000,0.00773213,0.01356418,0.01939623,12,22,32,7,12,18,0.00442290,0.00764729,0.01087169,0.72394012,0.84767313,0.97140615
15009,0,USHawaiiMaui,Hawaii,Maui,2020-07-15 19:29:11.333259,2020-07-21 00:00:00.000000,0.00751720,0.01415243,0.02078767,12,23,34,7,13,19,0.00457578,0.00817491,0.01177404,0.72391068,0.84763293,0.97135517
15009,0,USHawaiiMaui,Hawaii,Maui,2020-07-15 19:29:11.333259,2020-07-22 00:00:00.000000,0.00741768,0.01488227,0.02234686,12,24,37,7,14,20,0.00424660,0.00838742,0.01252824,0.72389473,0.84760934,0.97132394
15009,0,USHawaiiMaui,Hawaii,Maui,2020-07-15 19:29:11.333259,2020-07-23 00:00:00.000000,0.00722341,0.01558885,0.02395429,12,26,40,7,15,22,0.00438777,0.00897556,0.01356336,0.72388608,0.84759545,0.97130482
15009,0,USHawaiiMaui,Hawaii,Maui,2020-07-15 19:29:11.333259,2020-07-24 00:00:00.000000,0.00713573,0.01644368,0.02575163,11,27,43,6,15,24,0.00408811,0.00926406,0.01444001,0.72388139,0.84758725,0.97129311
15009,0,USHawaiiMaui,Hawaii,Maui,2020-07-15 19:29:11.333259,2020-07-25 00:00:00.000000,0.00696206,0.01728510,0.02760814,11,28,46,7,16,26,0.00421963,0.00992374,0.01562785,0.72387884,0.84758239,0.97128594
15009,0,USHawaiiMaui,Hawaii,Maui,2020-07-15 19:29:11.333259,2020-07-26 00:00:00.000000,0.00688701,0.01828337,0.02967974,11,30,49,6,17,27,0.00394793,0.01029697,0.01664601,0.72387745,0.84757950,0.97128155
15009,0,USHawaiiMaui,Hawaii,Maui,2020-07-15 19:29:11.333259,2020-07-27 00:00:00.000000,0.00673404,0.01927865,0.03182327,11,32,53,6,18,30,0.00407175,0.01104055,0.01800935,0.72387670,0.84757778,0.97127886
