FIPS,HR_UID,nameid,province,region,analysisTime,dates,pointprevalence_025,pointprevalence_50,pointprevalence_975,pointinfections_025,pointinfections_50,pointinfections_975,pointinfectious_025,pointinfectious_50,pointinfectious_975,pointinfectiousprevalence_05,pointinfectiousprevalence_50,pointinfectiousprevalence_95,infectrate_025,infectrate_50,infectrate_975
48485,0,USTexasWichita,Texas,Wichita,2020-07-17 22:43:37.529821,2020-03-09 00:00:00.000000,0.00155175,0.01616193,0.07520304,2,21,99,0,9,33,0.00000000,0.00709491,0.02547331,0.55901897,0.73517000,1.08055588
48485,0,USTexasWichita,Texas,Wichita,2020-07-17 22:43:37.529821,2020-03-10 00:00:00.000000,0.00202244,0.01682589,0.06791853,2,22,89,0,10,37,0.00041860,0.00774277,0.02835835,0.55902032,0.73516960,1.08064162
48485,0,USTexasWichita,Texas,Wichita,2020-07-17 22:43:37.529821,2020-03-11 00:00:00.000000,0.00149182,0.01773951,0.06904694,1,23,91,0,11,41,0.00021048,0.00904184,0.03156673,0.55902250,0.73516813,1.08079595
48485,0,USTexasWichita,Texas,Wichita,2020-07-17 22:43:37.529821,2020-03-12 00:00:00.000000,0.00154302,0.01892270,0.07189106,2,25,95,0,12,44,0.00043820,0.00918065,0.03327792,0.55902594,0.73516266,1.08107633
48485,0,USTexasWichita,Texas,Wichita,2020-07-17 22:43:37.529821,2020-03-13 00:00:00.000000,0.00153646,0.02020338,0.07529255,2,26,99,0,12,46,0.00036202,0.00939728,0.03553618,0.55903122,0.73514226,1.08159321
48485,0,USTexasWichita,Texas,Wichita,2020-07-17 22:43:37.529821,2020-03-14 00:00:00.000000,0.00140229,0.02074889,0.07983463,1,27,105,0,12,49,0.00040768,0.00954409,0.03743699,0.55903896,0.73506614,1.08256717
48485,0,USTexasWichita,Texas,Wichita,2020-07-17 22:43:37.529821,2020-03-15 00:00:00.000000,0.00175958,0.02202839,0.08418845,2,29,111,0,13,52,0.00040173,0.01042493,0.03967606,0.55904923,0.73478357,1.08445905
48485,0,USTexasWichita,Texas,Wichita,2020-07-17 22:43:37.529821,2020-03-16 00:00:00.000000,0.00188765,0.02350370,0.08904363,2,31,117,0,14,55,0.00045201,0.01069243,0.04187069,0.55905989,0.73375656,1.08826911
48485,0,USTexasWichita,Texas,Wichita,2020-07-17 22:43:37.529821,2020-03-17 00:00:00.000000,0.00202748,0.02580411,0.09391952,2,34,124,0,14,58,0.00046862,0.01131247,0.04427629,0.55906096,0.73029692,1.09614598
48485,0,USTexasWichita,Texas,Wichita,2020-07-17 22:43:37.529821,2020-03-18 00:00:00.000000,0.00217890,0.02582378,0.09894989,2,34,130,0,14,61,0.00049288,0.01133035,0.04672191,0.56335050,0.72109432,1.11198352
48485,0,USTexasWichita,Texas,Wichita,2020-07-17 22:43:37.529821,2020-03-19 00:00:00.000000,0.00234049,0.02737745,0.10381598,3,36,137,0,15,65,0.00056240,0.01208429,0.04925074,0.59070345,0.70677052,1.13922063
48485,0,USTexasWichita,Texas,Wichita,2020-07-17 22:43:37.529821,2020-03-20 00:00:00.000000,0.00250921,0.02832942,0.10866841,3,37,143,0,16,68,0.00060490,0.01224457,0.05173519,0.58274667,0.69616901,1.19041855
48485,0,USTexasWichita,Texas,Wichita,2020-07-17 22:43:37.529821,2020-03-21 00:00:00.000000,0.00261147,0.03006112,0.11358403,3,39,150,0,16,71,0.00065009,0.01225959,0.05421477,0.57165343,0.69183596,1.24081101
48485,0,USTexasWichita,Texas,Wichita,2020-07-17 22:43:37.529821,2020-03-22 00:00:00.000000,0.00269009,0.03071344,0.11869243,3,40,156,0,15,74,0.00069823,0.01208695,0.05671405,0.55625875,0.69320915,1.26271074
48485,0,USTexasWichita,Texas,Wichita,2020-07-17 22:43:37.529821,2020-03-23 00:00:00.000000,0.00274911,0.03266430,0.12400315,3,43,163,0,15,78,0.00074754,0.01192448,0.05928902,0.52384499,0.69201775,1.25780233
48485,0,USTexasWichita,Texas,Wichita,2020-07-17 22:43:37.529821,2020-03-24 00:00:00.000000,0.00280073,0.03396932,0.12953924,3,44,171,1,15,81,0.00079800,0.01176216,0.06195490,0.49970235,0.68944394,1.25600605
48485,0,USTexasWichita,Texas,Wichita,2020-07-17 22:43:37.529821,2020-03-25 00:00:00.000000,0.00283659,0.03661614,0.13527532,3,48,178,1,15,85,0.00084984,0.01159377,0.06472795,0.49099292,0.68821422,1.25600603
48485,0,USTexasWichita,Texas,Wichita,2020-07-17 22:43:37.529821,2020-03-26 00:00:00.000000,0.00290102,0.03734299,0.14114715,3,49,186,1,15,89,0.00090394,0.01186859,0.06760272,0.48285816,0.68473328,1.25576150
48485,0,USTexasWichita,Texas,Wichita,2020-07-17 22:43:37.529821,2020-03-27 00:00:00.000000,0.00292061,0.03895868,0.14693126,3,51,194,1,16,93,0.00096100,0.01227423,0.07055534,0.43681794,0.67501717,1.25387876
48485,0,USTexasWichita,Texas,Wichita,2020-07-17 22:43:37.529821,2020-03-28 00:00:00.000000,0.00289202,0.03701446,0.15205946,3,48,201,1,16,97,0.00102135,0.01254008,0.07349648,0.40499466,0.65034298,1.23218970
48485,0,USTexasWichita,Texas,Wichita,2020-07-17 22:43:37.529821,2020-03-29 00:00:00.000000,0.00286359,0.04038837,0.15547839,3,53,205,1,17,100,0.00106772,0.01289215,0.07619339,0.40308952,0.64458431,1.19742743
48485,0,USTexasWichita,Texas,Wichita,2020-07-17 22:43:37.529821,2020-03-30 00:00:00.000000,0.00286839,0.03864908,0.15630820,3,51,206,1,17,103,0.00111748,0.01294534,0.07819989,0.39899702,0.63618120,1.17919838
48485,0,USTexasWichita,Texas,Wichita,2020-07-17 22:43:37.529821,2020-03-31 00:00:00.000000,0.00301796,0.03912442,0.15484785,3,51,204,1,15,104,0.00116990,0.01177151,0.07908896,0.38551545,0.62028021,1.18869969
48485,0,USTexasWichita,Texas,Wichita,2020-07-17 22:43:37.529821,2020-04-01 00:00:00.000000,0.00302792,0.03947162,0.15208946,4,52,201,1,14,104,0.00122551,0.01109144,0.07886543,0.38398896,0.60511288,1.21945521
48485,0,USTexasWichita,Texas,Wichita,2020-07-17 22:43:37.529821,2020-04-02 00:00:00.000000,0.00292671,0.03789796,0.14882855,3,50,196,1,16,102,0.00117492,0.01217735,0.07786684,0.36985728,0.58269643,1.22479786
48485,0,USTexasWichita,Texas,Wichita,2020-07-17 22:43:37.529821,2020-04-03 00:00:00.000000,0.00286539,0.03793629,0.14546606,3,50,192,1,17,101,0.00126142,0.01305991,0.07644856,0.36779205,0.56904289,1.23276445
48485,0,USTexasWichita,Texas,Wichita,2020-07-17 22:43:37.529821,2020-04-04 00:00:00.000000,0.00266236,0.03762586,0.14212979,3,49,187,1,16,98,0.00127119,0.01216251,0.07485091,0.36418863,0.54037807,1.22735405
48485,0,USTexasWichita,Texas,Wichita,2020-07-17 22:43:37.529821,2020-04-05 00:00:00.000000,0.00249734,0.03784630,0.13879964,3,50,183,1,16,96,0.00122331,0.01229721,0.07319439,0.35618914,0.51885803,1.21987681
48485,0,USTexasWichita,Texas,Wichita,2020-07-17 22:43:37.529821,2020-04-06 00:00:00.000000,0.00238044,0.03549516,0.13540207,3,46,179,1,15,94,0.00116039,0.01206747,0.07151345,0.32338960,0.51233902,1.21569385
48485,0,USTexasWichita,Texas,Wichita,2020-07-17 22:43:37.529821,2020-04-07 00:00:00.000000,0.00222063,0.03599765,0.13186990,2,47,174,1,15,92,0.00116067,0.01176291,0.06979721,0.30491015,0.50221457,1.21340073
48485,0,USTexasWichita,Texas,Wichita,2020-07-17 22:43:37.529821,2020-04-08 00:00:00.000000,0.00220941,0.03669982,0.12817044,2,48,169,1,16,89,0.00114779,0.01239224,0.06802180,0.29830711,0.49398836,1.24668592
48485,0,USTexasWichita,Texas,Wichita,2020-07-17 22:43:37.529821,2020-04-09 00:00:00.000000,0.00213566,0.03571573,0.12431398,2,47,164,1,16,87,0.00110346,0.01228932,0.06617005,0.29441121,0.49052893,1.26087180
48485,0,USTexasWichita,Texas,Wichita,2020-07-17 22:43:37.529821,2020-04-10 00:00:00.000000,0.00206214,0.03395671,0.12034555,2,44,159,1,17,84,0.00106118,0.01306189,0.06424090,0.28972015,0.47604146,1.25254387
48485,0,USTexasWichita,Texas,Wichita,2020-07-17 22:43:37.529821,2020-04-11 00:00:00.000000,0.00189619,0.03397434,0.11632617,2,44,153,1,17,82,0.00101990,0.01301177,0.06224970,0.28435416,0.48264598,1.22898667
48485,0,USTexasWichita,Texas,Wichita,2020-07-17 22:43:37.529821,2020-04-12 00:00:00.000000,0.00175292,0.03406109,0.11277444,2,45,149,1,16,79,0.00095062,0.01210440,0.06022195,0.28047735,0.49710242,1.25080792
48485,0,USTexasWichita,Texas,Wichita,2020-07-17 22:43:37.529821,2020-04-13 00:00:00.000000,0.00163460,0.03521244,0.10835665,2,46,143,1,15,76,0.00091442,0.01202843,0.05818544,0.27857234,0.50139793,1.24734001
48485,0,USTexasWichita,Texas,Wichita,2020-07-17 22:43:37.529821,2020-04-14 00:00:00.000000,0.00154743,0.03186122,0.10523737,2,42,139,1,15,74,0.00085866,0.01163055,0.05616451,0.27790645,0.49136831,1.21739570
48485,0,USTexasWichita,Texas,Wichita,2020-07-17 22:43:37.529821,2020-04-15 00:00:00.000000,0.00146208,0.02845197,0.10467740,1,37,138,1,15,71,0.00080803,0.01145680,0.05417750,0.27891411,0.48877250,1.22951159
48485,0,USTexasWichita,Texas,Wichita,2020-07-17 22:43:37.529821,2020-04-16 00:00:00.000000,0.00138094,0.02619362,0.11772126,1,34,155,1,14,69,0.00076302,0.01085715,0.05223627,0.28028275,0.49358930,1.25265464
48485,0,USTexasWichita,Texas,Wichita,2020-07-17 22:43:37.529821,2020-04-17 00:00:00.000000,0.00130517,0.02356465,0.11552890,1,31,152,0,14,66,0.00072164,0.01089084,0.05034534,0.28313927,0.49320145,1.32101556
48485,0,USTexasWichita,Texas,Wichita,2020-07-17 22:43:37.529821,2020-04-18 00:00:00.000000,0.00123459,0.02144078,0.13090641,1,28,173,0,14,64,0.00068336,0.01132455,0.04849526,0.29004402,0.49702909,1.37674544
48485,0,USTexasWichita,Texas,Wichita,2020-07-17 22:43:37.529821,2020-04-19 00:00:00.000000,0.00116652,0.01974756,0.12795803,1,26,169,0,14,61,0.00064751,0.01096383,0.04663554,0.30274175,0.49581924,1.38846400
48485,0,USTexasWichita,Texas,Wichita,2020-07-17 22:43:37.529821,2020-04-20 00:00:00.000000,0.00109646,0.01941758,0.14584152,1,25,192,0,13,59,0.00061351,0.01031684,0.04463067,0.31955335,0.49833931,1.44799455
48485,0,USTexasWichita,Texas,Wichita,2020-07-17 22:43:37.529821,2020-04-21 00:00:00.000000,0.00100159,0.01800859,0.14156670,1,23,187,0,12,56,0.00055911,0.00950579,0.04238152,0.33104523,0.49934484,1.46436067
48485,0,USTexasWichita,Texas,Wichita,2020-07-17 22:43:37.529821,2020-04-22 00:00:00.000000,0.00090974,0.01839008,0.16335910,1,24,216,0,11,52,0.00051398,0.00885400,0.04000735,0.33429727,0.49732799,1.47399491
48485,0,USTexasWichita,Texas,Wichita,2020-07-17 22:43:37.529821,2020-04-23 00:00:00.000000,0.00083157,0.01826780,0.15996121,1,24,211,0,10,49,0.00047597,0.00826362,0.03769419,0.34513516,0.51097366,1.47478595
48485,0,USTexasWichita,Texas,Wichita,2020-07-17 22:43:37.529821,2020-04-24 00:00:00.000000,0.00076485,0.02008749,0.18582727,1,26,245,0,10,49,0.00044362,0.00809108,0.03730044,0.34451767,0.51791761,1.47534579
48485,0,USTexasWichita,Texas,Wichita,2020-07-17 22:43:37.529821,2020-04-25 00:00:00.000000,0.00070747,0.01913592,0.19059558,0,25,252,0,10,52,0.00041285,0.00813662,0.03978603,0.34388974,0.52256803,1.47651221
48485,0,USTexasWichita,Texas,Wichita,2020-07-17 22:43:37.529821,2020-04-26 00:00:00.000000,0.00065895,0.01873864,0.22027669,0,24,291,0,11,56,0.00037881,0.00842579,0.04243492,0.34359396,0.53924107,1.47881856
48485,0,USTexasWichita,Texas,Wichita,2020-07-17 22:43:37.529821,2020-04-27 00:00:00.000000,0.00061946,0.01726640,0.22851954,0,22,302,0,10,59,0.00035107,0.00819089,0.04522859,0.35138321,0.54446675,1.48080715
48485,0,USTexasWichita,Texas,Wichita,2020-07-17 22:43:37.529821,2020-04-28 00:00:00.000000,0.00058665,0.01856851,0.26371662,0,24,348,0,10,63,0.00033579,0.00809059,0.04816109,0.35378780,0.54686112,1.47862919
48485,0,USTexasWichita,Texas,Wichita,2020-07-17 22:43:37.529821,2020-04-29 00:00:00.000000,0.00056050,0.01832975,0.27231570,0,24,360,0,10,67,0.00031649,0.00782045,0.05126554,0.35653971,0.56352458,1.47010754
48485,0,USTexasWichita,Texas,Wichita,2020-07-17 22:43:37.529821,2020-04-30 00:00:00.000000,0.00053713,0.01851534,0.31431685,0,24,415,0,10,73,0.00029387,0.00797508,0.05573362,0.35682499,0.57275420,1.46590706
48485,0,USTexasWichita,Texas,Wichita,2020-07-17 22:43:37.529821,2020-05-01 00:00:00.000000,0.00051477,0.01863031,0.32800717,0,24,433,0,10,79,0.00027270,0.00782787,0.06048955,0.35866151,0.58169118,1.54542919
48485,0,USTexasWichita,Texas,Wichita,2020-07-17 22:43:37.529821,2020-05-02 00:00:00.000000,0.00048510,0.01863588,0.36357785,0,24,480,0,9,86,0.00025448,0.00739941,0.06515383,0.35917852,0.56943735,1.62450362
48485,0,USTexasWichita,Texas,Wichita,2020-07-17 22:43:37.529821,2020-05-03 00:00:00.000000,0.00045853,0.01868341,0.39495804,0,24,522,0,9,92,0.00023978,0.00745079,0.06968970,0.35917764,0.58796121,1.69693098
48485,0,USTexasWichita,Texas,Wichita,2020-07-17 22:43:37.529821,2020-05-04 00:00:00.000000,0.00043656,0.01831003,0.42954265,0,24,567,0,10,98,0.00022784,0.00797743,0.07439525,0.35918162,0.58221587,1.74034446
48485,0,USTexasWichita,Texas,Wichita,2020-07-17 22:43:37.529821,2020-05-05 00:00:00.000000,0.00041766,0.01795816,0.46100975,0,23,609,0,11,105,0.00021761,0.00836066,0.07967427,0.35866693,0.59097399,1.76736851
48485,0,USTexasWichita,Texas,Wichita,2020-07-17 22:43:37.529821,2020-05-06 00:00:00.000000,0.00040217,0.01761824,0.49239483,0,23,651,0,11,112,0.00020870,0.00856915,0.08511230,0.35871466,0.60428326,1.79018869
48485,0,USTexasWichita,Texas,Wichita,2020-07-17 22:43:37.529821,2020-05-07 00:00:00.000000,0.00039180,0.01728527,0.52582808,0,22,695,0,11,124,0.00020212,0.00857208,0.09424842,0.35884571,0.62627913,1.81968792
48485,0,USTexasWichita,Texas,Wichita,2020-07-17 22:43:37.529821,2020-05-08 00:00:00.000000,0.00038536,0.01695709,0.55962212,0,22,739,0,11,129,0.00020364,0.00846926,0.09811010,0.35919972,0.63344146,1.86266156
48485,0,USTexasWichita,Texas,Wichita,2020-07-17 22:43:37.529821,2020-05-09 00:00:00.000000,0.00038301,0.01663344,0.61459551,0,21,812,0,11,145,0.00020779,0.00832786,0.11000308,0.36014719,0.64636082,1.87583878
48485,0,USTexasWichita,Texas,Wichita,2020-07-17 22:43:37.529821,2020-05-10 00:00:00.000000,0.00038726,0.01631605,0.67016939,0,21,886,0,10,147,0.00021390,0.00814813,0.11121019,0.36279230,0.67338327,1.88222350
48485,0,USTexasWichita,Texas,Wichita,2020-07-17 22:43:37.529821,2020-05-11 00:00:00.000000,0.00040006,0.01601077,0.72849179,0,21,963,0,10,168,0.00021947,0.00796330,0.12716067,0.36845109,0.68513071,1.89040310
48485,0,USTexasWichita,Texas,Wichita,2020-07-17 22:43:37.529821,2020-05-12 00:00:00.000000,0.00042033,0.01573096,0.79284504,0,20,1048,0,10,175,0.00022739,0.00779938,0.13304039,0.38159169,0.69932317,1.87794558
48485,0,USTexasWichita,Texas,Wichita,2020-07-17 22:43:37.529821,2020-05-13 00:00:00.000000,0.00044564,0.01549068,0.88499189,0,20,1170,0,10,194,0.00023703,0.00767124,0.14687193,0.40522601,0.70585949,1.88475464
48485,0,USTexasWichita,Texas,Wichita,2020-07-17 22:43:37.529821,2020-05-14 00:00:00.000000,0.00047231,0.01528720,0.99052537,0,20,1309,0,10,208,0.00024747,0.00758277,0.15768721,0.42862591,0.71454308,1.89132670
48485,0,USTexasWichita,Texas,Wichita,2020-07-17 22:43:37.529821,2020-05-15 00:00:00.000000,0.00049182,0.01512062,1.09037750,0,19,1441,0,9,232,0.00025869,0.00752588,0.17546277,0.44587208,0.71615757,1.89997055
48485,0,USTexasWichita,Texas,Wichita,2020-07-17 22:43:37.529821,2020-05-16 00:00:00.000000,0.00051320,0.01508115,1.20045151,0,19,1587,0,9,245,0.00027052,0.00748835,0.18594188,0.46139053,0.74512530,1.94846654
48485,0,USTexasWichita,Texas,Wichita,2020-07-17 22:43:37.529821,2020-05-17 00:00:00.000000,0.00053879,0.01548014,1.32215939,0,20,1748,0,9,275,0.00028326,0.00746099,0.20846578,0.49120581,0.78739987,2.10125496
48485,0,USTexasWichita,Texas,Wichita,2020-07-17 22:43:37.529821,2020-05-18 00:00:00.000000,0.00057945,0.01636606,1.48893308,0,21,1968,0,9,293,0.00030005,0.00743865,0.22176930,0.53978997,0.81824294,2.06675783
48485,0,USTexasWichita,Texas,Wichita,2020-07-17 22:43:37.529821,2020-05-19 00:00:00.000000,0.00063473,0.01746208,1.68106129,0,23,2222,0,9,328,0.00033990,0.00754274,0.24811628,0.54834009,0.83814249,2.21429197
48485,0,USTexasWichita,Texas,Wichita,2020-07-17 22:43:37.529821,2020-05-20 00:00:00.000000,0.00071590,0.01864433,1.89468952,0,24,2505,0,10,353,0.00039573,0.00804314,0.26752294,0.57348005,0.86441000,2.23969697
48485,0,USTexasWichita,Texas,Wichita,2020-07-17 22:43:37.529821,2020-05-21 00:00:00.000000,0.00079812,0.01919827,2.13351392,1,25,2821,0,11,393,0.00044372,0.00857768,0.29736047,0.59709512,0.87852254,2.32579223
48485,0,USTexasWichita,Texas,Wichita,2020-07-17 22:43:37.529821,2020-05-22 00:00:00.000000,0.00092087,0.01949525,2.40188380,1,25,3176,0,11,430,0.00050165,0.00901556,0.32523305,0.61805654,0.89856284,2.37165985
48485,0,USTexasWichita,Texas,Wichita,2020-07-17 22:43:37.529821,2020-05-23 00:00:00.000000,0.00108732,0.01981274,2.70524329,1,26,3577,0,12,475,0.00057890,0.00914327,0.35956547,0.61226733,0.94165093,2.54242928
48485,0,USTexasWichita,Texas,Wichita,2020-07-17 22:43:37.529821,2020-05-24 00:00:00.000000,0.00129632,0.02072249,3.04214285,1,27,4022,0,12,526,0.00067610,0.00927163,0.39804799,0.63677063,0.97342843,2.54255773
48485,0,USTexasWichita,Texas,Wichita,2020-07-17 22:43:37.529821,2020-05-25 00:00:00.000000,0.00155166,0.02166669,3.40500468,2,28,4502,1,12,583,0.00079088,0.00943324,0.44114365,0.65867772,0.99933043,2.57503267
48485,0,USTexasWichita,Texas,Wichita,2020-07-17 22:43:37.529821,2020-05-26 00:00:00.000000,0.00185106,0.02388000,3.81585691,2,31,5045,1,12,653,0.00092843,0.00967109,0.49393298,0.66689275,1.04309517,2.82278149
48485,0,USTexasWichita,Texas,Wichita,2020-07-17 22:43:37.529821,2020-05-27 00:00:00.000000,0.00219399,0.02639514,4.28246275,2,34,5662,1,13,741,0.00109912,0.01004117,0.56070825,0.69257236,1.05843348,3.17014093
48485,0,USTexasWichita,Texas,Wichita,2020-07-17 22:43:37.529821,2020-05-28 00:00:00.000000,0.00260911,0.02916461,4.81449291,3,38,6366,1,14,841,0.00130751,0.01112314,0.63603447,0.70562564,1.06278248,3.30897263
48485,0,USTexasWichita,Texas,Wichita,2020-07-17 22:43:37.529821,2020-05-29 00:00:00.000000,0.00310886,0.03221531,5.42407544,4,42,7172,2,16,973,0.00155951,0.01239357,0.73637427,0.70886106,1.08495955,3.45882882
48485,0,USTexasWichita,Texas,Wichita,2020-07-17 22:43:37.529821,2020-05-30 00:00:00.000000,0.00371137,0.03557367,6.12621783,4,47,8100,2,18,1081,0.00186281,0.01380132,0.81815252,0.71128704,1.11749525,3.59585929
48485,0,USTexasWichita,Texas,Wichita,2020-07-17 22:43:37.529821,2020-05-31 00:00:00.000000,0.00445023,0.03926446,7.26347441,5,51,9604,2,20,1225,0.00222782,0.01535874,0.92648407,0.71939730,1.17061630,3.62041499
48485,0,USTexasWichita,Texas,Wichita,2020-07-17 22:43:37.529821,2020-06-01 00:00:00.000000,0.00542017,0.04331554,8.62203570,7,57,11400,3,22,1414,0.00267071,0.01708377,1.06984211,0.74378228,1.20445469,3.79158847
48485,0,USTexasWichita,Texas,Wichita,2020-07-17 22:43:37.529821,2020-06-02 00:00:00.000000,0.00684882,0.04789022,10.13487884,9,63,13401,4,25,1624,0.00322652,0.01936815,1.22833519,0.79647089,1.25532303,3.87502536
48485,0,USTexasWichita,Texas,Wichita,2020-07-17 22:43:37.529821,2020-06-03 00:00:00.000000,0.00887232,0.05450276,11.73917538,11,72,15522,5,29,1814,0.00402674,0.02204366,1.37199090,0.81158580,1.27432263,3.90944356
48485,0,USTexasWichita,Texas,Wichita,2020-07-17 22:43:37.529821,2020-06-04 00:00:00.000000,0.01052211,0.06402285,13.23642405,13,84,17502,6,34,2085,0.00501756,0.02590343,1.57694118,0.83347920,1.28973499,3.90759432
48485,0,USTexasWichita,Texas,Wichita,2020-07-17 22:43:37.529821,2020-06-05 00:00:00.000000,0.01246153,0.07479287,15.18327953,16,98,20076,7,40,2430,0.00587839,0.03065471,1.83806783,0.86830247,1.32953141,3.89573786
48485,0,USTexasWichita,Texas,Wichita,2020-07-17 22:43:37.529821,2020-06-06 00:00:00.000000,0.01566942,0.08645103,17.99742170,20,114,23797,8,47,2848,0.00663431,0.03628316,2.15455284,0.92611146,1.35580709,3.91030971
48485,0,USTexasWichita,Texas,Wichita,2020-07-17 22:43:37.529821,2020-06-07 00:00:00.000000,0.02023056,0.09954296,20.85522157,26,131,27576,10,57,3325,0.00793397,0.04333935,2.51528840,0.94798272,1.40183274,3.96063045
48485,0,USTexasWichita,Texas,Wichita,2020-07-17 22:43:37.529821,2020-06-08 00:00:00.000000,0.02485674,0.11413887,23.27058325,32,150,30770,13,70,3893,0.01056884,0.05334443,2.94411870,0.98412676,1.44380901,3.95971047
48485,0,USTexasWichita,Texas,Wichita,2020-07-17 22:43:37.529821,2020-06-09 00:00:00.000000,0.03151714,0.13458510,26.37740222,41,177,34878,16,85,4600,0.01258207,0.06456017,3.47883674,1.03945154,1.46939223,3.98955276
48485,0,USTexasWichita,Texas,Wichita,2020-07-17 22:43:37.529821,2020-06-10 00:00:00.000000,0.03712135,0.16766403,30.24054755,49,221,39987,19,105,5447,0.01510702,0.07985946,4.12000573,1.06567038,1.48511142,4.05130386
48485,0,USTexasWichita,Texas,Wichita,2020-07-17 22:43:37.529821,2020-06-11 00:00:00.000000,0.04458874,0.20564568,34.72129596,58,271,45911,24,135,6463,0.01842008,0.10251203,4.88828728,1.08405602,1.48860433,4.14370217
48485,0,USTexasWichita,Texas,Wichita,2020-07-17 22:43:37.529821,2020-06-12 00:00:00.000000,0.05502018,0.26706054,39.50669717,72,353,52239,29,154,7660,0.02243169,0.11653438,5.79319377,1.07183348,1.45389653,4.43084869
48485,0,USTexasWichita,Texas,Wichita,2020-07-17 22:43:37.529821,2020-06-13 00:00:00.000000,0.06655901,0.31532647,44.40429723,88,416,58715,36,175,9057,0.02771669,0.13246469,6.85014974,1.05076728,1.43729564,4.65920819
48485,0,USTexasWichita,Texas,Wichita,2020-07-17 22:43:37.529821,2020-06-14 00:00:00.000000,0.08024899,0.35832436,49.15882984,106,473,65002,43,199,10620,0.03293165,0.15055631,8.03206696,0.99992026,1.42953074,4.81596850
48485,0,USTexasWichita,Texas,Wichita,2020-07-17 22:43:37.529821,2020-06-15 00:00:00.000000,0.09797547,0.40709624,53.55360719,129,538,70813,52,226,12092,0.04003951,0.17109481,9.14483992,0.93234393,1.42669750,4.83620427
48485,0,USTexasWichita,Texas,Wichita,2020-07-17 22:43:37.529821,2020-06-16 00:00:00.000000,0.12082680,0.46230430,57.38070980,159,611,75874,64,257,13732,0.04885265,0.19439639,10.38527041,0.91712924,1.39044621,5.18621543
48485,0,USTexasWichita,Texas,Wichita,2020-07-17 22:43:37.529821,2020-06-17 00:00:00.000000,0.14997725,0.52439762,61.15137924,198,693,80860,78,291,15369,0.05969454,0.22078755,11.62346101,0.88565939,1.36051786,5.27940476
48485,0,USTexasWichita,Texas,Wichita,2020-07-17 22:43:37.529821,2020-06-18 00:00:00.000000,0.18346749,0.59354109,63.75024698,242,784,84296,92,331,17490,0.06984075,0.25052029,13.22737886,0.87068213,1.32814431,5.28204746
48485,0,USTexasWichita,Texas,Wichita,2020-07-17 22:43:37.529821,2020-06-19 00:00:00.000000,0.21936452,0.66991105,66.23057936,290,885,87576,107,383,19441,0.08140676,0.29016470,14.70291060,0.84130218,1.29637452,5.18600996
48485,0,USTexasWichita,Texas,Wichita,2020-07-17 22:43:37.529821,2020-06-20 00:00:00.000000,0.25420447,0.75219666,69.34605178,336,994,91696,125,443,21164,0.09464380,0.33529709,16.00609940,0.77904292,1.25173765,5.19208940
48485,0,USTexasWichita,Texas,Wichita,2020-07-17 22:43:37.529821,2020-06-21 00:00:00.000000,0.28887125,0.83583033,70.82640831,381,1105,93653,145,498,22609,0.10983307,0.37731535,17.09845091,0.68519843,1.16548469,5.28727058
48485,0,USTexasWichita,Texas,Wichita,2020-07-17 22:43:37.529821,2020-06-22 00:00:00.000000,0.32814240,0.91345954,72.51371792,433,1207,95884,169,538,23032,0.12797401,0.40689419,17.41859019,0.64327384,1.08181572,5.37696039
48485,0,USTexasWichita,Texas,Wichita,2020-07-17 22:43:37.529821,2020-06-23 00:00:00.000000,0.35625442,0.98063275,74.28330213,471,1296,98224,193,583,24078,0.14640816,0.44137008,18.20984710,0.63989796,1.00963765,5.38865025
48485,0,USTexasWichita,Texas,Wichita,2020-07-17 22:43:37.529821,2020-06-24 00:00:00.000000,0.38039435,1.03939037,73.02539368,502,1374,96561,215,630,24863,0.16271228,0.47693994,18.80348102,0.63966343,0.91382284,5.36990858
48485,0,USTexasWichita,Texas,Wichita,2020-07-17 22:43:37.529821,2020-06-25 00:00:00.000000,0.39578061,1.09429026,73.94501477,523,1446,97777,231,672,25281,0.17541103,0.50855287,19.11932932,0.63940938,0.86353693,5.32437379
48485,0,USTexasWichita,Texas,Wichita,2020-07-17 22:43:37.529821,2020-06-26 00:00:00.000000,0.41457773,1.14877392,76.51586595,548,1519,101176,247,710,25255,0.18726431,0.53769057,19.09992163,0.63405057,0.83845679,5.26316166
48485,0,USTexasWichita,Texas,Wichita,2020-07-17 22:43:37.529821,2020-06-27 00:00:00.000000,0.44732313,1.20474682,79.83273632,591,1593,105562,264,748,24974,0.19998425,0.56587711,18.88733692,0.61851506,0.82501568,5.19819007
48485,0,USTexasWichita,Texas,Wichita,2020-07-17 22:43:37.529821,2020-06-28 00:00:00.000000,0.48227311,1.26341692,81.81784092,637,1670,108187,271,785,24670,0.20535400,0.59421411,18.65716156,0.60446015,0.81002792,5.14046298
48485,0,USTexasWichita,Texas,Wichita,2020-07-17 22:43:37.529821,2020-06-29 00:00:00.000000,0.49293154,1.32577882,80.82471571,651,1753,106874,264,824,24533,0.19977205,0.62348209,18.55353570,0.58223657,0.79296817,5.10322180
48485,0,USTexasWichita,Texas,Wichita,2020-07-17 22:43:37.529821,2020-06-30 00:00:00.000000,0.50726005,1.39233954,79.64322696,670,1841,105312,258,865,24005,0.19584508,0.65428925,18.15470949,0.56353659,0.78044611,5.10274980
48485,0,USTexasWichita,Texas,Wichita,2020-07-17 22:43:37.529821,2020-07-01 00:00:00.000000,0.52171891,1.46297094,78.32370571,689,1934,103567,255,908,23583,0.19304693,0.68700221,17.83501442,0.54913073,0.76835816,5.10950300
48485,0,USTexasWichita,Texas,Wichita,2020-07-17 22:43:37.529821,2020-07-02 00:00:00.000000,0.52716092,1.53749820,76.91044733,697,2033,101698,262,954,23042,0.19860778,0.72169354,17.42610785,0.53810967,0.76171164,5.13706751
48485,0,USTexasWichita,Texas,Wichita,2020-07-17 22:43:37.529821,2020-07-03 00:00:00.000000,0.50751028,1.61622074,75.43775355,671,2137,99751,271,985,22347,0.20495751,0.74544930,16.90014175,0.53266492,0.74833681,5.25578520
48485,0,USTexasWichita,Texas,Wichita,2020-07-17 22:43:37.529821,2020-07-04 00:00:00.000000,0.49355812,1.59972510,73.93092139,652,2115,97758,266,975,21760,0.20122081,0.73803096,16.45652798,0.51806691,0.75445477,5.53442969
48485,0,USTexasWichita,Texas,Wichita,2020-07-17 22:43:37.529821,2020-07-05 00:00:00.000000,0.49130555,1.57684549,72.40812470,649,2085,95745,264,971,21386,0.19982924,0.73455018,16.17372230,0.51213801,0.76302151,5.70962731
48485,0,USTexasWichita,Texas,Wichita,2020-07-17 22:43:37.529821,2020-07-06 00:00:00.000000,0.49803928,1.55132023,70.88210911,658,2051,93727,264,963,21600,0.20019414,0.72894934,16.33577747,0.51699613,0.77213031,5.78313925
48485,0,USTexasWichita,Texas,Wichita,2020-07-17 22:43:37.529821,2020-07-07 00:00:00.000000,0.50609315,1.52357961,69.36175496,669,2014,91717,264,974,21853,0.20039887,0.73700648,16.52720098,0.51533889,0.77848233,5.99642277
48485,0,USTexasWichita,Texas,Wichita,2020-07-17 22:43:37.529821,2020-07-08 00:00:00.000000,0.51469297,1.49417426,67.85334430,680,1975,89722,265,997,22165,0.20071191,0.75447072,16.76301103,0.51462464,0.78177765,6.12572042
48485,0,USTexasWichita,Texas,Wichita,2020-07-17 22:43:37.529821,2020-07-09 00:00:00.000000,0.51663661,1.47112201,66.36142723,683,1945,87749,265,1025,22663,0.20088530,0.77585215,17.13915653,0.51270299,0.78322753,6.14897112
48485,0,USTexasWichita,Texas,Wichita,2020-07-17 22:43:37.529821,2020-07-10 00:00:00.000000,0.49664730,1.50185249,64.88937943,656,1985,85803,266,1063,23034,0.20140960,0.80405725,17.41972696,0.51236767,0.78381882,6.15632751
48485,0,USTexasWichita,Texas,Wichita,2020-07-17 22:43:37.529821,2020-07-11 00:00:00.000000,0.47746324,1.53469682,63.31224694,631,2029,83717,268,1101,23324,0.20280611,0.83276318,17.63957516,0.51233470,0.78405244,6.15854981
48485,0,USTexasWichita,Texas,Wichita,2020-07-17 22:43:37.529821,2020-07-12 00:00:00.000000,0.45905753,1.58747172,61.75978782,607,2099,81664,269,1139,23305,0.20415428,0.86191163,17.62486152,0.51232619,0.78414358,6.15921074
48485,0,USTexasWichita,Texas,Wichita,2020-07-17 22:43:37.529821,2020-07-13 00:00:00.000000,0.44156318,1.64090176,60.23459011,583,2169,79648,269,1178,23402,0.20352799,0.89146391,17.69829768,0.51232186,0.78417897,6.15940598
48485,0,USTexasWichita,Texas,Wichita,2020-07-17 22:43:37.529821,2020-07-14 00:00:00.000000,0.43460848,1.69490085,58.73849777,574,2241,77669,265,1218,23471,0.20086414,0.92137675,17.75025309,0.51231932,0.78419268,6.15946333
48485,0,USTexasWichita,Texas,Wichita,2020-07-17 22:43:37.529821,2020-07-15 00:00:00.000000,0.43140909,1.74937279,57.27294070,570,2313,75732,265,1258,23482,0.20065052,0.95160107,17.75912199,0.51231779,0.78419799,6.15948004
48485,0,USTexasWichita,Texas,Wichita,2020-07-17 22:43:37.529821,2020-07-16 00:00:00.000000,0.42810998,1.80421160,55.83900605,566,2385,73835,264,1298,23490,0.20036876,0.98208223,17.76497142,0.51231687,0.78420004,6.15948484
48485,0,USTexasWichita,Texas,Wichita,2020-07-17 22:43:37.529821,2020-07-17 00:00:00.000000,0.42594085,1.85930180,54.43749252,563,2458,71982,264,1339,23649,0.20001812,1.01276011,17.88483958,0.51231630,0.78420084,6.15948618
48485,0,USTexasWichita,Texas,Wichita,2020-07-17 22:43:37.529821,2020-07-18 00:00:00.000000,0.42398770,1.91451880,53.06895342,560,2531,70173,263,1379,23975,0.19959955,1.04356939,18.13179432,0.51231596,0.78420114,6.15948654
48485,0,USTexasWichita,Texas,Wichita,2020-07-17 22:43:37.529821,2020-07-19 00:00:00.000000,0.41890796,1.96972921,51.73373237,553,2604,68407,263,1420,24186,0.19911328,1.07443964,18.29094970,0.51231575,0.78420126,6.15948663
48485,0,USTexasWichita,Texas,Wichita,2020-07-17 22:43:37.529821,2020-07-20 00:00:00.000000,0.40933764,2.02479132,50.43199334,541,2677,66686,260,1461,24384,0.19715435,1.10529562,18.44123127,0.51231563,0.78420131,6.15948664
48485,0,USTexasWichita,Texas,Wichita,2020-07-17 22:43:37.529821,2020-07-21 00:00:00.000000,0.40235569,2.07955552,49.16374654,532,2749,65009,255,1502,24433,0.19323217,1.13605742,18.47776633,0.51231555,0.78420133,6.15948664
48485,0,USTexasWichita,Texas,Wichita,2020-07-17 22:43:37.529821,2020-07-22 00:00:00.000000,0.39544808,2.13386489,47.92887079,522,2821,63376,250,1542,24368,0.18936265,1.16664078,18.42903457,0.51231550,0.78420133,6.15948663
48485,0,USTexasWichita,Texas,Wichita,2020-07-17 22:43:37.529821,2020-07-23 00:00:00.000000,0.38786777,2.18755587,46.72713311,512,2892,61787,242,1582,24298,0.18352081,1.19695743,18.37600158,0.51231547,0.78420134,6.15948663
48485,0,USTexasWichita,Texas,Wichita,2020-07-17 22:43:37.529821,2020-07-24 00:00:00.000000,0.37694495,2.24045895,45.55820574,498,2962,60241,239,1622,24205,0.18081515,1.22691539,18.30577051,0.51231546,0.78420134,6.15948663
48485,0,USTexasWichita,Texas,Wichita,2020-07-17 22:43:37.529821,2020-07-25 00:00:00.000000,0.36625908,2.29239960,44.42168115,484,3031,58738,237,1661,24274,0.17987454,1.25641947,18.35769117,0.51231545,0.78420134,6.15948663
48485,0,USTexasWichita,Texas,Wichita,2020-07-17 22:43:37.529821,2020-07-26 00:00:00.000000,0.35405651,2.34319916,43.31708506,468,3098,57278,236,1699,24344,0.17892897,1.28537171,18.41035217,0.51231544,0.78420134,6.15948663
48485,0,USTexasWichita,Texas,Wichita,2020-07-17 22:43:37.529821,2020-07-27 00:00:00.000000,0.33997166,2.39267591,42.24388798,449,3163,55859,235,1737,24407,0.17797803,1.31367194,18.45815372,0.51231544,0.78420134,6.15948663
48485,0,USTexasWichita,Texas,Wichita,2020-07-17 22:43:37.529821,2020-07-28 00:00:00.000000,0.33432707,2.44064624,41.20151516,442,3227,54480,232,1773,24464,0.17615489,1.34121835,18.50140699,0.51231543,0.78420134,6.15948663
48485,0,USTexasWichita,Texas,Wichita,2020-07-17 22:43:37.529821,2020-07-29 00:00:00.000000,0.32586443,2.48692584,40.26976150,430,3288,53248,230,1808,24515,0.17410528,1.36790817,18.54040098,0.51231543,0.78420134,6.15948663
