FIPS,HR_UID,nameid,province,region,analysisTime,dates,pointprevalence_025,pointprevalence_50,pointprevalence_975,pointinfections_025,pointinfections_50,pointinfections_975,pointinfectious_025,pointinfectious_50,pointinfectious_975,pointinfectiousprevalence_05,pointinfectiousprevalence_50,pointinfectiousprevalence_95,infectrate_025,infectrate_50,infectrate_975
20197,0,USKansasWabaunsee,Kansas,Wabaunsee,2020-07-18 14:43:03.273993,2020-03-09 00:00:00.000000,0.02711206,0.11893164,0.42683263,1,8,29,0,1,8,0.00000000,0.02056909,0.11690000,0.50029356,0.74743456,0.98689686
20197,0,USKansasWabaunsee,Kansas,Wabaunsee,2020-07-18 14:43:03.273993,2020-03-10 00:00:00.000000,0.02642256,0.12097812,0.37992243,1,8,26,0,1,7,0.00483209,0.02488376,0.11241779,0.50029373,0.74743456,0.98689748
20197,0,USKansasWabaunsee,Kansas,Wabaunsee,2020-07-18 14:43:03.273993,2020-03-11 00:00:00.000000,0.02208150,0.09790443,0.38372990,1,6,26,0,0,3,0.00000000,0.01228991,0.05183108,0.50029434,0.74743456,0.98689838
20197,0,USKansasWabaunsee,Kansas,Wabaunsee,2020-07-18 14:43:03.273993,2020-03-12 00:00:00.000000,0.02736656,0.08532866,0.38580445,1,5,26,0,1,4,0.00416550,0.01674282,0.06049246,0.50029657,0.74743456,0.98689952
20197,0,USKansasWabaunsee,Kansas,Wabaunsee,2020-07-18 14:43:03.273993,2020-03-13 00:00:00.000000,0.01213647,0.07450818,0.38798083,0,5,26,0,0,2,0.00000000,0.01092256,0.03231926,0.50030468,0.74766872,0.98690047
20197,0,USKansasWabaunsee,Kansas,Wabaunsee,2020-07-18 14:43:03.273993,2020-03-14 00:00:00.000000,0.02596792,0.07236102,0.38998835,1,5,27,0,0,2,0.00398084,0.01156508,0.03291891,0.50033420,0.75208177,0.98689964
20197,0,USKansasWabaunsee,Kansas,Wabaunsee,2020-07-18 14:43:03.273993,2020-03-15 00:00:00.000000,0.00470721,0.06065585,0.39192194,0,4,27,0,0,1,0.00000000,0.00964065,0.02319803,0.50044162,0.76491294,0.98689240
20197,0,USKansasWabaunsee,Kansas,Wabaunsee,2020-07-18 14:43:03.273993,2020-03-16 00:00:00.000000,0.01537313,0.05363672,0.39379552,1,3,27,0,0,1,0.00379048,0.01011594,0.02137182,0.50083154,0.77601496,0.98686633
20197,0,USKansasWabaunsee,Kansas,Wabaunsee,2020-07-18 14:43:03.273993,2020-03-17 00:00:00.000000,0.00162376,0.05208087,0.39562794,0,3,27,0,0,1,0.00000000,0.00794846,0.02056177,0.50223530,0.77550608,0.98678972
20197,0,USKansasWabaunsee,Kansas,Wabaunsee,2020-07-18 14:43:03.273993,2020-03-18 00:00:00.000000,0.00768328,0.05071454,0.39743163,0,3,27,0,0,1,0.00227325,0.00829135,0.02001386,0.50714222,0.77858402,0.99683691
20197,0,USKansasWabaunsee,Kansas,Wabaunsee,2020-07-18 14:43:03.273993,2020-03-19 00:00:00.000000,0.00044699,0.04698295,0.39922461,0,3,27,0,0,1,0.00000000,0.00573455,0.01965106,0.51901691,0.77528823,1.05133678
20197,0,USKansasWabaunsee,Kansas,Wabaunsee,2020-07-18 14:43:03.273993,2020-03-20 00:00:00.000000,0.00379414,0.04121442,0.40103885,0,2,27,0,0,1,0.00116621,0.00664288,0.01941910,0.47823080,0.78078040,1.05315901
20197,0,USKansasWabaunsee,Kansas,Wabaunsee,2020-07-18 14:43:03.273993,2020-03-21 00:00:00.000000,0.00000000,0.03571176,0.40288755,0,2,27,0,0,1,0.00000000,0.00505428,0.01928048,0.43684359,0.80755372,1.05628133
20197,0,USKansasWabaunsee,Kansas,Wabaunsee,2020-07-18 14:43:03.273993,2020-03-22 00:00:00.000000,0.00200219,0.03522238,0.40543475,0,2,28,0,0,1,0.00062332,0.00495019,0.01921189,0.41828938,0.81361949,1.07432183
20197,0,USKansasWabaunsee,Kansas,Wabaunsee,2020-07-18 14:43:03.273993,2020-03-23 00:00:00.000000,0.00000000,0.03391563,0.40892199,0,2,28,0,0,1,0.00000000,0.00492531,0.01920373,0.41024834,0.82055104,1.08846669
20197,0,USKansasWabaunsee,Kansas,Wabaunsee,2020-07-18 14:43:03.273993,2020-03-24 00:00:00.000000,0.00107044,0.03352234,0.41283036,0,2,28,0,0,1,0.00034262,0.00494800,0.01924955,0.40555961,0.82365844,1.09745015
20197,0,USKansasWabaunsee,Kansas,Wabaunsee,2020-07-18 14:43:03.273993,2020-03-25 00:00:00.000000,0.00000000,0.03281726,0.41670567,0,2,28,0,0,1,0.00000000,0.00478391,0.01933680,0.40153431,0.81414080,1.10039631
20197,0,USKansasWabaunsee,Kansas,Wabaunsee,2020-07-18 14:43:03.273993,2020-03-26 00:00:00.000000,0.00060990,0.03225944,0.42043400,0,2,29,0,0,1,0.00018940,0.00484376,0.01945248,0.39738425,0.81414850,1.10314859
20197,0,USKansasWabaunsee,Kansas,Wabaunsee,2020-07-18 14:43:03.273993,2020-03-27 00:00:00.000000,0.00000000,0.03038610,0.42397851,0,2,29,0,0,1,0.00000000,0.00432328,0.01958612,0.39304552,0.80965529,1.11957162
20197,0,USKansasWabaunsee,Kansas,Wabaunsee,2020-07-18 14:43:03.273993,2020-03-28 00:00:00.000000,0.00035501,0.03057133,0.42733879,0,2,29,0,0,1,0.00010443,0.00447772,0.01972987,0.38871935,0.80742428,1.13280794
20197,0,USKansasWabaunsee,Kansas,Wabaunsee,2020-07-18 14:43:03.273993,2020-03-29 00:00:00.000000,0.00000000,0.03070109,0.43054483,0,2,29,0,0,1,0.00000000,0.00406062,0.01987821,0.38464263,0.80564906,1.13707387
20197,0,USKansasWabaunsee,Kansas,Wabaunsee,2020-07-18 14:43:03.273993,2020-03-30 00:00:00.000000,0.00020708,0.03172391,0.43366078,0,2,30,0,0,1,0.00005717,0.00413241,0.02002771,0.38093751,0.80246298,1.17425128
20197,0,USKansasWabaunsee,Kansas,Wabaunsee,2020-07-18 14:43:03.273993,2020-03-31 00:00:00.000000,0.00000000,0.03281629,0.43680388,0,2,30,0,0,1,0.00000000,0.00385728,0.02017687,0.37751394,0.82857226,1.21016160
20197,0,USKansasWabaunsee,Kansas,Wabaunsee,2020-07-18 14:43:03.273993,2020-04-01 00:00:00.000000,0.00011611,0.03391973,0.44018472,0,2,30,0,0,1,0.00003141,0.00429556,0.02032638,0.37402461,0.82271340,1.21981991
20197,0,USKansasWabaunsee,Kansas,Wabaunsee,2020-07-18 14:43:03.273993,2020-04-02 00:00:00.000000,0.00000000,0.03489229,0.44411439,0,2,30,0,0,1,0.00000000,0.00375402,0.02047984,0.37023646,0.80673768,1.22175278
20197,0,USKansasWabaunsee,Kansas,Wabaunsee,2020-07-18 14:43:03.273993,2020-04-03 00:00:00.000000,0.00006454,0.03543597,0.44882744,0,2,31,0,0,1,0.00001737,0.00442247,0.02064433,0.36523655,0.80416491,1.21577416
20197,0,USKansasWabaunsee,Kansas,Wabaunsee,2020-07-18 14:43:03.273993,2020-04-04 00:00:00.000000,0.00000000,0.03576225,0.45424444,0,2,31,0,0,1,0.00000000,0.00369885,0.02082795,0.35992758,0.80094534,1.13652423
20197,0,USKansasWabaunsee,Kansas,Wabaunsee,2020-07-18 14:43:03.273993,2020-04-05 00:00:00.000000,0.00003518,0.03605089,0.46009687,0,2,31,0,0,1,0.00001033,0.00433997,0.02103471,0.35543230,0.83607700,1.14236956
20197,0,USKansasWabaunsee,Kansas,Wabaunsee,2020-07-18 14:43:03.273993,2020-04-06 00:00:00.000000,0.00000000,0.03633551,0.46616815,0,2,32,0,0,1,0.00000000,0.00372979,0.02126338,0.35260093,0.83641071,1.15624468
20197,0,USKansasWabaunsee,Kansas,Wabaunsee,2020-07-18 14:43:03.273993,2020-04-07 00:00:00.000000,0.00002200,0.03660470,0.47233492,0,2,32,0,0,1,0.00000633,0.00407225,0.02146938,0.35102659,0.84046239,1.16192590
20197,0,USKansasWabaunsee,Kansas,Wabaunsee,2020-07-18 14:43:03.273993,2020-04-08 00:00:00.000000,0.00000000,0.03605467,0.47851633,0,2,33,0,0,1,0.00000000,0.00372597,0.02169015,0.35025529,0.85079698,1.17490442
20197,0,USKansasWabaunsee,Kansas,Wabaunsee,2020-07-18 14:43:03.273993,2020-04-09 00:00:00.000000,0.00001373,0.03624194,0.48462807,0,2,33,0,0,1,0.00000396,0.00405263,0.02195792,0.35008732,0.85438418,1.16660076
20197,0,USKansasWabaunsee,Kansas,Wabaunsee,2020-07-18 14:43:03.273993,2020-04-10 00:00:00.000000,0.00000000,0.03582522,0.49056054,0,2,34,0,0,1,0.00000000,0.00368352,0.02223162,0.35111342,0.83710752,1.20532727
20197,0,USKansasWabaunsee,Kansas,Wabaunsee,2020-07-18 14:43:03.273993,2020-04-11 00:00:00.000000,0.00000841,0.03468852,0.49619436,0,2,34,0,0,1,0.00000245,0.00383675,0.02250687,0.35695559,0.83806528,1.24379635
20197,0,USKansasWabaunsee,Kansas,Wabaunsee,2020-07-18 14:43:03.273993,2020-04-12 00:00:00.000000,0.00000000,0.03359697,0.50145742,0,2,34,0,0,1,0.00000000,0.00363451,0.02277889,0.38112100,0.80679329,1.30822181
20197,0,USKansasWabaunsee,Kansas,Wabaunsee,2020-07-18 14:43:03.273993,2020-04-13 00:00:00.000000,0.00000512,0.03252429,0.50636921,0,2,35,0,0,1,0.00000151,0.00371773,0.02304341,0.37542597,0.78030566,1.35791349
20197,0,USKansasWabaunsee,Kansas,Wabaunsee,2020-07-18 14:43:03.273993,2020-04-14 00:00:00.000000,0.00000000,0.03147834,0.51098636,0,2,35,0,0,1,0.00000000,0.00362993,0.02329780,0.36711362,0.83360112,1.38046109
20197,0,USKansasWabaunsee,Kansas,Wabaunsee,2020-07-18 14:43:03.273993,2020-04-15 00:00:00.000000,0.00000311,0.03060028,0.51513000,0,2,35,0,0,1,0.00000093,0.00374948,0.02354103,0.36656105,0.82138652,1.38958263
20197,0,USKansasWabaunsee,Kansas,Wabaunsee,2020-07-18 14:43:03.273993,2020-04-16 00:00:00.000000,0.00000000,0.03093233,0.51817469,0,2,35,0,0,1,0.00000000,0.00362081,0.02376950,0.37380344,0.83739934,1.39296737
20197,0,USKansasWabaunsee,Kansas,Wabaunsee,2020-07-18 14:43:03.273993,2020-04-17 00:00:00.000000,0.00000186,0.03125678,0.52057467,0,2,36,0,0,1,0.00000055,0.00378656,0.02397130,0.37832975,0.79140537,1.40410202
20197,0,USKansasWabaunsee,Kansas,Wabaunsee,2020-07-18 14:43:03.273993,2020-04-18 00:00:00.000000,0.00000000,0.03157086,0.52285684,0,2,36,0,0,1,0.00000000,0.00360801,0.02414624,0.38428409,0.78963712,1.46864995
20197,0,USKansasWabaunsee,Kansas,Wabaunsee,2020-07-18 14:43:03.273993,2020-04-19 00:00:00.000000,0.00000108,0.03187215,0.52512409,0,2,36,0,0,1,0.00000032,0.00376367,0.02430133,0.37761546,0.78709279,1.45994149
20197,0,USKansasWabaunsee,Kansas,Wabaunsee,2020-07-18 14:43:03.273993,2020-04-20 00:00:00.000000,0.00000000,0.03215889,0.52739270,0,2,36,0,0,1,0.00000000,0.00359064,0.02444225,0.36293342,0.78622273,1.45192679
20197,0,USKansasWabaunsee,Kansas,Wabaunsee,2020-07-18 14:43:03.273993,2020-04-21 00:00:00.000000,0.00000061,0.03333300,0.52966411,0,2,36,0,0,1,0.00000018,0.00361702,0.02457321,0.34742770,0.78186107,1.44522670
20197,0,USKansasWabaunsee,Kansas,Wabaunsee,2020-07-18 14:43:03.273993,2020-04-22 00:00:00.000000,0.00000000,0.03268258,0.53193381,0,2,36,0,0,1,0.00000000,0.00352105,0.02469718,0.32901308,0.77693983,1.43714606
20197,0,USKansasWabaunsee,Kansas,Wabaunsee,2020-07-18 14:43:03.273993,2020-04-23 00:00:00.000000,0.00000032,0.03455285,0.53418832,0,2,37,0,0,1,0.00000010,0.00346175,0.02481619,0.31653960,0.77499191,1.43495625
20197,0,USKansasWabaunsee,Kansas,Wabaunsee,2020-07-18 14:43:03.273993,2020-04-24 00:00:00.000000,0.00000000,0.03305387,0.53639557,0,2,37,0,0,1,0.00000000,0.00323570,0.02493146,0.30877087,0.77054887,1.43071908
20197,0,USKansasWabaunsee,Kansas,Wabaunsee,2020-07-18 14:43:03.273993,2020-04-25 00:00:00.000000,0.00000017,0.03456911,0.53848832,0,2,37,0,0,1,0.00000005,0.00330856,0.02504339,0.30445775,0.72853243,1.44283085
20197,0,USKansasWabaunsee,Kansas,Wabaunsee,2020-07-18 14:43:03.273993,2020-04-26 00:00:00.000000,0.00000000,0.03297516,0.54035425,0,2,37,0,0,1,0.00000000,0.00304555,0.02515126,0.30363140,0.71415230,1.42268961
20197,0,USKansasWabaunsee,Kansas,Wabaunsee,2020-07-18 14:43:03.273993,2020-04-27 00:00:00.000000,0.00000009,0.03282935,0.54187899,0,2,37,0,0,1,0.00000003,0.00302662,0.02525296,0.31289368,0.71406455,1.44368615
20197,0,USKansasWabaunsee,Kansas,Wabaunsee,2020-07-18 14:43:03.273993,2020-04-28 00:00:00.000000,0.00000000,0.03167082,0.54304539,0,2,37,0,0,1,0.00000000,0.00286317,0.02534542,0.33551354,0.68749799,1.43618355
20197,0,USKansasWabaunsee,Kansas,Wabaunsee,2020-07-18 14:43:03.273993,2020-04-29 00:00:00.000000,0.00000005,0.03222471,0.54394494,0,2,37,0,0,1,0.00000001,0.00298657,0.02542637,0.34078711,0.69268463,1.42383838
20197,0,USKansasWabaunsee,Kansas,Wabaunsee,2020-07-18 14:43:03.273993,2020-04-30 00:00:00.000000,0.00000000,0.02992581,0.54466470,0,2,37,0,0,1,0.00000000,0.00255684,0.02549565,0.34847211,0.68218573,1.40511726
20197,0,USKansasWabaunsee,Kansas,Wabaunsee,2020-07-18 14:43:03.273993,2020-05-01 00:00:00.000000,0.00000002,0.03000579,0.54520834,0,2,37,0,0,1,0.00000001,0.00289411,0.02555432,0.36114972,0.66112495,1.38973178
20197,0,USKansasWabaunsee,Kansas,Wabaunsee,2020-07-18 14:43:03.273993,2020-05-02 00:00:00.000000,0.00000000,0.02821213,0.54560140,0,1,37,0,0,1,0.00000000,0.00242324,0.02560304,0.37126891,0.63776389,1.36818822
20197,0,USKansasWabaunsee,Kansas,Wabaunsee,2020-07-18 14:43:03.273993,2020-05-03 00:00:00.000000,0.00000001,0.02851202,0.54592965,0,1,37,0,0,1,0.00000000,0.00277310,0.02564267,0.35834339,0.63319361,1.34585839
20197,0,USKansasWabaunsee,Kansas,Wabaunsee,2020-07-18 14:43:03.273993,2020-05-04 00:00:00.000000,0.00000000,0.02658290,0.54623727,0,1,37,0,0,1,0.00000000,0.00235962,0.02567511,0.35463242,0.60569833,1.32378601
20197,0,USKansasWabaunsee,Kansas,Wabaunsee,2020-07-18 14:43:03.273993,2020-05-05 00:00:00.000000,0.00000001,0.02759497,0.54653588,0,1,37,0,0,1,0.00000000,0.00266055,0.02570224,0.36280667,0.60390943,1.30151659
20197,0,USKansasWabaunsee,Kansas,Wabaunsee,2020-07-18 14:43:03.273993,2020-05-06 00:00:00.000000,0.00000000,0.02506049,0.54682478,0,1,37,0,0,1,0.00000000,0.00229108,0.02572552,0.37368199,0.60448165,1.27610668
20197,0,USKansasWabaunsee,Kansas,Wabaunsee,2020-07-18 14:43:03.273993,2020-05-07 00:00:00.000000,0.00000000,0.02695443,0.54709631,0,1,37,0,0,1,0.00000000,0.00255445,0.02574596,0.38450737,0.60687603,1.24713665
20197,0,USKansasWabaunsee,Kansas,Wabaunsee,2020-07-18 14:43:03.273993,2020-05-08 00:00:00.000000,0.00000000,0.02364506,0.54733931,0,1,37,0,0,1,0.00000000,0.00222356,0.02576413,0.40127330,0.61171903,1.22388462
20197,0,USKansasWabaunsee,Kansas,Wabaunsee,2020-07-18 14:43:03.273993,2020-05-09 00:00:00.000000,0.00000000,0.02634411,0.54754965,0,1,37,0,0,1,0.00000000,0.00245332,0.02578031,0.40765393,0.61866549,1.21085535
20197,0,USKansasWabaunsee,Kansas,Wabaunsee,2020-07-18 14:43:03.273993,2020-05-10 00:00:00.000000,0.00000000,0.02233063,0.54773606,0,1,37,0,0,1,0.00000000,0.00215859,0.02579462,0.41674989,0.62528187,1.20039764
20197,0,USKansasWabaunsee,Kansas,Wabaunsee,2020-07-18 14:43:03.273993,2020-05-11 00:00:00.000000,0.00000000,0.02442701,0.54791085,0,1,37,0,0,1,0.00000000,0.00235728,0.02580731,0.36871062,0.64588514,1.19938202
20197,0,USKansasWabaunsee,Kansas,Wabaunsee,2020-07-18 14:43:03.273993,2020-05-12 00:00:00.000000,0.00000000,0.02110513,0.54808362,0,1,37,0,0,1,0.00000000,0.00209797,0.02581870,0.36146561,0.63741468,1.19461998
20197,0,USKansasWabaunsee,Kansas,Wabaunsee,2020-07-18 14:43:03.273993,2020-05-13 00:00:00.000000,0.00000000,0.02266768,0.54826440,0,1,38,0,0,1,0.00000000,0.00226971,0.02582916,0.36137384,0.65726179,1.18544493
20197,0,USKansasWabaunsee,Kansas,Wabaunsee,2020-07-18 14:43:03.273993,2020-05-14 00:00:00.000000,0.00000000,0.01995338,0.54847126,0,1,38,0,0,1,0.00000000,0.00204113,0.02583908,0.37301533,0.66615916,1.16199809
20197,0,USKansasWabaunsee,Kansas,Wabaunsee,2020-07-18 14:43:03.273993,2020-05-15 00:00:00.000000,0.00000000,0.02103734,0.54873903,0,1,38,0,0,1,0.00000000,0.00215186,0.02584902,0.39020945,0.67963996,1.11404170
20197,0,USKansasWabaunsee,Kansas,Wabaunsee,2020-07-18 14:43:03.273993,2020-05-16 00:00:00.000000,0.00000000,0.01884083,0.54911250,0,1,38,0,0,1,0.00000000,0.00200485,0.02585986,0.40196545,0.70232951,1.06255519
20197,0,USKansasWabaunsee,Kansas,Wabaunsee,2020-07-18 14:43:03.273993,2020-05-17 00:00:00.000000,0.00000000,0.01948489,0.54960537,0,1,38,0,0,1,0.00000000,0.00200342,0.02587286,0.40652494,0.70479305,1.05900791
20197,0,USKansasWabaunsee,Kansas,Wabaunsee,2020-07-18 14:43:03.273993,2020-05-18 00:00:00.000000,0.00000000,0.01773082,0.55018280,0,1,38,0,0,1,0.00000000,0.00193529,0.02588907,0.40760819,0.72161675,1.04698618
20197,0,USKansasWabaunsee,Kansas,Wabaunsee,2020-07-18 14:43:03.273993,2020-05-19 00:00:00.000000,0.00000000,0.01801869,0.55080252,0,1,38,0,0,1,0.00000000,0.00197892,0.02590864,0.40502315,0.70965111,1.00486222
20197,0,USKansasWabaunsee,Kansas,Wabaunsee,2020-07-18 14:43:03.273993,2020-05-20 00:00:00.000000,0.00000000,0.01666606,0.55143975,0,1,38,0,0,1,0.00000000,0.00188820,0.02593112,0.37559595,0.69957150,1.00406742
20197,0,USKansasWabaunsee,Kansas,Wabaunsee,2020-07-18 14:43:03.273993,2020-05-21 00:00:00.000000,0.00000000,0.01664710,0.55208351,0,1,38,0,0,1,0.00000000,0.00186589,0.02595585,0.36044799,0.70630136,1.03960842
20197,0,USKansasWabaunsee,Kansas,Wabaunsee,2020-07-18 14:43:03.273993,2020-05-22 00:00:00.000000,0.00000000,0.01597305,0.55272903,0,1,38,0,0,1,0.00000000,0.00179208,0.02598225,0.35470261,0.70171657,1.08435566
20197,0,USKansasWabaunsee,Kansas,Wabaunsee,2020-07-18 14:43:03.273993,2020-05-23 00:00:00.000000,0.00000000,0.01596344,0.55337328,0,1,38,0,0,1,0.00000000,0.00182263,0.02600985,0.35235687,0.68988998,1.10610199
20197,0,USKansasWabaunsee,Kansas,Wabaunsee,2020-07-18 14:43:03.273993,2020-05-24 00:00:00.000000,0.00000000,0.01468454,0.55401209,0,1,38,0,0,1,0.00000000,0.00164944,0.02603828,0.35130441,0.73876820,1.10373027
20197,0,USKansasWabaunsee,Kansas,Wabaunsee,2020-07-18 14:43:03.273993,2020-05-25 00:00:00.000000,0.00000000,0.01616869,0.55463948,0,1,38,0,0,1,0.00000000,0.00178068,0.02606720,0.34984108,0.73940214,1.11422923
20197,0,USKansasWabaunsee,Kansas,Wabaunsee,2020-07-18 14:43:03.273993,2020-05-26 00:00:00.000000,0.00000000,0.01375744,0.55527037,0,0,38,0,0,1,0.00000000,0.00150614,0.02609631,0.34819672,0.73886173,1.11765431
20197,0,USKansasWabaunsee,Kansas,Wabaunsee,2020-07-18 14:43:03.273993,2020-05-27 00:00:00.000000,0.00000000,0.01574177,0.55605842,0,1,38,0,0,1,0.00000000,0.00174099,0.02612563,0.34669645,0.74270965,1.12911824
20197,0,USKansasWabaunsee,Kansas,Wabaunsee,2020-07-18 14:43:03.273993,2020-05-28 00:00:00.000000,0.00000000,0.01288250,0.55706776,0,0,38,0,0,1,0.00000000,0.00146116,0.02615752,0.34006039,0.73927618,1.13380308
20197,0,USKansasWabaunsee,Kansas,Wabaunsee,2020-07-18 14:43:03.273993,2020-05-29 00:00:00.000000,0.00000000,0.01418591,0.55786551,0,0,38,0,0,1,0.00000000,0.00170485,0.02619436,0.33518764,0.73680144,1.13996418
20197,0,USKansasWabaunsee,Kansas,Wabaunsee,2020-07-18 14:43:03.273993,2020-05-30 00:00:00.000000,0.00000000,0.01206045,0.55834963,0,0,38,0,0,1,0.00000000,0.00147364,0.02623102,0.33330146,0.73977119,1.14351167
20197,0,USKansasWabaunsee,Kansas,Wabaunsee,2020-07-18 14:43:03.273993,2020-05-31 00:00:00.000000,0.00000000,0.01275829,0.55864561,0,0,38,0,0,1,0.00000000,0.00167039,0.02626317,0.33431141,0.72460515,1.12767718
20197,0,USKansasWabaunsee,Kansas,Wabaunsee,2020-07-18 14:43:03.273993,2020-06-01 00:00:00.000000,0.00000000,0.01129000,0.55885542,0,0,38,0,0,1,0.00000000,0.00148675,0.02628973,0.34405130,0.72352607,1.12213697
20197,0,USKansasWabaunsee,Kansas,Wabaunsee,2020-07-18 14:43:03.273993,2020-06-02 00:00:00.000000,0.00000000,0.01147580,0.55902353,0,0,38,0,0,1,0.00000000,0.00163894,0.02631129,0.35541735,0.72183780,1.14455817
20197,0,USKansasWabaunsee,Kansas,Wabaunsee,2020-07-18 14:43:03.273993,2020-06-03 00:00:00.000000,0.00000000,0.01056864,0.55915918,0,0,38,0,0,1,0.00000000,0.00149594,0.02632880,0.35491545,0.69275772,1.13325975
20197,0,USKansasWabaunsee,Kansas,Wabaunsee,2020-07-18 14:43:03.273993,2020-06-04 00:00:00.000000,0.00000000,0.01026991,0.55925019,0,0,38,0,0,1,0.00000000,0.00161037,0.02634300,0.35299433,0.67079852,1.18451791
20197,0,USKansasWabaunsee,Kansas,Wabaunsee,2020-07-18 14:43:03.273993,2020-06-05 00:00:00.000000,0.00000000,0.00965424,0.55926718,0,0,38,0,0,1,0.00000000,0.00149237,0.02635423,0.33913411,0.67326683,1.19681585
20197,0,USKansasWabaunsee,Kansas,Wabaunsee,2020-07-18 14:43:03.273993,2020-06-06 00:00:00.000000,0.00000000,0.00957069,0.55917102,0,0,38,0,0,1,0.00000000,0.00148054,0.02636230,0.33636250,0.64721541,1.19982218
20197,0,USKansasWabaunsee,Kansas,Wabaunsee,2020-07-18 14:43:03.273993,2020-06-07 00:00:00.000000,0.00000000,0.00895487,0.55893456,0,0,38,0,0,1,0.00000000,0.00145949,0.02636650,0.33236781,0.63112957,1.20464994
20197,0,USKansasWabaunsee,Kansas,Wabaunsee,2020-07-18 14:43:03.273993,2020-06-08 00:00:00.000000,0.00000000,0.00894841,0.55856582,0,0,38,0,0,1,0.00000000,0.00147732,0.02636599,0.31673349,0.62808776,1.20624806
20197,0,USKansasWabaunsee,Kansas,Wabaunsee,2020-07-18 14:43:03.273993,2020-06-09 00:00:00.000000,0.00000000,0.00864126,0.55810338,0,0,38,0,0,1,0.00000000,0.00139279,0.02637440,0.31456621,0.61592361,1.20652161
20197,0,USKansasWabaunsee,Kansas,Wabaunsee,2020-07-18 14:43:03.273993,2020-06-10 00:00:00.000000,0.00000000,0.00891009,0.55759252,0,0,38,0,0,1,0.00000000,0.00147622,0.02639363,0.31815491,0.61045113,1.20446323
20197,0,USKansasWabaunsee,Kansas,Wabaunsee,2020-07-18 14:43:03.273993,2020-06-11 00:00:00.000000,0.00000000,0.00804475,0.55707225,0,0,38,0,0,1,0.00000000,0.00131056,0.02641074,0.32334733,0.61768725,1.19362242
20197,0,USKansasWabaunsee,Kansas,Wabaunsee,2020-07-18 14:43:03.273993,2020-06-12 00:00:00.000000,0.00000000,0.00881926,0.55657696,0,0,38,0,0,1,0.00000000,0.00145407,0.02642684,0.31118389,0.60492391,1.18921073
20197,0,USKansasWabaunsee,Kansas,Wabaunsee,2020-07-18 14:43:03.273993,2020-06-13 00:00:00.000000,0.00000000,0.00748548,0.55614140,0,0,38,0,0,1,0.00000000,0.00122990,0.02644311,0.29521374,0.60443476,1.20654879
20197,0,USKansasWabaunsee,Kansas,Wabaunsee,2020-07-18 14:43:03.273993,2020-06-14 00:00:00.000000,0.00000000,0.00865893,0.55580171,0,0,38,0,0,1,0.00000000,0.00138843,0.02646081,0.28238646,0.60361263,1.26605248
20197,0,USKansasWabaunsee,Kansas,Wabaunsee,2020-07-18 14:43:03.273993,2020-06-15 00:00:00.000000,0.00000000,0.00696615,0.55559235,0,0,38,0,0,1,0.00000000,0.00115850,0.02645782,0.27548069,0.60252196,1.29442030
20197,0,USKansasWabaunsee,Kansas,Wabaunsee,2020-07-18 14:43:03.273993,2020-06-16 00:00:00.000000,0.00000000,0.00827836,0.55553566,0,0,38,0,0,1,0.00000000,0.00132349,0.02644310,0.27237839,0.60188456,1.30585236
20197,0,USKansasWabaunsee,Kansas,Wabaunsee,2020-07-18 14:43:03.273993,2020-06-17 00:00:00.000000,0.00000000,0.00648372,0.55562328,0,0,38,0,0,1,0.00000000,0.00109507,0.02643265,0.27113109,0.61005890,1.30745362
20197,0,USKansasWabaunsee,Kansas,Wabaunsee,2020-07-18 14:43:03.273993,2020-06-18 00:00:00.000000,0.00000000,0.00745168,0.55581865,0,0,38,0,0,1,0.00000000,0.00126073,0.02642728,0.27242072,0.61835010,1.30315603
20197,0,USKansasWabaunsee,Kansas,Wabaunsee,2020-07-18 14:43:03.273993,2020-06-19 00:00:00.000000,0.00000000,0.00603379,0.55607982,0,0,38,0,0,1,0.00000000,0.00103313,0.02642702,0.28950398,0.62339475,1.29500281
20197,0,USKansasWabaunsee,Kansas,Wabaunsee,2020-07-18 14:43:03.273993,2020-06-20 00:00:00.000000,0.00000000,0.00679710,0.55637379,0,0,38,0,0,1,0.00000000,0.00120069,0.02643125,0.29142368,0.62591275,1.28475272
20197,0,USKansasWabaunsee,Kansas,Wabaunsee,2020-07-18 14:43:03.273993,2020-06-21 00:00:00.000000,0.00000000,0.00561011,0.55667744,0,0,38,0,0,1,0.00000000,0.00097194,0.02643910,0.29076330,0.62667935,1.27430476
20197,0,USKansasWabaunsee,Kansas,Wabaunsee,2020-07-18 14:43:03.273993,2020-06-22 00:00:00.000000,0.00000000,0.00620711,0.55697315,0,0,38,0,0,1,0.00000000,0.00114441,0.02644961,0.28410703,0.62612791,1.26485519
20197,0,USKansasWabaunsee,Kansas,Wabaunsee,2020-07-18 14:43:03.273993,2020-06-23 00:00:00.000000,0.00000000,0.00520737,0.55724412,0,0,38,0,0,1,0.00000000,0.00091418,0.02646188,0.26855524,0.62433242,1.25687310
20197,0,USKansasWabaunsee,Kansas,Wabaunsee,2020-07-18 14:43:03.273993,2020-06-24 00:00:00.000000,0.00000000,0.00566963,0.55747072,0,0,38,0,0,1,0.00000000,0.00109418,0.02647504,0.25719362,0.62109009,1.23939255
20197,0,USKansasWabaunsee,Kansas,Wabaunsee,2020-07-18 14:43:03.273993,2020-06-25 00:00:00.000000,0.00000000,0.00482805,0.55762844,0,0,38,0,0,1,0.00000000,0.00086057,0.02648817,0.24698469,0.61604337,1.18211774
20197,0,USKansasWabaunsee,Kansas,Wabaunsee,2020-07-18 14:43:03.273993,2020-06-26 00:00:00.000000,0.00000000,0.00518807,0.55768870,0,0,38,0,0,1,0.00000000,0.00104801,0.02650031,0.23827066,0.60888905,1.10954787
20197,0,USKansasWabaunsee,Kansas,Wabaunsee,2020-07-18 14:43:03.273993,2020-06-27 00:00:00.000000,0.00000000,0.00447482,0.55762396,0,0,38,0,0,1,0.00000000,0.00081165,0.02651034,0.23680265,0.60085826,1.09158637
20197,0,USKansasWabaunsee,Kansas,Wabaunsee,2020-07-18 14:43:03.273993,2020-06-28 00:00:00.000000,0.00000000,0.00478734,0.55741675,0,0,38,0,0,1,0.00000000,0.00100382,0.02651710,0.23665145,0.61206918,1.09881811
20197,0,USKansasWabaunsee,Kansas,Wabaunsee,2020-07-18 14:43:03.273993,2020-06-29 00:00:00.000000,0.00000000,0.00414679,0.55706819,0,0,38,0,0,1,0.00000000,0.00076726,0.02651954,0.23189867,0.63417920,1.09740331
20197,0,USKansasWabaunsee,Kansas,Wabaunsee,2020-07-18 14:43:03.273993,2020-06-30 00:00:00.000000,0.00000000,0.00443628,0.55660001,0,0,38,0,0,1,0.00000000,0.00096104,0.02651696,0.23148308,0.63042861,1.09187257
20197,0,USKansasWabaunsee,Kansas,Wabaunsee,2020-07-18 14:43:03.273993,2020-07-01 00:00:00.000000,0.00000000,0.00384253,0.55604983,0,0,38,0,0,1,0.00000000,0.00072623,0.02650918,0.23132369,0.63618256,1.08415174
20197,0,USKansasWabaunsee,Kansas,Wabaunsee,2020-07-18 14:43:03.273993,2020-07-02 00:00:00.000000,0.00000000,0.00410509,0.55546331,0,0,38,0,0,1,0.00000000,0.00091937,0.02649662,0.23117086,0.63933187,1.08391854
20197,0,USKansasWabaunsee,Kansas,Wabaunsee,2020-07-18 14:43:03.273993,2020-07-03 00:00:00.000000,0.00000000,0.00356070,0.55488364,0,0,38,0,0,1,0.00000000,0.00068773,0.02648020,0.23150655,0.63652219,1.06904129
20197,0,USKansasWabaunsee,Kansas,Wabaunsee,2020-07-18 14:43:03.273993,2020-07-04 00:00:00.000000,0.00000000,0.00378655,0.55433658,0,0,38,0,0,1,0.00000000,0.00087776,0.02646117,0.23095817,0.63211594,1.06177659
20197,0,USKansasWabaunsee,Kansas,Wabaunsee,2020-07-18 14:43:03.273993,2020-07-05 00:00:00.000000,0.00000000,0.00330031,0.55382364,0,0,38,0,0,1,0.00000000,0.00065151,0.02644070,0.23136812,0.61557210,1.05674356
20197,0,USKansasWabaunsee,Kansas,Wabaunsee,2020-07-18 14:43:03.273993,2020-07-06 00:00:00.000000,0.00000000,0.00346735,0.55333321,0,0,38,0,0,1,0.00000000,0.00083442,0.02641963,0.23151946,0.60969818,1.05670405
20197,0,USKansasWabaunsee,Kansas,Wabaunsee,2020-07-18 14:43:03.273993,2020-07-07 00:00:00.000000,0.00000000,0.00305984,0.55285395,0,0,38,0,0,1,0.00000000,0.00061741,0.02639837,0.23119070,0.60520736,1.05726356
20197,0,USKansasWabaunsee,Kansas,Wabaunsee,2020-07-18 14:43:03.273993,2020-07-08 00:00:00.000000,0.00000000,0.00316043,0.55237917,0,0,38,0,0,1,0.00000000,0.00078873,0.02637710,0.22905438,0.60079503,1.05766851
20197,0,USKansasWabaunsee,Kansas,Wabaunsee,2020-07-18 14:43:03.273993,2020-07-09 00:00:00.000000,0.00000000,0.00283706,0.55190576,0,0,38,0,0,1,0.00000000,0.00058525,0.02635586,0.22850014,0.60333326,1.06494081
20197,0,USKansasWabaunsee,Kansas,Wabaunsee,2020-07-18 14:43:03.273993,2020-07-10 00:00:00.000000,0.00000000,0.00288079,0.55143247,0,0,38,0,0,1,0.00000000,0.00072210,0.02633464,0.22856179,0.60320879,1.06870700
20197,0,USKansasWabaunsee,Kansas,Wabaunsee,2020-07-18 14:43:03.273993,2020-07-11 00:00:00.000000,0.00000000,0.00263051,0.55095891,0,0,38,0,0,1,0.00000000,0.00055484,0.02631345,0.22859387,0.60366461,1.07045134
20197,0,USKansasWabaunsee,Kansas,Wabaunsee,2020-07-18 14:43:03.273993,2020-07-12 00:00:00.000000,0.00000000,0.00262785,0.55048499,0,0,38,0,0,1,0.00000000,0.00066079,0.02629225,0.22861468,0.60399507,1.07120548
20197,0,USKansasWabaunsee,Kansas,Wabaunsee,2020-07-18 14:43:03.273993,2020-07-13 00:00:00.000000,0.00000000,0.00243901,0.55094095,0,0,38,0,0,1,0.00000000,0.00052603,0.02627105,0.22862767,0.60417658,1.07152907
20197,0,USKansasWabaunsee,Kansas,Wabaunsee,2020-07-18 14:43:03.273993,2020-07-14 00:00:00.000000,0.00000000,0.00239857,0.55213021,0,0,38,0,0,1,0.00000000,0.00060450,0.02624985,0.22863563,0.60427564,1.07166746
20197,0,USKansasWabaunsee,Kansas,Wabaunsee,2020-07-18 14:43:03.273993,2020-07-15 00:00:00.000000,0.00000000,0.00226144,0.55341234,0,0,38,0,0,1,0.00000000,0.00049873,0.02622863,0.22864049,0.60432952,1.07172658
20197,0,USKansasWabaunsee,Kansas,Wabaunsee,2020-07-18 14:43:03.273993,2020-07-16 00:00:00.000000,0.00000000,0.00219027,0.55358032,0,0,38,0,0,1,0.00000000,0.00055288,0.02620740,0.22864344,0.60435876,1.07175181
20197,0,USKansasWabaunsee,Kansas,Wabaunsee,2020-07-18 14:43:03.273993,2020-07-17 00:00:00.000000,0.00000000,0.00209326,0.55312950,0,0,38,0,0,1,0.00000000,0.00047283,0.02618616,0.22864525,0.60437462,1.07176257
20197,0,USKansasWabaunsee,Kansas,Wabaunsee,2020-07-18 14:43:03.273993,2020-07-18 00:00:00.000000,0.00000000,0.00201904,0.55267843,0,0,38,0,0,1,0.00000000,0.00050559,0.02616490,0.22864634,0.60438321,1.07176717
20197,0,USKansasWabaunsee,Kansas,Wabaunsee,2020-07-18 14:43:03.273993,2020-07-19 00:00:00.000000,0.00000000,0.00194416,0.55222712,0,0,38,0,0,1,0.00000000,0.00044828,0.02614363,0.22864701,0.60438786,1.07176913
20197,0,USKansasWabaunsee,Kansas,Wabaunsee,2020-07-18 14:43:03.273993,2020-07-20 00:00:00.000000,0.00000000,0.00194802,0.55177557,0,0,38,0,0,1,0.00000000,0.00046230,0.02612235,0.22864742,0.60439039,1.07176996
20197,0,USKansasWabaunsee,Kansas,Wabaunsee,2020-07-18 14:43:03.273993,2020-07-21 00:00:00.000000,0.00000000,0.00182361,0.55132379,0,0,38,0,0,1,0.00000000,0.00042501,0.02610106,0.22864767,0.60439175,1.07177032
20197,0,USKansasWabaunsee,Kansas,Wabaunsee,2020-07-18 14:43:03.273993,2020-07-22 00:00:00.000000,0.00000000,0.00194591,0.55087179,0,0,38,0,0,1,0.00000000,0.00042268,0.02607976,0.22864782,0.60439249,1.07177047
20197,0,USKansasWabaunsee,Kansas,Wabaunsee,2020-07-18 14:43:03.273993,2020-07-23 00:00:00.000000,0.00000000,0.00172895,0.55041957,0,0,38,0,0,1,0.00000000,0.00040294,0.02605844,0.22864791,0.60439289,1.07177054
20197,0,USKansasWabaunsee,Kansas,Wabaunsee,2020-07-18 14:43:03.273993,2020-07-24 00:00:00.000000,0.00000000,0.00194381,0.54996712,0,0,38,0,0,1,0.00000000,0.00039233,0.02603712,0.22864797,0.60439311,1.07177057
20197,0,USKansasWabaunsee,Kansas,Wabaunsee,2020-07-18 14:43:03.273993,2020-07-25 00:00:00.000000,0.00000000,0.00163918,0.54951447,0,0,38,0,0,1,0.00000000,0.00036949,0.02601578,0.22864800,0.60439323,1.07177058
20197,0,USKansasWabaunsee,Kansas,Wabaunsee,2020-07-18 14:43:03.273993,2020-07-26 00:00:00.000000,0.00000000,0.00194171,0.54906159,0,0,38,0,0,1,0.00000000,0.00037196,0.02599443,0.22864802,0.60439329,1.07177058
20197,0,USKansasWabaunsee,Kansas,Wabaunsee,2020-07-18 14:43:03.273993,2020-07-27 00:00:00.000000,0.00000000,0.00155407,0.54860851,0,0,38,0,0,1,0.00000000,0.00033779,0.02597308,0.22864803,0.60439332,1.07177058
20197,0,USKansasWabaunsee,Kansas,Wabaunsee,2020-07-18 14:43:03.273993,2020-07-28 00:00:00.000000,0.00000000,0.00193961,0.54815521,0,0,37,0,0,1,0.00000000,0.00035264,0.02595171,0.22864804,0.60439334,1.07177059
20197,0,USKansasWabaunsee,Kansas,Wabaunsee,2020-07-18 14:43:03.273993,2020-07-29 00:00:00.000000,0.00000000,0.00147336,0.54770170,0,0,37,0,0,1,0.00000000,0.00030880,0.02593033,0.22864805,0.60439335,1.07177059
20197,0,USKansasWabaunsee,Kansas,Wabaunsee,2020-07-18 14:43:03.273993,2020-07-30 00:00:00.000000,0.00000000,0.00193751,0.54724799,0,0,37,0,0,1,0.00000000,0.00033433,0.02590894,0.22864805,0.60439336,1.07177059
